0	1	2	3	4	5	6	7	8	9	10
16.0	14.0				15.0		15.0			
21.0				21.0	11.0	22.0		11.0		13.0
4.0				17.0	0.0	0.0		49.0		
					40.0		38.0			52.0
8.0				8.0	1.0	0.0	8.0	8.0		8.0
0.0				0.0	9.0			11.0		10.0
34.0					38.0		38.0			
	11.0			13.0	20.0	12.0	20.0	21.0		
18.0				23.0	18.0	23.0		18.0		
16.0				18.0	25.0			25.0		
					0.0		0.0	0.0		
17.0	19.0			15.0	0.0			0.0		
				19.0	14.0	14.0	14.0			14.0
9.0	9.0			8.0	14.0		14.0	14.0		
21.0				21.0	11.0	22.0		11.0		13.0
				18.0	27.0	27.0	27.0			
18.0				11.0	18.0		18.0			18.0
9.0				8.0	7.0	8.0		7.0		7.0
48.0				41.0	50.0	41.0		52.0		
28.0	29.0			29.0	23.0					
31.0				14.0	28.0		29.0	29.0		
				15.0	7.0			11.0		
	18.0			32.0	17.0					
0.0				0.0	8.0	0.0	10.0	10.0		10.0
41.0				44.0	37.0			36.0		39.0
0.0				5.0	8.0	6.0		8.0		8.0
29.0				30.0	11.0		12.0			36.0
				11.0	14.0					
20.0				29.0	20.0	20.0	20.0	20.0		
	18.0			18.0	20.0	21.0	21.0			
31.0				14.0	28.0		29.0	29.0		
5.0				17.0	37.0		38.0			39.0
15.0					11.0	18.0	11.0			11.0
15.0					11.0	18.0	11.0			11.0
43.0				43.0	22.0	45.0	22.0	20.0		22.0
	21.0				24.0		24.0			
32.0				29.0	6.0	3.0	10.0			10.0
42.0					38.0					
	44.0			43.0	46.0			47.0		
35.0				26.0	47.0		48.0			45.0
				38.0	34.0			33.0		33.0
	39.0			43.0	22.0					
19.0				40.0	18.0	39.0	18.0	18.0		18.0
	29.0			18.0	30.0		30.0			30.0
21.0				20.0	20.0	20.0		21.0		
				15.0	26.0			24.0		24.0
				23.0	40.0	40.0	40.0			
31.0				29.0	26.0		27.0	27.0		
	5.0			6.0	10.0		9.0			
	39.0			43.0	22.0					
19.0				40.0	18.0	39.0	18.0	18.0		18.0
58.0	52.0			52.0	30.0			31.0		
47.0	47.0			47.0	21.0		22.0			22.0
	23.0			33.0	23.0		24.0			
	35.0			33.0	31.0			31.0		31.0
				25.0	26.0	25.0		26.0		
	20.0			24.0	19.0	24.0	19.0	18.0		
	32.0			31.0	22.0	28.0	21.0	22.0		23.0
14.0	30.0			12.0	28.0			29.0		30.0
	20.0			42.0	13.0	25.0				
				25.0	26.0	25.0		26.0		
				36.0	40.0			37.0		37.0
	18.0			17.0	46.0	16.0		45.0		
12.0				12.0	12.0			12.0		12.0
				67.0	22.0			22.0		
				19.0	67.0	18.0	62.0	61.0		
48.0				43.0	25.0	43.0	26.0	26.0		
18.0	28.0			27.0	17.0		16.0			17.0
0.0				0.0	9.0			9.0		9.0
	20.0			19.0	38.0	19.0		40.0		
41.0				24.0	41.0		41.0			
	20.0			19.0	38.0	19.0		40.0		
	40.0			38.0	14.0			14.0		
22.0	22.0			24.0	20.0			32.0		
12.0					13.0		13.0			13.0
31.0	31.0			35.0	25.0					30.0
31.0	31.0			35.0	25.0					30.0
				23.0	18.0	23.0		17.0		
				36.0	15.0	15.0	14.0			
37.0				39.0	41.0	44.0	38.0			
37.0				39.0	41.0	44.0	38.0			
29.0				29.0	35.0	27.0	39.0	39.0		39.0
				47.0	51.0			50.0		
	34.0			36.0	34.0		37.0			37.0
					41.0		41.0			
					0.0	5.0	27.0			30.0
	39.0			39.0	36.0		35.0			35.0
				15.0	9.0					
				7.0	6.0	18.0	18.0			
30.0				30.0	14.0			15.0		16.0
21.0				21.0	17.0	21.0		17.0		
				24.0	15.0		15.0			
				6.0	23.0		23.0			23.0
21.0				21.0	17.0	21.0		17.0		
				42.0	21.0		21.0			19.0
				7.0	28.0	7.0		30.0		
	8.0			8.0	2.0		5.0	5.0		9.0
44.0				18.0	40.0		39.0			37.0
	37.0			36.0	28.0	19.0	43.0			44.0
37.0				38.0	41.0		49.0			51.0
	25.0			25.0	23.0		23.0			23.0
8.0	8.0			8.0	18.0		18.0			18.0
				28.0	22.0	21.0		22.0		22.0
12.0				11.0	21.0		21.0			18.0
				44.0	25.0			24.0		25.0
				23.0	31.0		32.0			34.0
				14.0	17.0	14.0				17.0
7.0				23.0	6.0	7.0	7.0			
7.0				23.0	6.0	7.0	7.0			
33.0				29.0	24.0	25.0		26.0		25.0
17.0	14.0			14.0	14.0		14.0			
4.0				9.0	5.0		6.0			10.0
				31.0	52.0			56.0		
20.0				40.0	22.0		23.0	23.0		22.0
11.0	11.0			7.0	9.0		10.0			11.0
9.0	9.0			7.0	5.0					
	19.0			19.0	27.0	11.0		22.0		
39.0	39.0			34.0	15.0			16.0		
29.0				29.0	40.0			40.0		
	27.0			26.0	45.0			51.0		
	7.0			0.0	7.0					5.0
	36.0			38.0	29.0			30.0		
	45.0			47.0	20.0		18.0			
				34.0	41.0		44.0			42.0
6.0				9.0	9.0	4.0		12.0		
				3.0	31.0	31.0	31.0			32.0
22.0				22.0	25.0	21.0		26.0		26.0
					14.0	15.0	16.0			
18.0				18.0	20.0	24.0		18.0		18.0
23.0	23.0			19.0	39.0					
21.0				29.0	23.0		27.0			26.0
				15.0	6.0	6.0		5.0		5.0
	22.0			15.0	27.0	27.0	27.0			
39.0				26.0	37.0		39.0			
					26.0		27.0			
	15.0			15.0	13.0		13.0			13.0
10.0	10.0			10.0	15.0		15.0			16.0
8.0				22.0	20.0					
19.0				41.0	19.0		19.0	19.0		19.0
21.0				21.0	21.0			23.0		
9.0	9.0			9.0	14.0	14.0	14.0			
11.0				10.0	17.0			17.0		
26.0				29.0	24.0		22.0			
				27.0	16.0			16.0		
				18.0	12.0			12.0		12.0
60.0				55.0	50.0			48.0		42.0
				20.0	26.0	21.0				25.0
36.0				32.0	21.0		23.0			
	43.0				38.0		38.0			37.0
19.0				29.0	19.0		21.0			20.0
	38.0			31.0	28.0	31.0	28.0	28.0		
				15.0	22.0	22.0	23.0			22.0
35.0	40.0				10.0		10.0			
31.0				40.0	29.0	40.0	32.0	32.0		30.0
12.0					17.0		17.0			
				37.0	48.0			48.0		
17.0				17.0	5.0			5.0		
				36.0	10.0			9.0		8.0
	58.0			54.0	27.0		28.0	28.0		
21.0	34.0			33.0	34.0		34.0			34.0
44.0				43.0	30.0	31.0		33.0		35.0
				30.0	26.0			23.0		23.0
5.0				6.0	18.0	6.0		17.0		17.0
				32.0	11.0	13.0		16.0		15.0
15.0				15.0	34.0	15.0		33.0		33.0
24.0				23.0	19.0		19.0	19.0		17.0
				15.0	22.0		22.0			
				15.0	22.0		22.0			
28.0	26.0			28.0	26.0			26.0		26.0
				28.0	25.0	25.0	25.0			
				33.0	63.0			62.0		63.0
				9.0	3.0	0.0		6.0		
				33.0	63.0			62.0		63.0
22.0	22.0			21.0	12.0					
15.0	15.0			14.0	9.0			9.0		
8.0	7.0			8.0	0.0			0.0		
12.0				13.0	12.0					12.0
38.0				38.0	15.0			15.0		15.0
				19.0	21.0		21.0			
				6.0	4.0	0.0		9.0		9.0
19.0				17.0	27.0		27.0			17.0
	33.0			33.0	20.0		19.0			18.0
29.0				12.0	27.0			25.0		25.0
				7.0	16.0	7.0		17.0		17.0
11.0					14.0		17.0			17.0
14.0				13.0	19.0			21.0		14.0
26.0				25.0	0.0					
13.0	13.0			12.0	11.0		11.0	11.0		
13.0	13.0			12.0	11.0		11.0	11.0		
	28.0			28.0	32.0		32.0			34.0
				10.0	5.0	5.0	5.0	5.0		5.0
				15.0	29.0			30.0		
23.0					9.0		9.0	9.0		
26.0				25.0	0.0					
10.0				10.0	0.0		0.0			0.0
19.0	21.0			26.0	19.0		19.0			18.0
15.0				12.0	29.0		28.0	30.0		13.0
				15.0	29.0			30.0		
					42.0	42.0	43.0			
54.0				53.0	13.0	50.0	15.0	16.0		16.0
4.0					13.0		17.0			
					22.0		23.0			23.0
	7.0			7.0	17.0		20.0	18.0		20.0
0.0				40.0	0.0	0.0	0.0	0.0		
11.0				11.0	30.0			30.0		
	9.0			10.0	11.0	11.0	11.0			
	9.0			10.0	11.0	11.0	11.0			
10.0				23.0	23.0		23.0			26.0
16.0	15.0			16.0	10.0			10.0		
