0	1	2	3	4	5	6	7	8	9
			8.0		13.0	13.0			11.0
	13.0	13.0		8.0					
		10.0	8.0	10.0	8.0	10.0		9.0	10.0
12.0			10.0	11.0	8.0	8.0			
		8.0	7.0	8.0	7.0	7.0			
	15.0	7.0	7.0	15.0	7.0	5.0			
6.0		6.0	0.0	7.0	0.0	0.0			
	8.0	17.0	9.0	16.0	9.0	9.0			
	7.0	0.0	7.0	0.0	6.0	6.0			7.0
		20.0	5.0	21.0	6.0	4.0			
	4.0	4.0		8.0	6.0	6.0		6.0	
	17.0	17.0	0.0	15.0		0.0			
			13.0		14.0	14.0			
	4.0	4.0	8.0	0.0	8.0	8.0			
0.0		0.0	0.0	0.0	0.0	0.0		5.0	5.0
	4.0	8.0	4.0	10.0	4.0			8.0	0.0
		9.0		8.0	4.0	4.0		4.0	11.0
	18.0	20.0	6.0	21.0	7.0	7.0			
	7.0	7.0	21.0	6.0	20.0	18.0		20.0	6.0
	0.0		0.0	0.0	0.0	0.0			
8.0	8.0	0.0	9.0	0.0	9.0	9.0		10.0	
	8.0	8.0	0.0	7.0	0.0	0.0		4.0	4.0
	0.0	0.0	7.0	0.0	8.0	8.0			
		0.0	6.0		7.0	7.0		7.0	
	0.0	0.0	9.0	0.0	9.0	9.0			5.0
		12.0	12.0	7.0	12.0	12.0			6.0
	5.0	5.0	10.0		10.0	10.0			5.0
		7.0	0.0	7.0	0.0	0.0			
4.0	4.0	0.0	4.0	0.0	4.0	4.0		4.0	
0.0	0.0	0.0	19.0	0.0	16.0	16.0			4.0
21.0			25.0		25.0	25.0		18.0	
	13.0	12.0	0.0	9.0	0.0	0.0			9.0
	0.0	0.0	9.0	0.0	12.0	13.0			
		11.0	4.0		4.0	4.0		4.0	13.0
		13.0	6.0	13.0	4.0	6.0		11.0	
8.0		8.0	18.0	6.0	17.0	15.0		11.0	
		0.0	5.0	0.0	5.0	5.0			
0.0	8.0	0.0	0.0	8.0	0.0	0.0			
	11.0	5.0	11.0	8.0	10.0	10.0			
		6.0	5.0	6.0	5.0	0.0			
7.0		7.0	6.0	7.0	6.0	6.0			
		8.0	0.0	8.0	4.0	4.0			10.0
	27.0	4.0	27.0	4.0	26.0	26.0		29.0	4.0
	4.0	6.0	4.0	6.0	4.0	4.0		4.0	7.0
12.0	13.0	8.0	8.0	7.0	13.0	11.0			
		0.0	6.0	0.0	6.0	6.0			
	5.0	5.0	0.0	5.0	0.0	0.0			
4.0	4.0	10.0	4.0		4.0	0.0			
		0.0	0.0	4.0	0.0	0.0		0.0	
1.0	0.0	0.0	7.0	0.0	7.0	7.0			
	4.0	13.0	4.0	13.0	4.0	4.0			
0.0	0.0	0.0	0.0	0.0	0.0	0.0			0.0
	0.0	12.0	0.0	13.0	0.0	0.0			
		6.0	4.0	6.0	4.0	4.0			
5.0	5.0	16.0	5.0	17.0	0.0			0.0	
9.0		7.0	11.0	6.0	7.0	7.0		9.0	
10.0	9.0	7.0	9.0	5.0	9.0			7.0	
	5.0	5.0	0.0	5.0	0.0	0.0			
	0.0	0.0	5.0	0.0	5.0	5.0			6.0
		0.0	0.0	0.0	0.0	0.0			
		8.0	9.0	7.0	9.0	8.0		8.0	5.0
0.0	4.0	0.0	5.0	0.0	5.0	5.0	5.0		
	19.0	0.0	19.0	0.0	19.0				0.0
	0.0	0.0	0.0	14.0	0.0	0.0			
	0.0	12.0	0.0	11.0	0.0	0.0		0.0	
	5.0	5.0	9.0	5.0	9.0			9.0	10.0
		5.0	11.0	5.0	11.0	11.0		11.0	5.0
5.0	5.0	5.0	0.0	5.0	0.0	0.0			6.0
		0.0	4.0	0.0		6.0		6.0	
0.0		0.0	4.0	0.0	4.0	4.0			0.0
		0.0	11.0	0.0	11.0	11.0			
	0.0	16.0	0.0	16.0	0.0	0.0		0.0	0.0
	0.0	0.0		0.0	4.0	4.0		4.0	
	4.0	4.0	0.0	0.0	0.0	0.0			
	4.0	5.0	7.0	3.0	5.0	5.0			5.0
	13.0	0.0	0.0	14.0	0.0	0.0			
	0.0	4.0	0.0	4.0	0.0	0.0			6.0
	0.0	0.0	18.0	0.0	0.0	19.0			
0.0	6.0	0.0	6.0	0.0	6.0	5.0			
0.0	0.0		9.0		12.0	12.0			
10.0		10.0	17.0	10.0	17.0	17.0			9.0
		0.0	34.0	0.0	33.0	30.0			0.0
8.0	14.0	8.0	14.0	9.0	5.0	11.0			18.0
		4.0	0.0	4.0	0.0	0.0		0.0	0.0
11.0	11.0	11.0	0.0	11.0	0.0	0.0	0.0		
	0.0	10.0	0.0	9.0	0.0	0.0			0.0
	0.0	0.0	0.0	0.0	0.0	0.0			
	0.0	0.0	0.0	0.0	0.0	0.0			
	-3.0	5.0	0.0	0.0	0.0	0.0			
	0.0	0.0	0.0	0.0	5.0	-3.0			
	3.0	5.0	0.0	0.0	4.0	4.0			
	4.0	4.0	0.0	0.0	5.0	3.0			
	6.0	0.0	6.0	0.0	5.0	5.0			0.0
	7.0	7.0	21.0	7.0	21.0	21.0		17.0	
	21.0	21.0	7.0	21.0	7.0	7.0			
					14.0	18.0		19.0	
		0.0	8.0	4.0	10.0	10.0			5.0
	4.0	0.0	4.0	0.0	4.0	4.0		4.0	
	4.0	0.0	4.0	0.0	4.0	6.0			
	4.0	17.0	6.0	18.0	6.0	6.0		6.0	6.0
	0.0	0.0	0.0	0.0	0.0	0.0			
			7.0		6.0	8.0			
	11.0	11.0	0.0	11.0	0.0	0.0	9.0		
		0.0	41.0	0.0	42.0	42.0			
	29.0	16.0	30.0	17.0	30.0	30.0			
		4.0	15.0	4.0	15.0	15.0			15.0
	0.0	6.0	0.0	5.0	0.0	0.0		0.0	
		0.0		8.0					9.0
	6.0	12.0	6.0	10.0	5.0	5.0			11.0
		16.0		14.0	8.0	8.0		12.0	8.0
	23.0	23.0	4.0	24.0	4.0	4.0		24.0	
	4.0	4.0	24.0	4.0	23.0	23.0		24.0	24.0
15.0	7.0	8.0	15.0	8.0	21.0	21.0			
4.0		8.0	5.0	9.0	4.0	4.0		5.0	
		17.0		16.0					
4.0	4.0	4.0	5.0	4.0	4.0	4.0			
4.0		8.0	0.0	8.0	4.0	4.0		7.0	7.0
	9.0	4.0	9.0	5.0	9.0			9.0	9.0
		6.0	9.0	6.0	9.0	7.0		9.0	6.0
	0.0	6.0	0.0	6.0	0.0	0.0		6.0	0.0
			10.0		8.0	8.0			
	8.0	8.0		10.0					
9.0	4.0	4.0		4.0	9.0	10.0			
	6.0	6.0	4.0	6.0	4.0	4.0			4.0
	4.0	4.0	6.0	4.0	6.0	6.0		6.0	7.0
		4.0	9.0	4.0	7.0	7.0		7.0	7.0
		19.0	5.0	21.0	4.0	4.0		20.0	4.0
	0.0	0.0	7.0	7.0	8.0	8.0		6.0	8.0
	8.0	8.0	7.0	7.0	0.0	0.0			
	0.0	10.0	0.0	10.0	0.0	0.0		0.0	0.0
0.0		0.0	15.0	4.0	16.0	16.0			
	8.0	0.0	8.0	0.0	8.0			0.0	8.0
0.0	0.0	0.0	0.0	0.0	0.0	0.0		0.0	0.0
	6.0	0.0	7.0	0.0	7.0	7.0			0.0
		0.0	8.0	0.0	7.0	7.0			0.0
	7.0	7.0	0.0	8.0	0.0			0.0	
		11.0	4.0	9.0	4.0	4.0		4.0	8.0
		9.0	4.0	9.0	4.0	4.0		4.0	8.0
		5.0	0.0	6.0	0.0	0.0			
	8.0	8.0	12.0	8.0	12.0	13.0		13.0	13.0
20.0		0.0		4.0	23.0	23.0			23.0
5.0	5.0	18.0	5.0	20.0	4.0	4.0			
	0.0	0.0	9.0	0.0	9.0	10.0			0.0
	10.0	9.0	0.0	9.0	0.0	0.0			
			14.0	9.0	15.0	15.0			
			12.0		12.0	12.0		12.0	
		4.0	0.0	4.0	0.0	0.0			
	0.0	2.0	0.0	0.0	0.0	0.0			
	0.0	0.0	0.0	0.0	2.0	0.0			
12.0	0.0	0.0	13.0	0.0	13.0	13.0			
		8.0	14.0	9.0	13.0	13.0	9.0	14.0	12.0
10.0	11.0	11.0	4.0	12.0	4.0	4.0			11.0
5.0	4.0	5.0	4.0	5.0	4.0	4.0			7.0
	0.0	0.0	10.0	0.0	11.0	11.0			
		11.0		11.0					
	0.0	0.0	25.0	0.0	39.0	35.0			
	35.0	39.0	0.0	25.0	0.0	0.0			
	0.0	0.0		0.0		0.0			
	0.0	0.0	0.0	0.0	0.0	2.0			
	2.0	0.0	0.0	0.0	0.0	0.0			
8.0	17.0	17.0	10.0	18.0	10.0	10.0			12.0
	11.0	0.0	0.0	10.0	0.0	0.0			
10.0		11.0	5.0		5.0	5.0		12.0	
		29.0	11.0		11.0	11.0		9.0	34.0
8.0		9.0	26.0	9.0	26.0	26.0			9.0
		4.0	4.0	4.0	0.0	0.0			
	0.0	6.0	0.0	6.0	0.0	0.0			
7.0	7.0	7.0	7.0	7.0	0.0	0.0			
		19.0	0.0	13.0	0.0	0.0	0.0		0.0
	0.0	15.0	0.0	15.0	0.0	0.0			
0.0	0.0	7.0		8.0	0.0	0.0			
	0.0	8.0	0.0	8.0	0.0	0.0			
		6.0	10.0	6.0	10.0	13.0			12.0
0.0		0.0	38.0	0.0	34.0	34.0			34.0
		12.0		9.0					
	5.0	9.0	5.0	9.0	5.0			5.0	5.0
		22.0		20.0					
	6.0	5.0	4.0	6.0	0.0	0.0		0.0	
	0.0	0.0	6.0	4.0	5.0	6.0			4.0
	6.0	6.0	4.0	3.0	0.0	0.0			
	0.0	0.0	3.0	4.0	6.0	6.0			
	0.0	0.0		0.0	0.0	0.0			
13.0	2.0	8.0	15.0	8.0	13.0	14.0		15.0	
11.0		0.0	10.0	0.0	10.0	11.0			0.0
6.0	0.0	0.0	7.0	0.0	9.0	9.0		0.0	
9.0		4.0		4.0	8.0	8.0			
	7.0	7.0	12.0	7.0	14.0	14.0			
	14.0	14.0	7.0	12.0	7.0	7.0			
	4.0	4.0	0.0	0.0	6.0	4.0			
	4.0	6.0	0.0	0.0	4.0	4.0		0.0	
		9.0	21.0	7.0	22.0	22.0			
	2.0	0.0	0.0	0.0	7.0	5.0			
	5.0	7.0	0.0	0.0	0.0	2.0			
	6.0	4.0	6.0	4.0	4.0	4.0			
	0.0	0.0	0.0	0.0	6.0	0.0			
		10.0	0.0	8.0	0.0	0.0			
	0.0	0.0	0.0	0.0	0.0			0.0	0.0
	3.0	5.0	0.0	0.0	0.0	0.0			
	0.0	0.0	0.0	0.0	5.0	3.0			
6.0		6.0	0.0	0.0	11.0	14.0			
7.0	4.0	6.0	7.0	4.0	4.0	4.0			
0.0	0.0	0.0	0.0	0.0	0.0	0.0			
	8.0	6.0	0.0	0.0	6.0	3.0			6.0
	3.0	6.0	0.0	0.0	6.0	8.0			6.0
0.0	0.0	0.0	0.0	0.0	9.0	7.0			5.0
		24.0	12.0	25.0	12.0	13.0			23.0
	8.0	14.0	0.0	-5.0	0.0	0.0			
	0.0	0.0	-5.0	0.0	14.0	8.0			
	5.0	13.0	0.0	0.0	0.0	0.0			
	0.0	0.0	0.0	0.0	13.0	5.0			
		14.0		13.0	0.0	0.0		0.0	12.0
				5.0					5.0
0.0			0.0	0.0	0.0	0.0		0.0	
4.0		4.0	0.0	0.0	0.0	0.0		0.0	
			4.0		7.0	7.0			
		12.0	0.0	17.0	0.0	0.0			17.0
			9.0		15.0	15.0			
		11.0	0.0	11.0	5.0	6.0		5.0	6.0
	4.0	4.0	20.0	5.0	23.0	23.0			
	23.0	23.0	5.0	20.0	4.0	4.0			
		5.0	9.0		7.0	7.0			
	9.0	9.0	8.0	8.0	8.0			8.0	
		8.0	8.0	8.0	9.0	9.0			
		0.0	6.0	0.0	6.0	5.0		4.0	0.0
	5.0	6.0	0.0	6.0	0.0			0.0	
	7.0	7.0	6.0	7.0	6.0	6.0			4.0
	6.0	6.0	7.0	6.0	7.0	7.0			
4.0		4.0	5.0	4.0	4.0	4.0			4.0
7.0		11.0	8.0	11.0	9.0			10.0	9.0
0.0		5.0	0.0	7.0	0.0	0.0			
	0.0	0.0	4.0	0.0	6.0	6.0			
	4.0	5.0	18.0	5.0		16.0			
		0.0	0.0	0.0	0.0	0.0			
		11.0		10.0	16.0	16.0		16.0	10.0
		0.0	6.0		6.0	5.0			4.0
	5.0	6.0		6.0	0.0				0.0
0.0	0.0	0.0	0.0	6.0	0.0	0.0			
0.0	0.0	8.0	0.0	7.0	0.0	0.0		0.0	0.0
		16.0	0.0	17.0	0.0	0.0	0.0		0.0
		0.0	0.0	15.0	0.0	0.0		5.0	
	0.0	8.0	0.0	8.0	0.0	0.0			
		0.0	0.0	0.0	7.0	7.0		5.0	0.0
		5.0	0.0	0.0	4.0	2.0			
	11.0	4.0	11.0	4.0	12.0	12.0			
7.0		10.0	7.0	10.0	8.0	8.0		10.0	
	11.0	10.0	10.0	10.0	10.0	10.0			
		0.0	0.0	0.0	0.0	0.0			0.0
		2.0	2.0	6.0	0.0	0.0			
7.0		8.0	7.0	9.0	9.0	9.0			10.0
8.0		0.0	9.0	0.0	9.0			0.0	8.0
	7.0	7.0	0.0	7.0	0.0	0.0			7.0
	0.0	0.0	7.0	0.0	7.0	7.0			0.0
	0.0	0.0	5.0	0.0	4.0	4.0			0.0
		26.0	0.0	22.0	0.0	0.0			
		0.0	17.0	0.0	17.0	17.0			
7.0		4.0	8.0		6.0	6.0		6.0	
	0.0	0.0	12.0	0.0	12.0	12.0			13.0
	12.0	12.0	0.0	12.0	0.0	0.0			
		9.0		9.0	10.0				8.0
		12.0		11.0					
0.0		0.0	0.0		0.0	0.0		8.0	0.0
	9.0	9.0	11.0	9.0	11.0	11.0		14.0	
	11.0	11.0	9.0	11.0	9.0	9.0		9.0	
		15.0	0.0	16.0	0.0	0.0			
9.0	0.0	9.0	0.0	9.0	0.0				8.0
12.0		10.0		9.0	4.0	4.0		4.0	
7.0	5.0	5.0	7.0	4.0	5.0	5.0			5.0
0.0		0.0	16.0	0.0	11.0	15.0			
	0.0	0.0	0.0	0.0	0.0	0.0			
	8.0	0.0	11.0	0.0	11.0			11.0	11.0
			12.0		12.0	13.0			
	0.0	0.0	14.0	0.0	14.0	12.0			
	12.0	14.0	0.0	14.0	0.0	0.0			
	0.0	5.0	0.0	7.0	0.0	0.0			0.0
	0.0	4.0	0.0	0.0	0.0	0.0			0.0
	20.0	17.0	6.0	18.0	7.0	7.0		7.0	
	7.0	7.0	18.0	6.0	17.0	20.0			5.0
10.0	10.0	10.0	7.0	13.0	7.0	6.0			
			7.0		6.0	6.0			
0.0	6.0	0.0	0.0	0.0	6.0	6.0			
27.0			26.0		21.0	15.0			
	6.0	16.0	6.0	16.0	6.0	6.0			
	0.0	0.0	0.0	0.0	4.0	5.0		0.0	
			7.0	0.0	7.0	6.0			
	8.0	8.0	5.0	10.0	4.0	4.0			
	4.0	4.0	10.0	5.0	8.0	8.0		10.0	
	0.0	0.0	13.0	0.0	13.0	13.0			
	13.0	13.0	0.0	13.0	0.0	0.0			
	0.0	0.0	0.0	0.0	0.0	4.0			4.0
			0.0		6.0	2.0			
	2.0	6.0		0.0					
	7.0	8.0	6.0	8.0	6.0	6.0			
	6.0	6.0	8.0	6.0	8.0	7.0		6.0	
	0.0	21.0	0.0	21.0	0.0	0.0		0.0	0.0
0.0		27.0	0.0	27.0	0.0	0.0			
		17.0	0.0	17.0	0.0	0.0			18.0
0.0		0.0	5.0	0.0	5.0	5.0			0.0
	0.0	0.0	5.0	0.0	5.0	5.0			
	5.0	5.0	0.0	5.0	0.0	0.0			0.0
	7.0	0.0	7.0	0.0	8.0	8.0		8.0	0.0
	12.0	12.0	8.0	10.0	8.0	8.0			10.0
		0.0	4.0	0.0	4.0	5.0			
		0.0	44.0	0.0	0.0	42.0		39.0	
	13.0	7.0	20.0	7.0	20.0	20.0			
	9.0	11.0	5.0	12.0	5.0	5.0			5.0
	5.0	5.0	12.0	5.0	11.0	9.0		11.0	5.0
	5.0		5.0		5.0	5.0			
	11.0	11.0	0.0	9.0	0.0	0.0			
	0.0	0.0	9.0	0.0	11.0	11.0			0.0
		9.0	12.0	11.0	12.0	12.0			11.0
0.0	8.0	8.0	0.0	10.0	0.0	0.0			11.0
		0.0	0.0	0.0	0.0	0.0			
0.0		0.0		0.0	23.0	23.0		24.0	23.0
	0.0			0.0		0.0			
		0.0		0.0					0.0
	0.0	16.0	0.0	17.0	0.0	0.0			
		11.0		12.0	5.0	5.0		5.0	5.0
6.0	6.0	11.0	6.0	21.0	6.0	6.0		7.0	
	9.0	23.0	9.0	23.0	9.0	9.0			9.0
			16.0		16.0	16.0			
	14.0	7.0	14.0	7.0	14.0	13.0		7.0	7.0
	10.0	0.0	10.0	0.0	10.0	11.0		9.0	0.0
27.0	27.0	27.0	0.0	20.0	0.0	0.0		0.0	
	0.0	0.0	0.0	0.0	0.0	0.0		0.0	
	7.0	23.0	8.0	19.0	9.0	6.0		6.0	21.0
	0.0	0.0	8.0	0.0	8.0	6.0		8.0	0.0
	6.0	8.0	0.0	8.0	0.0	0.0			0.0
	14.0	4.0	14.0	4.0	14.0	14.0			
	9.0	6.0	4.0	13.0	4.0	4.0			
		4.0		4.0	5.0	5.0		4.0	5.0
0.0		14.0	0.0	16.0	0.0	0.0			16.0
	0.0	4.0	0.0	5.0	0.0	0.0			
		0.0	0.0	0.0	0.0	0.0			0.0
	0.0	0.0	0.0	0.0	3.0	0.0			
	0.0	0.0	24.0	0.0	21.0	21.0			
	21.0	21.0	0.0	24.0	0.0	0.0			
	12.0	0.0	12.0	0.0	12.0	12.0			10.0
	5.0	4.0	5.0	4.0	5.0	5.0		5.0	5.0
	5.0	5.0	9.0		9.0	8.0			
39.0	0.0	0.0	25.0	0.0	33.0	34.0		34.0	34.0
14.0		15.0	23.0	13.0	23.0	20.0			
	8.0	10.0	8.0	8.0	9.0	8.0		5.0	7.0
	6.0	5.0	6.0	4.0	6.0	4.0			
	6.0	13.0	6.0	12.0	6.0	4.0		5.0	5.0
			8.0	30.0	9.0	9.0		9.0	9.0
	6.0	6.0	12.0	5.0	12.0	12.0		13.0	5.0
	0.0	0.0	5.0		5.0	5.0		6.0	
	7.0	8.0	0.0	8.0	0.0	0.0			6.0
	0.0	0.0	8.0	0.0	8.0	7.0			
	10.0	10.0	0.0	10.0	0.0	0.0			
	0.0	0.0	10.0	0.0	10.0	10.0			
	12.0	12.0	14.0	16.0	14.0	14.0			
	14.0	14.0	16.0	14.0	12.0	12.0			
			12.0	19.0	12.0	12.0			19.0
		0.0		0.0					
	4.0	4.0		0.0	27.0	27.0			0.0
	18.0	18.0	0.0	18.0	0.0	0.0			21.0
	0.0	0.0	18.0	0.0	18.0	18.0			
0.0	0.0	18.0	18.0	18.0	0.0	0.0			
						0.0			
	6.0	5.0	6.0	6.0	6.0	6.0		5.0	5.0
8.0		14.0	4.0	14.0	4.0				12.0
		16.0	9.0	16.0	13.0	13.0	16.0		13.0
13.0		12.0	29.0	12.0	29.0	29.0			
	4.0	4.0	4.0	4.0	4.0			0.0	4.0
		6.0	4.0	11.0	4.0	4.0		4.0	11.0
		0.0	30.0		33.0	33.0		0.0	30.0
			27.0		27.0	25.0			
	25.0	27.0		27.0					
		28.0	0.0	27.0	0.0	0.0			
	0.0	0.0	27.0	0.0	28.0				4.0
13.0	13.0	33.0	13.0	36.0	13.0	13.0			
11.0	8.0	13.0	9.0	13.0	11.0	9.0			
		7.0	13.0	7.0	8.0	12.0		8.0	13.0
	6.0	6.0	0.0	7.0	0.0	0.0			5.0
	0.0	0.0	7.0	0.0	6.0	6.0			6.0
		0.0	26.0	0.0	26.0	26.0			0.0
8.0		8.0	0.0	8.0	0.0	0.0			0.0
	16.0	22.0	8.0	22.0	8.0	8.0			
		6.0	22.0	6.0	22.0	22.0	6.0	6.0	19.0
		9.0	0.0	11.0	0.0				
5.0		0.0	5.0	0.0	5.0	5.0			
	17.0	6.0	17.0	5.0	17.0	17.0			4.0
	17.0	17.0		17.0					
	0.0	0.0	0.0	0.0	10.0	4.0			
	0.0	0.0	7.0	0.0	0.0	7.0			
		8.0	0.0	8.0					
		0.0	0.0	0.0	0.0	0.0			
6.0		7.0	4.0	0.0	6.0	4.0			7.0
4.0	6.0	6.0	4.0		4.0	0.0			
	14.0	0.0	14.0	0.0	14.0	14.0			14.0
0.0		0.0	0.0	0.0	0.0	0.0			
0.0	0.0	0.0	0.0		0.0	0.0			
1.0		6.0	0.0	2.0	6.0	5.0			5.0
12.0	12.0	11.0	12.0	13.0	12.0	12.0			11.0
	0.0	0.0	0.0	0.0	0.0	0.0			
6.0		6.0	4.0	6.0	0.0	0.0		0.0	0.0
	5.0	5.0	0.0	1.0	0.0	0.0			
	0.0	0.0	1.0	0.0	5.0	5.0			
	0.0	0.0	0.0	0.0	0.0	0.0			
	0.0	0.0	0.0	0.0	0.0	0.0			
		0.0	5.0	0.0	5.0	5.0			0.0
	6.0	6.0	4.0	6.0	4.0	4.0			
	4.0	4.0	6.0	4.0	6.0	6.0			
	0.0	0.0	0.0	0.0	0.0	0.0			
	11.0	0.0	11.0	0.0	8.0			0.0	4.0
			0.0			0.0			
		0.0	0.0	8.0	0.0	0.0			7.0
			0.0	12.0	0.0	0.0		0.0	9.0
		8.0	0.0	8.0	0.0	0.0		0.0	
7.0		7.0	0.0	7.0	0.0	0.0			
		31.0		31.0					
	7.0	5.0	0.0	0.0	0.0	0.0			
	0.0	0.0	0.0	0.0	5.0	7.0			
	8.0	8.0		8.0	0.0	0.0			
	16.0	16.0		14.0					17.0
	0.0	0.0	0.0	0.0	0.0	0.0		0.0	
		0.0		0.0	0.0	0.0			
	0.0	4.0	0.0	5.0	0.0	0.0			
		23.0		20.0	4.0	4.0			
7.0	6.0	6.0	4.0	6.0	4.0	0.0			7.0
	5.0	5.0	0.0	5.0	0.0	0.0		4.0	
	6.0		6.0	31.0	6.0	6.0		5.0	
	8.0	8.0	0.0	7.0	0.0	0.0			
	0.0	7.0	0.0	6.0	0.0	0.0			0.0
		6.0	8.0	6.0	8.0	8.0			8.0
	0.0	0.0	0.0	0.0	0.0	0.0			
	0.0	0.0	0.0	0.0	0.0	0.0			
	15.0	15.0	5.0	15.0	4.0	0.0			0.0
13.0		9.0	13.0		13.0	13.0			6.0
		6.0	13.0	6.0	12.0	12.0	6.0		5.0
	6.0	5.0	8.0		9.0	9.0			5.0
	32.0	32.0	11.0	26.0	11.0	11.0			26.0
	10.0	10.0	10.0	10.0	10.0	10.0			9.0
	6.0	0.0	6.0	0.0	6.0	6.0		0.0	
5.0		5.0	0.0	5.0	0.0	0.0			
		12.0	0.0	11.0	4.0	4.0			
		6.0	6.0	6.0	8.0	8.0			9.0
		0.0	12.0	0.0	13.0	13.0			
		0.0			12.0	12.0			
10.0		0.0		0.0	8.0	8.0		8.0	
0.0		25.0	0.0	0.0	0.0	0.0			
		7.0	7.0	4.0	7.0	6.0			5.0
7.0	0.0	0.0	11.0	0.0	12.0	12.0			
	7.0	4.0	7.0	4.0	7.0	9.0			9.0
		0.0	11.0	0.0		10.0			
	9.0	9.0	0.0	8.0	0.0	0.0			
	0.0	0.0	8.0	0.0	9.0	9.0			
		4.0	11.0	5.0	16.0	16.0			
	5.0	11.0	6.0	11.0	6.0	6.0			6.0
7.0		16.0	6.0		6.0	6.0		6.0	8.0
			9.0		9.0	11.0			
		21.0	5.0	17.0	5.0	5.0		5.0	18.0
	10.0	9.0	10.0	9.0	10.0	11.0			11.0
	0.0	0.0	5.0	0.0	5.0	5.0			5.0
	5.0	5.0	0.0	5.0	0.0	0.0			
	5.0	5.0	5.0	5.0	5.0	5.0		5.0	5.0
	9.0	9.0	0.0	10.0	0.0	0.0		0.0	
	0.0	0.0	10.0	0.0	9.0	9.0			
7.0		8.0	7.0	8.0	7.0	7.0			8.0
			14.0	10.0	14.0	14.0		16.0	11.0
			4.0		4.0	4.0			
9.0	9.0	22.0	9.0	18.0	8.0	8.0			
	6.0	10.0	6.0	10.0	6.0	6.0			
		13.0	7.0	11.0	7.0	7.0			
	7.0	7.0	16.0	7.0	19.0	22.0			4.0
	22.0	19.0	7.0	16.0	7.0	7.0			
	20.0	20.0	0.0	18.0	0.0	0.0			0.0
	0.0	0.0	18.0	0.0	20.0	20.0		0.0	0.0
		7.0	12.0		12.0	12.0		7.0	
	6.0	4.0	6.0	4.0	4.0	5.0			
11.0	5.0	4.0	11.0	4.0	11.0			11.0	
	9.0	9.0	0.0	9.0	0.0	0.0			
	0.0	0.0	9.0	0.0	9.0	9.0		0.0	
		0.0	9.0	0.0	10.0	10.0			
		14.0	7.0	14.0	8.0				8.0
	0.0	4.0	12.0	5.0	12.0			11.0	5.0
		12.0	5.0	12.0	4.0	0.0		0.0	
	13.0	0.0	14.0	0.0	14.0	13.0			
	6.0	7.0	5.0	14.0	5.0	5.0			
			14.0		14.0	14.0			
	14.0	14.0		14.0					
	10.0	22.0	10.0	22.0	10.0	10.0		9.0	
	0.0	12.0	0.0	12.0	0.0	0.0			0.0
	0.0	0.0	14.0	0.0	14.0	14.0			
	14.0	14.0	0.0	14.0	0.0	0.0		0.0	0.0
	9.0	9.0	0.0	9.0	0.0	0.0			0.0
	0.0	0.0	9.0	0.0	9.0	9.0			
		4.0	4.0	4.0	4.0	4.0		4.0	
		4.0	4.0	4.0	5.0	5.0		4.0	
	5.0	11.0	5.0	6.0	6.0	6.0		6.0	6.0
10.0	7.0	10.0	7.0	8.0	8.0	8.0			8.0
	25.0	0.0	26.0	0.0	24.0	24.0		18.0	4.0
		12.0		12.0				12.0	12.0
	10.0	4.0	10.0	4.0	10.0	10.0			
		20.0	0.0		0.0	0.0		0.0	
11.0	11.0		11.0		8.0	8.0			
4.0	5.0	30.0	5.0	30.0	5.0	5.0		5.0	30.0
0.0	18.0	18.0	0.0		0.0	0.0			
	13.0	13.0	9.0	13.0	10.0	10.0			14.0
	10.0	10.0	13.0	9.0	13.0	13.0			13.0
0.0	0.0	4.0	17.0	7.0	17.0	17.0			
	0.0	24.0	0.0	24.0	0.0	0.0			27.0
		6.0	6.0	5.0	5.0	6.0		6.0	5.0
	23.0	23.0	6.0	23.0	6.0	6.0			19.0
	6.0	6.0	23.0	6.0	23.0	23.0		6.0	
	0.0	0.0	0.0	0.0	4.0	4.0			5.0
		6.0	7.0	7.0	7.0	7.0		7.0	7.0
8.0		8.0	4.0	8.0	4.0	4.0			5.0
	7.0	7.0	0.0	7.0	0.0	0.0			
	0.0	0.0	7.0	0.0	7.0	7.0			
	6.0	6.0	13.0	5.0	14.0	2.0			
	0.0	8.0	0.0	8.0	0.0	0.0		0.0	0.0
8.0		8.0	20.0	6.0	18.0	16.0			
0.0			0.0	10.0	0.0	0.0		0.0	
		0.0	0.0	0.0	0.0	0.0		0.0	
	0.0	7.0	0.0	6.0	4.0	4.0			9.0
	6.0	0.0	6.0	0.0	6.0	6.0			0.0
4.0	0.0	13.0	0.0	11.0	0.0				11.0
10.0		11.0	19.0	11.0	19.0	19.0		19.0	19.0
		0.0		0.0	49.0	49.0		49.0	
		6.0	0.0	12.0	0.0	0.0			
	0.0	0.0	12.0	0.0	6.0				0.0
	8.0	0.0	8.0	0.0	8.0	8.0			0.0
8.0		8.0	8.0	9.0	9.0	9.0			
	0.0	0.0	0.0	0.0	0.0	0.0		0.0	
	11.0	11.0	12.0	11.0	14.0	12.0			
	12.0	14.0	11.0	12.0	11.0	11.0		11.0	
	8.0	0.0	8.0	0.0	9.0	9.0			9.0
		37.0						0.0	0.0
	0.0	0.0	4.0	0.0	4.0	4.0			
	9.0	9.0	6.0	12.0	6.0	6.0			7.0
	6.0	6.0	12.0	6.0	9.0	9.0		6.0	
	10.0	10.0	21.0	11.0	22.0	25.0			
	25.0	22.0	11.0	21.0	10.0	10.0			
		12.0	0.0	10.0	0.0	0.0			2.0
		6.0	4.0		4.0	4.0			4.0
	6.0		5.0		4.0	4.0			4.0
6.0		6.0	6.0	6.0	15.0	19.0			
7.0		0.0	7.0	0.0	7.0	7.0			8.0
			8.0		8.0	12.0			
	12.0	15.0	13.0	15.0	11.0	13.0		10.0	17.0
		9.0	0.0	9.0	0.0	0.0	0.0		0.0
5.0	5.0	5.0	0.0	5.0	0.0	0.0			
	5.0	5.0	6.0	5.0	6.0	6.0			
	6.0	6.0	5.0	6.0	5.0	5.0			4.0
	7.0	7.0	0.0	7.0	4.0	4.0		4.0	
	4.0	4.0	7.0	0.0	7.0	7.0			7.0
0.0	0.0	0.0	0.0	6.0	0.0	0.0			
			9.0	4.0	9.0	9.0		4.0	
	12.0	14.0	5.0	14.0	5.0	5.0		5.0	5.0
	0.0	29.0	4.0	29.0	4.0	4.0			
					12.0	12.0		13.0	
	0.0	0.0		0.0					
			0.0		0.0	0.0			0.0
4.0				0.0					
				12.0					
			0.0	13.0	0.0	0.0		0.0	14.0
11.0		11.0	10.0	10.0	10.0	10.0		8.0	9.0
0.0			7.0	4.0	7.0	7.0		7.0	7.0
		4.0	4.0	4.0	4.0	0.0			
					15.0	15.0		15.0	
0.0		0.0	19.0	0.0	24.0	24.0			0.0
				19.0					
	11.0	7.0	10.0	6.0	10.0	10.0			
		8.0	5.0	8.0	0.0	0.0			
	4.0	4.0	11.0	0.0	9.0	9.0			
	8.0	8.0	6.0	8.0	5.0	5.0			
		24.0		22.0					
	8.0	13.0	7.0	10.0	6.0	6.0			8.0
		8.0	8.0	10.0	9.0	9.0			
		6.0	11.0	4.0	11.0	8.0			
	0.0	0.0	0.0	0.0	0.0	0.0			
7.0	0.0	7.0	0.0	7.0	7.0	0.0			
7.0	7.0	5.0	4.0	4.0	4.0	4.0			
	15.0	0.0	15.0	0.0	16.0	16.0			0.0
		11.0	4.0	10.0	4.0	4.0			
	4.0	4.0	10.0	4.0	11.0			0.0	0.0
		8.0	7.0		7.0	7.0			
7.0	0.0	0.0	7.0	0.0	6.0			6.0	
		6.0	0.0	7.0	0.0	0.0	7.0	7.0	
	0.0	0.0	15.0	0.0	15.0	15.0			
	6.0	6.0	34.0	6.0	31.0	31.0			31.0
	31.0	31.0	6.0	34.0	6.0	6.0		6.0	6.0
		4.0	4.0	0.0	4.0	4.0		4.0	
		0.0		0.0					
		21.0	0.0		0.0	0.0		23.0	
	10.0	0.0	10.0	0.0	10.0	10.0			11.0
		27.0	0.0	28.0	0.0	0.0	28.0		
0.0	0.0	6.0	0.0	6.0	0.0	0.0			8.0
	18.0	4.0	18.0	6.0	17.0	15.0		17.0	9.0
0.0		19.0	0.0		0.0	0.0		0.0	0.0
	0.0	24.0	0.0	23.0	0.0	0.0		0.0	0.0
8.0		6.0	7.0	31.0	7.0	8.0			
10.0		4.0	10.0	4.0	8.0	8.0			4.0
5.0	5.0	5.0	6.0	11.0	6.0	6.0			
12.0		11.0	10.0	6.0	10.0	10.0			
	0.0	0.0	29.0	0.0	0.0	28.0			
	0.0	4.0	0.0	0.0	0.0	0.0			
	8.0	8.0	0.0	8.0	0.0	0.0			
	0.0	0.0	8.0	0.0	8.0	8.0			
11.0	11.0	11.0	8.0	11.0	10.0	8.0			
	12.0	15.0	12.0	15.0	12.0	12.0		13.0	
0.0	11.0	11.0	0.0	11.0	0.0	0.0		0.0	
		9.0		9.0	6.0	6.0		6.0	6.0
	6.0		6.0		6.0	6.0			
0.0		0.0	4.0	0.0	4.0	4.0			4.0
	22.0	17.0	5.0	17.0	5.0	5.0			16.0
	5.0	5.0	17.0	5.0	17.0	22.0			
18.0	0.0	0.0	18.0	0.0	18.0	18.0			
8.0		6.0	9.0	5.0	9.0	10.0			
	11.0	15.0	15.0	14.0	15.0				13.0
		14.0	5.0		5.0	5.0		5.0	
4.0	6.0	4.0	8.0	4.0	8.0			6.0	
	5.0	5.0	8.0	5.0	8.0	8.0			
	8.0	8.0	5.0	8.0	5.0	5.0			7.0
	9.0	4.0	6.0	4.0	6.0	7.0			7.0
			9.0		9.0	9.0			
	5.0	5.0	11.0	5.0	12.0	14.0			
	14.0	12.0	5.0	11.0	5.0	5.0		5.0	
	13.0	15.0	13.0	16.0	13.0	9.0			9.0
	17.0	7.0	17.0	8.0	13.0	19.0		19.0	17.0
0.0	0.0	0.0	0.0	4.0	0.0	0.0			4.0
		0.0		0.0					5.0
	13.0	18.0	13.0	19.0	13.0	13.0		7.0	16.0
		10.0		15.0					
		4.0	9.0	4.0	8.0	8.0			
		13.0		13.0	7.0	7.0		10.0	15.0
		4.0		5.0	16.0	16.0			5.0
0.0	0.0	0.0	0.0	0.0	0.0	0.0		0.0	
	12.0	11.0	23.0	12.0	23.0	23.0		21.0	11.0
	23.0	23.0	12.0	23.0	11.0	12.0		12.0	18.0
	8.0	5.0	7.0	4.0	7.0	7.0			
	0.0	14.0	0.0	19.0	0.0	0.0			
		13.0		13.0					
13.0	0.0	13.0	0.0	12.0	0.0	0.0			0.0
		12.0		12.0					
		0.0	0.0	15.0	0.0	0.0		5.0	18.0
0.0	0.0	31.0	0.0	28.0	0.0	0.0		0.0	
		7.0	4.0	7.0	0.0	0.0	8.0		7.0
8.0	0.0	0.0	7.0	4.0	7.0			7.0	
6.0	13.0	13.0	6.0	13.0	6.0	6.0			6.0
13.0		13.0	5.0	14.0	4.0	4.0			
		13.0	5.0	13.0	6.0				14.0
	4.0		10.0	4.0	10.0	9.0			
	6.0	8.0	10.0	6.0	10.0	10.0		5.0	
		0.0	0.0	7.0	0.0	0.0			
		11.0	0.0	10.0	0.0	0.0			
	0.0	0.0	4.0	0.0	4.0	4.0			
	4.0	4.0	0.0	4.0	0.0	0.0			
12.0	13.0	13.0	14.0	14.0	14.0	14.0			14.0
	7.0	26.0	7.0	29.0	7.0	7.0			
	0.0	13.0	0.0	15.0	0.0	0.0			
		13.0	5.0	13.0	13.0	5.0		5.0	14.0
	4.0	0.0	4.0	0.0	0.0	0.0			
		0.0	0.0	0.0	0.0	0.0			0.0
	12.0	9.0	16.0	5.0	17.0	17.0			6.0
0.0	0.0	0.0	0.0	0.0	0.0	0.0			5.0
	4.0	23.0	5.0	23.0	5.0	4.0			
	0.0	0.0	0.0	0.0	0.0	0.0		0.0	
		4.0	4.0	4.0	4.0	0.0			0.0
		6.0	9.0		6.0	4.0		7.0	4.0
	0.0	0.0	0.0	0.0	0.0	0.0		0.0	
	9.0	9.0	5.0	5.0	6.0	6.0			
4.0		4.0	8.0	4.0	8.0	5.0			4.0
4.0	13.0	13.0	5.0	13.0	5.0	5.0			5.0
0.0		4.0	0.0	4.0	0.0	0.0			
4.0		0.0		0.0	4.0	4.0			0.0
		20.0		16.0					16.0
	6.0	6.0	9.0	7.0	8.0	8.0			
9.0			19.0	10.0	18.0	19.0		25.0	11.0
7.0		0.0	9.0	6.0	10.0			10.0	6.0
8.0		8.0	15.0		18.0	18.0			18.0
0.0		4.0	4.0	4.0	4.0	4.0		4.0	4.0
5.0		5.0	10.0	5.0	10.0	8.0			
0.0	0.0	7.0	0.0	7.0	0.0	0.0			
		7.0	7.0	7.0	7.0	9.0		9.0	
5.0	13.0		4.0	13.0	4.0	5.0			
14.0	17.0	17.0	13.0	12.0	13.0	12.0			
22.0	19.0	6.0	18.0	6.0	18.0	18.0		18.0	
	8.0	5.0	9.0	5.0	9.0	8.0		8.0	5.0
	0.0	0.0	0.0	0.0	0.0	0.0		0.0	0.0
15.0	5.0	11.0	5.0	11.0	5.0	5.0			
		19.0	8.0	20.0	8.0	8.0			8.0
12.0	15.0	12.0	15.0	10.0	15.0				12.0
			8.0		8.0	8.0			
6.0			6.0	22.0	7.0	7.0			21.0
	7.0	14.0	14.0	6.0	14.0	17.0			
0.0	0.0	8.0	0.0	8.0	0.0	0.0			0.0
		7.0	0.0	7.0	0.0	0.0			
	4.0	4.0	0.0	0.0	0.0	0.0			0.0
10.0		9.0	20.0	9.0	20.0				
	10.0	9.0	10.0	9.0	7.0	7.0		7.0	7.0
		4.0	6.0	6.0	5.0	7.0			
8.0	23.0	23.0	7.0	28.0	8.0	8.0		29.0	
	8.0	8.0	0.0	8.0	0.0	0.0			
	0.0	0.0	8.0	0.0	8.0	8.0			0.0
	4.0	4.0	12.0	0.0	9.0	10.0			6.0
	10.0	9.0	0.0	12.0	4.0	4.0			4.0
7.0		7.0	6.0	7.0	5.0	5.0			
	5.0	9.0	4.0	11.0	5.0	5.0		5.0	5.0
	0.0	0.0	8.0	0.0	8.0	7.0		7.0	0.0
		11.0	0.0	10.0	0.0	0.0			11.0
		0.0	0.0	0.0	0.0	0.0			
			11.0		13.0	11.0			
	19.0	21.0	6.0	21.0	6.0	6.0			
4.0	4.0	24.0	4.0	26.0	4.0	4.0		4.0	25.0
	23.0	23.0	0.0	27.0	0.0	0.0		0.0	
0.0	9.0	0.0	0.0	7.0	0.0	0.0			
	4.0	32.0	4.0	32.0	0.0	0.0		0.0	0.0
	0.0	42.0	0.0	46.0	0.0	0.0			
				9.0					13.0
	6.0	6.0	7.0	6.0	7.0	7.0			7.0
	7.0	7.0	6.0	7.0	6.0	6.0		7.0	7.0
22.0		8.0	8.0	23.0	8.0	8.0			
		6.0	14.0	6.0		15.0		15.0	6.0
		6.0	0.0	6.0	0.0	0.0			6.0
	32.0	26.0	4.0	25.0	4.0			4.0	
		4.0	25.0	4.0	26.0	32.0		33.0	
5.0	6.0	6.0	5.0	6.0	5.0	5.0		6.0	6.0
	13.0	14.0		15.0					
			15.0		14.0	13.0			
	6.0	0.0	5.0	0.0	4.0	4.0			
		0.0	17.0	0.0	16.0	16.0			17.0
5.0	5.0	4.0		4.0					
0.0		6.0	0.0	6.0	0.0	0.0			0.0
		0.0	38.0	0.0	40.0	40.0		40.0	38.0
		0.0	10.0	0.0	10.0	10.0		10.0	0.0
		0.0	0.0		0.0	0.0		0.0	
	11.0	20.0	20.0	9.0	20.0	18.0			
		11.0	15.0	11.0	15.0	17.0			24.0
4.0	15.0	15.0	4.0	15.0	4.0	4.0			
	4.0	7.0	5.0	9.0	4.0	4.0			4.0
	6.0	4.0	6.0	7.0	6.0	6.0			
	0.0	0.0	0.0	12.0	0.0	0.0			
			5.0	17.0	5.0	5.0		5.0	5.0
	4.0	4.0		4.0					
			4.0		4.0	4.0			
		4.0	5.0	4.0	4.0	4.0			
		0.0	0.0	0.0	2.0	0.0			
6.0		6.0	0.0	6.0	0.0	0.0			
11.0		11.0	0.0	11.0	0.0	0.0			11.0
	8.0	8.0	0.0	8.0	0.0	0.0			
13.0	13.0	0.0	13.0	0.0	0.0	13.0			
		0.0	0.0	0.0	0.0	0.0			
2.0		8.0		10.0	7.0	7.0		7.0	7.0
	0.0	0.0	0.0	0.0	4.0	4.0			
	4.0	4.0	0.0	0.0	0.0	0.0			
4.0	10.0	10.0	4.0	8.0	4.0	4.0			
			-2.0		12.0	12.0			
	12.0	12.0		-2.0					
0.0		0.0	0.0	0.0	19.0	19.0	15.0		
			0.0		0.0	0.0			
	0.0	0.0		0.0					
	0.0	0.0	0.0	0.0	5.0	0.0			
	0.0	5.0	0.0	0.0	0.0	0.0			
	4.0	4.0	8.0	4.0	8.0	8.0		4.0	
	8.0	8.0	4.0	8.0	4.0	4.0			
		6.0		0.0					
		13.0		13.0					7.0
7.0		11.0	12.0	12.0	7.0	7.0			
	0.0	0.0	0.0	0.0	0.0	0.0			
	0.0	0.0	0.0	0.0	0.0	0.0			
	0.0	0.0	0.0	0.0	0.0	0.0			
7.0		6.0	16.0	6.0	18.0	18.0			5.0
			8.0		8.0	8.0			
	8.0	8.0		8.0					
	7.0	6.0		4.0	0.0	0.0			5.0
	0.0	0.0	5.0	0.0	6.0	5.0			0.0
	7.0		8.0	8.0	8.0	8.0			
			5.0		5.0	5.0			
	5.0	5.0		5.0					
		0.0	7.0	0.0	5.0	5.0		5.0	0.0
		9.0	10.0	9.0	9.0	9.0		9.0	
18.0		8.0	8.0	18.0	9.0	7.0			
	5.0	6.0	0.0	7.0	0.0	0.0		0.0	
	0.0	0.0	7.0	0.0	6.0	5.0			
	5.0	4.0	17.0	4.0	16.0				0.0
		16.0	4.0	17.0	4.0	5.0			
0.0	22.0	22.0	0.0	14.0	0.0	0.0		0.0	0.0
8.0	22.0	21.0	7.0	20.0	6.0	6.0		6.0	6.0
	6.0	6.0	20.0	7.0	21.0	22.0	8.0		
13.0	12.0	12.0	13.0	12.0	13.0	13.0		12.0	12.0
	13.0	13.0	12.0	13.0	12.0	12.0	13.0		
	0.0	0.0		0.0					
6.0		9.0	6.0	9.0	6.0	6.0			
5.0		5.0	6.0	5.0	6.0	5.0			
		8.0	15.0	6.0	12.0	12.0			
	0.0	12.0	0.0	12.0	0.0	0.0			12.0
	6.0	6.0	9.0	5.0	9.0	7.0			
		0.0	10.0	0.0	13.0	13.0		13.0	
	4.0	4.0	12.0	6.0	12.0	12.0			14.0
	12.0	12.0	6.0	12.0	4.0	4.0			4.0
	4.0	0.0	4.0	0.0	4.0				
		4.0	4.0	4.0	5.0	5.0			
	8.0	17.0	17.0	11.0	17.0	14.0			
		16.0	4.0		4.0	4.0			4.0
			4.0		6.0	6.0			0.0
0.0	24.0	0.0	22.0	0.0		21.0			
22.0		24.0	11.0	24.0	10.0	10.0			10.0
		8.0	26.0	8.0	26.0	26.0			27.0
		15.0	16.0	14.0	16.0	16.0			17.0
0.0	0.0	0.0	6.0	0.0	6.0	4.0			
15.0		18.0	6.0	18.0	6.0	6.0	21.0		
		7.0	0.0	8.0		0.0		13.0	6.0
		6.0	6.0	15.0	6.0	7.0		8.0	13.0
	0.0	0.0	0.0	0.0	0.0			0.0	
	10.0	10.0	19.0	10.0	20.0	20.0			10.0
	20.0	20.0	10.0	19.0	10.0	10.0			
6.0		0.0	6.0	0.0	6.0	6.0			
		0.0	10.0	0.0	10.0	10.0		10.0	
									
		0.0	9.0	0.0	8.0	0.0			
	0.0	0.0	0.0	0.0	0.0	0.0			
	7.0	7.0	0.0	8.0	0.0	0.0			0.0
	0.0	0.0	8.0	0.0	7.0	7.0			8.0
		5.0	5.0	7.0	6.0	6.0			9.0
	4.0	7.0	4.0	7.0	4.0	4.0			0.0
0.0	0.0	0.0	0.0	36.0	0.0	0.0			
		9.0	0.0	12.0	0.0	0.0			
	3.0	5.0	6.0	8.0	6.0	3.0		5.0	
	3.0	6.0	8.0	6.0	5.0	3.0			5.0
6.0	8.0	6.0	9.0	2.0	8.0	8.0		6.0	7.0
	7.0	5.0	7.0	5.0	7.0	7.0		8.0	
			15.0		14.0	14.0			
		9.0	9.0	0.0	9.0	9.0		9.0	0.0
	9.0	13.0	10.0	12.0	10.0	10.0		10.0	
9.0		9.0	20.0	9.0	22.0	24.0			
	10.0	10.0	10.0	12.0	11.0	11.0		13.0	
	11.0	11.0	12.0	10.0	10.0	10.0		10.0	10.0
0.0		0.0	44.0	0.0	46.0				46.0
	17.0	13.0	17.0	12.0	16.0	17.0			16.0
		8.0	8.0	0.0	9.0	8.0			
		6.0	6.0	0.0	5.0	5.0			
10.0		14.0	10.0		10.0	9.0			9.0
0.0	9.0	9.0	0.0	10.0	0.0			12.0	
		0.0	10.0	0.0	9.0	9.0	0.0	9.0	9.0
	12.0	6.0	0.0	0.0	0.0	0.0			8.0
	0.0	0.0	0.0	0.0	6.0	12.0		12.0	0.0
0.0		15.0	0.0		0.0	0.0		0.0	0.0
		8.0		11.0					
		0.0	0.0	10.0	0.0	0.0			10.0
		0.0	0.0	4.0	0.0	0.0		9.0	
		4.0	12.0		12.0	13.0			4.0
		0.0	5.0	0.0	5.0	5.0			
	5.0	5.0	0.0	5.0	0.0				7.0
		0.0	7.0	0.0	6.0	4.0		4.0	0.0
4.0	4.0	4.0	7.0	5.0	6.0	5.0			
7.0		7.0	7.0	7.0	7.0	7.0			
	5.0	26.0	4.0	29.0	0.0	0.0		0.0	
	7.0	7.0	7.0	6.0	7.0	7.0			
	6.0	0.0	8.0	0.0	8.0	8.0			
11.0	15.0	0.0	0.0	15.0	0.0	0.0			
	0.0	0.0		0.0	9.0	9.0		10.0	
			18.0		18.0	17.0			
9.0	9.0	11.0	0.0	0.0	8.0	8.0		0.0	0.0
4.0	4.0	5.0	4.0	6.0	5.0	5.0		5.0	
	15.0	0.0	15.0	0.0	15.0	15.0		0.0	13.0
	0.0	0.0		0.0					
			0.0		0.0	0.0			
		0.0	6.0		5.0	5.0		0.0	0.0
6.0	6.0	0.0	5.0	0.0	5.0			0.0	
		5.0	5.0	6.0	5.0	4.0			
		12.0		12.0					
	7.0	7.0	8.0	7.0	8.0	8.0			9.0
	8.0	8.0	7.0	8.0	7.0	7.0			7.0
		11.0	0.0	11.0	0.0	0.0		0.0	
	7.0	27.0	7.0	37.0	7.0	7.0			
	18.0	18.0	15.0	18.0	15.0	15.0		6.0	17.0
	15.0	15.0	18.0	15.0	18.0	18.0		18.0	
15.0		16.0	13.0	17.0	13.0	13.0		17.0	13.0
	0.0	0.0	9.0	0.0	9.0	7.0		10.0	10.0
		14.0	0.0	16.0	0.0	0.0			23.0
5.0	5.0	5.0	0.0	5.0	0.0	0.0			
		4.0	4.0	11.0	4.0	4.0		4.0	4.0
		7.0	7.0	23.0	7.0	7.0		7.0	23.0
		7.0	16.0	7.0	14.0	14.0		15.0	8.0
		8.0	6.0	8.0	6.0	6.0			
0.0		0.0		0.0	6.0	6.0		7.0	
	9.0	9.0	9.0	9.0	8.0	8.0			
		0.0	7.0	0.0	7.0	7.0			7.0
5.0			0.0	8.0	0.0	0.0		0.0	13.0
	19.0	15.0	19.0	17.0		19.0			
14.0		14.0	7.0	14.0	7.0	7.0			14.0
		0.0	14.0	0.0	14.0	14.0	0.0	19.0	19.0
	0.0	20.0	0.0	19.0	0.0	0.0	0.0		
	13.0	6.0	9.0	6.0	8.0	8.0		8.0	8.0
6.0	6.0	4.0	0.0	6.0	0.0	0.0		0.0	0.0
8.0	8.0	5.0	8.0	0.0	8.0	8.0		8.0	
			6.0		4.0	4.0			
	4.0	4.0		6.0					
		0.0	0.0	9.0	0.0	0.0			0.0
		5.0	0.0	0.0	6.0	6.0			5.0
		4.0	4.0	4.0	5.0	5.0			6.0
9.0		6.0	10.0	8.0		10.0			
	6.0	6.0	6.0	6.0	6.0	6.0		6.0	7.0
	6.0	6.0	6.0	6.0	6.0	6.0			
	10.0	12.0	5.0		5.0	5.0		5.0	
	0.0	6.0	0.0	6.0	0.0	0.0			0.0
0.0	0.0	19.0	0.0	19.0	0.0	0.0		0.0	
		7.0	10.0		10.0	10.0			
			0.0	21.0	0.0	0.0		24.0	0.0
4.0		18.0	4.0	21.0	4.0	4.0		4.0	21.0
		8.0		8.0	0.0	0.0		0.0	10.0
	10.0	5.0	10.0	5.0	10.0	10.0		5.0	5.0
17.0		17.0	4.0	16.0	4.0	4.0			
0.0		0.0	20.0	0.0	20.0	19.0			
9.0		7.0	9.0	7.0	7.0	9.0			
	0.0	0.0		0.0					0.0
	9.0	5.0		7.0	9.0	9.0		7.0	
9.0	0.0	9.0	13.0	13.0	0.0	0.0			
0.0	9.0	9.0	0.0	9.0	0.0	0.0		18.0	0.0
9.0		9.0	12.0	9.0	12.0	12.0			9.0
4.0	7.0	7.0	4.0	7.0	4.0	4.0			7.0
12.0		11.0	12.0	5.0	12.0	12.0			
0.0		0.0	0.0	0.0	0.0	0.0			0.0
10.0		10.0	12.0	10.0	12.0	12.0			11.0
		10.0	6.0	7.0	6.0	6.0			7.0
	17.0	16.0	0.0	19.0	0.0	0.0			
12.0		12.0	11.0	11.0	11.0	11.0			12.0
14.0	12.0	6.0	14.0	6.0	12.0	12.0			6.0
		5.0	4.0	5.0	4.0				0.0
		5.0	12.0	5.0	12.0	12.0			6.0
4.0	23.0	4.0	22.0	4.0	22.0	22.0		11.0	4.0
0.0	0.0	0.0	0.0	0.0	0.0	0.0			
		36.0	9.0	29.0	6.0	4.0		6.0	3.0
13.0	5.0	0.0	13.0	0.0	14.0	14.0			
	5.0	3.0	0.0	0.0	4.0	0.0			
	0.0	4.0	0.0	0.0	3.0	5.0			
	8.0	0.0	8.0	0.0	8.0	8.0		0.0	4.0
0.0		0.0	7.0	0.0	7.0	7.0			
	8.0	8.0	0.0	0.0	0.0	0.0			
	0.0	0.0	0.0	0.0	8.0	8.0			
		0.0	0.0	0.0	4.0	0.0		0.0	
		15.0	0.0		0.0	4.0			
	4.0	4.0	12.0	4.0	4.0	12.0			
	7.0	7.0	16.0	7.0	7.0	17.0			
	6.0	2.0	6.0	6.0	6.0	6.0			
	4.0	6.0	0.0	0.0	3.0	3.0			
		4.0	0.0	4.0	0.0	0.0			5.0
	0.0	0.0	0.0	0.0	16.0	16.0			
			0.0		6.0	6.0			
	6.0	6.0		0.0					
0.0	0.0	0.0	0.0	4.0	11.0	11.0			3.0
	4.0	0.0	4.0	0.0	4.0	4.0		4.0	4.0
	0.0	8.0	0.0	9.0	0.0	0.0		8.0	
	0.0	0.0	0.0	0.0	0.0	0.0			
	0.0	0.0	0.0	0.0	0.0	0.0			
	0.0	0.0	10.0	0.0	10.0	11.0		11.0	
	0.0	19.0	0.0	20.0	0.0	0.0			
			4.0		4.0	4.0			
	0.0	0.0	4.0	0.0	4.0	4.0		0.0	
		16.0	0.0	16.0	0.0	0.0			17.0
		10.0		9.0					
27.0	11.0	11.0	26.0	11.0	24.0	24.0		24.0	24.0
	7.0	7.0	0.0	7.0	0.0	0.0		7.0	
0.0	0.0	16.0	0.0		0.0	0.0			
		22.0	22.0	0.0	22.0	22.0			
		17.0	6.0	14.0	6.0	6.0		6.0	18.0
		0.0	8.0	0.0	6.0			0.0	0.0
34.0		23.0							
			23.0		34.0				
	5.0	11.0	5.0	15.0	5.0	5.0			
	0.0	0.0	5.0	0.0	5.0	6.0			
	6.0	5.0	0.0	5.0	0.0	0.0			5.0
0.0		0.0	8.0		9.0	9.0			
13.0	4.0	13.0	4.0	14.0	4.0	4.0			4.0
			0.0			0.0			
16.0	15.0	15.0	15.0	15.0	15.0				
		12.0		12.0	25.0	25.0		22.0	26.0
		0.0	4.0	0.0	4.0	4.0			4.0
	0.0	0.0	5.0	0.0	6.0	6.0		0.0	
		6.0	25.0	6.0	32.0	31.0			
		0.0	7.0	0.0	8.0	8.0		4.0	
8.0		4.0		4.0	8.0	8.0		4.0	7.0
0.0	0.0	0.0	0.0	0.0	0.0	0.0			
	4.0	0.0	5.0	0.0	5.0	5.0			
	7.0	13.0	7.0	13.0	7.0			7.0	
4.0	4.0	4.0	4.0	4.0	4.0	4.0		4.0	
0.0		0.0	6.0	0.0	10.0	9.0		9.0	0.0
12.0		6.0	6.0	4.0	6.0	6.0			
	20.0		20.0	0.0	19.0			19.0	0.0
	5.0	8.0	5.0	8.0	0.0	0.0			
	6.0	11.0	6.0	11.0	6.0	6.0			11.0
6.0		6.0	5.0	6.0	5.0	5.0			
			17.0	0.0	18.0	18.0			0.0
	12.0	0.0	13.0	0.0	14.0	14.0			
		13.0	8.0	14.0	6.0	8.0		8.0	
	0.0	0.0	22.0	0.0	21.0	18.0		21.0	4.0
	18.0	21.0	0.0	22.0	0.0	0.0		16.0	
0.0	10.0	0.0	0.0	0.0	12.0	13.0			
		14.0		16.0					
		12.0	0.0	13.0	0.0	0.0			
0.0	0.0	7.0	0.0	7.0	0.0	0.0			0.0
0.0		10.0	0.0	7.0	0.0				5.0
0.0	13.0	4.0	12.0	4.0	12.0			14.0	
	17.0	13.0	0.0	15.0	0.0	0.0			
	0.0	0.0	15.0	0.0	13.0	17.0			
	0.0	11.0	0.0	11.0	0.0	0.0		0.0	
		9.0		9.0					
0.0	0.0	4.0	0.0	4.0	0.0	0.0			
	26.0	27.0	0.0	25.0	0.0				
		0.0	25.0	0.0	27.0	26.0			
		4.0	5.0	4.0	5.0	5.0			5.0
	6.0	6.0	7.0	6.0	7.0	7.0			6.0
	7.0	7.0	6.0	7.0	6.0	6.0			6.0
		11.0	5.0	10.0	5.0	5.0			9.0
	5.0	5.0	16.0	5.0	14.0	14.0			
	14.0	14.0	5.0	16.0	5.0	5.0			
	0.0	0.0		0.0	0.0	0.0			
	0.0	0.0	0.0		0.0	0.0			0.0
4.0	0.0	0.0	5.0	6.0	5.0	5.0			6.0
10.0	6.0	8.0	9.0	8.0	6.0	6.0			8.0
	14.0	14.0	4.0	14.0	4.0	4.0		4.0	
	4.0	4.0	14.0	4.0	14.0	14.0			
		0.0	33.0	0.0	33.0	36.0	0.0	35.0	
4.0	4.0	12.0	12.0	0.0	14.0	12.0			
	7.0	7.0	10.0	6.0	10.0	12.0		12.0	
	5.0	5.0	13.0	5.0	14.0	14.0			
	13.0	4.0	4.0	4.0	11.0	11.0			
5.0	5.0	16.0	5.0		0.0	0.0			
	0.0	0.0	4.0	0.0	4.0	5.0		0.0	4.0
	5.0	4.0	0.0	4.0	0.0	0.0			0.0
		15.0	0.0	15.0	0.0	0.0		0.0	15.0
			0.0		4.0	4.0			
	31.0	32.0	0.0	0.0	0.0	0.0			
	0.0	0.0	6.0	0.0	6.0	7.0		0.0	
		10.0	11.0	10.0	10.0	8.0		8.0	8.0
		8.0	12.0	7.0	12.0	12.0			4.0
4.0		4.0	7.0	0.0	8.0	8.0		0.0	
	5.0	5.0	31.0	5.0	29.0	25.0		0.0	29.0
	9.0	9.0	11.0	9.0	11.0	11.0			
	5.0	11.0	5.0	11.0	5.0	5.0			11.0
0.0		0.0	0.0	0.0	0.0	0.0			
	44.0	44.0	44.0	44.0	4.0	4.0			
17.0	14.0	12.0	18.0	13.0	13.0	13.0			
	8.0	10.0	8.0	9.0	8.0	8.0		8.0	
7.0		5.0	12.0	5.0	13.0	13.0			8.0
		5.0	5.0	5.0	5.0	5.0	4.0	0.0	
	0.0	19.0	0.0	21.0	0.0	0.0			0.0
0.0	7.0	4.0	0.0	4.0	0.0	0.0			
		0.0	0.0	0.0	0.0	0.0			
11.0	13.0	13.0	11.0	12.0	9.0	9.0		9.0	
		10.0		10.0	7.0	7.0		7.0	15.0
	4.0	4.0	4.0	4.0	0.0	0.0			
	0.0	9.0	0.0	9.0	0.0	0.0			
		0.0	0.0	9.0	0.0	0.0		0.0	
7.0			4.0	8.0	4.0	5.0			5.0
8.0	8.0	9.0	8.0	9.0	6.0	6.0			16.0
6.0	11.0	11.0	7.0	11.0	7.0	6.0			
13.0		13.0	4.0	13.0	4.0	4.0			
		0.0	17.0	0.0	17.0	17.0			
		27.0		21.0					
		5.0	5.0	10.0	5.0	5.0		8.0	8.0
		11.0	5.0	11.0	5.0	5.0	12.0		
		8.0	8.0	5.0	8.0	8.0			5.0
		4.0	14.0	10.0		16.0		16.0	11.0
	0.0	0.0	0.0	0.0	0.0			0.0	4.0
		0.0	0.0	0.0	0.0	0.0			
	15.0		14.0		13.0	13.0		13.0	13.0
7.0		6.0	13.0	6.0	15.0	13.0		6.0	6.0
		4.0	9.0	6.0	9.0	9.0	8.0		8.0
		15.0	16.0	16.0	5.0	5.0		6.0	19.0
15.0	0.0	15.0	0.0	13.0	0.0			4.0	
0.0	13.0	0.0	15.0	0.0	15.0	15.0			0.0
		0.0	0.0	0.0	0.0	0.0		0.0	0.0
5.0		5.0	9.0	5.0	10.0	10.0			
			5.0		6.0	4.0			
	4.0	6.0		5.0					
			6.0		6.0	5.0			
	5.0	6.0		6.0					
	8.0	9.0	5.0	6.0	5.0	5.0			8.0
	5.0	5.0	6.0	5.0	9.0	8.0			8.0
14.0	5.0	5.0	18.0	5.0	18.0	16.0			5.0
		0.0	0.0	13.0	0.0	0.0		0.0	
	10.0	4.0	10.0	4.0	10.0	10.0			6.0
		5.0	5.0	5.0	6.0	6.0		5.0	5.0
6.0			5.0	0.0	5.0	5.0			
	0.0	19.0	0.0	19.0	0.0	0.0		18.0	18.0
6.0	2.0	6.0	0.0	6.0	0.0	0.0		0.0	6.0
0.0	4.0	0.0	4.0	0.0	4.0	4.0			0.0
	4.0		4.0		4.0	4.0			4.0
			4.0	5.0	4.0	4.0			5.0
	8.0	14.0	8.0	13.0	8.0	8.0		8.0	6.0
	0.0	0.0	0.0	0.0	0.0	0.0			
		6.0	15.0	7.0	15.0	15.0		15.0	13.0
	8.0	14.0	8.0	12.0	8.0	8.0			
		4.0	4.0	4.0	4.0	4.0			
	0.0	13.0	4.0	14.0	4.0	4.0		4.0	
		14.0	0.0	16.0	0.0	0.0			
6.0		4.0	12.0	4.0	14.0	14.0			
		0.0		0.0					
	7.0	7.0	0.0	7.0	0.0	5.0		6.0	6.0
	5.0	0.0	7.0	0.0	7.0	7.0		6.0	8.0
		0.0	8.0	0.0	8.0	9.0			
	16.0	16.0	13.0	15.0	13.0	13.0			9.0
			0.0	7.0	0.0	0.0		0.0	10.0
	0.0	4.0	0.0	4.0	0.0				0.0
	7.0	7.0	0.0	7.0	0.0	0.0			
		0.0		0.0	31.0	29.0		31.0	0.0
0.0		9.0	0.0	10.0	0.0				
	0.0	7.0	0.0	7.0	0.0	0.0		0.0	7.0
0.0	5.0	0.0	5.0	0.0	5.0	5.0		5.0	
	6.0	8.0	6.0	8.0	6.0	6.0		4.0	4.0
		6.0	4.0	6.0	4.0	4.0		4.0	6.0
	7.0	4.0	4.0	4.0	4.0			4.0	4.0
14.0		13.0	13.0	13.0	17.0	17.0			11.0
10.0	7.0	7.0	10.0	6.0	10.0	10.0			4.0
31.0			24.0	27.0	24.0	24.0			
	11.0	9.0	10.0	11.0	10.0	9.0			
	11.0	11.0	19.0	11.0	14.0	14.0		11.0	
	14.0	14.0	11.0	19.0	11.0	11.0			12.0
0.0		14.0	0.0	16.0	0.0				
	8.0	8.0	15.0	8.0	13.0	13.0			8.0
	11.0	12.0	0.0	7.0	0.0	0.0			0.0
0.0	0.0	0.0	22.0	0.0	23.0	23.0			0.0
		20.0	0.0	19.0	0.0	0.0		0.0	0.0
	4.0	7.0	4.0	7.0	5.0	5.0		5.0	7.0
	20.0	20.0	0.0	18.0	0.0	0.0			
	0.0	0.0	18.0	0.0	20.0	20.0		0.0	0.0
		6.0	4.0	4.0	6.0	6.0			
		0.0	0.0	4.0	0.0	0.0		0.0	
4.0	0.0		5.0		5.0	5.0			
	4.0	4.0	0.0	6.0	0.0	0.0		6.0	
0.0	0.0	5.0	0.0	5.0	0.0	0.0			
		0.0	2.0	0.0	8.0	4.0			
		0.0	10.0	0.0		17.0		17.0	17.0
	7.0	7.0	7.0	7.0	7.0	7.0			
15.0		15.0	0.0	15.0	0.0	0.0		0.0	
0.0			0.0		4.0	0.0			
	0.0	0.0	0.0	0.0	0.0	0.0			
	0.0	4.0	0.0	7.0	0.0	0.0			
	0.0	0.0	5.0	0.0	5.0	5.0			7.0
	5.0	5.0	0.0	5.0	0.0	0.0			
4.0		4.0	21.0	4.0	21.0	21.0	4.0		
		9.0	9.0	4.0	9.0	9.0		0.0	0.0
	0.0	6.0	0.0	6.0	0.0	0.0		6.0	6.0
		13.0		15.0					
	4.0	25.0	4.0	25.0	0.0	4.0			
			6.0		6.0	6.0			
	6.0	6.0	6.0	6.0	6.0	6.0		5.0	
7.0		7.0	5.0	7.0	5.0	5.0			9.0
	0.0	4.0	0.0	4.0	0.0	0.0			
0.0	0.0	0.0	0.0	0.0	0.0	0.0			0.0
0.0	0.0	0.0	0.0	0.0	0.0	0.0		0.0	0.0
	6.0	6.0	14.0	5.0	14.0	17.0			
	17.0	14.0	5.0	14.0	6.0	6.0			14.0
	0.0	0.0	5.0	0.0	5.0	5.0		0.0	
5.0	5.0	5.0	5.0	5.0	6.0	7.0			
		9.0	15.0	9.0		15.0		15.0	8.0
		11.0	7.0		7.0	7.0			
			26.0	4.0	24.0	24.0			5.0
		0.0	0.0	0.0	0.0	0.0			0.0
	8.0	8.0	5.0	8.0	5.0	5.0		7.0	
0.0	0.0	5.0	0.0	4.0	0.0	0.0			
4.0	9.0	5.0	9.0	5.0	8.0	8.0		8.0	8.0
7.0			6.0		6.0	6.0			
5.0	5.0	5.0	31.0	5.0	27.0	25.0		6.0	
	0.0	0.0	4.0	0.0	5.0	5.0		0.0	
14.0		14.0	5.0	15.0	6.0	6.0		6.0	
0.0		0.0	0.0	0.0	0.0	0.0			0.0
	19.0	21.0	0.0	14.0	0.0			0.0	0.0
		0.0	14.0	0.0	21.0	19.0			
			7.0		7.0	7.0			
	4.0	4.0	4.0	4.0	4.0			0.0	
	4.0	9.0	4.0	7.0	4.0	4.0		7.0	
	0.0	0.0	0.0	0.0	0.0	0.0			
	9.0		9.0		9.0	9.0			
		7.0		7.0	12.0	12.0		12.0	7.0
0.0	23.0	23.0	0.0	23.0	0.0			0.0	
12.0			10.0		10.0	10.0			
		0.0	0.0	0.0	6.0	6.0			0.0
		4.0	4.0	4.0	4.0	4.0			
		5.0		5.0	17.0	16.0			0.0
	11.0	4.0	12.0	4.0	10.0	10.0			
		5.0	4.0	5.0	4.0	4.0		4.0	4.0
5.0	5.0	20.0	6.0	20.0	6.0	6.0		6.0	20.0
4.0		27.0	4.0	23.0	4.0	4.0			4.0
	5.0	9.0	5.0	10.0	5.0	5.0		5.0	5.0
	35.0		35.0		36.0	36.0			
0.0	0.0	0.0	11.0	0.0	0.0	8.0			
		13.0	4.0	13.0	4.0	4.0		4.0	4.0
	4.0	4.0	13.0	4.0	13.0			3.0	12.0
16.0	5.0	5.0	17.0	5.0	17.0	17.0			
	0.0	0.0	5.0	0.0	6.0	6.0			0.0
	6.0	6.0	0.0	5.0	0.0	0.0			
	0.0	7.0	0.0	7.0	0.0	0.0		0.0	
		4.0	11.0	4.0	11.0	11.0			
	11.0	11.0	4.0	11.0	4.0			5.0	5.0
4.0	4.0	13.0	4.0	15.0	4.0	4.0		4.0	4.0
4.0	7.0	7.0	5.0	7.0	0.0	0.0			
12.0		12.0	9.0	12.0	9.0	9.0			18.0
25.0			24.0	6.0	21.0	28.0			
7.0		5.0	7.0	5.0	6.0	6.0		5.0	5.0
	6.0	6.0	0.0	8.0	0.0	0.0			
	0.0	0.0	8.0	0.0	6.0	6.0		0.0	
0.0		0.0	11.0	0.0	11.0	17.0		0.0	0.0
		5.0	16.0	7.0	12.0	10.0		10.0	5.0
	19.0	0.0	29.0	0.0	29.0	29.0		0.0	4.0
15.0	0.0	0.0	15.0	0.0	15.0	16.0		16.0	0.0
	6.0	25.0	6.0	24.0	7.0	7.0			5.0
5.0	22.0	25.0	4.0	26.0	4.0	5.0		5.0	5.0
		9.0	10.0	9.0	11.0	11.0		7.0	11.0
		9.0	0.0	9.0	0.0	0.0			
	0.0	0.0	0.0	0.0	0.0	0.0			
	9.0	9.0	0.0	6.0	0.0	0.0			
	4.0	4.0	8.0	4.0	8.0	7.0			
	7.0	8.0	4.0	8.0	4.0	4.0			
	4.0	9.0	4.0	11.0	4.0	4.0			
		5.0	6.0	5.0	5.0	6.0		5.0	5.0
	0.0	0.0	0.0	0.0	0.0	0.0			
0.0	0.0	7.0	0.0	8.0	0.0	0.0		0.0	9.0
	0.0	0.0	0.0	0.0	0.0	0.0			
		10.0		8.0	5.0	5.0		5.0	10.0
	23.0	6.0	24.0	5.0	18.0	23.0			20.0
		12.0		12.0					12.0
	10.0	10.0	0.0	11.0	0.0	0.0			0.0
	0.0	0.0	11.0	0.0	10.0	10.0		0.0	
		16.0	5.0	5.0	5.0	5.0		5.0	
	6.0	21.0	7.0	18.0	7.0	6.0			19.0
		7.0		10.0	16.0	11.0			
11.0	12.0	12.0	10.0	12.0	12.0	12.0			
10.0	7.0	8.0	8.0	8.0	9.0	9.0			
9.0	8.0	8.0	8.0	7.0	10.0	10.0		6.0	
11.0	11.0	0.0	11.0	0.0	11.0				
		0.0	0.0	0.0	0.0	0.0			0.0
		6.0	5.0	6.0		4.0			6.0
7.0		7.0	10.0	7.0	10.0	10.0	8.0		10.0
		6.0	4.0	6.0	4.0	4.0		4.0	
			0.0	11.0	0.0	0.0		9.0	9.0
	7.0	7.0	6.0	7.0	6.0	6.0			
	6.0	6.0	7.0	6.0	7.0	7.0		6.0	
		0.0	0.0	18.0	0.0	0.0			15.0
	5.0		11.0	0.0	10.0	10.0			
	0.0	0.0	0.0	0.0	26.0	22.0			
0.0		13.0	0.0		0.0	0.0			24.0
5.0		4.0		5.0	6.0	6.0			6.0
	0.0	16.0	0.0	17.0	0.0	0.0			
	0.0	0.0	0.0	7.0	6.0	6.0			8.0
	6.0	7.0	6.0	7.0	6.0	6.0			
		8.0	6.0		6.0	6.0		6.0	6.0
			7.0	0.0	7.0	7.0			
		20.0	20.0	0.0	15.0	15.0			
0.0	0.0	0.0	4.0	0.0	4.0	4.0			4.0
	16.0	16.0	0.0	16.0	0.0	0.0			0.0
	0.0	0.0	16.0	0.0	16.0	16.0			
12.0	14.0	14.0	11.0	14.0	14.0	14.0			13.0
	8.0	10.0	9.0	8.0	9.0	9.0			8.0
	17.0	16.0	4.0	15.0	4.0	5.0			
	5.0	4.0	15.0	4.0	16.0	17.0			
	0.0	8.0	0.0	7.0	0.0	0.0			
	18.0	5.0	19.0	6.0	20.0	20.0			20.0
	23.0	23.0	5.0	26.0	5.0	5.0		5.0	21.0
	5.0	5.0	26.0	5.0	23.0	23.0		5.0	
	13.0	13.0	0.0	13.0	0.0	0.0			
	0.0	0.0	13.0	0.0	13.0	13.0		16.0	
	0.0	7.0	0.0	7.0	0.0	0.0			0.0
0.0		24.0	0.0		0.0	0.0		0.0	0.0
	4.0	4.0		4.0					
		6.0	0.0	6.0	0.0	0.0		0.0	
4.0		5.0	4.0	5.0	4.0	4.0			
		0.0	0.0	13.0	0.0	0.0		0.0	
		16.0	0.0	16.0	0.0	0.0			
	4.0	7.0	0.0	9.0	0.0	0.0		0.0	4.0
8.0	12.0	13.0	10.0	13.0	10.0	10.0			13.0
		12.0	4.0	12.0	4.0	4.0	4.0		9.0
0.0		0.0	11.0	6.0		9.0			
		5.0		5.0					
			-2.0		8.0	8.0			
	8.0	8.0		-2.0				8.0	10.0
		5.0	0.0	0.0	0.0	0.0			
5.0	5.0	9.0	4.0	9.0	4.0				
	9.0	10.0	6.0	10.0	6.0	4.0	10.0		
10.0	4.0	6.0	10.0	6.0	10.0	9.0			
			0.0		0.0	0.0			
	0.0	0.0		0.0					0.0
		0.0		0.0					
0.0		-1.0	0.0	0.0	9.0	0.0			9.0
0.0		0.0	0.0	0.0	0.0	0.0			
0.0	0.0	12.0	0.0	12.0		5.0			
5.0		5.0	0.0	0.0	4.0	0.0	0.0		
	0.0	4.0	0.0	0.0	0.0	0.0			
	0.0	0.0	0.0	0.0	4.0	0.0			
		0.0	9.0	0.0	11.0	12.0			7.0
0.0		0.0	4.0	0.0	4.0	4.0			
			0.0	0.0	7.0	7.0			
	7.0	7.0	0.0	0.0					
		6.0		6.0					
0.0		0.0	10.0	0.0	12.0	12.0		11.0	
	0.0	0.0		0.0		0.0			
	0.0		0.0		0.0	0.0			
	7.0	7.0	0.0	7.0	0.0	0.0			9.0
	0.0	0.0	7.0	0.0	7.0	7.0			
			0.0		0.0	0.0			
0.0		0.0	7.0	0.0	7.0	7.0		5.0	
		5.0	9.0	4.0	6.0	6.0			9.0
	0.0	0.0	11.0	0.0	9.0	9.0			0.0
	9.0	9.0	0.0	11.0	0.0	0.0			
	17.0	17.0	0.0	16.0	0.0	0.0		0.0	15.0
	0.0	0.0	16.0	0.0	17.0	17.0		15.0	0.0
	0.0	5.0	0.0	5.0	0.0	0.0		5.0	
	4.0	4.0	7.0	0.0	6.0	6.0			
	6.0	6.0	0.0	7.0	4.0	4.0			
	8.0	8.0	0.0	8.0	0.0	0.0			
	0.0	0.0	8.0	0.0	8.0	8.0			
	4.0	6.0	4.0	5.0	4.0	4.0			
0.0	0.0	15.0	0.0	16.0					
		0.0	0.0	0.0	15.0	13.0			0.0
		21.0		21.0					
	10.0	10.0	22.0	10.0	22.0	22.0			21.0
	22.0	22.0	10.0	22.0	10.0	10.0			
	0.0	13.0	0.0	13.0	0.0	0.0			0.0
			0.0		4.0	4.0			
	4.0	4.0		0.0					
	0.0	9.0	0.0	9.0	0.0	0.0			
	6.0	6.0		0.0	0.0	0.0			
					18.0	18.0			
	0.0	18.0	0.0	18.0	0.0	0.0		0.0	
	4.0	22.0	4.0	22.0	0.0	0.0			0.0
				16.0	0.0	0.0		0.0	
		8.0	6.0		6.0	6.0		6.0	
		11.0	0.0	11.0	0.0	0.0			
0.0	4.0	4.0	7.0	4.0	7.0	7.0			
	8.0	7.0	9.0	7.0	11.0	11.0			
	0.0	0.0	4.0	0.0	4.0	4.0		0.0	
		8.0	0.0	0.0	6.0	6.0			10.0
5.0		5.0	7.0	5.0	7.0	7.0			
	6.0	0.0	6.0	0.0	6.0	6.0			0.0
	0.0	0.0	7.0	0.0	7.0	7.0			
	7.0	7.0	0.0	7.0	0.0	0.0		7.0	7.0
		8.0	4.0	8.0	4.0	4.0			
0.0	-7.0	3.0	0.0	0.0	10.0	0.0			
8.0		9.0	10.0	9.0	8.0	8.0		9.0	10.0
	4.0	0.0	8.0	0.0	8.0	8.0			
	0.0	0.0	0.0	0.0	0.0	0.0			
	0.0	0.0	0.0	0.0	0.0	0.0			0.0
		0.0		0.0	0.0	0.0		0.0	
		11.0	4.0	11.0	6.0	5.0			
	8.0	6.0	6.0	6.0	5.0	6.0			
		6.0	4.0	6.0		4.0		4.0	
5.0		0.0	5.0	0.0	4.0	4.0		4.0	4.0
	3.0	6.0	5.0	6.0	5.0			0.0	5.0
	7.0	7.0	6.0	7.0	6.0	6.0			
	6.0	6.0	7.0	6.0	7.0	7.0			
			18.0		19.0	19.0			19.0
0.0	0.0	0.0	11.0	0.0	9.0	9.0		9.0	
0.0		17.0	0.0	17.0	0.0	0.0			
	6.0	9.0	8.0	7.0	7.0	7.0			
0.0	29.0	29.0	0.0	25.0	0.0	0.0		0.0	
	7.0	10.0	17.0		17.0	17.0		17.0	
		12.0	8.0		8.0	11.0			11.0
	23.0	9.0	23.0	12.0	19.0	19.0			
		0.0	11.0	0.0		14.0			0.0
	0.0	0.0	6.0	0.0	6.0	6.0			
0.0	5.0	0.0	0.0	5.0	0.0	0.0			
		0.0	6.0	0.0	8.0	8.0			
	8.0	8.0	0.0	6.0	0.0			0.0	
		0.0		0.0					
	8.0	15.0	9.0	16.0	9.0	9.0			
		0.0		0.0	6.0	6.0		0.0	0.0
4.0	4.0	4.0	4.0	4.0	4.0	4.0		4.0	
	0.0	5.0	0.0	4.0	0.0	0.0			
	10.0	29.0	10.0	33.0	10.0	10.0		13.0	
	0.0	0.0	0.0	0.0	0.0	0.0			
		0.0	0.0	6.0	0.0	0.0			
	6.0	6.0	6.0	6.0	6.0	6.0			3.0
	20.0	18.0	5.0	18.0	5.0	5.0		5.0	5.0
0.0	13.0	13.0	0.0	13.0	0.0	0.0			
	18.0	18.0	4.0	19.0	4.0	4.0			
	4.0	4.0	19.0	4.0	18.0	18.0			4.0
	12.0	12.0	4.0		4.0	4.0			
		0.0	4.0	0.0	4.0	4.0		0.0	
		0.0		0.0	7.0	5.0			0.0
		0.0		0.0	0.0	0.0			0.0
0.0	0.0	0.0	16.0	0.0	16.0	16.0			0.0
	0.0	0.0	0.0	0.0	0.0	0.0			
	0.0	0.0	0.0	0.0	0.0	0.0			
	12.0		12.0		12.0	14.0			13.0
		7.0	0.0	7.0	0.0	0.0			
	6.0	9.0	6.0	13.0	6.0	6.0			6.0
		16.0		12.0	7.0	8.0			8.0
	0.0	19.0	4.0	20.0	4.0	0.0		4.0	4.0
	15.0	15.0	10.0	15.0	10.0	10.0		16.0	10.0
		11.0	6.0	10.0	6.0	5.0			
0.0	16.0	0.0	16.0	0.0	16.0	16.0			0.0
	10.0	10.0	16.0	10.0	16.0	15.0			9.0
	15.0	16.0	10.0	16.0	10.0	10.0			17.0
		12.0	6.0	8.0	6.0	5.0		10.0	
12.0		12.0	10.0	6.0	10.0	10.0			
0.0		0.0	8.0	0.0	8.0	8.0		8.0	
11.0	0.0	0.0	0.0	11.0	0.0	0.0			
		5.0	0.0	5.0	0.0	0.0			0.0
	6.0	6.0	10.0	6.0	9.0	9.0		9.0	
	9.0	9.0	6.0	10.0	6.0	6.0		6.0	
			27.0	10.0	27.0	27.0		10.0	
8.0	5.0	5.0	6.0	5.0	9.0	7.0		4.0	
	6.0	6.0	19.0	7.0	19.0				18.0
		19.0	7.0	19.0	6.0	6.0			
		13.0	12.0		11.0	11.0			14.0
		14.0	3.0	13.0	6.0	6.0			
	18.0	18.0	4.0		6.0	8.0		8.0	
	0.0	0.0	11.0	0.0	11.0	11.0		0.0	
0.0		0.0		0.0	12.0	12.0		12.0	0.0
		10.0	19.0	10.0	17.0	17.0			11.0
0.0	0.0	0.0	0.0	0.0	0.0	0.0			0.0
4.0	4.0	4.0		4.0					
4.0			0.0		0.0	0.0			
			5.0		5.0	0.0			
		5.0	14.0	14.0	12.0	12.0		16.0	
	18.0	18.0	5.0	20.0	5.0	5.0			18.0
	5.0	5.0	20.0	5.0	18.0	18.0		19.0	5.0
			7.0		6.0	6.0			
	6.0	6.0		7.0					0.0
4.0	4.0	21.0	5.0	22.0	5.0	5.0			5.0
	15.0	10.0	14.0	9.0	13.0				12.0
0.0		0.0		0.0	0.0	0.0			
	0.0	0.0		0.0					
					0.0	0.0		0.0	
		13.0	0.0	10.0	0.0	0.0	12.0		
0.0	7.0	6.0	7.0	0.0	7.0	7.0			
	0.0	26.0	0.0	25.0	0.0	0.0		0.0	
			0.0	16.0	0.0	0.0			0.0
		6.0	5.0	4.0	5.0	5.0			5.0
	7.0	7.0		6.0					
			6.0		7.0	7.0			
	7.0	7.0	0.0	7.0	0.0	0.0			0.0
	0.0	0.0	7.0	0.0	7.0	7.0			0.0
	7.0	7.0	6.0	7.0	7.0	7.0		7.0	
4.0	4.0	4.0	13.0	5.0	13.0	13.0			
7.0	5.0	7.0	5.0	7.0	0.0	4.0		4.0	8.0
									
									
	13.0	7.0	13.0	7.0	13.0	13.0			
		20.0	7.0	20.0	12.0	12.0		20.0	
11.0	15.0	15.0	11.0	7.0	11.0	11.0			11.0
4.0	7.0	4.0	7.0	4.0	7.0	7.0		5.0	4.0
	0.0	0.0	6.0	0.0	6.0	6.0			
	11.0	11.0	0.0	10.0	0.0				
		0.0	10.0	0.0	11.0	11.0			
		4.0	4.0	0.0	4.0	0.0	0.0		
0.0	0.0	4.0	0.0	4.0	4.0			4.0	
	5.0	5.0	13.0	5.0	13.0			13.0	
		13.0	5.0	13.0	5.0	5.0		6.0	
5.0	29.0	29.0	5.0	35.0	5.0	5.0			35.0
	4.0	4.0	4.0	4.0	4.0				6.0
		4.0	4.0	4.0	4.0	4.0			
24.0	7.0	23.0	25.0	7.0	25.0	25.0			
7.0	16.0	7.0	11.0	6.0	17.0	17.0			
		4.0	4.0	4.0	4.0	4.0			4.0
	4.0	4.0	8.0	7.0	8.0	8.0			6.0
	8.0	8.0	7.0	8.0	4.0	4.0			4.0
