0	1	2	3	4	5	6	7	8	9	10	11	12	13
X	x	Z	Y	X	x	Z	Z	Z	Y	X	x	Z	Z
y	-	-	Y	X	x	Z	Z	Z	-	X	x	y	-
Z	-	Z	Z	Z	-	Z	Z	Z	Z	Z	-	Z	Z
-	-	z	Y	X	x	Y	X	x	Y	X	x	X	x
z	Z	-	Y	X	x	Z	Z	Z	-	X	x	-	z
z	Z	Z	Y	X	x	Z	Z	Z	Z	Z	-	X	x
Z	Z	-	Y	X	x	Z	Z	Z	Y	X	x	X	x
-	Z	-	Z	Z	-	Z	Z	Z	Y	X	x	Z	Z
Y	X	x	Y	X	x	Z	Z	-	Y	X	x	Z	-
-	Z	Z	Y	X	x	Z	Z	Z	-	X	x	y	z
z	Z	-	Y	X	x	Z	Z	Z	Z	Z	-	Z	Y
Z	Z	Z	Y	X	x	Z	Z	-	Z	Z	-	Z	Z
z	Z	Z	Y	X	x	Z	Z	Z	-	X	x	Z	-
z	Z	Z	Y	X	x	Z	Z	Z	Z	Z	-	Y	X
z	Z	Z	Y	X	x	Z	Z	Z	Y	X	x	X	x
Y	-	y	Y	X	x	Z	Z	Z	-	Z	-	Z	Z
z	Z	Z	Y	X	x	Z	Z	Z	-	X	x	Z	-
Y	X	x	-	X	x	Z	Z	Z	Y	X	x	X	x
-	Z	Z	Y	X	x	Z	Z	-	Y	X	x	X	x
-	Z	Z	Y	X	x	Z	Z	-	Z	Z	-	-	Z
-	Z	-	Z	Z	-	Z	Z	-	Z	Z	-	Z	Y
-	-	Z	Y	X	x	Z	Z	Z	Z	Z	-	Z	-
x	Z	-	Y	X	x	Y	X	x	Y	X	x	Y	X
Z	Z	Z	Y	X	x	Z	Z	-	Y	X	x	Z	Y
z	z	z	Y	X	x	Z	Z	-	Z	Z	-	Z	Y
-	Z	-	Z	Z	-	Z	Z	Z	Z	Z	-	Z	Z
Z	Z	-	Y	X	x	Z	Z	-	Y	X	x	X	x
-	Z	Z	Y	X	x	Z	Z	-	-	X	x	Z	-
Y	X	x	Y	X	x	Y	X	x	Y	X	x	Y	X
-	Z	Z	Z	Z	-	Z	Z	Z	Z	Z	-	X	x
Y	-	y	Z	Z	-	Z	Z	Z	Y	X	x	Z	Y
x	-	Z	Y	X	x	Z	Z	Z	Y	X	x	Y	-
-	Z	Z	-	Z	-	Z	Z	Z	Y	X	x	-	Z
Z	-	Z	Y	X	x	Z	Z	Z	Y	X	x	X	x
-	-	-	Y	X	x	Z	Z	Z	Z	Z	-	Z	-
Z	Z	Z	Z	Z	-	Z	Z	Z	-	X	x	Y	X
Y	-	y	-	X	x	Z	Z	Z	Y	X	x	Z	Y
x	Z	-	Y	X	x	Z	Z	Z	-	X	x	X	x
z	Z	Z	Y	X	x	Z	Z	Z	Z	Y	-	y	z
Z	Z	-	Z	Z	-	Z	Z	Z	-	X	x	X	x
-	Z	-	Z	Z	-	Z	Z	Z	Z	Y	-	y	X
-	Z	Z	Y	X	x	Z	Z	Z	Y	X	x	y	Z
Z	Z	-	Y	X	x	Z	Z	-	Z	Z	-	Y	X
Y	X	x	Y	X	x	Z	Z	-	Y	X	x	Z	Z
z	Z	Z	-	X	x	Z	Z	Z	Y	X	x	X	x
-	Z	Z	-	X	x	Z	Z	Z	Y	X	x	-	Z
Z	Z	-	Y	X	x	Y	X	x	-	Z	-	Z	-
-	Z	Z	-	X	x	Z	Z	Z	Y	X	x	y	-
y	-	Z	Y	X	x	Z	Z	Z	Z	Z	-	Y	X
-	Z	Z	-	X	x	Z	Z	Z	Y	X	x	y	-
y	-	Z	Y	X	x	Z	Z	Z	Z	Z	-	Y	X
y	-	Z	Y	X	x	Z	Z	Z	-	X	x	X	x
-	Z	-	Y	X	x	Z	Z	-	Y	X	x	Z	Y
-	Z	-	Y	X	x	Z	Z	-	Y	X	x	Z	Y
z	Z	-	Y	X	x	Z	Z	Z	Y	X	x	Z	-
x	Z	-	Z	Z	-	Z	Z	Z	Y	X	x	Z	-
Z	Z	Z	Y	X	x	Z	Z	Z	Y	X	x	y	Y
x	-	Z	-	Z	-	Z	Z	Z	-	X	x	Y	-
y	Z	Z	Y	X	x	Z	Z	Z	-	X	x	y	X
Z	Z	Z	Y	X	x	Z	Z	Z	Y	X	x	y	Z
y	Z	Z	Y	X	x	Z	Z	Z	Y	X	x	Z	Z
x	Z	Z	Y	X	x	Z	Z	Z	Z	Y	-	y	X
-	Z	-	Y	X	x	Z	Z	Z	Y	X	x	Y	X
z	Z	Z	Y	X	x	Z	Z	Z	-	X	x	y	-
Z	Z	-	Y	X	x	Y	X	x	Z	Z	-	X	x
-	Z	Z	Z	Z	-	Z	Z	Z	Z	Z	-	-	X
X	x	Z	Y	X	x	Z	Z	Z	Y	X	x	y	Z
Z	-	Z	Y	X	x	Z	Z	Z	Y	X	x	Y	X
x	X	x	Y	X	x	Z	Z	-	Y	X	x	X	x
-	-	z	Z	Z	-	Z	Z	Z	Z	Z	-	X	x
-	Z	-	-	Z	-	Z	Z	Z	-	Z	-	Z	-
Z	Z	Z	Z	Z	-	Z	Z	Z	-	X	x	Y	X
-	-	Z	Y	X	x	Z	Z	Z	Y	X	x	Z	Y
x	y	-	Y	X	x	Z	Z	Z	-	Z	-	X	x
-	Z	-	Z	Z	-	Z	Z	Z	Y	X	x	Z	-
-	Z	Z	-	X	x	Z	Z	Z	Y	X	x	y	-
y	-	Z	Y	X	x	Z	Z	Z	Z	Z	-	Y	X
Z	-	Z	Y	X	x	Z	Z	Z	Y	X	x	X	x
X	x	y	Y	X	x	Z	Z	Z	Y	X	x	Y	X
Z	-	Z	Y	X	x	Z	Z	Z	Y	X	x	Y	X
Y	X	x	Z	Z	-	Z	Z	Z	Z	Z	-	Y	-
z	X	x	Y	X	x	Z	Z	Z	-	X	x	Z	Z
z	Z	Z	-	X	x	Z	Z	Z	Y	X	x	Z	Z
z	z	Z	Y	X	x	Z	Z	Z	Y	X	x	Y	X
y	Z	-	Y	-	y	Z	Z	Z	Y	X	x	Z	Z
-	-	-	Y	X	x	Z	Z	Z	-	Z	-	X	x
y	z	-	Y	X	x	Z	Z	Z	Y	X	x	X	x
-	-	Z	Y	X	x	Z	Z	Z	Y	X	x	Z	Y
-	z	Z	Y	X	x	Z	Z	Z	-	Z	-	X	x
-	Z	Z	Y	-	y	Z	Z	Z	-	X	x	Z	Z
y	-	Z	Y	X	x	Z	Z	Z	Y	X	x	y	z
y	Z	-	Y	-	y	Z	Z	Z	Y	X	x	Z	Z
-	-	-	Y	X	x	Z	Z	Z	-	Z	-	X	x
-	Z	Z	Y	X	x	Z	Z	Z	-	X	x	X	x
Z	-	Z	Y	X	x	Z	Z	Z	Y	X	x	X	x
Z	-	-	Y	X	x	Z	-	Z	-	Z	-	Y	-
-	Z	Z	Y	X	x	Z	Z	Z	Y	X	x	Z	Z
-	Z	Z	Y	X	x	Z	Z	Z	Y	X	x	Z	Z
z	Z	-	Z	Z	-	Z	Z	Z	Z	Z	-	-	Z
z	Z	-	Y	X	x	Z	Z	Z	Y	X	x	y	-
z	Z	Z	Y	X	x	Z	Z	Z	Z	Z	-	-	z
z	Z	-	Y	X	x	Z	Z	Z	-	X	x	X	x
z	Z	Z	Y	X	x	Z	Z	Z	Z	Z	-	X	x
Z	Z	-	Y	X	x	Z	Z	Z	Y	X	x	X	x
Y	X	x	Y	X	x	Y	X	x	Y	X	x	Y	X
Z	-	-	Z	-	-	Z	Z	Z	Y	X	x	X	x
X	x	Z	Y	X	x	Z	Z	Z	Y	X	x	y	z
z	X	x	Z	Z	-	Z	Z	Z	Y	X	x	Z	-
Z	Z	-	-	Z	-	Y	X	x	Z	Z	-	Y	-
Z	Z	Z	Y	X	x	Z	Z	Z	Y	X	x	Y	X
Z	Z	Z	Y	-	y	Z	Z	Z	Y	X	x	X	x
y	Z	-	Y	X	x	Z	Z	Z	Y	X	x	X	x
Z	Z	-	Y	X	x	Z	Z	Z	Z	Z	-	X	x
x	Z	Z	Y	X	x	Z	Z	Z	Y	X	x	-	Z
Z	Z	-	Y	-	y	Z	Z	Z	Y	X	x	X	x
-	Z	-	Y	X	x	Z	Z	Z	Z	Z	-	Z	Y
Z	-	Z	Z	Z	-	Z	Z	Z	-	X	x	Z	-
Z	-	Z	-	Z	-	Z	Z	Z	Y	X	x	Z	Z
X	x	Z	Y	X	x	Z	Z	Z	Z	Y	-	y	Z
Z	-	Z	Z	Z	-	Z	Z	Z	Y	X	x	Z	-
y	z	Z	Y	X	x	Z	Z	Z	Y	X	x	X	x
-	-	-	Y	X	x	Z	Z	Z	-	Z	-	Z	Y
z	Z	Z	Z	Z	-	Z	Z	Z	Z	Z	-	Z	-
Z	Z	-	Y	X	x	Z	Z	Z	Z	Y	-	y	z
Y	X	x	Z	Z	-	Z	Z	Z	Z	Y	-	y	X
Z	Z	-	Y	X	x	Z	Z	Z	Z	Z	-	Y	-
Y	X	x	Z	Z	-	Z	Z	Z	-	Z	-	Z	-
Z	Z	Z	Y	X	x	Z	Z	Z	-	Z	-	Y	-
x	X	x	-	X	x	Z	Z	Z	Z	Z	-	Y	-
y	z	Z	Y	X	x	Z	Z	Z	Z	Y	-	y	-
Z	-	-	Y	X	x	Z	-	-	Y	X	x	Z	Z
Z	-	-	Z	Z	-	Z	Z	Z	Y	X	x	Z	-
Z	Z	Z	Y	X	x	Z	Z	Z	-	X	x	X	x
-	Z	Z	Y	X	x	Z	Z	Z	Y	X	x	-	z
-	Z	-	Y	X	x	Z	Z	Z	Y	X	x	Y	-
Z	Z	-	Y	-	y	Z	Z	Z	Y	X	x	X	x
Z	Z	-	Y	-	y	Z	Z	Z	Z	Z	-	X	x
X	x	y	Y	X	x	Z	Z	-	Y	X	x	X	x
-	y	Z	Z	Z	-	Z	Z	Z	Z	Z	-	Z	Z
Z	Z	Z	Z	-	-	Z	Z	Z	Z	Z	-	Z	Z
y	Z	Z	Y	X	x	Z	Z	Z	Y	X	x	Z	Z
-	Z	Z	Y	X	x	Z	Z	Z	Z	Z	-	Y	X
x	y	z	Y	X	x	Z	Z	Z	Z	Z	-	Z	Z
z	-	-	Y	X	x	Z	Z	Z	-	Z	-	Y	-
-	Z	-	Y	X	x	Z	Z	Z	Y	X	x	X	x
Z	Z	-	Y	X	x	Z	Z	Z	Y	X	x	y	z
y	Z	Z	Y	X	x	Z	Z	Z	Y	-	y	Y	-
-	-	-	Y	X	x	Z	Z	Z	-	Z	-	-	-
y	-	z	-	X	x	Z	Z	Z	-	Z	-	Z	-
-	Z	Z	Y	X	x	Z	Z	Z	Y	X	x	Z	Z
z	Z	Z	-	X	x	Z	Z	-	Y	X	x	Z	-
z	-	Z	Y	X	x	Z	Z	Z	Z	Z	-	Z	-
-	-	Z	-	X	x	Z	Z	Z	-	X	x	Z	Z
y	Z	-	Y	X	x	Z	Z	Z	Z	Z	-	X	x
Z	Z	-	Y	X	x	Z	Z	Z	Y	X	x	Z	Z
x	Z	-	Y	X	x	Z	Z	Z	-	X	x	Z	Z
-	Z	Z	Y	X	x	Z	Z	Z	Y	X	x	Z	-
Z	Z	-	Y	X	x	Z	Z	-	Z	Z	-	Z	Z
x	Z	Z	Y	X	x	Z	Z	-	Y	X	x	Y	X
Z	Z	-	Y	X	x	Z	Z	Z	Y	X	x	Y	X
y	Z	-	Y	-	y	Z	Z	Z	Y	X	x	Z	Z
y	-	z	Y	X	x	Z	Z	Z	-	X	x	X	x
x	Z	-	-	X	x	Z	Z	Z	Z	Z	-	-	Y
y	Z	Z	Y	X	x	Z	Z	Z	Y	X	x	Z	Y
-	-	-	Z	Z	-	Y	X	x	-	Z	-	X	x
z	Z	-	Y	X	x	Z	Z	Z	Y	X	x	Z	-
Z	-	-	Z	Z	-	Z	Z	-	Y	X	x	X	x
Z	-	-	Y	X	x	Z	Z	Z	-	Z	-	-	Y
Z	-	Z	Z	Z	-	Z	-	Z	Y	X	x	Z	-
-	Z	-	Y	X	x	Z	Z	Z	Y	X	x	y	X
z	Z	Z	Y	X	x	Z	Z	Z	Y	X	x	Z	-
-	-	-	Y	X	x	Z	Z	Z	Y	X	x	Z	Z
-	z	Z	Y	X	x	Z	Z	Z	-	Z	-	Z	Z
X	x	y	Y	X	x	Z	Z	-	Y	X	x	Z	-
Z	-	Z	Y	-	y	Z	Z	Z	Y	X	x	X	x
y	Z	-	Y	X	x	Z	Z	Z	Z	Y	-	y	z
y	z	Z	Y	X	x	Z	Z	Z	Z	Z	-	Z	-
Z	Z	-	Y	X	x	Z	Z	Z	Z	Z	-	Y	X
-	Z	Z	Y	X	x	Z	Z	Z	Y	X	x	X	x
Y	X	x	Y	-	y	Z	Z	Z	Y	X	x	Y	-
Y	X	x	Y	X	x	Z	Z	Z	Y	X	x	X	x
y	Z	-	Y	X	x	Z	Z	Z	-	Z	-	X	x
Z	Z	Z	Y	X	x	Z	Z	Z	Y	X	x	y	Z
Z	-	Z	Y	X	x	Z	Z	Z	Z	Z	-	Z	-
y	Z	-	Y	X	x	Z	Z	Z	Y	X	x	Z	Z
z	Z	Z	Y	X	x	Z	Z	Z	Z	-	-	Y	X
-	Z	Z	-	X	x	Z	Z	Z	Z	Z	-	X	x
Z	Z	-	Z	Z	-	Z	Z	-	Z	Z	-	Z	Z
-	z	-	Y	X	x	Z	Z	-	-	Z	-	Z	Y
-	Z	Z	Y	X	x	Z	Z	Z	-	Z	-	Z	Z
Z	Z	-	Y	X	x	Z	Z	Z	Y	X	x	Z	Z
x	Z	Z	Y	X	x	Z	Z	Z	Y	X	x	Z	Z
X	x	-	Y	X	x	Z	Z	Z	Y	X	x	Y	X
-	Z	Z	Y	X	x	Z	Z	Z	-	X	x	Z	-
Y	-	y	-	X	x	Z	Z	Z	-	Z	-	Z	-
x	Z	Z	Z	Z	-	Z	Z	-	Y	X	x	Z	-
-	Z	Z	Y	X	x	Z	Z	Z	-	X	x	Z	-
Y	-	y	Z	Z	-	Y	X	x	Y	X	x	Y	-
-	Z	Z	-	X	x	Z	Z	Z	-	Z	-	-	Y
Z	-	Z	Z	Z	-	Z	Z	-	Z	Z	-	-	Z
Z	-	-	Z	Z	-	Z	Z	-	Z	Z	-	Z	Z
y	Z	Z	Y	X	x	Z	Z	Z	-	X	x	Y	X
X	x	Z	Y	X	x	Z	Z	Z	Y	X	x	Y	-
y	Z	Z	Y	X	x	Z	Z	Z	Y	X	x	X	x
-	X	x	Y	X	x	Z	Z	Z	Y	X	x	Z	Z
z	Z	-	Y	X	x	Z	Z	Z	Z	Y	-	y	-
-	Z	Z	Y	X	x	Z	Z	Z	Y	X	x	y	Z
y	-	z	Y	X	x	Z	Z	-	Y	X	x	X	x
X	x	Z	Z	Z	-	Z	Z	-	Z	Z	-	X	x
z	Z	Z	-	X	x	Z	Z	Z	-	Z	-	-	Y
X	x	Z	Z	Z	-	Z	Z	Z	Y	X	x	X	x
Z	Z	-	Y	X	x	Z	Z	-	Y	X	x	Z	Y
y	-	z	Y	X	x	Z	Z	Z	Y	X	x	y	Z
Z	-	-	Z	Z	-	Z	Z	Z	-	X	x	Z	-
z	Z	Z	Z	Z	-	Z	Z	Z	Z	-	-	Y	X
x	Z	Z	Y	X	x	Z	Z	Z	Y	X	x	y	z
x	Z	Z	-	X	x	Z	Z	Z	-	X	x	Y	-
-	Z	-	Y	-	y	Z	-	Z	Y	X	x	Y	X
z	Z	Z	-	X	x	Z	Z	Z	-	Z	-	-	Y
Z	-	Z	Y	X	x	Z	Z	Z	Y	X	x	X	x
Z	-	-	Z	Z	-	Z	Z	-	Z	Y	-	y	-
Z	-	Z	Y	X	x	Z	Z	Z	Z	Y	-	y	X
x	Z	Z	Z	Z	-	Z	Z	-	Y	X	x	Z	-
x	Z	-	Y	X	x	Z	Z	Z	-	Z	-	Z	Y
-	Z	-	Y	X	x	Z	Z	Z	Z	Z	-	Z	Y
Z	-	-	Y	X	x	Z	Z	Z	Z	Z	-	Z	Z
Y	X	x	Y	X	x	Z	Z	-	Z	Z	-	Z	Z
Z	-	Z	Y	X	x	Z	Z	Z	-	Z	-	Z	Z
X	x	Z	Y	X	x	Z	Z	Z	Y	X	x	Y	-
z	Z	-	Y	X	x	Z	Z	Z	-	X	x	Y	-
-	Z	-	Y	X	x	Z	Z	Z	-	X	x	-	-
-	Z	Z	Y	X	x	Z	Z	Z	Z	Y	-	y	-
Z	-	Z	Z	Z	-	Z	-	Z	Y	X	x	Z	-
-	Z	-	Y	X	x	Z	Z	Z	Y	X	x	y	X
y	Z	Z	Y	X	x	Z	Z	-	Y	X	x	X	x
-	-	Z	-	X	x	Z	Z	Z	-	X	x	Z	-
-	Z	Z	Z	Z	-	Z	Z	Z	Y	X	x	Y	-
z	Z	Z	Y	X	x	Z	Z	Z	-	Z	-	Z	-
Y	X	x	Z	Z	-	Z	-	Z	Z	Z	-	Y	X
Y	X	x	Y	X	x	Z	Z	Z	Y	-	y	Z	-
Y	X	x	Y	X	x	Z	Z	Z	Y	X	x	y	z
Y	X	x	Y	X	x	Z	Z	Z	-	X	x	y	z
y	Z	-	Z	Z	-	Z	Z	Z	-	Y	-	y	-
-	X	x	Y	X	x	Z	Z	Z	Y	X	x	Z	-
-	Z	-	Y	X	x	Z	Z	Z	-	X	x	-	-
Z	Z	Z	Y	X	x	Z	Z	Z	Y	X	x	X	x
Z	Z	-	Z	Z	-	Z	Z	Z	Z	Z	-	-	Z
y	Z	-	Y	X	x	Z	Z	Z	Y	X	x	Z	Z
x	Z	-	-	Z	-	Z	Z	Z	Z	Z	-	Z	Z
x	Z	-	Y	X	x	Z	Z	Z	Y	X	x	y	z
Z	-	Z	-	X	x	Z	Z	-	-	X	x	Z	-
z	Z	Z	Y	X	x	Z	Z	Z	Y	X	x	-	-
-	Z	-	-	X	x	Z	Z	Z	Z	Z	-	Z	-
-	Z	Z	Y	X	x	Z	Z	Z	Y	X	x	X	x
-	Z	-	Y	X	x	Z	Z	-	Y	X	x	Z	Z
x	Z	-	Z	Z	-	Z	Z	Z	Y	X	x	Z	Z
z	Z	Z	Y	X	x	Z	Z	Z	Y	X	x	X	x
x	Z	Z	-	X	x	Z	Z	Z	-	X	x	X	x
Y	-	y	Y	X	x	Z	Z	Z	Y	X	x	y	-
z	Z	Z	Y	X	x	Z	Z	Z	Y	X	x	X	x
-	-	Z	Y	X	x	Z	Z	Z	Y	X	x	Z	Z
Z	Z	-	Z	Z	-	Z	Z	Z	Y	X	x	Z	Y
-	-	Z	Y	X	x	Y	X	x	Z	Z	-	Z	Z
z	Z	Z	Y	X	x	Z	Z	Z	Y	X	x	Y	-
z	Z	-	Y	X	x	Z	Z	Z	Y	X	x	Z	Z
Y	X	x	Y	X	x	Y	X	x	Z	Z	-	X	x
X	x	y	Y	X	x	Z	Z	Z	Y	X	x	y	Z
-	y	Z	Y	X	x	Z	Z	Z	Y	X	x	-	z
y	Z	-	Y	X	x	Z	Z	Z	Z	Y	-	y	X
x	Z	Z	Y	X	x	Z	Z	-	-	Z	-	-	-
y	-	Z	-	X	x	Z	Z	Z	Y	X	x	X	x
X	x	-	Y	X	x	Y	X	x	Y	X	x	Z	-
y	Z	Z	Y	X	x	Z	Z	Z	-	X	x	-	Z
Y	-	y	Y	X	x	Z	Z	Z	Z	Z	-	-	X
-	z	-	Y	X	x	Z	Z	Z	Y	X	x	Z	Z
-	-	z	Y	X	x	Z	Z	Z	Z	Z	-	Z	Y
-	Z	Z	-	Z	-	Z	Z	Z	Y	X	x	Z	-
X	x	y	Y	X	x	Z	Z	Z	Z	Z	-	X	x
x	Z	-	Y	X	x	Z	Z	Z	Z	Z	-	Z	-
y	Z	-	Y	X	x	Z	Z	Z	Y	X	x	Z	Z
y	-	Z	Y	X	x	Z	Z	Z	Y	X	x	-	Y
z	Z	-	Y	X	x	Z	Z	Z	Y	X	x	Z	Z
z	X	x	Y	X	x	Z	Z	Z	Z	Z	-	Z	-
-	-	z	Z	-	-	Z	Z	Z	Y	X	x	Z	Z
Y	X	x	-	X	x	Z	Z	Z	Y	X	x	Y	X
-	Z	-	Z	Z	-	Z	Z	Z	Z	Y	-	y	z
Y	-	y	Y	X	x	Z	Z	Z	Y	X	x	X	x
Y	-	y	Y	X	x	Z	Z	Z	-	X	x	Y	X
Z	Z	-	Y	X	x	Z	-	Z	Y	X	x	Z	Y
x	Z	Z	Y	X	x	Z	Z	Z	Y	X	x	X	x
Y	-	y	Z	Z	-	Z	Z	-	Y	X	x	X	x
-	Z	Z	Z	Z	-	Z	Z	Z	Y	X	x	Z	-
z	-	-	Y	X	x	Z	Z	-	-	Z	-	-	Z
Z	-	Z	-	X	x	Z	Z	Z	Y	X	x	Z	Z
-	-	z	Y	X	x	Z	Z	Z	-	X	x	Z	Z
z	Z	-	Z	Z	-	Z	Z	Z	Y	X	x	Z	-
x	-	Z	Z	Z	-	Z	Z	-	-	X	x	Y	-
x	y	Z	Y	X	x	Z	Z	Z	-	X	x	-	Z
-	y	Z	-	X	x	Z	Z	Z	Y	X	x	Y	-
Z	Z	-	Z	Z	-	Z	Z	Z	Z	Z	-	Z	Z
Z	Z	-	Z	Z	-	Z	Z	Z	Y	X	x	y	Z
z	Z	Z	Y	X	x	Z	Z	Z	Z	Z	-	-	-
z	-	Z	Y	X	x	Z	Z	-	Y	X	x	X	x
z	Z	Z	Y	X	x	Z	Z	Z	Y	X	x	y	Z
-	-	z	Y	X	x	Z	Z	Z	Y	X	x	y	-
-	-	-	-	Z	-	Z	Z	Z	-	X	x	Y	-
z	Z	Z	Y	X	x	Z	Z	Z	Y	X	x	Z	-
Z	Z	Z	Y	X	x	Y	X	x	Y	X	x	X	x
-	z	Z	Y	X	x	Z	Z	Z	Y	-	y	Z	Z
Z	Z	Z	-	X	x	Z	Z	Z	Z	Z	-	Z	-
Z	Z	Z	Z	Z	-	Z	Z	Z	-	X	x	Y	-
Z	Z	Z	Z	Z	-	Z	Z	Z	-	Z	-	Z	Z
Z	-	-	Y	X	x	Z	Z	Z	Z	Z	-	Y	X
x	-	-	Y	X	x	Y	X	x	Z	Z	-	X	x
z	Z	Z	-	X	x	Z	Z	Z	-	Z	-	Z	-
y	Z	-	Y	X	x	Z	Z	-	Y	X	x	X	x
-	Z	Z	Z	Z	-	Z	Z	Z	Z	Z	-	Y	X
x	-	Z	Y	X	x	Y	X	x	Z	Z	-	Z	-
Y	X	x	Y	X	x	Z	Z	-	Y	X	x	Z	Y
z	Z	Z	Y	X	x	Z	Z	Z	Z	Z	-	-	z
Z	Z	Z	Y	X	x	Y	X	x	Z	Z	-	Y	-
Z	Z	-	Y	X	x	Z	-	Z	Z	Z	-	Z	Z
-	Z	Z	Y	X	x	Z	Z	Z	Y	X	x	Z	Z
z	Z	-	Y	X	x	Z	Z	Z	Z	Y	-	y	z
-	X	x	Z	Z	-	Z	Z	-	Y	X	x	X	x
Z	Z	-	Y	X	x	Z	Z	Z	Y	X	x	Z	Y
y	Z	Z	-	X	x	Z	Z	Z	Z	Z	-	X	x
z	z	Z	-	X	x	Z	Z	Z	Z	Z	-	X	x
x	-	Z	Y	X	x	Z	Z	Z	Z	Z	-	-	-
Z	Z	Z	Z	Z	-	Z	Z	Z	Z	-	-	Y	X
-	Z	-	Z	Z	-	Z	Z	Z	Z	Z	-	Z	-
-	-	Z	Y	X	x	Z	Z	Z	Y	X	x	Z	Y
Z	-	Z	Y	X	x	Z	Z	Z	Y	X	x	y	-
-	Z	Z	Y	X	x	Z	Z	Z	Y	X	x	Y	-
Z	Z	-	Y	X	x	Z	Z	-	Z	Z	-	Z	Z
Z	Z	-	Y	-	y	Z	Z	Z	Y	X	x	X	x
x	Z	Z	Y	X	x	Z	Z	Z	Z	Y	-	y	-
Z	-	Z	Z	Z	-	Z	Z	Z	Y	X	x	Z	-
X	x	-	-	Z	-	Z	Z	Z	-	X	x	Z	Z
y	-	-	Z	Z	-	Z	Z	Z	-	X	x	Y	-
-	Z	Z	Y	X	x	Z	Z	Z	Z	-	-	Y	X
Z	Z	Z	Z	Z	-	Z	Z	-	Z	Z	-	Y	X
y	Z	-	Y	X	x	Z	Z	Z	Y	X	x	X	x
Y	X	x	Y	X	x	Z	Z	Z	Z	Z	-	Z	Z
z	-	Z	-	X	x	Z	Z	Z	Y	X	x	Z	Z
-	Z	Z	Z	-	-	Z	Z	Z	Y	X	x	Z	-
z	-	-	Y	X	x	Z	Z	-	Z	Z	-	-	-
-	Z	Z	Y	X	x	Z	Z	Z	Y	X	x	Z	Z
z	Z	Z	Y	X	x	Z	Z	Z	Z	Y	-	y	z
z	-	z	Y	X	x	Z	Z	Z	Y	X	x	X	x
z	Z	Z	Y	X	x	Z	Z	Z	Z	Y	-	y	z
-	-	Z	-	X	x	Z	Z	Z	Y	X	x	-	Z
-	Z	-	Y	X	x	Z	Z	Z	-	X	x	Y	X
-	-	-	Y	X	x	Z	Z	Z	Y	X	x	Z	Z
y	Z	-	Y	X	x	Z	Z	Z	-	Z	-	Y	X
Y	X	x	Y	X	x	Y	X	x	Y	X	x	Z	Z
Y	-	y	Y	X	x	Z	-	Z	Y	X	x	Y	X
-	X	x	Y	X	x	Z	Z	Z	Y	X	x	Y	-
x	-	Z	Y	X	x	Z	Z	-	Z	Z	-	Z	-
Z	Z	Z	Z	Z	-	Z	Z	Z	Y	X	x	Z	-
Z	-	-	Z	Z	-	Z	Z	Z	Z	Z	-	-	X
z	z	Z	Y	X	x	Z	Z	Z	-	X	x	-	-
z	z	Z	Y	X	x	Z	Z	Z	-	X	x	-	-
Z	Z	-	Z	Z	-	Z	Z	Z	-	X	x	-	-
-	Z	Z	Y	X	x	Z	Z	Z	-	Z	-	Z	Y
X	x	Z	Y	X	x	Z	Z	Z	Y	X	x	Y	X
Z	-	Z	Z	Z	-	Z	Z	Z	Y	X	x	X	x
X	x	Z	Y	X	x	Z	Z	Z	Y	X	x	Z	Z
Z	Z	-	Z	Z	-	Z	-	Z	Y	X	x	X	x
z	Z	-	Y	X	x	Z	Z	Z	Z	Z	-	Z	Z
X	x	Z	Y	X	x	Z	Z	Z	Y	X	x	Z	Z
-	Z	Z	Y	X	x	Z	Z	Z	-	Z	-	Z	-
Y	-	y	Z	Z	-	Y	X	x	Z	Z	-	Y	X
Y	X	x	Y	X	x	Z	Z	Z	Y	X	x	Y	X
Y	X	x	Y	X	x	Y	X	x	Y	X	x	Y	X
Y	X	x	Y	X	x	Y	X	x	Y	X	x	Y	X
y	Z	-	-	X	x	Y	X	x	Y	X	x	Y	X
Z	Z	Z	Y	-	y	Z	Z	Z	Y	X	x	Z	Z
z	-	-	Y	X	x	Z	Z	Z	-	X	x	Y	-
y	Z	Z	Y	X	x	Z	Z	Z	Y	X	x	X	x
x	Z	-	Y	X	x	Z	Z	Z	-	Z	-	Z	-
-	Z	Z	Z	Z	-	Z	Z	Z	-	X	x	Z	Z
y	Z	-	Y	X	x	Z	Z	Z	-	Z	-	Z	-
y	Z	-	Y	X	x	Z	Z	Z	Y	X	x	Y	X
Y	-	y	Z	Z	-	Y	X	x	Z	Z	-	Y	X
Y	X	x	Y	X	x	Z	Z	Z	Y	X	x	Y	X
Y	X	x	Y	X	x	Y	X	x	Y	X	x	Y	X
Y	X	x	Y	X	x	Y	X	x	Y	X	x	Y	X
y	Z	-	-	X	x	Y	X	x	Y	X	x	Y	X
-	X	x	Y	X	x	Y	X	x	Y	X	x	Z	Z
Z	Z	Z	Z	Z	-	Z	Z	Z	Y	X	x	X	x
-	Z	-	Y	X	x	Z	Z	-	-	X	x	Z	Z
y	Z	-	Y	X	x	Z	Z	Z	Z	Z	-	X	x
Z	Z	-	-	X	x	Z	Z	-	Y	X	x	X	x
Z	Z	Z	Y	-	y	Z	Z	Z	Y	X	x	Z	Z
z	-	-	Y	X	x	Z	Z	Z	-	X	x	Y	-
-	Z	-	Y	X	x	Z	-	-	Y	X	x	Z	Z
Y	X	x	Z	Z	-	Y	X	x	Y	X	x	Y	-
Z	-	-	Z	Z	-	Z	Z	Z	Z	Z	-	Z	-
Z	-	-	Y	X	x	Z	Z	-	Y	-	y	Y	-
x	Z	-	Y	X	x	Z	Z	Z	-	X	x	-	Z
-	-	Z	Z	Z	-	Z	Z	-	Y	X	x	Z	Z
X	x	-	Z	Z	-	Z	Z	Z	Y	X	x	Z	Z
z	z	Z	Y	X	x	Z	Z	Z	Z	Z	-	Z	-
z	Z	Z	Y	X	x	Z	Z	Z	Z	Z	-	Z	Y
-	-	-	-	X	x	Z	Z	-	Y	X	x	Z	Y
Z	Z	-	-	X	x	Z	-	Z	Y	X	x	Z	-
x	-	z	Y	X	x	Z	Z	-	Y	X	x	Y	X
Y	X	x	Z	Z	-	Y	X	x	Y	X	x	Y	-
Z	-	-	Z	Z	-	Z	Z	Z	Z	Z	-	Z	-
X	x	Z	Y	X	x	Z	Z	Z	-	Z	-	-	z
x	Z	Z	Z	Z	-	Z	Z	Z	-	X	x	Y	X
-	Z	-	Y	X	x	Z	-	-	Y	X	x	Z	Z
y	Z	Z	Y	X	x	Z	Z	Z	Y	X	x	Y	-
y	Z	Z	-	X	x	Z	Z	Z	-	X	x	Z	Z
Y	X	x	Y	-	y	Z	Z	Z	Y	X	x	Z	Z
Z	Z	-	Z	Z	-	Z	Z	Z	Y	X	x	Y	-
Z	Z	-	Z	-	-	Z	Z	Z	-	X	x	X	x
Z	Z	Z	Y	X	x	Z	Z	Z	Y	X	x	X	x
x	X	x	Y	X	x	Y	X	x	Y	X	x	Y	X
Z	Z	-	Y	X	x	Z	Z	Z	-	X	x	y	Z
Z	Z	-	Z	Z	-	Z	Z	Z	Y	X	x	Z	Z
x	Z	Z	Y	X	x	Z	Z	Z	Y	X	x	-	X
x	Z	-	Y	X	x	Z	Z	-	Y	X	x	X	x
Z	Z	-	-	X	x	Z	Z	Z	Z	Z	-	X	x
x	Z	-	Y	X	x	Z	Z	Z	Z	Z	-	Z	Z
Z	Z	-	Y	X	x	Z	Z	Z	-	X	x	Z	Y
Z	-	-	-	X	x	Z	Z	Z	Y	X	x	Z	-
Z	Z	-	Y	X	x	Z	Z	Z	Y	X	x	y	Z
x	-	Z	Y	X	x	Z	Z	Z	-	Y	-	y	z
X	x	y	Z	Z	-	Z	Z	Z	-	X	x	-	Z
x	Z	Z	Z	Z	-	Z	Z	Z	-	X	x	Y	X
-	Z	-	Y	X	x	Y	X	x	Z	Z	-	Z	Z
Z	Z	Z	Y	X	x	Z	Z	Z	Y	X	x	Z	Z
y	Z	-	Y	X	x	Z	Z	Z	Z	Y	-	y	Z
z	Z	-	Y	X	x	Z	Z	Z	Z	Z	-	Y	-
-	Z	-	Y	X	x	Z	-	-	Y	X	x	Z	Z
y	-	-	Z	Z	-	Z	Z	Z	-	Z	-	Y	-
x	-	z	Y	X	x	Z	Z	Z	-	X	x	Z	Z
z	Z	Z	-	X	x	Z	Z	-	Y	X	x	Y	X
Z	-	-	Z	Z	-	Z	Z	Z	-	Z	-	Z	Z
z	-	Z	Y	X	x	Z	Z	Z	Z	Z	-	X	x
y	Z	Z	Z	Z	-	Z	Z	Z	Y	X	x	Z	Z
-	y	-	Y	X	x	Z	Z	Z	-	Y	-	y	-
y	Z	-	Y	X	x	Z	Z	Z	Y	X	x	X	x
Y	-	y	Y	X	x	Z	Z	Z	Y	X	x	Z	Z
-	z	Z	Y	X	x	Z	Z	Z	Y	X	x	-	z
Z	-	Z	Z	Z	-	Z	Z	Z	Z	Y	-	y	-
Z	Z	-	-	X	x	Z	Z	Z	Z	Y	-	y	-
z	-	z	-	X	x	Z	Z	Z	Y	X	x	Y	-
-	y	Z	Z	Z	-	Z	Z	Z	Y	X	x	Z	-
Z	Z	Z	Y	X	x	Z	Z	Z	Y	X	x	X	x
z	Z	Z	Y	X	x	Z	Z	Z	Y	-	y	X	x
-	y	Z	Z	Z	-	Z	Z	Z	Y	X	x	Z	Y
-	Z	Z	-	X	x	Z	Z	Z	Z	Z	-	Z	Z
Z	-	Z	Z	Z	-	Y	X	x	Y	X	x	Z	-
Z	Z	-	Z	Z	-	Z	Z	Z	-	X	x	Z	-
x	Z	Z	Y	X	x	Z	Z	Z	Z	Z	-	Z	Z
y	Z	-	Y	X	x	Z	Z	-	Z	Z	-	Z	-
Z	-	-	Y	X	x	Z	Z	Z	Y	X	x	Z	Z
y	Z	Z	Y	X	x	Z	Z	Z	Z	Y	-	y	z
X	x	Z	Y	X	x	Z	Z	-	Y	X	x	Z	-
-	Z	-	Z	Z	-	Z	Z	Z	Y	X	x	Z	Z
x	Z	Z	Y	X	x	Z	Z	Z	-	X	x	Z	-
y	Z	Z	Y	X	x	Z	Z	Z	Y	X	x	Z	-
-	X	x	Y	X	x	Z	Z	Z	Y	X	x	Y	X
Z	Z	-	Z	Z	-	Z	-	Z	Z	Z	-	Z	Y
y	Z	-	Y	X	x	Z	Z	Z	Z	Z	-	-	-
-	-	Z	Y	X	x	Z	Z	Z	Y	X	x	Z	Y
-	Z	-	Y	X	x	Z	Z	Z	Y	X	x	-	Y
Y	X	x	Y	X	x	Y	X	x	Y	X	x	Y	X
-	y	-	Y	X	x	Z	Z	Z	-	Y	-	y	-
z	Z	Z	Y	X	x	Z	Z	Z	Y	X	x	-	z
Z	Z	-	-	X	x	Z	Z	Z	Z	Y	-	y	-
y	Z	Z	Y	X	x	Z	Z	Z	Z	Z	-	-	Y
-	-	Z	Y	X	x	Z	Z	Z	Y	X	x	y	z
y	Z	-	Y	X	x	Z	Z	Z	Z	-	-	Z	Y
Z	-	Z	Y	X	x	Z	Z	Z	Y	X	x	y	X
-	Z	Z	Y	X	x	Z	Z	Z	Y	X	x	X	x
-	z	-	-	X	x	Z	Z	Z	Y	X	x	Y	-
Z	Z	-	Y	X	x	Z	Z	-	Y	X	x	Y	X
-	-	-	Z	Z	-	Z	Z	-	Z	Z	-	Z	Z
-	z	z	Y	X	x	Z	Z	-	Y	X	x	Y	X
-	-	Z	Z	Z	-	Y	X	x	Y	X	x	Y	-
-	-	-	Y	X	x	Z	Z	Z	Y	X	x	X	x
z	Z	Z	-	X	x	Z	Z	Z	Z	Z	-	X	x
X	x	Z	Y	X	x	Z	Z	Z	-	Z	-	-	-
-	Z	Z	Y	X	x	Z	Z	Z	Y	X	x	-	Z
Z	Z	-	Y	X	x	Z	Z	Z	Z	Z	-	Z	Z
Z	Z	Z	-	X	x	Z	Z	Z	Z	Z	-	-	Y
Z	Z	-	Z	Z	-	Z	Z	Z	-	Z	-	Z	Y
z	Z	Z	Y	X	x	Z	Z	Z	-	Z	-	Z	Z
-	-	Z	Y	X	x	Z	Z	Z	Z	Z	-	Z	-
x	Z	Z	Y	X	x	Z	Z	Z	Z	Z	-	X	x
-	-	Z	Y	X	x	Z	Z	Z	Z	Z	-	X	x
Z	Z	Z	-	X	x	Z	Z	Z	Z	Z	-	X	x
-	y	Z	Y	X	x	Z	Z	Z	Y	X	x	Y	X
x	Z	-	Z	Z	-	Z	Z	Z	Z	Z	-	X	x
Y	-	y	Y	X	x	Y	X	x	Y	X	x	Y	-
z	X	x	Z	Z	-	Z	Z	Z	-	X	x	Z	-
X	x	Z	Y	X	x	Z	Z	Z	Z	Z	-	Y	X
-	-	Z	Z	Z	-	Y	X	x	Y	X	x	Z	Y
x	Z	Z	Z	Z	-	Z	Z	Z	Y	X	x	Z	Z
-	z	Z	Y	X	x	Z	Z	Z	Y	X	x	-	z
X	x	Z	-	X	x	Z	Z	Z	-	Z	-	Y	X
-	Z	Z	Y	X	x	Z	Z	Z	Y	X	x	y	z
z	Z	Z	Y	X	x	Z	Z	Z	Z	Z	-	Y	-
z	Z	Z	Y	X	x	Z	Z	Z	Y	X	x	X	x
x	Z	-	Y	X	x	Z	Z	Z	Y	X	x	X	x
x	-	Z	Y	X	x	Z	Z	Z	Y	X	x	X	x
-	Z	Z	Y	X	x	Z	Z	Z	Y	X	x	-	Z
x	-	Z	-	X	x	Z	Z	Z	Y	X	x	Y	X
y	Z	Z	Z	Z	-	Z	Z	Z	Y	X	x	Z	-
Z	-	Z	Z	Z	-	Z	Z	-	-	X	x	y	-
Z	Z	-	Y	X	x	Z	Z	Z	-	X	x	y	z
-	-	Z	Y	X	x	Z	Z	Z	Y	X	x	y	Z
-	Z	Z	Y	X	x	Z	Z	Z	Y	X	x	y	z
y	Z	Z	-	X	x	Z	Z	Z	Z	Z	-	Z	Z
x	Z	-	Z	Z	-	Z	Z	Z	-	Z	-	Y	-
Z	Z	Z	Y	X	x	Z	Z	Z	Y	X	x	y	Z
X	x	Z	Y	X	x	Z	Z	Z	Y	X	x	Z	Z
x	Z	Z	Z	Z	-	Z	Z	Z	Y	X	x	Z	Z
Z	-	-	Z	Z	-	Z	Z	Z	-	Z	-	Y	-
-	z	z	Y	X	x	Z	-	Z	Y	X	x	Y	-
z	Z	Z	Y	X	x	Z	Z	Z	Z	Z	-	X	x
-	Z	-	Y	X	x	Z	Z	Z	-	X	x	Z	Z
Z	-	Z	Z	Z	-	Z	Z	Z	Y	X	x	Z	Z
z	-	-	Z	Z	-	Z	Z	Z	Z	Z	-	X	x
Z	Z	Z	Z	Z	-	Z	Z	Z	Z	Z	-	Z	Z
Z	-	Z	Z	Z	-	Z	Z	Z	Z	Z	-	-	z
-	Z	Z	Y	X	x	Z	Z	Z	Y	X	x	Z	Z
y	Z	Z	Y	X	x	Z	Z	Z	Y	X	x	X	x
Y	-	y	Y	X	x	Y	X	x	Y	X	x	X	x
Z	Z	-	Y	X	x	Z	Z	Z	-	Z	-	Z	Y
Y	-	y	Y	X	x	Y	X	x	-	X	x	X	x
-	-	z	Y	X	x	Z	Z	Z	Y	X	x	Z	Z
x	-	Z	Y	X	x	Z	Z	Z	Y	X	x	X	x
x	y	Z	Y	X	x	Z	Z	Z	Y	X	x	Z	Z
-	-	z	Y	X	x	Z	Z	Z	-	X	x	-	-
z	Z	Z	Y	X	x	Z	Z	Z	Z	Z	-	Y	-
z	Z	-	Y	X	x	Z	Z	Z	-	X	x	Z	-
-	-	Z	Y	X	x	Z	Z	Z	Y	X	x	X	x
z	X	x	Z	Z	-	Z	Z	Z	-	X	x	Y	-
Z	Z	Z	Z	Z	-	Z	Z	Z	Z	Y	-	y	-
Z	Z	Z	Z	Z	-	Z	Z	Z	Z	Z	-	Z	Z
Z	-	Z	Z	Z	-	Z	Z	Z	Z	Z	-	-	z
-	Z	-	Y	X	x	Z	Z	Z	-	X	x	Z	-
Z	-	-	Y	X	x	Z	Z	Z	-	Z	-	Z	Y
Y	X	x	Z	Z	-	Z	Z	Z	-	X	x	Z	Z
x	Z	Z	Y	X	x	Z	Z	Z	-	Z	-	X	x
Z	Z	Z	Z	Z	-	Z	Z	Z	Y	X	x	X	x
x	Z	Z	Y	X	x	Z	Z	Z	Y	X	x	X	x
x	Z	Z	Y	X	x	Z	Z	Z	Y	X	x	X	x
-	Z	Z	-	Z	-	Z	Z	Z	-	X	x	X	x
-	-	-	Z	Z	-	Z	-	-	Y	X	x	Z	-
z	Z	Z	Y	X	x	Z	Z	Z	-	Z	-	-	z
y	Z	Z	Z	Z	-	Z	Z	Z	-	X	x	y	z
z	Z	-	Y	X	x	Z	Z	Z	Y	X	x	y	Y
-	z	-	Y	X	x	Z	Z	Z	Y	X	x	Z	Z
Z	Z	Z	Z	Z	-	Z	Z	Z	Y	X	x	Z	-
-	Z	Z	Y	X	x	Z	Z	Z	Y	X	x	X	x
Z	Z	Z	-	X	x	Z	-	Z	Y	X	x	Y	X
x	Z	Z	Y	X	x	Z	Z	Z	-	Z	-	X	x
Z	Z	Z	Z	Z	-	Z	Z	Z	Y	X	x	X	x
x	Z	Z	Y	X	x	Z	Z	Z	Y	X	x	Z	Z
x	Z	Z	Y	X	x	Z	Z	Z	Y	X	x	X	x
-	Z	-	Y	X	x	Z	Z	Z	Y	X	x	y	z
y	Z	Z	Y	X	x	Z	Z	Z	Y	X	x	y	Z
X	x	y	Z	Z	-	Z	Z	Z	-	X	x	Z	-
y	-	-	Z	Z	-	Z	Z	Z	Z	Z	-	Z	Y
Y	X	x	Y	X	x	Z	Z	Z	Y	X	x	Z	Y
Z	Z	Z	Y	X	x	Z	Z	Z	Z	Z	-	Y	-
Z	-	Z	Y	X	x	Z	-	Z	Z	Z	-	Z	Z
Y	X	x	Z	Z	-	Y	X	x	-	X	x	Y	-
Y	X	x	Z	Z	-	Z	Z	Z	Y	X	x	Y	X
y	X	x	Z	Z	-	Z	Z	Z	Y	X	x	Z	-
y	Z	-	Y	X	x	Z	Z	Z	Y	X	x	X	x
Z	-	-	Y	X	x	Y	X	x	Z	Z	-	Y	X
x	Z	Z	Y	X	x	Z	Z	Z	Z	Z	-	Z	-
X	x	Z	Z	-	-	Z	Z	Z	Y	X	x	Z	-
-	Z	Z	-	Z	-	Z	Z	-	Z	Z	-	Z	Z
Z	Z	-	-	X	x	Z	Z	Z	-	X	x	y	Z
-	Z	Z	Z	Z	-	Z	Z	Z	-	Z	-	Z	-
x	y	Z	Y	X	x	Z	Z	-	Z	Z	-	Z	Z
y	Z	Z	Z	Z	-	Z	Z	Z	Z	Y	-	y	Z
X	x	Z	Y	X	x	Z	Z	Z	Y	X	x	Y	-
z	-	-	Z	Z	-	Z	Z	Z	Z	Z	-	X	x
z	Z	Z	Y	X	x	Z	Z	Z	-	Z	-	Z	-
y	Z	Z	Y	X	x	Z	Z	Z	Y	X	x	X	x
Y	-	y	Y	X	x	Z	Z	-	Z	Z	-	Y	X
Z	-	-	Y	X	x	Z	Z	Z	-	Z	-	Z	Y
Z	Z	-	Y	X	x	Z	Z	Z	-	Z	-	Z	Z
Y	X	x	-	Z	-	Z	Z	Z	-	X	x	Z	-
z	Z	Z	Y	X	x	Z	Z	Z	Y	X	x	X	x
Y	-	y	Y	X	x	Z	Z	Z	Y	X	x	Y	X
y	Z	-	Y	X	x	Z	Z	-	-	X	x	Z	Y
x	Z	Z	Y	X	x	Z	Z	Z	Y	X	x	Z	Y
-	Z	-	Y	X	x	Z	Z	Z	Z	Z	-	Y	-
z	Z	Z	Y	X	x	Z	Z	Z	Y	X	x	y	z
y	Z	Z	Y	X	x	Z	Z	Z	Z	Z	-	Y	-
x	y	-	Y	X	x	Z	Z	Z	Z	Z	-	X	x
Z	-	Z	Y	X	x	Z	Z	Z	Y	X	x	X	x
Z	Z	-	Z	Z	-	Z	Z	Z	-	X	x	X	x
-	Z	Z	-	Z	-	Z	Z	Z	Y	X	x	Z	Z
X	x	Z	Y	X	x	Z	Z	Z	Y	X	x	Z	Z
y	-	Z	Z	Z	-	Z	Z	Z	-	X	x	Z	-
y	z	Z	Y	X	x	Z	Z	Z	Z	Z	-	Z	-
Z	-	Z	Z	Z	-	Z	Z	Z	Z	Y	-	y	z
y	Z	Z	Y	X	x	Z	Z	Z	Z	Y	-	y	Z
-	-	z	-	X	x	Z	Z	Z	-	Z	-	Y	-
z	Z	Z	Y	X	x	Z	Z	Z	Y	X	x	y	Z
y	Z	Z	Y	X	x	Z	Z	Z	Z	Z	-	Z	Y
y	Z	Z	Y	X	x	Z	Z	-	Y	X	x	X	x
x	Z	-	Y	X	x	Z	Z	-	-	X	x	Y	-
Y	-	y	-	Z	-	Z	Z	Z	-	X	x	Z	Z
z	Z	-	Y	X	x	Z	Z	-	Y	X	x	X	x
x	-	Z	Y	X	x	Y	X	x	Y	X	x	X	x
-	-	-	Y	X	x	Z	Z	Z	Z	Z	-	Z	Y
y	Z	-	Y	X	x	Z	Z	Z	Z	Z	-	X	x
y	Z	Z	Y	X	x	Z	Z	-	Y	X	x	X	x
z	Z	Z	Y	X	x	Z	Z	Z	Y	X	x	y	Z
y	-	Z	Y	X	x	Z	Z	Z	Y	X	x	y	Z
X	x	Z	-	X	x	Z	Z	Z	Z	Z	-	Z	-
-	-	Z	Y	X	x	Z	Z	Z	Y	X	x	y	-
z	-	Z	Y	X	x	Z	Z	Z	Z	-	-	Z	Y
-	Z	-	Z	Z	-	Z	Z	Z	-	X	x	Z	Z
-	-	Z	Y	X	x	Z	Z	-	Z	Z	-	Y	-
y	Z	-	Z	Z	-	Z	Z	Z	Z	Y	-	y	X
-	Z	Z	Y	X	x	Z	Z	Z	Y	X	x	X	x
-	Z	-	Y	X	x	Z	Z	Z	Z	Z	-	Y	-
z	Z	Z	Y	X	x	Z	Z	Z	Y	X	x	y	z
z	Z	-	Y	X	x	Z	Z	-	Z	Z	-	Z	-
Z	-	-	Z	Z	-	Z	Z	Z	Z	Z	-	Z	Z
z	Z	-	Y	X	x	Z	Z	-	Z	Z	-	Z	-
Z	-	-	Z	Z	-	Z	Z	Z	Z	Z	-	Z	Z
-	X	x	Z	Z	-	Y	X	x	Y	X	x	X	x
y	Z	Z	Y	X	x	Z	Z	Z	Z	Z	-	X	x
-	Z	Z	Y	X	x	Z	Z	Z	Y	X	x	Y	-
-	Z	Z	Y	X	x	Z	Z	Z	Z	Y	-	y	X
X	x	Z	Y	X	x	Z	Z	Z	Y	X	x	Y	X
x	y	-	Y	X	x	Z	Z	Z	Z	Z	-	Z	Z
z	Z	Z	-	X	x	Z	Z	Z	Z	Y	-	y	-
y	Z	Z	Y	X	x	Z	Z	Z	-	Z	-	X	x
y	Z	-	Y	X	x	Z	Z	Z	Y	X	x	y	-
X	x	Z	Y	X	x	Z	Z	Z	-	Z	-	-	Y
Z	Z	-	Y	X	x	Z	Z	-	Y	X	x	X	x
y	X	x	-	X	x	Z	Z	Z	Y	X	x	Z	Y
x	Z	-	Y	X	x	Z	Z	Z	Y	X	x	Z	Y
-	Z	Z	Z	Z	-	Z	Z	Z	-	Z	-	Z	Z
-	Z	Z	Y	X	x	Z	Z	Z	Z	Y	-	y	Y
-	Z	-	Z	Z	-	Z	Z	Z	Z	Z	-	Z	Z
z	-	-	Y	X	x	Z	Z	Z	-	X	x	-	-
z	Z	Z	Y	X	x	Z	Z	Z	Y	X	x	y	Z
z	Z	Z	-	X	x	Z	Z	Z	Z	Z	-	Z	-
x	Z	Z	Z	Z	-	Z	Z	-	Z	Z	-	-	Z
y	Z	-	Z	Z	-	Z	Z	-	Y	X	x	Z	-
Y	-	y	Y	X	x	Y	X	x	Z	Z	-	Z	-
-	Z	Z	Z	Z	-	Z	Z	Z	-	Z	-	Z	Z
-	Z	Z	Y	X	x	Z	Z	Z	Z	Y	-	y	Y
-	-	-	-	Z	-	Z	Z	Z	Y	X	x	Z	Z
-	-	z	Y	X	x	Z	Z	Z	Z	Y	-	y	z
Z	-	-	Y	X	x	Z	-	-	Y	X	x	Z	-
y	Z	Z	Y	X	x	Z	Z	Z	Y	X	x	Z	Z
z	Z	-	Z	Z	-	Z	Z	Z	Y	X	x	y	Y
Z	-	Z	-	X	x	Z	Z	Z	Y	X	x	Z	-
Y	X	x	Z	Z	-	Z	Z	Z	Y	X	x	Z	Z
z	Z	Z	Y	X	x	Z	Z	Z	Y	X	x	Z	-
Y	X	x	Y	X	x	Z	Z	Z	Y	X	x	Y	-
Y	X	x	Y	X	x	Z	Z	Z	Y	X	x	Z	Z
y	-	-	Y	X	x	Z	Z	Z	Z	Z	-	Z	Z
-	-	Z	Y	X	x	Z	Z	Z	Y	X	x	Z	Z
-	Z	-	-	X	x	Z	Z	Z	Y	X	x	Z	Z
X	x	Z	Y	X	x	Z	Z	Z	Y	X	x	X	x
Y	X	x	Z	Z	-	Z	Z	Z	Y	X	x	Z	Z
y	-	z	Z	Z	-	Z	Z	Z	Y	X	x	Y	-
-	-	Z	Y	X	x	Z	Z	Z	Y	X	x	Y	-
Z	-	-	Y	X	x	Z	Z	-	Z	Y	-	y	-
y	Z	Z	Y	X	x	Z	Z	Z	-	Y	-	y	X
Z	-	Z	Y	X	x	Z	Z	Z	-	X	x	X	x
x	Z	-	Z	Z	-	Z	Z	Z	Y	X	x	X	x
-	X	x	Y	X	x	Z	Z	Z	Y	X	x	y	Z
X	x	Z	Y	X	x	Z	Z	Z	Y	X	x	y	-
z	Z	Z	Y	X	x	Z	Z	Z	Y	X	x	Y	-
Z	Z	-	Y	X	x	Z	Z	-	Y	X	x	-	-
X	x	Z	Y	X	x	Z	Z	Z	Y	X	x	y	Z
y	Z	-	Y	X	x	Z	Z	Z	-	X	x	Z	Z
-	Z	Z	Y	X	x	Z	Z	Z	-	X	x	Z	-
Z	-	Z	Z	Z	-	Z	Z	-	Y	X	x	Z	Z
Z	Z	-	-	X	x	Z	Z	Z	Y	X	x	Y	-
X	x	y	Y	X	x	Z	Z	Z	Y	X	x	X	x
z	Z	Z	Y	X	x	Z	Z	Z	Z	-	-	Y	-
y	Z	Z	Y	X	x	Z	Z	Z	Y	X	x	X	x
-	Z	Z	Y	X	x	Z	-	Z	-	Z	-	Z	Y
-	Z	-	-	Z	-	Z	Z	Z	Y	X	x	Z	Z
X	x	y	Y	X	x	Z	Z	Z	Y	X	x	X	x
-	Z	Z	Y	X	x	Z	Z	Z	Z	Z	-	Z	Y
Z	Z	-	Z	-	-	Z	Z	Z	Y	X	x	Z	-
-	Z	-	Z	Z	-	Z	Z	-	Y	X	x	Y	X
Z	-	-	Y	X	x	Y	X	x	Y	X	x	y	Y
-	Z	-	Y	X	x	Z	Z	Z	Y	X	x	Z	Z
y	-	Z	Y	X	x	Z	Z	Z	-	Z	-	Z	Z
y	Z	-	Z	Z	-	Z	Z	Z	Y	X	x	-	X
z	Z	Z	Y	X	x	Z	Z	Z	Y	X	x	y	Z
z	Z	Z	-	X	x	Z	Z	Z	Z	Z	-	Z	-
x	Z	Z	Z	Z	-	Z	Z	-	Z	Z	-	-	Z
Z	Z	-	Z	Z	-	Z	Z	-	-	Z	-	Z	Z
x	Z	-	Z	Z	-	Z	Z	Z	Y	X	x	X	x
Y	X	x	Y	X	x	Z	Z	-	Y	X	x	Y	-
z	-	Z	Y	X	x	Z	Z	Z	Z	Z	-	Z	Z
X	x	Z	Y	X	x	Z	Z	Z	Y	X	x	y	-
Z	-	Z	Z	Z	-	Z	Z	Z	Z	Z	-	X	x
-	Z	Z	Z	Z	-	Z	-	Z	Y	X	x	Z	Z
y	-	Z	Z	Z	-	Z	Z	Z	Y	X	x	Y	-
-	-	Z	-	Z	-	Z	Z	Z	-	Z	-	Z	-
X	x	Z	Y	X	x	Z	Z	Z	-	X	x	Y	-
y	-	Z	-	X	x	Z	Z	Z	Z	Z	-	Z	-
-	Z	-	Y	X	x	Z	Z	Z	Y	X	x	X	x
-	Z	Z	Z	Z	-	Z	Z	Z	Z	-	-	Z	Y
z	Z	-	Y	X	x	Z	Z	Z	Z	Z	-	Z	-
z	Z	-	Y	X	x	Z	Z	Z	Z	Z	-	Z	-
Z	-	-	Z	Z	-	Z	-	-	Z	Z	-	Z	-
x	Z	-	-	X	x	Z	Z	Z	Y	X	x	Z	Y
z	-	-	Y	X	x	Z	Z	Z	Y	X	x	y	-
Z	Z	Z	Y	X	x	Z	Z	Z	Y	X	x	X	x
z	Z	Z	Y	X	x	Z	Z	Z	Y	X	x	Z	-
z	Z	Z	Y	X	x	Z	Z	Z	-	Z	-	-	Y
Y	-	y	Y	X	x	Z	Z	Z	Y	X	x	Y	X
-	X	x	Z	Z	-	Z	Z	Z	Y	X	x	Z	Y
-	z	z	Y	X	x	Z	Z	Z	Y	X	x	X	x
Z	Z	-	Z	Z	-	Z	Z	Z	Z	Z	-	Y	-
y	Z	Z	Z	Z	-	Z	Z	Z	Y	X	x	Z	Z
y	Z	Z	Y	X	x	Z	Z	Z	Y	X	x	y	-
z	X	x	Y	-	y	Z	Z	Z	Y	X	x	Z	Z
-	Z	Z	Y	X	x	Z	Z	Z	Y	X	x	y	Z
Z	Z	Z	-	Z	-	Z	Z	Z	Z	Z	-	Z	Z
z	-	Z	Y	X	x	Z	Z	Z	Y	X	x	X	x
-	Z	-	Z	Z	-	Z	Z	Z	-	Z	-	Z	-
x	X	x	Z	Z	-	Z	Z	Z	Y	X	x	X	x
y	X	x	Z	Z	-	Y	X	x	Y	X	x	Y	X
Z	Z	-	Z	Z	-	Z	Z	Z	Z	Z	-	Y	X
Z	Z	Z	Z	Z	-	Z	Z	Z	Y	X	x	X	x
Z	-	Z	Z	Z	-	Z	Z	Z	Y	-	y	Z	Z
Z	-	Z	Z	Z	-	Z	Z	Z	Z	Z	-	Z	-
y	z	Z	Y	X	x	Z	Z	Z	Z	Y	-	y	X
Z	-	-	Z	Z	-	Z	Z	-	Y	X	x	y	X
X	x	Z	Y	X	x	Z	Z	Z	-	X	x	y	z
Y	-	y	Y	X	x	Z	Z	Z	-	X	x	y	z
Z	Z	-	Z	Z	-	Z	Z	Z	Y	X	x	Z	-
-	Z	Z	Z	Z	-	Z	Z	Z	-	X	x	Y	-
Y	X	x	Y	X	x	Z	Z	Z	Z	Y	-	y	Y
z	X	x	-	X	x	Z	Z	Z	Y	X	x	Z	-
Z	Z	Z	Y	X	x	Z	Z	Z	Y	X	x	Y	X
Z	Z	-	Y	X	x	Z	Z	Z	Y	X	x	Z	Z
z	Z	-	Y	X	x	Z	Z	Z	Y	X	x	Y	X
z	Z	Z	Y	X	x	Z	Z	Z	Z	Z	-	Z	-
X	x	Z	Y	X	x	Z	Z	Z	-	X	x	Y	-
-	Z	Z	Z	Z	-	Z	Z	Z	-	X	x	Y	-
Y	X	x	Z	Z	-	Z	Z	Z	-	X	x	X	x
-	X	x	Y	X	x	Z	Z	Z	Y	X	x	Z	Z
Z	Z	-	Y	X	x	Z	Z	-	Z	Z	-	Z	Z
-	Z	-	Z	Z	-	Z	Z	-	-	X	x	Z	Z
-	Z	-	Y	X	x	Z	Z	Z	Z	Z	-	X	x
y	-	Z	Y	X	x	Z	Z	Z	Y	X	x	X	x
y	-	z	Z	Z	-	Z	Z	Z	Y	X	x	Z	Z
Z	Z	-	Y	X	x	Z	Z	Z	Y	X	x	Z	Z
Z	Z	-	Y	X	x	Y	X	x	Y	X	x	X	x
-	Z	Z	Z	Z	-	Z	Z	Z	Z	-	-	Z	Y
Z	Z	-	Z	Z	-	Z	Z	Z	Y	X	x	Z	-
Z	Z	Z	-	Z	-	Z	Z	-	Y	X	x	Z	Z
-	Z	Z	Z	Z	-	Z	Z	Z	Y	X	x	y	-
Y	X	x	Y	X	x	Z	Z	Z	-	Z	-	Z	Z
z	-	-	Y	X	x	Z	Z	Z	Y	X	x	y	-
x	X	x	Y	X	x	Y	X	x	Y	X	x	Y	-
-	-	z	Y	X	x	Z	Z	Z	Y	X	x	Z	Y
-	Z	Z	-	Z	-	Z	Z	Z	-	X	x	X	x
X	x	Z	-	X	x	Z	Z	Z	Y	X	x	X	x
z	-	-	Y	X	x	Z	Z	Z	Z	Z	-	Z	Y
-	X	x	Y	X	x	Z	Z	Z	Y	X	x	X	x
X	x	Z	Z	Z	-	Z	Z	-	Y	X	x	Y	X
-	Z	-	Y	-	y	Z	Z	Z	Y	X	x	Y	X
z	-	-	Z	Z	-	Z	Z	Z	-	X	x	Y	-
-	Z	Z	Y	X	x	Z	Z	Z	Z	Z	-	Y	-
x	Z	-	Y	X	x	Z	Z	Z	-	X	x	X	x
Z	Z	-	Y	X	x	Z	Z	-	Y	X	x	Z	Z
Z	Z	-	-	Z	-	Z	Z	Z	-	X	x	X	x
x	Z	-	Y	-	y	Z	Z	Z	Y	X	x	Z	-
Z	Z	-	Y	X	x	Z	Z	Z	Z	Z	-	Z	Z
z	z	Z	Y	X	x	Z	Z	Z	Y	X	x	X	x
Z	Z	Z	Z	Z	-	Z	Z	-	Z	Z	-	Y	-
-	-	-	Y	X	x	Y	X	x	Y	X	x	Z	Z
-	Z	Z	Y	X	x	Z	Z	Z	-	X	x	y	z
z	Z	-	Z	Z	-	Z	Z	Z	Z	Z	-	Z	Z
-	Z	Z	Y	X	x	Z	Z	Z	Z	-	-	Z	Y
X	x	Z	Y	X	x	Z	Z	Z	Y	X	x	y	-
z	Z	Z	Y	X	x	Z	Z	Z	Y	X	x	-	-
-	Z	-	Y	X	x	Z	-	-	Z	Z	-	Z	Y
-	X	x	Y	X	x	Z	-	Z	Y	X	x	Z	Z
y	Z	-	-	X	x	Z	Z	Z	Z	Z	-	Z	Z
Z	Z	Z	Y	X	x	Z	-	Z	Z	Z	-	Z	Z
X	x	-	Z	Z	-	Z	Z	Z	Y	X	x	Z	Z
x	Z	-	Y	X	x	Z	Z	Z	-	X	x	X	x
Z	Z	-	Y	X	x	Z	Z	-	Y	X	x	Z	Z
X	x	Z	Z	Z	-	Z	Z	-	Y	X	x	Y	X
-	Z	-	Y	X	x	Z	Z	Z	Y	X	x	Y	X
X	x	Z	Y	X	x	Z	-	Z	Z	Z	-	Z	Z
Z	-	Z	Z	Z	-	Z	Z	Z	-	Z	-	X	x
-	z	Z	Y	X	x	Z	Z	Z	Z	Z	-	X	x
Z	-	-	Z	Z	-	Z	Z	Z	Z	Z	-	Z	-
X	x	y	Y	X	x	Z	Z	-	Z	Z	-	Z	-
Z	-	Z	Y	X	x	Z	Z	Z	Z	Z	-	X	x
-	-	z	-	X	x	Z	Z	Z	Z	Z	-	Z	-
y	Z	-	Y	X	x	Z	Z	Z	Y	X	x	y	Y
Z	-	Z	Y	X	x	Z	Z	Z	Z	Z	-	Z	Y
Y	X	x	Z	Z	-	Z	Z	Z	Z	Y	-	y	Y
y	-	Z	Y	X	x	Z	Z	Z	Y	X	x	X	x
z	Z	-	-	X	x	Y	X	x	Y	X	x	Y	X
z	z	-	Y	X	x	Z	Z	Z	Y	X	x	Z	Z
z	-	Z	Y	X	x	Z	Z	Z	Y	X	x	X	x
-	Z	Z	Z	Z	-	Y	X	x	Y	X	x	Y	-
-	Z	Z	Z	-	-	Z	Z	Z	Y	X	x	Z	Z
-	Z	Z	Z	Z	-	Z	Z	Z	Y	X	x	Z	-
Z	-	Z	Y	X	x	Z	Z	Z	Z	Z	-	Z	-
-	-	-	Y	X	x	Z	Z	Z	Z	Z	-	Z	-
x	Z	Z	Y	X	x	Z	Z	Z	Z	Z	-	Y	X
z	Z	Z	Y	X	x	Z	Z	Z	Y	-	y	Y	X
y	Z	Z	-	X	x	Z	Z	Z	Y	X	x	Z	Z
Y	-	y	Y	X	x	Z	-	Z	Z	Z	-	Z	-
X	x	Z	Y	X	x	Z	Z	Z	-	X	x	Y	X
y	Z	Z	Y	X	x	Z	Z	Z	Y	X	x	Z	-
y	-	Z	Y	X	x	Z	Z	Z	Y	X	x	-	Y
Z	-	-	Y	X	x	Z	Z	-	-	Z	-	Y	-
Z	-	-	Y	X	x	Z	Z	Z	Z	Z	-	X	x
-	-	Z	Z	Z	-	Z	Z	Z	-	X	x	y	-
-	X	x	Y	X	x	Y	X	x	Z	Z	-	Y	X
y	Z	Z	Y	X	x	Z	Z	-	Z	Z	-	Z	-
z	-	-	Y	X	x	Z	Z	Z	Z	Z	-	Z	Y
z	Z	-	Y	X	x	Z	Z	Z	-	X	x	X	x
y	Z	Z	Y	X	x	Z	Z	Z	Y	X	x	y	Z
-	X	x	Y	X	x	Z	Z	Z	Y	X	x	X	x
Z	-	Z	Y	X	x	Z	Z	Z	Y	X	x	Z	Y
Y	X	x	Y	X	x	Z	Z	-	Y	X	x	Y	-
z	Z	Z	Y	X	x	Z	Z	Z	Z	Z	-	Z	Y
y	Z	Z	Y	X	x	Z	Z	Z	Z	Z	-	Z	Z
y	-	-	Y	X	x	Z	Z	Z	Y	X	x	X	x
-	-	-	Y	-	y	Z	Z	Z	-	X	x	Z	Z
x	Z	Z	Y	X	x	Z	Z	-	Y	X	x	Z	-
y	Z	Z	Y	X	x	Z	Z	Z	Y	X	x	Z	-
Z	Z	Z	Z	Z	-	Z	Z	Z	-	X	x	-	Z
Y	-	y	Y	X	x	Z	Z	Z	Y	-	y	Z	-
X	x	y	Y	X	x	Z	Z	Z	-	X	x	X	x
-	Z	-	Y	X	x	Y	X	x	Y	X	x	Y	-
-	Z	Z	Z	Z	-	Z	Z	Z	Y	X	x	Z	Y
Z	Z	-	Y	X	x	Z	Z	Z	Z	Z	-	-	-
-	Z	Z	Y	X	x	Y	X	x	Z	Z	-	X	x
Y	-	y	Z	Z	-	Z	Z	Z	Y	X	x	X	x
z	Z	Z	Y	X	x	Z	Z	Z	Y	X	x	X	x
x	Z	Z	-	X	x	Z	Z	Z	-	Z	-	-	Y
-	Z	Z	Y	X	x	Z	Z	Z	Y	X	x	y	Y
y	Z	-	Y	X	x	Z	Z	Z	Y	X	x	-	X
Z	-	Z	Z	Z	-	Z	Z	-	Z	Z	-	Y	X
Y	X	x	Y	X	x	Z	Z	Z	Y	X	x	X	x
-	Z	-	Z	Z	-	Z	-	-	Y	X	x	Y	-
y	z	Z	Y	X	x	Z	Z	Z	Y	X	x	X	x
-	Z	Z	Y	X	x	Z	Z	Z	Y	X	x	-	-
-	Z	Z	-	X	x	Z	Z	Z	Y	X	x	Z	Z
-	-	Z	Z	Z	-	Z	Z	Z	Y	X	x	Z	-
z	Z	Z	Y	X	x	Z	Z	Z	Y	X	x	y	z
-	-	z	Z	Z	-	Z	Z	Z	Z	Z	-	Z	-
-	X	x	Y	X	x	Y	X	x	Z	Z	-	Z	Z
Z	Z	Z	-	X	x	Z	Z	Z	Y	X	x	Z	-
x	Z	Z	Y	X	x	Z	Z	Z	Y	X	x	Z	-
z	Z	-	Y	X	x	Z	Z	Z	Z	Y	-	y	-
y	Z	Z	Y	X	x	Z	Z	Z	-	X	x	Y	X
-	Z	-	Z	Z	-	Z	-	-	Y	X	x	Y	-
x	Z	Z	Z	Z	-	Z	Z	Z	Y	X	x	y	z
Z	Z	-	Z	Z	-	Z	Z	Z	Y	X	x	Y	-
z	Z	Z	Y	X	x	Z	Z	Z	Y	X	x	Z	-
Z	Z	-	Z	Z	-	Z	Z	Z	Y	X	x	Y	X
Y	-	y	Y	X	x	Z	Z	Z	Y	X	x	Y	X
Z	Z	-	Z	Z	-	Z	Z	Z	Y	X	x	y	X
X	x	Z	Z	Z	-	Z	Z	-	-	X	x	Z	Z
z	-	Z	-	X	x	Z	Z	Z	Y	X	x	X	x
y	-	z	Y	X	x	Z	Z	Z	-	X	x	Y	X
Z	-	Z	Z	Z	-	Z	Z	Z	Y	X	x	y	Z
-	-	-	Z	Z	-	Z	Z	Z	Y	X	x	Z	-
Z	-	Z	-	X	x	Z	Z	-	-	X	x	Z	-
Z	Z	-	Y	X	x	Z	Z	-	Y	X	x	X	x
-	Z	-	Z	Z	-	Z	Z	-	Y	-	y	Z	-
z	z	Z	Y	X	x	Z	Z	Z	Y	X	x	Z	Z
Y	-	y	Y	X	x	Z	Z	Z	Y	X	x	y	z
-	X	x	Y	X	x	Z	Z	Z	Y	X	x	Z	-
z	Z	Z	Y	X	x	Z	Z	Z	Z	Y	-	y	X
z	-	Z	Y	X	x	Z	Z	Z	Y	X	x	Z	Z
z	Z	Z	Y	X	x	Z	Z	Z	-	X	x	-	Z
-	Z	Z	Y	X	x	Z	Z	-	Z	Z	-	Z	-
X	x	Z	Y	X	x	Z	Z	Z	-	X	x	-	z
x	Z	Z	Y	X	x	Z	Z	-	Y	X	x	Z	-
y	-	z	Y	X	x	Z	Z	Z	-	X	x	Z	Z
X	x	Z	Y	X	x	Z	-	Z	-	X	x	X	x
-	-	-	-	Z	-	Z	Z	Z	-	X	x	Z	-
-	X	x	Y	X	x	Y	X	x	-	X	x	Z	-
X	x	Z	Y	X	x	Z	Z	Z	Y	X	x	y	z
-	X	x	Y	X	x	Z	Z	Z	-	X	x	y	Y
-	-	z	Z	Z	-	Z	Z	Z	Z	Z	-	Z	-
-	X	x	Y	X	x	Y	X	x	Z	Z	-	Z	Z
-	Z	Z	Y	X	x	Z	Z	-	Z	Z	-	Z	-
x	Z	Z	Y	X	x	Z	Z	Z	Z	Z	-	-	-
z	Z	Z	Y	X	x	Z	Z	Z	Y	X	x	Z	-
y	X	x	Y	X	x	Z	Z	Z	-	Z	-	Z	-
x	Z	Z	Y	X	x	Z	Z	Z	Z	Z	-	-	-
-	Z	-	Y	X	x	Z	-	Z	Y	X	x	y	-
-	X	x	Z	Z	-	Z	Z	Z	-	Z	-	Z	-
-	Z	-	Y	X	x	Z	Z	-	-	Z	-	Z	-
y	-	Z	Y	X	x	Z	Z	Z	-	X	x	y	z
x	Z	Z	Y	X	x	Z	Z	Z	-	X	x	Z	Z
X	x	-	Y	-	y	Z	Z	Z	Y	X	x	Z	Y
z	Z	-	Y	X	x	Z	Z	-	Y	X	x	Z	-
-	Z	-	Y	X	x	Z	Z	Z	Z	Z	-	Z	Z
-	-	z	-	X	x	Z	Z	Z	-	X	x	Y	-
-	Z	-	Y	X	x	Z	Z	-	Y	X	x	Z	-
Y	X	x	Y	X	x	Z	Z	Z	-	X	x	Z	Z
-	Z	-	Y	X	x	Z	-	Z	Y	X	x	y	-
-	-	z	-	X	x	Z	Z	Z	-	X	x	Y	-
y	-	Z	Y	X	x	Z	Z	Z	Y	X	x	X	x
z	Z	Z	Y	X	x	Z	Z	Z	-	X	x	y	X
z	Z	Z	Z	Z	-	Z	-	Z	Z	Z	-	Z	-
-	Z	Z	Y	X	x	Z	Z	Z	-	Z	-	Z	-
Z	-	-	Z	Z	-	Z	Z	Z	Z	Z	-	-	-
Y	X	x	Y	X	x	Y	X	x	Y	X	x	Y	X
-	Z	-	Z	Z	-	Z	Z	Z	Z	Z	-	Y	X
Z	Z	Z	Y	X	x	Z	Z	Z	Y	X	x	Z	Z
z	Z	-	Y	X	x	Z	Z	Z	-	X	x	Z	Z
x	y	Z	Y	X	x	Z	Z	Z	Y	X	x	Z	Y
Z	Z	-	Y	X	x	Z	Z	Z	Y	X	x	Z	Z
-	Z	Z	Z	Z	-	Z	Z	Z	Z	Z	-	Z	Y
Z	Z	Z	Y	X	x	Z	-	Z	Z	Z	-	Z	Y
z	Z	Z	Y	X	x	Z	Z	Z	Y	X	x	X	x
x	-	Z	-	X	x	Z	Z	Z	Y	X	x	Y	-
z	Z	Z	Y	X	x	Z	Z	Z	Y	X	x	X	x
x	-	Z	-	X	x	Z	Z	Z	Y	X	x	Y	-
Y	X	x	Y	X	x	Z	Z	Z	Y	X	x	-	Z
y	Z	-	Y	X	x	Z	Z	Z	Z	Z	-	Y	-
X	x	Z	Y	X	x	Z	Z	-	Y	X	x	Z	-
x	Z	-	Y	X	x	Z	Z	Z	Y	X	x	y	-
x	Z	-	Z	Z	-	Z	Z	Z	Z	Z	-	-	Z
z	Z	Z	Z	Z	-	Z	Z	-	Z	Z	-	Y	X
z	Z	Z	Y	X	x	Z	Z	Z	-	X	x	Z	Z
z	Z	Z	-	X	x	Z	Z	Z	-	Y	-	y	-
Y	X	x	-	X	x	Z	Z	Z	-	X	x	Z	Z
-	Z	Z	Y	X	x	Z	Z	-	Y	X	x	Z	-
Y	X	x	Y	X	x	Z	Z	Z	Z	Y	-	y	X
z	-	Z	Y	X	x	Z	Z	Z	Y	X	x	y	z
z	Z	Z	Y	X	x	Z	Z	Z	Y	X	x	Z	Z
-	Z	-	Z	Z	-	Z	-	Z	Y	X	x	X	x
Z	Z	Z	Z	Z	-	Z	Z	Z	Y	X	x	Y	-
-	Z	Z	Y	X	x	Z	Z	Z	Y	X	x	y	Z
Z	Z	-	Y	-	y	Z	Z	Z	Z	Z	-	Z	-
Z	Z	-	Y	X	x	Z	Z	-	Y	X	x	Z	-
Z	Z	Z	Y	-	y	Z	Z	Z	Z	Z	-	Z	-
Y	-	y	Y	X	x	Z	Z	Z	Y	X	x	Y	-
Y	X	x	Y	-	y	Z	Z	Z	Y	X	x	Y	X
-	-	Z	Y	X	x	Z	Z	-	Z	Z	-	Z	Z
-	Z	Z	Y	X	x	Z	Z	Z	Y	X	x	Z	-
y	Z	-	Y	X	x	Z	Z	Z	-	X	x	Z	Z
-	-	z	Y	X	x	Z	Z	Z	-	Z	-	Z	Z
-	X	x	Y	X	x	Y	X	x	Y	X	x	Y	X
x	-	Z	Y	X	x	Z	Z	Z	Y	X	x	X	x
-	Z	Z	Y	X	x	Z	Z	Z	Y	X	x	Z	-
Y	-	y	Z	Z	-	Z	Z	Z	Y	-	y	Y	-
Z	-	-	Y	X	x	Y	X	x	Y	X	x	Y	X
X	x	-	-	X	x	Z	Z	Z	Y	X	x	Z	Y
x	-	Z	Y	X	x	Z	Z	Z	-	X	x	Z	Z
-	-	-	-	X	x	Z	Z	Z	Y	X	x	Z	Z
y	Z	Z	Y	X	x	Z	Z	Z	Y	X	x	X	x
x	-	Z	Y	X	x	Z	Z	Z	-	X	x	Z	Z
y	Z	Z	Y	X	x	Z	Z	Z	Y	X	x	X	x
X	x	Z	Z	Z	-	Z	Z	Z	-	Z	-	Y	-
-	Z	Z	Z	Z	-	Z	Z	Z	-	Z	-	X	x
-	Z	-	Z	Z	-	Z	Z	Z	Z	Z	-	Z	Z
-	-	-	Z	Z	-	Z	-	Z	Z	Z	-	Y	X
Y	-	y	Y	X	x	Z	Z	Z	-	X	x	X	x
-	-	-	Z	Z	-	Z	Z	Z	Y	X	x	X	x
Z	Z	-	Y	X	x	Z	Z	Z	Y	-	y	X	x
-	-	-	Z	Z	-	Z	Z	Z	Z	Y	-	y	-
-	-	Z	Z	-	-	Z	Z	Z	Y	X	x	Z	-
x	Z	Z	-	X	x	Z	Z	Z	Y	X	x	Y	X
x	Z	Z	-	X	x	Z	Z	-	Y	X	x	Y	X
x	Z	Z	Y	X	x	Z	Z	Z	Z	Y	-	y	z
Z	Z	Z	Y	X	x	Z	Z	Z	Y	X	x	Z	Z
-	Z	Z	Y	X	x	Z	Z	Z	Y	X	x	y	-
-	Z	Z	Y	X	x	Z	Z	Z	Y	X	x	y	X
z	z	Z	Y	X	x	Z	Z	Z	Y	X	x	X	x
-	Z	-	Z	Z	-	Z	Z	Z	Y	X	x	y	Z
y	-	z	Y	X	x	Z	Z	Z	-	X	x	y	z
Z	Z	-	Y	X	x	Z	Z	Z	Y	X	x	Y	X
z	-	-	Y	X	x	Z	Z	Z	Y	X	x	X	x
Z	-	Z	Z	Z	-	Z	Z	Z	Y	X	x	Y	-
z	z	Z	Y	X	x	Z	Z	Z	Y	X	x	Z	Z
-	-	-	Z	Z	-	Z	Z	Z	Z	Y	-	y	-
-	-	Z	Z	-	-	Z	Z	Z	Y	X	x	Z	-
z	X	x	Y	X	x	Z	Z	Z	Z	Z	-	-	Z
-	Z	-	Z	Z	-	Z	Z	Z	Y	X	x	Z	-
-	Z	Z	Z	Z	-	Z	Z	Z	Y	X	x	-	Z
-	Z	Z	Y	X	x	Z	Z	Z	Z	Z	-	Y	-
X	x	y	Y	X	x	Z	Z	Z	Y	X	x	Y	-
Z	Z	-	Y	X	x	Z	Z	-	Y	X	x	X	x
Z	-	Z	Y	X	x	Z	Z	Z	Y	X	x	Z	Z
-	X	x	Z	Z	-	Z	Z	Z	Z	Y	-	y	X
Z	-	Z	Y	X	x	Z	Z	Z	Y	X	x	y	Z
x	Z	Z	Y	X	x	Z	Z	Z	Y	X	x	Z	Y
Z	Z	-	Y	X	x	Z	Z	-	Z	Z	-	Z	Z
z	z	z	Y	X	x	Z	Z	Z	-	X	x	Z	-
-	z	-	-	X	x	Z	Z	Z	Z	Z	-	Z	Z
x	y	Z	Z	Z	-	Z	Z	Z	-	X	x	X	x
Z	-	-	Z	Z	-	Z	-	Z	-	X	x	X	x
y	Z	Z	Y	X	x	Z	Z	Z	-	X	x	Z	Y
-	Z	Z	Y	X	x	Z	Z	Z	Z	Z	-	Y	-
X	x	y	Y	X	x	Z	Z	Z	Z	Z	-	Z	Z
Z	Z	-	Y	X	x	Z	Z	Z	Y	X	x	Z	-
-	Z	Z	Y	X	x	Z	-	Z	Y	X	x	-	Z
Z	-	Z	-	Z	-	Z	Z	Z	Y	X	x	X	x
Z	Z	Z	Y	X	x	Z	Z	Z	Z	Z	-	-	-
Z	Z	Z	Y	X	x	Z	Z	Z	Z	Z	-	-	-
y	z	-	Y	X	x	Z	Z	Z	Y	X	x	Z	Z
Z	-	Z	Y	X	x	Z	Z	Z	Y	X	x	-	z
Z	-	Z	Y	X	x	Z	Z	Z	Y	X	x	Z	-
x	y	-	Z	Z	-	Z	Z	Z	Y	X	x	y	Y
x	y	-	Z	Z	-	Z	Z	Z	Y	X	x	y	Y
z	Z	Z	-	X	x	Z	Z	Z	Z	Z	-	-	-
y	Z	Z	Y	X	x	Z	Z	Z	Z	Y	-	y	-
-	Z	Z	Y	X	x	Z	Z	Z	Y	X	x	Y	-
Y	-	y	Y	X	x	Z	Z	Z	-	X	x	X	x
y	-	Z	Y	X	x	Z	Z	Z	Z	-	-	Z	Z
-	Z	Z	Y	X	x	Z	Z	Z	-	Z	-	-	z
x	-	Z	-	X	x	Z	Z	Z	Z	Z	-	Z	-
Y	X	x	Y	X	x	Z	Z	Z	Y	X	x	Y	X
-	-	-	Y	X	x	Z	Z	Z	-	X	x	-	z
Z	-	Z	Y	X	x	Z	Z	Z	Y	X	x	y	Z
x	Z	-	Y	X	x	Z	Z	Z	Y	X	x	Y	-
Z	-	-	Z	Z	-	Z	Z	Z	-	X	x	Y	-
Y	-	y	Y	X	x	Z	Z	-	Y	X	x	y	X
Y	X	x	Y	X	x	Z	Z	Z	Y	X	x	-	Z
y	Z	-	Y	X	x	Z	Z	Z	Y	X	x	y	X
y	Z	Z	Y	X	x	Z	Z	Z	Y	X	x	Z	-
X	x	Z	Y	X	x	Y	X	x	Z	Z	-	Z	Z
y	-	Z	Y	X	x	Z	Z	Z	Z	Z	-	-	Y
z	Z	-	Y	X	x	Z	Z	Z	Z	Z	-	Z	Z
y	Z	Z	Z	Z	-	Z	Z	Z	-	Z	-	X	x
z	Z	Z	Y	X	x	Z	Z	Z	Y	X	x	y	z
-	z	Z	Z	Z	-	Z	Z	Z	Y	X	x	Z	-
z	X	x	Y	X	x	Z	Z	-	Y	X	x	Y	X
-	-	Z	-	X	x	Z	Z	Z	Y	X	x	y	Z
y	z	Z	Y	X	x	Z	Z	Z	Z	Z	-	Z	Z
z	z	Z	Y	X	x	Z	Z	Z	Z	Z	-	Z	-
z	Z	Z	Y	X	x	Z	Z	Z	Z	Z	-	Z	-
x	-	z	-	X	x	Z	Z	Z	Y	X	x	X	x
Z	Z	-	Z	Z	-	Z	-	Z	Y	X	x	Z	Y
y	Z	-	Y	X	x	Z	Z	Z	Z	Z	-	X	x
-	-	Z	-	X	x	Z	Z	-	Y	X	x	Y	-
y	Z	-	Y	X	x	Z	Z	-	Y	X	x	X	x
y	-	Z	Y	X	x	Z	Z	Z	Y	X	x	X	x
y	Z	Z	-	X	x	Z	Z	Z	Z	Z	-	X	x
-	Z	-	Z	Z	-	Z	Z	Z	Z	Z	-	Z	-
Y	X	x	Y	X	x	Z	Z	Z	Y	X	x	-	Z
y	Z	-	Y	X	x	Z	Z	Z	Y	X	x	y	X
-	-	-	-	X	x	Z	Z	Z	-	X	x	Y	X
y	-	Z	Y	X	x	Z	Z	Z	-	Y	-	y	z
-	Z	-	Y	X	x	Z	Z	Z	Z	Z	-	Z	-
y	Z	Z	Y	X	x	Z	Z	Z	Z	-	-	Z	Y
-	Z	Z	-	X	x	Z	Z	-	Y	X	x	Z	-
Z	Z	-	Y	X	x	Z	Z	Z	Z	Z	-	Y	-
y	Z	-	Y	X	x	Z	Z	Z	Z	Z	-	X	x
y	Z	Z	Y	X	x	Z	Z	Z	Y	X	x	X	x
-	-	Z	Y	X	x	Z	Z	Z	-	X	x	Z	-
y	X	x	Y	X	x	Y	X	x	Z	Z	-	Y	X
y	Z	-	Y	X	x	Z	Z	-	Y	X	x	Z	Y
-	Z	Z	Y	X	x	Z	Z	Z	Y	X	x	y	z
-	-	-	Y	X	x	Z	Z	Z	Y	X	x	Z	Z
y	Z	-	Y	X	x	Z	Z	Z	Y	X	x	Y	X
y	z	z	Y	X	x	Z	Z	Z	Z	Z	-	-	-
-	X	x	Y	X	x	Y	X	x	Y	X	x	Z	Z
-	Z	Z	Z	Z	-	Z	Z	Z	Y	X	x	X	x
Z	-	Z	Z	Z	-	Z	Z	Z	Y	X	x	Y	-
Y	X	x	Y	X	x	Z	Z	Z	-	X	x	Y	-
-	z	Z	Z	Z	-	Z	Z	Z	Y	X	x	Z	-
Y	X	x	Y	X	x	Z	Z	Z	-	X	x	Y	-
y	Z	Z	Z	Z	-	Z	Z	Z	Y	X	x	Z	-
-	y	-	Y	X	x	Z	Z	Z	-	X	x	Z	Z
-	-	Z	Y	-	y	Z	Z	-	Y	X	x	Y	-
Z	Z	-	Y	X	x	Z	Z	-	-	X	x	y	-
Z	Z	-	Y	X	x	Z	Z	Z	Z	Z	-	Y	-
-	Z	Z	Y	X	x	Z	Z	Z	Y	X	x	Z	Z
Z	-	Z	-	X	x	Z	Z	-	Y	X	x	Z	Y
Z	Z	Z	Y	X	x	Z	Z	Z	Y	X	x	Z	Z
Z	Z	-	-	Z	-	Z	Z	Z	Y	X	x	X	x
x	Z	Z	Z	Z	-	Z	Z	Z	Z	Z	-	X	x
x	Z	Z	Y	X	x	Z	Z	Z	Y	X	x	Y	X
y	-	Z	Y	X	x	Z	Z	Z	Z	Z	-	-	Y
y	-	-	Y	X	x	Z	Z	Z	Y	X	x	Y	-
x	Z	Z	Y	X	x	Z	Z	Z	Z	Z	-	Z	Y
y	Z	Z	Y	X	x	Z	Z	Z	Z	Y	-	y	Z
-	Z	-	Y	X	x	Z	Z	Z	-	X	x	-	-
-	Z	-	Y	X	x	Z	Z	Z	-	X	x	-	-
y	Z	Z	Y	X	x	Z	Z	Z	Z	Y	-	y	Z
x	-	-	Y	X	x	Z	-	-	Z	Z	-	Y	X
-	y	-	Z	Z	-	Z	Z	Z	Y	X	x	y	X
-	y	-	Z	Z	-	Z	Z	Z	Y	X	x	Y	-
-	Z	Z	Z	Z	-	Z	Z	Z	-	X	x	y	X
-	-	Z	-	Z	-	Z	Z	Z	-	X	x	Z	Z
-	z	Z	Y	X	x	Z	Z	Z	Y	X	x	y	z
y	X	x	Z	Z	-	Z	Z	Z	Y	X	x	X	x
Z	Z	Z	Y	X	x	Z	Z	Z	Y	X	x	Z	-
z	Z	Z	Y	X	x	Z	Z	Z	Y	X	x	Z	-
z	Z	Z	Y	X	x	Z	Z	Z	Y	X	x	Z	-
-	z	z	Y	X	x	Z	Z	Z	Y	X	x	-	X
Z	-	Z	Y	X	x	Z	Z	Z	Z	Z	-	X	x
y	Z	Z	Y	X	x	Z	Z	Z	Y	X	x	Y	X
z	Z	Z	Y	X	x	Z	Z	Z	Y	X	x	X	x
y	Z	Z	Y	X	x	Z	Z	Z	-	Z	-	X	x
X	x	Z	Y	X	x	Z	Z	Z	Y	X	x	X	x
z	Z	-	Y	X	x	Z	Z	Z	Y	X	x	Z	Y
Z	-	-	-	Z	-	Z	Z	Z	Y	X	x	X	x
-	X	x	Z	Z	-	Z	Z	Z	-	X	x	Z	Z
X	x	-	Y	X	x	Z	-	Z	-	X	x	Z	Y
z	-	Z	Z	Z	-	Z	Z	Z	-	X	x	-	-
y	Z	Z	Z	Z	-	Z	Z	Z	-	X	x	X	x
-	Z	Z	Y	X	x	Z	Z	Z	-	X	x	y	-
z	-	Z	Y	X	x	Z	Z	Z	Z	Z	-	Y	X
Z	Z	-	Y	X	x	Z	Z	-	-	X	x	-	Z
Z	Z	Z	Y	X	x	Z	Z	Z	Y	X	x	Y	-
y	Z	Z	Y	X	x	Z	Z	Z	Y	X	x	X	x
y	z	Z	Y	X	x	Z	Z	Z	Y	X	x	X	x
x	Z	-	Y	X	x	Z	Z	Z	Z	Z	-	-	-
Z	-	-	Y	X	x	Z	Z	-	Y	-	y	Z	Z
Y	X	x	Y	X	x	Z	Z	Z	Y	X	x	Y	-
y	Z	Z	Z	Z	-	Z	Z	Z	Z	Y	-	y	-
X	x	Z	Z	Z	-	Z	Z	Z	-	X	x	y	Z
x	Z	Z	Y	X	x	Z	Z	Z	Y	X	x	X	x
x	Z	Z	Y	X	x	Y	X	x	Y	X	x	X	x
Z	Z	-	Y	X	x	Z	Z	Z	Y	X	x	Y	X
-	-	Z	Z	Z	-	Y	X	x	Z	Z	-	Z	-
z	Z	-	Y	X	x	Z	Z	Z	-	Z	-	Z	-
x	Z	Z	Y	X	x	Z	Z	-	-	X	x	X	x
-	Z	Z	Y	X	x	Z	Z	Z	Y	X	x	-	Y
x	Z	Z	Y	X	x	Z	Z	Z	Y	X	x	y	Z
z	z	Z	-	X	x	Z	Z	Z	-	X	x	Z	-
Z	Z	Z	-	X	x	Z	Z	Z	Z	Z	-	Z	Z
y	Z	Z	Y	X	x	Z	Z	Z	Y	X	x	X	x
Z	-	Z	Z	Z	-	Z	Z	Z	Y	X	x	Z	-
-	y	Z	Y	X	x	Z	Z	Z	Z	Z	-	Z	Z
Z	Z	-	Y	X	x	Z	Z	-	Y	X	x	Z	Z
-	Z	Z	Z	Z	-	Z	Z	Z	Y	X	x	Z	Z
-	Z	Z	-	X	x	Z	Z	Z	Y	X	x	X	x
Z	Z	Z	-	X	x	Z	Z	Z	Y	X	x	Y	X
Y	X	x	Y	X	x	Z	Z	Z	Y	X	x	Z	-
Y	X	x	Z	Z	-	Z	Z	Z	Y	X	x	Z	Y
Z	Z	Z	Y	X	x	Z	Z	-	Z	Z	-	Z	Z
-	Z	-	-	Z	-	Z	Z	Z	Y	X	x	Z	Y
Z	Z	Z	-	X	x	Z	Z	Z	Z	Z	-	Z	Z
Z	-	-	Y	X	x	Z	Z	Z	Z	-	-	Y	X
Z	-	Z	Y	X	x	Z	Z	Z	Y	X	x	y	-
Z	Z	Z	Y	X	x	Z	Z	Z	Z	Z	-	-	Z
X	x	Z	-	X	x	Z	Z	Z	-	X	x	Z	-
X	x	Z	-	X	x	Z	Z	Z	-	X	x	Z	-
y	-	Z	Y	X	x	Z	Z	Z	Y	X	x	Z	Z
Y	X	x	Y	X	x	Z	Z	-	Y	X	x	Z	-
Z	Z	-	Z	Z	-	Z	Z	Z	-	Z	-	Z	Z
Z	-	-	Y	X	x	Z	-	-	Y	X	x	Z	-
z	-	-	Y	-	y	Z	Z	Z	-	Z	-	Y	-
x	Z	Z	Y	X	x	Z	Z	Z	Y	X	x	X	x
y	-	Z	Y	X	x	Z	Z	Z	Y	X	x	Y	-
z	Z	Z	-	X	x	Z	Z	Z	Y	X	x	-	Z
y	Z	-	-	X	x	Z	Z	Z	Y	X	x	Z	Z
x	Z	Z	Z	Z	-	Z	Z	Z	-	X	x	Y	X
Z	Z	-	Y	X	x	Z	Z	-	Z	Z	-	Z	-
-	Z	Z	Y	X	x	Z	Z	Z	-	Z	-	-	Z
Y	X	x	Z	Z	-	Z	Z	Z	Y	X	x	Z	-
Z	Z	Z	Z	Z	-	Z	Z	-	Z	Z	-	-	Z
X	x	Z	Z	Z	-	Z	Z	Z	-	X	x	y	Z
x	-	-	Y	X	x	Z	-	-	Z	Z	-	Y	X
z	Z	Z	Y	X	x	Z	Z	Z	Z	-	-	Z	-
Z	-	-	Y	-	y	Z	Z	Z	Y	X	x	Y	-
y	Z	-	Z	Z	-	Z	-	Z	Y	X	x	Y	-
Z	-	Z	Y	X	x	Z	Z	-	Y	X	x	y	z
Y	X	x	Y	X	x	Z	Z	Z	Y	X	x	-	Z
-	-	-	-	X	x	Z	Z	Z	Y	X	x	Y	-
-	-	-	Z	Z	-	Z	Z	Z	Z	Z	-	Z	Z
Z	Z	Z	Z	-	-	Z	Z	Z	Y	X	x	Z	Y
Z	-	-	Y	X	x	Z	Z	Z	Z	-	-	Y	X
Y	X	x	Y	X	x	Y	X	x	Y	X	x	Y	X
Z	-	-	Y	X	x	Z	Z	Z	Y	X	x	-	-
Y	X	x	Y	X	x	Z	Z	Z	Y	X	x	-	Z
y	Z	Z	Y	X	x	Z	Z	Z	Z	Y	-	y	Z
y	-	Z	Y	X	x	Z	Z	Z	Y	X	x	Z	Z
y	-	-	Y	X	x	Z	Z	Z	Y	X	x	-	Y
X	x	Z	Y	X	x	Z	-	Z	Y	X	x	Z	-
-	Z	Z	Y	X	x	Z	Z	Z	Z	Z	-	Y	-
z	Z	Z	-	X	x	Z	Z	Z	Z	Z	-	Z	Z
x	Z	Z	Y	X	x	Z	Z	Z	Y	X	x	Z	-
x	Z	-	Y	X	x	Z	Z	Z	Z	Z	-	X	x
Z	Z	-	-	X	x	Z	Z	Z	Z	Z	-	Z	Z
z	z	Z	Y	X	x	Z	Z	Z	Y	X	x	Z	Y
z	-	-	Y	X	x	Z	Z	Z	Y	X	x	X	x
z	-	-	Y	X	x	Z	Z	Z	Y	X	x	X	x
-	-	Z	Y	X	x	Z	Z	Z	Y	X	x	Y	X
-	Z	-	Y	X	x	Z	Z	Z	Y	X	x	Z	Z
x	Z	Z	Y	X	x	Z	Z	Z	Y	X	x	y	Z
x	Z	Z	Z	Z	-	Z	Z	Z	Y	X	x	y	z
-	Z	-	Y	X	x	Z	Z	Z	-	Y	-	y	z
Y	X	x	Z	Z	-	Z	Z	Z	Y	X	x	Y	-
y	-	-	Y	X	x	Z	Z	Z	Y	X	x	Z	Y
y	Z	-	Z	Z	-	Z	Z	Z	Z	Y	-	y	Z
z	Z	Z	Y	X	x	Z	Z	Z	-	X	x	Y	X
Z	Z	-	Y	X	x	Z	Z	Z	-	X	x	y	-
Z	Z	-	Y	X	x	Z	Z	Z	Z	Z	-	-	X
z	Z	Z	Y	X	x	Z	Z	Z	-	X	x	Y	X
Y	X	x	Y	X	x	Z	Z	Z	Y	X	x	Z	-
Z	Z	-	Y	X	x	Z	Z	Z	Y	X	x	Y	-
-	Z	Z	Y	X	x	Z	Z	Z	Y	-	y	Z	-
-	-	Z	Y	X	x	Z	Z	Z	Z	Z	-	Z	-
Z	Z	-	-	X	x	Z	Z	Z	Y	X	x	-	Y
y	Z	-	Y	X	x	Z	Z	Z	Z	Z	-	Z	-
z	Z	Z	Y	X	x	Z	Z	Z	-	X	x	Z	Z
Z	-	-	Z	Z	-	Z	Z	Z	Y	X	x	Z	-
Z	Z	Z	Y	X	x	Z	Z	Z	Y	X	x	-	z
Y	X	x	Y	X	x	Z	-	Z	Z	Z	-	Z	Y
-	Z	-	Y	X	x	Z	Z	Z	-	X	x	Y	-
-	Z	-	Y	X	x	Z	Z	Z	-	X	x	Y	-
Z	-	Z	Y	X	x	Z	Z	Z	Z	Z	-	Z	-
y	Z	Z	Z	Z	-	Z	Z	Z	Z	Z	-	Y	-
Z	Z	-	Y	X	x	Y	X	x	Y	X	x	Z	Z
-	X	x	Y	X	x	Z	Z	-	Y	X	x	Z	-
Z	Z	-	Z	Z	-	Z	Z	Z	Z	Z	-	X	x
z	Z	Z	Y	X	x	Z	Z	-	Z	Z	-	Z	Y
Z	Z	-	-	X	x	Z	Z	Z	-	Z	-	X	x
-	Z	Z	Z	Z	-	Z	Z	Z	Y	X	x	Z	Y
-	Z	Z	Y	X	x	Y	X	x	Y	X	x	Z	Z
x	y	z	-	X	x	Z	Z	Z	-	X	x	Z	Z
-	Z	Z	-	X	x	Z	Z	Z	Y	X	x	Y	-
Z	Z	Z	Z	Z	-	Z	Z	Z	-	X	x	Z	-
-	X	x	Y	X	x	Z	Z	Z	Y	X	x	y	X
-	Z	Z	Z	-	-	Z	Z	Z	Y	X	x	Y	X
-	Z	Z	-	X	x	Z	Z	Z	Z	Z	-	X	x
x	Z	-	Z	Z	-	Z	Z	Z	Z	Z	-	Z	Z
-	Z	Z	Z	Z	-	Z	-	-	Y	X	x	Y	X
z	Z	Z	Y	X	x	Z	Z	Z	-	X	x	X	x
Y	X	x	Y	X	x	Y	X	x	Y	X	x	Z	Z
z	Z	Z	-	X	x	Z	Z	Z	Y	X	x	Z	-
-	Z	Z	-	X	x	Z	Z	Z	Y	X	x	-	-
y	Z	Z	Y	X	x	Z	Z	Z	Y	X	x	Y	-
-	Z	-	Z	Z	-	Z	Z	Z	-	Z	-	Z	-
-	Z	Z	Y	X	x	Z	Z	Z	Y	X	x	y	z
Z	Z	Z	-	X	x	Z	Z	Z	-	X	x	-	Y
Z	Z	Z	Y	X	x	Z	Z	Z	Y	X	x	-	Z
Z	-	-	Y	X	x	Z	Z	Z	-	Z	-	Z	Z
X	x	Z	Z	Z	-	Z	Z	Z	Z	Z	-	Y	-
-	X	x	Z	Z	-	Z	Z	Z	-	X	x	Z	-
y	Z	Z	Y	X	x	Z	Z	Z	Y	X	x	Z	Z
z	Z	Z	Y	X	x	Z	Z	Z	Y	X	x	Z	Y
x	X	x	Z	Z	-	Z	Z	Z	Z	Z	-	Z	-
z	Z	Z	Y	X	x	Z	Z	Z	-	X	x	Z	Z
z	Z	Z	Y	X	x	Z	Z	-	Z	Z	-	Z	Y
x	-	Z	Z	Z	-	Z	Z	Z	-	Y	-	y	X
Z	-	Z	Y	X	x	Z	Z	Z	Z	Z	-	X	x
Z	Z	Z	Y	X	x	Z	Z	Z	Y	X	x	X	x
x	y	Z	Y	X	x	Z	-	Z	-	Z	-	Z	-
x	-	Z	Y	X	x	Z	Z	Z	Y	X	x	Z	Z
z	-	Z	Y	X	x	Z	Z	Z	Y	X	x	X	x
x	Z	-	Y	X	x	Z	Z	Z	-	Z	-	-	Y
y	Z	Z	Y	X	x	Z	Z	Z	Z	Y	-	y	-
z	Z	Z	-	X	x	Z	Z	Z	Z	Z	-	Z	Y
-	Z	-	Y	X	x	Z	Z	Z	Y	X	x	Z	-
z	Z	Z	Y	X	x	Z	Z	Z	-	Z	-	X	x
X	x	-	Y	X	x	Z	Z	Z	Z	Z	-	X	x
z	X	x	Z	Z	-	Z	Z	Z	Z	Z	-	Z	Z
x	-	-	Z	Z	-	Z	Z	-	Y	X	x	Z	Z
Z	-	-	Z	Z	-	Z	Z	Z	-	Z	-	Z	Z
Y	-	y	Y	X	x	Z	Z	Z	-	X	x	Y	-
X	x	Z	Y	X	x	Z	Z	-	Y	X	x	Y	-
-	Z	Z	Y	X	x	Z	Z	Z	-	X	x	Z	Y
z	z	Z	-	X	x	Z	Z	Z	Y	X	x	Z	-
z	Z	Z	Y	X	x	Z	Z	Z	Z	Z	-	Z	-
z	Z	Z	-	X	x	Z	Z	Z	Y	X	x	Z	Y
Z	-	Z	Z	Z	-	Z	Z	Z	Y	X	x	X	x
y	-	z	-	X	x	Z	Z	Z	Y	X	x	Y	-
Y	X	x	-	Z	-	Z	Z	Z	Y	X	x	Y	X
y	Z	Z	Y	X	x	Z	Z	Z	Y	X	x	X	x
x	y	Z	Y	X	x	Z	Z	Z	-	X	x	Z	-
-	X	x	Y	X	x	Z	-	Z	Y	X	x	X	x
z	-	Z	Y	X	x	Z	Z	Z	Z	Z	-	X	x
Z	-	-	Y	X	x	Z	Z	Z	-	Y	-	y	-
X	x	-	Y	X	x	Z	Z	Z	-	Z	-	Z	-
x	Z	Z	Y	X	x	Z	Z	Z	Y	X	x	Z	Y
-	Z	-	Y	X	x	Z	Z	Z	Z	Y	-	y	z
-	Z	Z	Z	Z	-	Z	Z	Z	Z	Z	-	Y	-
z	Z	Z	-	X	x	Z	Z	Z	Z	Z	-	X	x
X	x	-	Y	X	x	Z	Z	-	Y	X	x	X	x
Y	-	y	Y	X	x	Z	Z	Z	Z	Z	-	Z	Z
Z	-	-	Y	X	x	Z	Z	Z	-	Z	-	Z	Z
z	Z	Z	Y	X	x	Z	Z	Z	-	Y	-	y	Z
x	Z	Z	Y	X	x	Z	Z	Z	-	Z	-	X	x
z	Z	Z	Y	X	x	Z	Z	Z	Y	X	x	y	z
Z	Z	-	Y	X	x	Z	Z	-	Y	X	x	Y	X
Z	Z	-	Z	Z	-	Z	Z	Z	Z	Z	-	X	x
Z	-	-	Z	Z	-	Z	Z	Z	Y	X	x	X	x
-	-	-	Z	Z	-	Z	Z	Z	Z	Y	-	y	X
z	Z	-	Y	X	x	Z	Z	Z	-	X	x	y	X
y	Z	Z	Y	X	x	Z	Z	Z	Z	Y	-	y	z
-	Z	-	Y	X	x	Z	Z	Z	Y	X	x	Y	X
x	Z	Z	Y	X	x	Z	Z	Z	Y	X	x	Y	-
Z	Z	Z	-	Z	-	Z	Z	Z	Z	Z	-	Z	Z
-	z	z	Y	X	x	Z	Z	Z	-	Z	-	Z	-
z	-	Z	Y	X	x	Z	Z	Z	-	X	x	Y	X
z	-	Z	Y	X	x	Z	Z	Z	-	X	x	Z	-
y	Z	Z	Y	-	y	Z	Z	Z	Y	X	x	Y	-
-	Z	-	Y	X	x	Z	Z	Z	Z	Z	-	Z	Y
-	Z	-	Y	X	x	Z	Z	Z	Z	Z	-	Z	Z
x	y	-	Y	X	x	Z	Z	Z	Y	X	x	X	x
Z	Z	-	Y	X	x	Z	Z	Z	Y	X	x	Z	Z
Z	Z	-	Y	X	x	Z	Z	-	Y	X	x	Z	Z
Z	Z	-	Y	X	x	Z	Z	-	Y	X	x	Z	Z
-	X	x	Z	Z	-	Y	X	x	Z	Z	-	Y	X
Z	Z	-	Z	Z	-	Z	Z	Z	-	X	x	Z	Z
x	Z	-	Y	X	x	Z	Z	Z	Z	Y	-	y	Z
-	y	z	Z	Z	-	Z	Z	Z	Y	X	x	Z	-
Z	Z	-	Y	X	x	Z	Z	Z	Y	X	x	Y	X
-	z	Z	Y	X	x	Z	Z	Z	Z	Y	-	y	X
Z	-	-	Z	Z	-	Z	Z	Z	Z	Z	-	X	x
-	Z	Z	Y	X	x	Z	Z	Z	Y	X	x	y	-
Z	Z	-	Y	X	x	Z	Z	-	Y	X	x	Z	Z
-	Z	Z	Y	X	x	Z	Z	Z	-	Z	-	Z	-
-	Z	-	Y	X	x	Z	Z	Z	Z	-	-	Z	-
z	z	Z	Z	Z	-	Z	Z	Z	-	Z	-	Z	-
y	Z	Z	-	X	x	Z	Z	Z	-	Z	-	Z	-
x	Z	Z	Y	X	x	Z	Z	-	Z	Z	-	Z	-
X	x	Z	-	X	x	Z	Z	Z	Z	Z	-	Z	-
X	x	Z	-	X	x	Z	Z	Z	Z	Z	-	Z	-
-	Z	-	Z	-	-	Z	Z	Z	-	X	x	X	x
Z	Z	-	Z	Z	-	Z	Z	Z	Y	X	x	y	X
-	Z	-	Y	X	x	Y	X	x	Y	X	x	Y	X
Z	-	Z	Y	X	x	Z	Z	Z	-	Z	-	-	Z
Z	-	Z	-	X	x	Z	Z	Z	Y	X	x	Z	Z
Z	Z	Z	Y	X	x	Z	Z	Z	Z	Y	-	y	-
Z	Z	Z	Z	Z	-	Z	Z	Z	Z	Y	-	y	Y
Z	Z	-	Y	X	x	Z	Z	-	Y	X	x	Z	Z
z	-	Z	Y	X	x	Z	Z	Z	Y	X	x	y	Z
y	Z	-	Y	X	x	Z	Z	Z	Z	Z	-	X	x
X	x	Z	-	X	x	Z	Z	Z	Z	Z	-	Z	-
x	y	z	Y	X	x	Z	Z	Z	Z	Z	-	Z	-
-	-	Z	Y	X	x	Z	Z	Z	Z	Y	-	y	z
z	Z	Z	Y	X	x	Z	Z	Z	Y	X	x	Z	Z
Z	-	Z	Y	X	x	Z	Z	Z	Z	-	-	Z	-
z	Z	Z	Y	X	x	Z	Z	Z	-	X	x	Y	-
-	-	-	Y	X	x	Z	Z	Z	Y	X	x	X	x
x	-	-	Y	X	x	Z	Z	Z	-	Z	-	Z	Z
y	Z	-	Y	X	x	Z	Z	Z	Z	Z	-	Z	Z
y	Z	-	Y	X	x	Z	Z	Z	Z	Z	-	Z	Z
z	Z	Z	Y	X	x	Z	Z	Z	Z	Z	-	X	x
Z	-	Z	-	X	x	Z	Z	Z	-	X	x	Z	-
-	-	Z	Y	X	x	Z	Z	Z	-	X	x	Z	Z
x	Z	Z	Y	X	x	Z	-	Z	Y	X	x	X	x
-	-	-	Y	X	x	Z	Z	Z	Z	-	-	Y	X
y	-	Z	Z	Z	-	Z	Z	Z	-	Z	-	Z	-
x	Z	Z	Y	X	x	Z	-	Z	Y	X	x	X	x
-	-	-	Y	X	x	Z	Z	Z	Z	-	-	Y	X
y	-	Z	Z	Z	-	Z	Z	Z	-	Z	-	Z	-
Y	-	y	Z	Z	-	Z	Z	Z	Y	X	x	Y	X
z	Z	Z	Z	Z	-	Z	Z	Z	-	X	x	Z	Z
Z	Z	-	Y	X	x	Z	Z	Z	Y	X	x	y	Y
-	Z	Z	Y	X	x	Z	Z	-	-	X	x	Z	Z
y	Z	-	Y	X	x	Z	Z	Z	Z	Z	-	X	x
Y	X	x	Z	Z	-	Z	Z	Z	-	X	x	Z	Z
Z	-	-	Y	X	x	Z	-	-	Y	X	x	Z	Y
y	Z	-	Y	X	x	Z	Z	Z	-	Z	-	Z	-
Z	-	Z	Z	Z	-	Z	Z	-	Z	Z	-	-	-
X	x	Z	Z	Z	-	Z	Z	-	Z	Z	-	Z	Y
z	-	Z	Z	Z	-	Z	Z	Z	Y	X	x	y	Z
-	-	Z	Z	Z	-	Z	Z	Z	Y	X	x	Y	X
Z	Z	Z	Y	X	x	Z	Z	Z	Z	Z	-	X	x
z	Z	Z	Y	X	x	Z	Z	Z	Y	X	x	y	X
z	Z	Z	Y	X	x	Z	Z	Z	Y	X	x	Z	-
y	Z	Z	Z	Z	-	Z	Z	Z	Y	X	x	X	x
-	Z	Z	Y	X	x	Z	Z	-	Z	Z	-	-	Z
Z	Z	-	Y	X	x	Z	Z	Z	Y	X	x	Y	X
Z	Z	-	Z	Z	-	Z	Z	-	Y	X	x	Z	-
z	Z	-	Y	X	x	Z	Z	Z	Z	Z	-	Z	-
Z	Z	-	Y	X	x	Z	Z	-	Y	X	x	y	Z
z	Z	-	Y	X	x	Z	Z	Z	Y	X	x	Z	Z
x	Z	Z	Y	X	x	Z	Z	Z	Y	X	x	-	z
Y	-	y	Y	-	y	Z	Z	Z	Y	X	x	Y	-
Z	-	-	Y	X	x	Z	Z	Z	Y	X	x	y	Y
z	Z	Z	Y	X	x	Z	Z	Z	Y	X	x	y	z
x	Z	Z	Y	X	x	Z	Z	Z	Y	X	x	-	z
x	Z	Z	Y	-	y	Z	Z	Z	Y	X	x	Y	-
Z	-	-	Y	X	x	Z	Z	Z	Y	X	x	y	Y
y	Z	-	Z	Z	-	Z	Z	Z	Y	X	x	Y	-
-	Z	Z	Y	X	x	Z	Z	Z	Y	X	x	Z	Y
-	z	Z	Y	X	x	Z	Z	Z	Y	X	x	Z	-
z	Z	-	Z	Z	-	Z	Z	Z	Y	X	x	Z	Y
y	z	-	Z	Z	-	Z	Z	Z	Z	Z	-	Z	Z
X	x	Z	-	Z	-	Z	Z	Z	Z	Z	-	X	x
-	Z	Z	Y	X	x	Z	Z	Z	Y	X	x	Z	Z
-	-	Z	Y	X	x	Z	Z	Z	-	X	x	X	x
Y	X	x	Y	X	x	Z	Z	Z	-	X	x	Z	-
Y	X	x	-	X	x	Z	Z	Z	Y	X	x	X	x
Z	Z	-	Y	X	x	Z	Z	-	Z	Z	-	Z	-
-	Z	Z	Z	Z	-	Z	Z	-	-	X	x	X	x
-	z	Z	Y	X	x	Z	Z	Z	Y	X	x	Z	-
-	Z	Z	Y	-	y	Z	Z	Z	-	X	x	Y	-
x	Z	Z	Y	X	x	Z	Z	-	Y	X	x	Z	Z
X	x	Z	Y	X	x	Z	Z	Z	Z	Z	-	Z	-
x	Z	-	Y	X	x	Z	Z	Z	Y	X	x	Y	X
z	Z	Z	Y	X	x	Z	Z	Z	-	Z	-	X	x
Z	-	-	Z	Z	-	Z	Z	-	-	Z	-	-	Y
-	-	Z	Y	X	x	Z	Z	Z	Y	X	x	Z	-
-	Z	Z	Z	Z	-	Z	Z	-	-	X	x	X	x
-	Z	-	Y	X	x	Z	Z	Z	Y	X	x	y	Z
-	Z	-	Z	Z	-	Z	Z	Z	Y	X	x	Z	-
z	Z	-	Y	X	x	Z	Z	-	Y	X	x	y	Y
z	Z	-	Z	Z	-	Z	Z	Z	Z	Z	-	-	Z
y	Z	Z	Y	X	x	Z	Z	Z	Y	X	x	X	x
y	z	Z	Y	X	x	Z	Z	Z	Y	X	x	-	-
z	-	Z	Y	X	x	Z	Z	Z	-	X	x	Z	-
z	Z	Z	Y	X	x	Z	Z	Z	Y	X	x	y	Z
z	-	Z	Y	X	x	Z	Z	-	Y	X	x	Y	X
z	Z	-	Y	X	x	Z	Z	Z	Y	X	x	-	Z
Z	Z	Z	-	X	x	Z	Z	Z	Z	Z	-	Z	Y
Y	-	y	Y	X	x	Z	Z	Z	Y	X	x	Y	X
Z	-	-	Y	X	x	Z	Z	Z	Y	X	x	-	z
y	-	Z	Y	X	x	Z	Z	Z	Y	X	x	Z	Y
X	x	Z	Z	Z	-	Z	Z	Z	Y	X	x	y	Z
Z	Z	-	Z	Z	-	Z	Z	Z	-	X	x	y	-
x	y	Z	-	Z	-	Z	Z	Z	Y	X	x	Y	-
x	-	Z	Y	X	x	Z	Z	Z	-	Z	-	Y	-
y	Z	-	Y	X	x	Z	Z	Z	-	Y	-	y	Z
X	x	Z	Y	X	x	Z	Z	-	-	X	x	X	x
Z	Z	-	Y	X	x	Z	Z	Z	Y	X	x	Z	Y
x	Z	Z	Y	X	x	Z	Z	Z	Y	X	x	Y	-
y	-	Z	Y	X	x	Z	Z	Z	Y	X	x	Z	Y
Z	-	-	Z	Z	-	Z	-	Z	Z	Z	-	Z	-
z	Z	Z	Y	X	x	Z	Z	-	Z	Z	-	Z	-
Z	-	-	Y	X	x	Y	X	x	Y	X	x	Y	-
Y	-	y	Y	X	x	Z	Z	Z	Y	X	x	Z	Z
-	-	-	Y	X	x	Z	Z	Z	Z	Z	-	Z	-
X	x	-	Y	X	x	Z	Z	Z	Y	X	x	X	x
Z	Z	Z	Y	X	x	Z	Z	Z	Y	X	x	Z	Z
Z	-	Z	Y	X	x	Z	Z	Z	Z	Y	-	y	Z
x	X	x	Y	X	x	Z	Z	Z	Y	X	x	Y	X
X	x	Z	Y	X	x	Z	Z	Z	Y	X	x	X	x
x	-	z	-	Z	-	Z	Z	Z	-	X	x	Z	Z
x	Z	-	-	X	x	Z	Z	Z	Y	X	x	X	x
Z	Z	Z	Y	X	x	Z	Z	Z	Z	Z	-	Y	-
X	x	-	Y	X	x	Z	Z	Z	Y	X	x	Z	-
