0	1	2	3	4	5	6	7	8	9	10
T	C	T	G	A	G	T	C	A	C	C
A	G	T	G	A	C	T	C	A	C	T
G	G	T	G	A	G	T	C	A	T	C
A	G	T	G	A	C	T	C	A	C	G
G	G	T	G	A	C	T	C	A	C	G
G	G	T	G	A	C	T	C	A	C	G
C	C	T	G	A	C	T	C	A	T	G
G	G	T	G	A	C	T	C	A	G	C
A	G	T	G	A	C	T	C	A	C	C
G	G	T	G	A	C	T	C	A	C	C
A	G	T	G	A	C	T	C	A	T	C
G	C	T	G	A	G	T	C	A	C	G
G	A	T	G	A	T	T	C	A	C	C
A	G	T	G	A	T	T	C	A	C	C
G	A	T	G	A	C	T	C	A	G	G
A	C	T	G	A	C	T	C	A	C	C
G	G	T	G	A	C	T	C	A	T	C
A	G	T	G	A	C	T	C	A	T	C
T	G	T	G	A	C	T	C	A	C	T
T	G	T	G	A	G	T	C	A	G	G
G	G	T	G	A	C	T	C	A	C	G
A	C	T	G	A	C	T	C	A	T	A
G	G	T	G	A	G	T	C	A	C	G
G	A	T	G	A	C	T	A	A	C	C
G	G	T	G	A	C	T	C	A	T	C
G	G	T	G	A	G	T	C	A	T	T
G	C	T	G	A	G	T	C	A	T	C
A	G	T	G	A	C	T	C	A	C	G
G	G	T	G	A	G	T	C	A	G	G
G	G	T	G	A	C	T	C	A	G	C
T	G	T	G	A	C	T	C	A	T	C
G	G	T	G	A	C	T	C	A	C	C
G	G	T	G	A	C	T	C	A	G	C
T	G	T	G	A	G	T	C	A	G	G
G	C	T	G	A	C	T	C	A	T	T
T	G	T	G	A	C	T	C	A	T	T
A	G	T	G	A	C	T	A	A	T	T
G	C	T	G	A	C	T	C	A	G	C
A	C	T	G	A	G	T	C	A	T	A
T	C	T	G	A	C	T	C	A	G	A
G	C	T	G	A	G	T	C	A	T	G
A	G	T	G	A	C	T	C	A	T	A
A	G	T	G	A	G	T	C	A	G	C
T	G	T	G	A	C	T	C	A	T	C
T	C	T	G	A	G	T	C	A	C	C
G	C	T	G	A	C	T	C	A	T	G
A	G	T	G	A	G	T	C	A	C	C
G	G	T	G	A	C	T	C	A	G	C
G	G	T	G	A	C	T	C	A	C	G
G	G	T	G	A	C	T	C	A	C	G
G	G	T	G	A	C	T	C	A	T	G
G	A	T	G	A	C	T	C	A	T	C
G	C	T	G	A	G	T	C	A	T	C
G	G	T	G	A	C	T	C	A	T	T
G	G	T	G	A	T	T	C	A	G	G
G	G	T	G	A	C	T	C	A	G	C
G	G	T	G	A	C	T	C	A	G	G
A	C	T	G	A	G	T	C	A	C	C
A	G	T	G	A	C	T	C	A	T	T
G	A	T	G	A	G	T	A	A	T	A
A	G	T	G	A	C	T	C	A	T	T
T	G	T	G	A	C	T	C	A	T	T
T	C	T	G	A	C	T	C	A	C	C
T	C	T	G	A	C	T	C	A	G	A
G	A	T	G	A	C	T	A	A	T	C
G	G	T	G	A	C	T	C	A	T	T
C	G	T	G	A	G	T	C	A	T	G
A	G	T	G	A	G	T	C	A	T	C
T	G	T	G	A	C	T	C	A	T	T
G	G	T	G	A	C	T	C	A	G	G
G	G	T	G	A	C	T	C	A	T	C
T	G	T	G	A	G	T	C	A	C	C
G	G	T	G	A	C	T	C	A	C	G
G	G	T	G	A	C	T	C	A	G	C
T	C	T	G	A	G	T	C	A	C	C
G	A	T	G	A	C	T	C	A	G	G
A	G	T	G	A	G	T	C	A	T	G
A	G	T	G	A	G	T	C	A	G	G
G	C	T	G	A	G	T	C	A	C	G
G	A	T	G	A	C	T	C	A	G	G
T	G	T	G	A	G	T	C	A	G	C
T	G	T	G	A	G	T	C	A	C	C
G	C	T	G	A	G	T	C	A	G	G
A	G	T	G	A	G	T	C	A	C	C
G	A	T	G	A	T	T	C	A	C	T
T	C	T	G	A	C	T	C	A	G	C
T	C	T	G	A	C	T	C	A	C	G
T	C	T	G	A	G	T	A	A	T	C
A	A	T	G	A	C	T	C	A	T	C
A	G	T	G	A	G	T	A	A	T	C
T	G	T	G	A	C	T	C	A	G	T
T	A	T	G	A	T	T	C	A	T	G
G	C	T	G	A	G	T	A	A	T	G
A	C	T	G	A	C	T	C	A	G	A
T	G	T	G	A	C	T	C	A	G	A
T	G	T	G	A	G	T	C	A	T	C
G	G	T	G	A	G	T	C	A	T	G
G	A	T	G	A	G	T	C	A	G	G
G	G	T	G	A	G	T	C	A	C	G
G	C	T	G	A	C	T	C	A	T	T
G	C	T	G	A	G	T	C	A	T	C
G	G	T	G	A	C	T	C	A	G	C
A	C	T	G	A	G	T	C	A	C	C
G	C	T	G	A	C	T	C	A	T	T
A	G	T	G	A	C	T	C	A	C	C
A	G	T	G	A	C	T	C	A	C	G
T	A	T	G	A	C	T	C	A	T	G
T	C	T	G	A	C	T	C	A	T	T
T	A	T	G	A	C	T	C	A	T	A
A	G	T	G	A	G	T	C	A	T	G
A	C	T	G	A	C	T	C	A	G	C
G	G	T	G	A	C	T	C	A	C	C
T	C	T	G	A	C	T	C	A	C	C
A	C	T	G	A	C	T	C	A	C	G
G	C	T	G	A	T	T	C	A	T	T
A	G	T	G	A	C	T	C	A	C	T
A	G	T	G	A	C	T	C	A	C	C
A	G	T	G	A	C	T	C	A	C	C
A	G	T	G	A	G	T	C	A	T	C
T	A	T	G	A	G	T	C	A	T	G
T	C	T	G	A	G	T	C	A	T	T
G	C	T	G	A	G	T	C	A	T	C
A	G	T	G	A	C	T	C	A	G	C
T	C	T	G	A	G	T	C	A	G	C
G	G	T	G	A	C	T	C	A	G	G
A	A	T	G	A	C	T	C	A	G	G
G	C	T	G	A	C	T	C	A	C	C
T	C	T	G	A	C	T	C	A	C	C
G	G	T	G	A	C	T	A	A	T	A
A	A	T	G	A	C	T	C	A	T	T
G	G	T	G	A	C	T	C	A	G	G
G	C	T	G	A	T	T	C	A	C	C
G	G	T	G	A	G	T	C	A	G	G
G	C	T	G	A	C	T	C	A	T	T
G	G	T	G	A	C	T	C	A	C	C
C	C	T	G	A	C	T	C	A	T	G
C	C	T	G	A	C	T	C	A	T	G
G	G	T	G	A	C	T	C	A	T	A
A	G	T	G	A	T	T	C	A	G	C
G	G	T	G	A	C	T	C	A	C	G
G	C	T	G	A	T	T	C	A	T	T
T	G	T	G	A	C	T	A	A	T	C
A	C	T	G	A	G	T	C	A	T	T
A	G	T	G	A	C	T	C	A	T	T
G	C	T	G	A	G	T	C	A	T	G
A	G	T	G	A	C	T	C	A	G	A
T	C	T	G	A	G	T	C	A	T	C
A	A	T	G	A	T	T	C	A	T	A
G	G	T	G	A	C	T	C	A	G	G
T	G	T	G	A	C	T	C	A	G	T
G	G	T	G	A	G	T	C	A	C	G
G	A	T	G	A	C	T	C	A	T	G
G	G	T	G	A	G	T	C	A	G	G
T	C	T	G	A	C	T	C	A	C	G
T	G	T	G	A	C	T	C	A	G	T
T	G	T	G	A	C	T	C	A	T	A
G	C	T	G	A	C	T	C	A	C	C
G	C	T	G	A	C	T	C	A	C	C
T	C	T	G	A	C	T	C	A	T	C
T	G	T	G	A	G	T	C	A	C	C
A	C	T	G	A	C	T	C	A	C	C
A	G	T	G	A	G	T	C	A	G	G
T	G	T	G	A	C	T	C	A	C	C
G	G	T	G	A	G	T	C	A	T	A
A	G	T	G	A	G	T	C	A	C	C
G	G	T	G	A	C	T	C	A	T	G
T	G	T	G	A	C	T	C	A	C	G
A	G	T	G	A	C	T	C	A	T	C
T	A	T	G	A	G	T	C	A	T	G
G	G	T	G	A	G	T	C	A	T	A
G	A	T	G	A	T	T	C	A	C	C
G	G	T	G	A	G	T	C	A	T	A
G	C	T	G	A	C	T	A	A	T	C
A	G	T	G	A	C	T	C	A	T	G
A	G	T	G	A	G	T	C	A	C	C
A	G	T	G	A	G	T	C	A	T	A
T	C	T	G	A	C	T	C	A	T	C
G	G	T	G	A	G	T	C	A	T	G
