0	1	2	3	4	5	6	7	8	9
2.0	0.0		0.0	0.0		0.0	0.0		0.0
0.0	0.0			0.0		0.0			0.0
0.0	0.0		0.0	0.0		0.0	0.0		0.0
0.0	0.0			0.0		0.0	0.0		0.0
0.0	0.0			1.0		0.0	0.0	0.0	
	0.0		3.0	2.0		0.0	0.0		
0.0	0.0		0.0	0.0		0.0			0.0
0.0	0.0								
0.0	0.0			0.0		0.0	0.0	0.0	
	0.0		0.0	0.0		0.0	0.0		0.0
				0.0		0.0	0.0		
0.0	0.0			0.0		0.0		0.0	0.0
0.0	0.0		0.0						
0.0	0.0		0.0	0.0		0.0		0.0	0.0
0.0	0.0		0.0	0.0		0.0	0.0	0.0	
	0.0			0.0		0.0	0.0	0.0	0.0
0.0	0.0			0.0		0.0	0.0		
0.0	0.0			0.0		0.0	0.0		0.0
	0.0		0.0	0.0		0.0	0.0		
	0.0		0.0	0.0			0.0		0.0
	0.0		0.0	0.0		0.0	0.0		
				0.0		0.0			
0.0	0.0		0.0	3.0		0.0	0.0	4.0	0.0
0.0	0.0			0.0		0.0	0.0		
0.0	1.0			0.0		0.0			
0.0	0.0		0.0	0.0		0.0	0.0		
0.0	0.0		0.0	0.0		0.0	0.0		
				0.0		0.0	0.0		
0.0	0.0			0.0		0.0	0.0		0.0
0.0	0.0		0.0	0.0		0.0	0.0		
0.0	0.0		0.0	0.0		0.0	0.0		0.0
0.0	2.0			0.0		0.0	0.0		
0.0	0.0		0.0	0.0		4.0	0.0		0.0
0.0	0.0		0.0	0.0		0.0	0.0		0.0
	0.0		0.0	0.0		0.0	0.0		
0.0	0.0		0.0	0.0		0.0	0.0	0.0	
0.0	0.0		0.0	0.0		0.0	0.0	0.0	0.0
0.0	0.0		0.0	0.0		0.0	0.0	0.0	
0.0	0.0		0.0	0.0		0.0	0.0		0.0
				0.0		0.0			1.0
0.0	0.0			0.0		0.0			0.0
	0.0						0.0		
	0.0		0.0	0.0		0.0	0.0		
	0.0		0.0	0.0		0.0	0.0	0.0	0.0
0.0	3.0		0.0	0.0		0.0	0.0	0.0	
	0.0		0.0	0.0		0.0	0.0		
	0.0		0.0	0.0		0.0	0.0		
0.0	0.0			0.0		2.0	0.0		
0.0	0.0		0.0	0.0		0.0	0.0	0.0	0.0
0.0	0.0		0.0	0.0		0.0	0.0		0.0
0.0	0.0		0.0	0.0		0.0	0.0		0.0
0.0	0.0		0.0	0.0		0.0	0.0		0.0
0.0	0.0		4.0	0.0		0.0		0.0	
0.0	0.0			0.0		0.0	0.0		0.0
0.0	0.0		0.0	0.0		0.0	0.0		
0.0	0.0		0.0	2.0		2.0	0.0		0.0
0.0	0.0		0.0	0.0		0.0	0.0		
				0.0		0.0			
0.0	0.0			0.0		0.0	0.0		0.0
0.0	0.0		0.0	0.0		0.0	0.0		
0.0	0.0		0.0	0.0		0.0	0.0		0.0
0.0	3.0		0.0	0.0		0.0	0.0		
0.0	0.0			0.0		0.0			0.0
0.0	0.0		0.0	0.0		0.0	0.0		
0.0	0.0		0.0	0.0		0.0	0.0	0.0	0.0
0.0	0.0		0.0	0.0		0.0	0.0	0.0	
0.0	0.0		0.0	0.0		0.0	0.0	0.0	
0.0	0.0		0.0	0.0			0.0	1.0	0.0
0.0	0.0		0.0	0.0		0.0	0.0		0.0
0.0	0.0			0.0		0.0	0.0	0.0	
0.0	0.0			0.0		0.0	0.0	0.0	
0.0	0.0		0.0	0.0		0.0			
				0.0		0.0			
0.0	0.0		0.0	0.0		0.0	0.0		
0.0	0.0			0.0		0.0	0.0		
0.0	0.0			0.0		1.0	0.0		0.0
	0.0		0.0	0.0		0.0	0.0		0.0
0.0	0.0		0.0	0.0		0.0	0.0		
0.0	0.0		0.0	6.0		0.0	0.0	0.0	0.0
	0.0			0.0		0.0	0.0		0.0
0.0	0.0		0.0	0.0		0.0	0.0	0.0	
0.0	0.0		0.0	0.0		0.0	0.0	0.0	
0.0	0.0		0.0	0.0		0.0	0.0	0.0	
0.0	0.0		0.0	0.0		0.0	0.0	0.0	0.0
0.0	0.0		0.0	0.0		0.0	0.0		0.0
0.0	0.0		0.0	0.0		0.0	0.0	0.0	
0.0	0.0		0.0	0.0		1.0	0.0		0.0
0.0	0.0			0.0		0.0	0.0		
	0.0			0.0		0.0	0.0	0.0	0.0
0.0	0.0			0.0		0.0	0.0		0.0
0.0	0.0		0.0	0.0		0.0	0.0		1.0
0.0	0.0		0.0	0.0		0.0	0.0	0.0	0.0
0.0	0.0		0.0	0.0		0.0	0.0	0.0	0.0
	0.0			0.0		0.0	0.0		0.0
0.0	0.0			1.0		0.0			0.0
0.0	0.0		0.0	0.0		0.0	0.0		
				1.0		0.0	0.0		
0.0	0.0			0.0		0.0	0.0	0.0	
0.0	1.0		0.0	0.0		0.0		0.0	0.0
	0.0			0.0		0.0	0.0		0.0
	0.0		0.0	0.0		1.0	0.0		
0.0	0.0		0.0	0.0		0.0	0.0		0.0
	0.0		0.0	4.0		0.0	0.0	0.0	
0.0	0.0		0.0	0.0		0.0			0.0
0.0	0.0		0.0	0.0		0.0	0.0		0.0
0.0	1.0		0.0	0.0		0.0	0.0		0.0
				0.0		0.0			
0.0	0.0		0.0	1.0		0.0	0.0	0.0	
0.0	0.0		0.0	0.0		0.0	0.0	0.0	
0.0	0.0		0.0	0.0		0.0	0.0	0.0	0.0
0.0	0.0		0.0	0.0		0.0	0.0	0.0	
0.0	0.0		0.0	0.0		0.0	0.0	0.0	0.0
0.0	0.0		0.0	0.0		0.0	0.0	0.0	
0.0	0.0			0.0		0.0	0.0	0.0	
	0.0					0.0			
0.0	0.0		0.0	0.0		0.0	0.0	0.0	0.0
0.0	0.0			0.0		0.0			
0.0	0.0		0.0	0.0		0.0		0.0	0.0
0.0				0.0		0.0			0.0
0.0	0.0		0.0	0.0		0.0	0.0		0.0
0.0	0.0		0.0	0.0		0.0	0.0		0.0
0.0	0.0		0.0	0.0		0.0	0.0		0.0
1.0	0.0		0.0	0.0		0.0		1.0	0.0
	0.0		0.0	0.0		0.0	4.0	0.0	
0.0	0.0			0.0		0.0	0.0		0.0
0.0	0.0		0.0	0.0		0.0		0.0	
0.0	0.0		0.0	0.0		0.0	0.0	0.0	
	0.0		0.0	0.0		0.0	0.0	0.0	
0.0	0.0		0.0	0.0		0.0	0.0		
0.0	0.0		0.0	0.0		0.0	0.0		
	0.0			0.0		0.0			1.0
0.0	0.0		0.0	0.0		0.0			0.0
0.0	0.0			0.0		0.0	0.0		
0.0	0.0			0.0		0.0	0.0		
0.0	0.0			0.0		0.0	0.0		0.0
0.0	0.0		0.0				0.0	0.0	0.0
0.0	0.0		0.0	0.0		0.0	0.0	0.0	0.0
1.0	0.0		0.0	0.0		0.0			0.0
	0.0		0.0	0.0		0.0	0.0		0.0
0.0	0.0		0.0	0.0		0.0	0.0	0.0	
0.0	0.0		0.0	0.0		0.0	0.0	0.0	0.0
0.0	0.0		0.0	0.0		0.0	0.0	0.0	0.0
0.0	1.0		0.0	0.0		0.0	1.0	3.0	
0.0	0.0		0.0	0.0		0.0	0.0		0.0
0.0	0.0		0.0	0.0		0.0	0.0	0.0	0.0
0.0	0.0		0.0	0.0		0.0	0.0	0.0	0.0
	0.0		0.0	0.0		0.0	0.0	0.0	
0.0	0.0		0.0	0.0		0.0		0.0	0.0
0.0	0.0		0.0	0.0		0.0	0.0		0.0
0.0	0.0			0.0		0.0	1.0		0.0
0.0	0.0			0.0		0.0	1.0		0.0
0.0	0.0			0.0		0.0	0.0		
0.0	0.0		0.0	0.0		0.0	0.0		0.0
0.0	0.0		0.0	0.0		0.0	0.0		
0.0	0.0			0.0		0.0	0.0		0.0
0.0	0.0		0.0	0.0		0.0	0.0	0.0	0.0
0.0	0.0		0.0	0.0		0.0	0.0	0.0	
0.0	0.0		0.0	0.0		0.0	2.0		0.0
0.0	0.0		0.0	0.0		0.0	0.0		0.0
0.0	2.0		76.0	33.0		0.0			
0.0	2.0			0.0		0.0	0.0	0.0	0.0
0.0	0.0		0.0	0.0		0.0			
0.0	0.0		0.0	0.0		0.0	0.0	0.0	0.0
0.0	0.0		0.0	0.0		0.0	0.0		0.0
0.0	0.0			0.0		0.0	0.0		0.0
0.0	0.0			0.0		0.0	0.0		
0.0	3.0		0.0	0.0		0.0		0.0	
0.0	0.0			0.0		0.0	0.0	0.0	
0.0	0.0		0.0	0.0		0.0		0.0	0.0
0.0	0.0			0.0		0.0	0.0	0.0	0.0
	0.0			0.0		0.0	0.0		
0.0	0.0			0.0		0.0	1.0		0.0
	0.0		0.0	0.0		0.0	0.0	0.0	0.0
0.0	0.0		0.0	0.0		0.0	0.0	0.0	0.0
0.0	0.0			0.0		0.0			0.0
0.0	0.0		0.0	0.0		0.0	0.0		
0.0	0.0		0.0	0.0		0.0	0.0		
0.0	0.0		0.0	0.0		0.0	0.0	0.0	0.0
0.0	0.0		0.0	0.0		0.0	0.0		0.0
0.0	0.0		0.0	0.0		0.0	0.0		0.0
0.0	0.0		0.0	0.0		0.0			
0.0	0.0			0.0		0.0	0.0	0.0	0.0
0.0	0.0		6.0	0.0		0.0	0.0	0.0	
0.0	3.0		0.0	0.0		0.0	0.0	0.0	
0.0	0.0			0.0		0.0			0.0
0.0	0.0		0.0	0.0		0.0	0.0	0.0	0.0
	0.0		0.0	0.0		0.0	0.0		0.0
0.0	0.0		0.0	0.0		0.0	0.0		
	0.0		0.0	1.0		0.0	0.0		0.0
0.0	0.0		0.0	0.0		0.0		0.0	
0.0	0.0			0.0		0.0	0.0		
0.0	0.0		0.0	0.0		0.0			
0.0	0.0			0.0		0.0	0.0		0.0
	0.0		0.0	0.0		0.0	0.0		0.0
0.0	0.0		3.0	0.0		0.0	0.0	0.0	0.0
0.0	0.0		0.0	0.0		0.0	0.0	0.0	
0.0	0.0		0.0	0.0		0.0	0.0		0.0
0.0	0.0		0.0	0.0		0.0	1.0	0.0	0.0
0.0	0.0		0.0	0.0		0.0	0.0		0.0
0.0	0.0			0.0		0.0			
0.0	0.0		0.0	0.0		0.0		0.0	0.0
0.0	0.0		0.0	0.0		0.0	0.0		0.0
1.0	0.0			0.0		0.0	0.0	0.0	0.0
	0.0			0.0		0.0	0.0		0.0
	0.0		0.0	0.0		0.0	0.0		0.0
0.0	0.0		0.0	0.0		0.0	0.0	0.0	0.0
0.0	0.0		0.0	0.0		0.0	0.0	1.0	
	0.0			0.0		0.0		0.0	0.0
0.0	0.0		0.0	0.0		0.0	0.0	0.0	
	0.0		0.0	0.0		0.0	0.0	0.0	0.0
0.0	0.0			0.0		0.0	0.0		
0.0	0.0		0.0	0.0		0.0	0.0		0.0
0.0	0.0		0.0	0.0		0.0	0.0		0.0
				0.0		0.0	0.0		
0.0	0.0			0.0		0.0	0.0		0.0
0.0	0.0		0.0	1.0		0.0	0.0		
0.0	0.0		0.0	0.0		0.0	0.0		0.0
0.0	0.0		0.0	0.0		0.0	0.0	0.0	1.0
0.0	0.0		0.0	0.0		0.0			
0.0	0.0		0.0	0.0		0.0			
0.0	0.0		0.0	0.0		1.0			0.0
0.0	0.0		0.0	1.0		1.0	0.0		0.0
0.0	0.0		0.0	0.0		2.0	0.0		
0.0	0.0			0.0		0.0	0.0		
0.0	0.0		0.0	0.0		0.0	0.0	0.0	
0.0	2.0			0.0		0.0	0.0		
	0.0		0.0	0.0		0.0	0.0		0.0
0.0	0.0			0.0		1.0	0.0		0.0
	0.0		0.0	0.0		0.0	0.0		0.0
0.0	0.0		0.0	4.0		1.0			
				0.0		0.0			
	0.0		0.0	0.0		0.0			0.0
0.0	0.0			0.0		0.0	0.0		0.0
0.0	0.0			1.0		0.0			
	0.0		0.0	0.0		0.0	0.0	0.0	
0.0	0.0			0.0		0.0	0.0		1.0
0.0	0.0		0.0	0.0		0.0	0.0		0.0
0.0	0.0		0.0	0.0		0.0		0.0	0.0
0.0	0.0			0.0		0.0	0.0		
0.0	0.0			0.0		2.0	0.0		
0.0	0.0		0.0	0.0		0.0	0.0		0.0
0.0	0.0		0.0	0.0		0.0	0.0	0.0	
0.0	1.0		0.0	0.0		0.0	0.0		0.0
0.0	0.0			0.0		0.0	0.0	0.0	
0.0	0.0		0.0	0.0		0.0	0.0		0.0
0.0	0.0		0.0	0.0		0.0	0.0	0.0	0.0
0.0	0.0			0.0		0.0	0.0		0.0
0.0	0.0		0.0	0.0		0.0		0.0	
0.0	0.0		0.0	0.0		0.0		0.0	0.0
0.0	0.0		0.0	0.0		0.0		0.0	
0.0	0.0		0.0	2.0		1.0	0.0		0.0
0.0	0.0		0.0	0.0		0.0	0.0		0.0
0.0	0.0		0.0	0.0		0.0			0.0
				0.0		0.0			0.0
0.0	0.0		0.0	0.0		0.0	0.0		0.0
	0.0		0.0	0.0		0.0			0.0
0.0	4.0		0.0	0.0		0.0	0.0	0.0	0.0
0.0	0.0			0.0		0.0	0.0	0.0	
	0.0		0.0	0.0		0.0			
	0.0			0.0		0.0	0.0		
0.0	0.0		0.0	0.0		0.0	0.0	0.0	0.0
	0.0			0.0		0.0	0.0		
0.0	0.0		0.0	0.0		0.0	0.0		0.0
				0.0		0.0			0.0
0.0	0.0			0.0		0.0	0.0	0.0	0.0
0.0	0.0		0.0	0.0		0.0	0.0		
0.0	0.0		0.0	0.0		0.0			
	0.0		0.0	0.0		0.0	0.0		0.0
				0.0		0.0			
0.0	0.0		0.0	0.0		0.0	0.0	0.0	
0.0	2.0		0.0	0.0		0.0	0.0	0.0	
0.0	0.0		0.0	0.0		0.0	0.0	0.0	0.0
			0.0	0.0		0.0	0.0		0.0
0.0	0.0		0.0	0.0		0.0		0.0	0.0
0.0	0.0			0.0		0.0	0.0	0.0	0.0
0.0	0.0			0.0		0.0	0.0		0.0
0.0	0.0			0.0		0.0	0.0		
0.0	0.0		0.0	0.0		2.0	0.0		
0.0	0.0		4.0	3.0		0.0	0.0		
				0.0		0.0			
0.0	0.0		0.0	0.0		0.0	0.0	0.0	
0.0	0.0		0.0	0.0		0.0	0.0	0.0	
1.0	1.0			0.0		0.0	0.0		
0.0	0.0		0.0	0.0		0.0		0.0	0.0
0.0	0.0			0.0		0.0	0.0		0.0
	0.0			0.0		0.0			
	0.0		0.0	0.0		0.0	0.0		0.0
				0.0		0.0			
	0.0		0.0	0.0		0.0			0.0
0.0	0.0		0.0	0.0		0.0	0.0	0.0	1.0
0.0	0.0		0.0	0.0		2.0		0.0	
6.0	0.0		0.0	0.0		0.0			
	0.0		0.0	4.0		0.0	0.0	0.0	
0.0	0.0		0.0	0.0		0.0		0.0	0.0
0.0	0.0		0.0	0.0		0.0		0.0	0.0
0.0	0.0		0.0	1.0		1.0	0.0		
	0.0		0.0	0.0		0.0	0.0	0.0	0.0
0.0	0.0			0.0		0.0	0.0		
0.0	0.0			0.0		0.0	1.0		0.0
0.0	0.0			0.0		0.0	0.0		
0.0	0.0		0.0	0.0		0.0	0.0		
0.0	0.0		0.0	0.0		0.0	0.0		0.0
0.0	0.0			0.0		1.0	0.0		
0.0	0.0			0.0		0.0	0.0	0.0	0.0
0.0	0.0			0.0		0.0	0.0	0.0	
0.0	0.0		0.0	0.0		4.0	4.0		
				0.0		0.0	0.0		
0.0	0.0		0.0	0.0		0.0	0.0		
0.0	0.0		0.0	0.0		0.0	0.0		
0.0	0.0		0.0	0.0		0.0	0.0	0.0	0.0
0.0	0.0		0.0	0.0		0.0	0.0	0.0	
0.0	0.0		0.0	0.0		0.0	0.0	0.0	
0.0	0.0			0.0		0.0	0.0	0.0	
0.0	0.0		0.0	0.0		0.0	0.0		0.0
0.0	1.0		0.0	0.0		0.0	0.0		0.0
	0.0		0.0	0.0		0.0	0.0		0.0
				0.0		1.0	0.0		
0.0	0.0		0.0	0.0		0.0	0.0	0.0	0.0
1.0	0.0		0.0	0.0		0.0	0.0	0.0	0.0
0.0	0.0		0.0	0.0		0.0	0.0	0.0	0.0
0.0	0.0		0.0	0.0		0.0	0.0	0.0	0.0
0.0	0.0		0.0	0.0		0.0	0.0	0.0	
	0.0			0.0		2.0	0.0	0.0	0.0
0.0	0.0		0.0	0.0		0.0	0.0		
	0.0		0.0	0.0		0.0	0.0		
0.0	0.0		0.0	0.0		0.0		0.0	
	0.0		0.0	0.0		0.0	0.0		
				0.0		0.0			
0.0	0.0		0.0	0.0		0.0	0.0		0.0
0.0	0.0		0.0	0.0		0.0	0.0		
				0.0		0.0	0.0		0.0
0.0	0.0			0.0		0.0	0.0		
	0.0		0.0						0.0
				0.0		0.0			
	0.0			0.0		0.0			0.0
0.0	0.0		0.0	0.0		0.0	0.0		
0.0	0.0		0.0	0.0		0.0	0.0		0.0
0.0	0.0			0.0		0.0	0.0		
0.0	0.0			0.0		0.0	0.0		
0.0	0.0								
0.0	0.0			0.0		0.0	0.0	0.0	0.0
0.0	0.0			0.0		0.0	0.0	0.0	
0.0	0.0			0.0		0.0	0.0	0.0	
0.0	0.0		0.0	0.0		0.0	0.0		0.0
0.0	0.0		0.0	0.0		0.0	1.0	0.0	0.0
0.0	0.0		0.0	0.0		0.0	0.0		0.0
	0.0		0.0	0.0		0.0	0.0		
0.0	0.0		0.0	0.0		0.0	0.0	0.0	
	0.0			0.0		0.0	0.0		
	0.0			0.0		0.0	0.0		0.0
0.0	0.0		5.0	0.0		0.0	0.0		
0.0	0.0		0.0	0.0		0.0	0.0	0.0	0.0
	0.0			0.0		0.0	0.0		0.0
0.0	0.0		0.0	0.0		0.0		0.0	
	0.0			0.0		0.0	0.0		0.0
	0.0		0.0	0.0		0.0	0.0		
0.0	0.0		0.0	0.0		0.0	0.0		0.0
	0.0		0.0	0.0		0.0	0.0	2.0	
0.0	0.0		0.0	0.0		0.0	0.0	0.0	
0.0	0.0		0.0	0.0		0.0			
0.0				0.0		0.0			
	0.0			0.0		0.0		0.0	
0.0	0.0		0.0	0.0		0.0	0.0		0.0
1.0	0.0		0.0	0.0		0.0		0.0	0.0
0.0	0.0		0.0	0.0		0.0	0.0	0.0	
0.0	0.0		0.0	0.0		0.0	0.0		0.0
0.0	0.0		0.0	0.0		0.0	0.0		
0.0	0.0			0.0		0.0	0.0		
0.0	0.0			0.0		0.0	0.0	2.0	
0.0	0.0		0.0	0.0		0.0	0.0		
0.0	0.0		0.0	0.0		0.0	0.0	0.0	0.0
	0.0			0.0		6.0	0.0		0.0
	0.0						0.0		
0.0	0.0		0.0	0.0		0.0	0.0	0.0	
0.0	0.0		0.0	0.0		0.0	0.0		0.0
0.0	0.0			0.0		0.0	0.0	0.0	0.0
0.0	0.0			0.0		1.0	0.0	0.0	0.0
0.0	3.0		0.0	0.0		0.0	0.0		0.0
0.0	0.0			0.0		0.0	0.0	0.0	
0.0	0.0		3.0	0.0		0.0	0.0	0.0	3.0
0.0	0.0		0.0	0.0		0.0	0.0	0.0	
0.0	0.0		1.0	0.0		0.0	0.0		0.0
0.0	0.0		0.0	0.0		0.0	0.0	0.0	0.0
0.0	0.0		0.0	2.0		0.0	0.0		0.0
	0.0			0.0		0.0	0.0		0.0
0.0	0.0		0.0	0.0		0.0		0.0	
0.0	0.0		0.0	0.0		0.0			0.0
0.0	0.0			0.0		0.0	0.0	0.0	0.0
0.0	0.0		0.0	0.0		0.0			0.0
0.0	0.0		0.0	0.0		0.0	0.0		0.0
0.0	0.0		0.0	0.0		0.0	0.0		0.0
0.0	0.0		0.0	0.0		0.0	0.0	0.0	0.0
0.0	0.0		0.0	0.0		0.0	1.0	0.0	0.0
	0.0		0.0	0.0		0.0	0.0		1.0
0.0	0.0		0.0	0.0		0.0	0.0	0.0	0.0
	0.0		0.0	0.0		0.0			
				0.0		6.0		0.0	
1.0	0.0		1.0						
0.0	0.0			0.0		0.0			0.0
0.0	0.0			0.0		0.0	0.0		0.0
	0.0		0.0	0.0		0.0	0.0		
0.0	0.0		0.0	0.0		0.0	0.0		
0.0	1.0		0.0	0.0		0.0	0.0		
0.0	0.0		0.0	0.0		0.0	0.0		0.0
				0.0		0.0			
0.0	0.0		0.0	0.0		0.0	0.0		0.0
0.0	0.0		0.0	0.0		0.0	0.0		0.0
0.0	0.0		0.0	3.0		0.0	0.0		0.0
0.0	0.0			0.0		0.0			
0.0	2.0		0.0	0.0		0.0	0.0		0.0
0.0	0.0		3.0	0.0		0.0	0.0		
0.0	0.0		0.0	0.0		2.0	0.0		
0.0	0.0			0.0		0.0	0.0		
0.0	0.0			0.0		0.0	0.0		
				0.0		0.0	0.0		
0.0	0.0		0.0	0.0		0.0	0.0	0.0	0.0
0.0	0.0		0.0	0.0		0.0	0.0		0.0
0.0	0.0		0.0	0.0		0.0	0.0		0.0
0.0	0.0		0.0	0.0		0.0	0.0		0.0
0.0	0.0			0.0		0.0	21.0	7.0	
0.0	0.0		0.0	0.0		0.0			
0.0	0.0			2.0		0.0	0.0		
0.0	1.0		0.0	0.0		0.0	0.0	0.0	0.0
0.0	0.0		0.0	0.0		0.0	0.0	0.0	0.0
0.0	0.0		0.0	0.0		0.0		0.0	
0.0	0.0		0.0	0.0		0.0	0.0	0.0	0.0
0.0	0.0		0.0	0.0		0.0	0.0	0.0	0.0
0.0	0.0			0.0		0.0	0.0		0.0
0.0	0.0			0.0		0.0	0.0		0.0
0.0	0.0		0.0	0.0		0.0	0.0		0.0
0.0	0.0		0.0	0.0		0.0	0.0	0.0	
	0.0			0.0		0.0	0.0	0.0	0.0
0.0	0.0		0.0	0.0		0.0	0.0		2.0
	0.0			0.0		0.0	0.0	0.0	0.0
0.0	0.0		0.0	0.0		0.0	0.0		0.0
0.0	0.0		0.0	0.0		0.0	0.0	0.0	0.0
0.0	0.0		0.0	0.0		0.0	0.0	0.0	0.0
0.0	0.0		0.0	0.0		0.0		0.0	
	0.0						0.0		0.0
0.0	0.0		0.0	0.0		0.0	0.0		0.0
1.0	2.0		0.0	0.0		0.0	0.0		0.0
	0.0		0.0	0.0		1.0	0.0		1.0
	0.0		0.0	0.0		0.0	0.0		0.0
0.0	0.0		0.0	0.0		0.0			0.0
0.0	0.0		0.0	0.0		2.0	0.0	0.0	
				7.0		0.0			
0.0	0.0		0.0	0.0		0.0	0.0	0.0	0.0
0.0	0.0		0.0	0.0		0.0	0.0	0.0	0.0
0.0	0.0		0.0	0.0		0.0	0.0	0.0	0.0
0.0	0.0		0.0	0.0		0.0		0.0	
	0.0								0.0
0.0	0.0		0.0	0.0		0.0		1.0	0.0
0.0	0.0		0.0	0.0		0.0		0.0	0.0
0.0	0.0			0.0		0.0	0.0		0.0
0.0	0.0			0.0		0.0			
0.0	0.0			0.0		0.0	0.0		
0.0	0.0		0.0	0.0		0.0	0.0		
0.0	0.0		0.0	0.0		0.0	0.0	0.0	0.0
0.0	0.0		0.0	0.0		0.0	0.0	0.0	0.0
	0.0			0.0		0.0	0.0		0.0
0.0	0.0		0.0	0.0		0.0	0.0		0.0
0.0	0.0		0.0	0.0		0.0			
0.0	1.0		0.0	0.0		0.0			2.0
	0.0		0.0	0.0		0.0	0.0		0.0
0.0	0.0			0.0		0.0	0.0		
0.0	0.0		0.0	0.0		0.0	0.0	0.0	0.0
	0.0		0.0	0.0		0.0	1.0		0.0
0.0	0.0			0.0		0.0	0.0	0.0	0.0
	0.0			0.0		0.0	0.0		
	0.0			0.0		0.0	0.0		0.0
0.0	0.0		0.0	0.0		0.0	0.0		
	0.0		0.0	0.0		0.0			
0.0	0.0		0.0	0.0		0.0	0.0	0.0	0.0
				0.0					
0.0	0.0		0.0	0.0		0.0		0.0	
	0.0		0.0	0.0		0.0	0.0	0.0	
1.0	1.0			0.0		0.0	0.0		0.0
0.0	0.0			0.0		0.0	0.0		
0.0	0.0			0.0		0.0	0.0		
0.0	0.0			0.0		0.0	0.0		
0.0	1.0			0.0		0.0	0.0	0.0	0.0
0.0	0.0			0.0		0.0	0.0	0.0	
0.0	0.0		0.0	0.0		0.0	0.0		
0.0	0.0			0.0		4.0	0.0	0.0	
0.0	0.0		0.0	0.0		0.0	0.0		
0.0	0.0		0.0	0.0		0.0	0.0	0.0	0.0
0.0	0.0								0.0
				0.0		0.0		0.0	
0.0	0.0		0.0	0.0		0.0	0.0	0.0	
0.0	0.0		0.0	0.0		0.0	0.0	0.0	
0.0	0.0		0.0	0.0		0.0	0.0	0.0	0.0
0.0	0.0		0.0	1.0		0.0	0.0	0.0	
0.0	0.0			0.0		0.0	0.0		0.0
	0.0			0.0		0.0	0.0		0.0
0.0	0.0		0.0	0.0		0.0	0.0	0.0	0.0
0.0	0.0		0.0	0.0		0.0	0.0	0.0	0.0
0.0	0.0		0.0	0.0		0.0	0.0		0.0
0.0	0.0		0.0	0.0		0.0	0.0		
	0.0		0.0	0.0		0.0	0.0		
	0.0		0.0	0.0		0.0	0.0		
0.0	0.0		0.0	0.0		0.0	0.0		0.0
0.0	0.0		0.0	0.0		0.0	0.0		0.0
0.0	0.0		0.0	0.0		0.0	0.0		0.0
0.0	0.0		0.0	0.0		0.0	0.0		0.0
	0.0		0.0	0.0		0.0	2.0		0.0
	0.0			0.0		0.0	0.0	0.0	1.0
1.0	0.0		0.0	0.0		0.0	0.0	0.0	
0.0	0.0			0.0		0.0		0.0	0.0
0.0	0.0		0.0	0.0		0.0	0.0	0.0	
0.0	0.0			0.0		0.0	0.0		0.0
0.0	0.0			0.0		1.0	0.0		0.0
0.0	0.0		0.0	0.0		0.0			0.0
0.0	0.0		0.0	0.0		0.0		0.0	0.0
0.0	0.0		0.0	0.0		0.0	0.0	0.0	
0.0	0.0			0.0		0.0	0.0		1.0
0.0	0.0		0.0	0.0		0.0	0.0		
0.0			0.0	0.0		0.0	0.0		0.0
0.0	0.0		0.0	0.0		0.0	0.0		0.0
0.0	0.0		0.0	0.0		0.0	0.0		
0.0	0.0			0.0		0.0	0.0		0.0
0.0	0.0			0.0		1.0	0.0		0.0
0.0	0.0		0.0	0.0		0.0	0.0		0.0
0.0	0.0		0.0	0.0		0.0	0.0		0.0
				0.0		0.0	0.0		
0.0	0.0			0.0		0.0			0.0
0.0	0.0		0.0	0.0		0.0	0.0		
0.0	0.0		0.0	0.0		0.0	0.0	0.0	0.0
				0.0		0.0			0.0
				0.0		0.0	0.0		
0.0	0.0		0.0	0.0		0.0			
	0.0			0.0		0.0	0.0		0.0
0.0	0.0		2.0	0.0		0.0	0.0	0.0	0.0
0.0	0.0		0.0	0.0		0.0	0.0	0.0	
0.0	0.0		0.0	0.0		0.0	0.0	0.0	
0.0	0.0		0.0	6.0		0.0	0.0	0.0	
0.0	0.0		0.0	3.0		0.0	0.0	0.0	0.0
0.0	0.0		0.0	0.0		0.0	0.0	0.0	
0.0	0.0		0.0	0.0		0.0	0.0	0.0	0.0
0.0	0.0		0.0	0.0		0.0	0.0		0.0
0.0	0.0			0.0		0.0	0.0	0.0	
	0.0			1.0		0.0	0.0		0.0
0.0	0.0		0.0	1.0		0.0	0.0		0.0
	0.0		0.0	0.0		0.0	0.0	0.0	0.0
	0.0		0.0	0.0		0.0	0.0		0.0
	0.0			0.0		0.0	0.0	0.0	
0.0	0.0			0.0		0.0		0.0	0.0
0.0	0.0		0.0	0.0		0.0	0.0	0.0	0.0
	0.0			0.0		0.0	0.0	0.0	
0.0	0.0			0.0		0.0			0.0
0.0	0.0			0.0		0.0	0.0		0.0
	0.0			0.0		0.0	0.0	0.0	0.0
0.0	0.0		0.0	0.0		0.0		0.0	
	0.0		0.0	0.0		0.0	0.0	0.0	
	0.0		0.0	0.0		0.0	0.0	0.0	
	0.0		0.0	0.0		0.0	0.0	0.0	0.0
0.0	0.0		0.0	2.0		2.0	0.0		
0.0	0.0		0.0	0.0		0.0	0.0		0.0
0.0	0.0		0.0	0.0		0.0	0.0		0.0
				0.0		1.0	0.0		
0.0	0.0		0.0	0.0		0.0	0.0		
0.0	0.0		0.0	0.0		0.0	0.0		
6.0	0.0		0.0	0.0		0.0	0.0		
0.0	0.0			0.0		0.0	0.0		0.0
0.0	0.0		0.0	0.0		0.0	0.0		0.0
0.0	0.0			0.0		0.0	0.0		0.0
				0.0		0.0			
0.0	0.0		0.0	0.0		0.0	0.0		
0.0	0.0		1.0	0.0		0.0	0.0		
0.0	2.0		0.0	0.0		0.0			
1.0	0.0		0.0					0.0	0.0
0.0	0.0		0.0	0.0		0.0	0.0		
0.0	0.0		0.0	0.0		0.0	0.0		0.0
4.0	4.0		4.0	0.0		0.0	4.0	4.0	0.0
0.0	0.0							0.0	
0.0	0.0		0.0	0.0		0.0		0.0	0.0
0.0	1.0		0.0	0.0		0.0		0.0	0.0
0.0	0.0		0.0	0.0		0.0	0.0		0.0
0.0	0.0			0.0		0.0	7.0	10.0	0.0
0.0	0.0		0.0	0.0		0.0	0.0		0.0
0.0	1.0		1.0	0.0		0.0	0.0	0.0	
0.0	0.0		0.0	0.0		0.0	0.0	0.0	0.0
0.0	0.0		0.0	0.0		0.0	0.0	0.0	0.0
0.0	1.0		0.0	0.0		0.0		0.0	
	0.0		0.0	0.0		0.0	0.0	0.0	
	0.0		0.0	0.0		0.0	2.0	0.0	0.0
				0.0		0.0	0.0		
0.0	0.0		0.0	0.0		0.0	0.0		0.0
0.0	0.0		0.0	0.0		0.0	0.0	0.0	0.0
0.0	0.0		0.0	0.0		0.0	0.0	0.0	
0.0	0.0		0.0	0.0		0.0	0.0		0.0
0.0	0.0		0.0	0.0		0.0			
0.0	0.0		0.0	0.0		0.0	0.0		
0.0	0.0		0.0	0.0		0.0	0.0	0.0	0.0
	0.0						0.0		
0.0	0.0			0.0		0.0	0.0	0.0	0.0
0.0	0.0		0.0	0.0		0.0		0.0	0.0
0.0	0.0		0.0	0.0		0.0			
				1.0		0.0			0.0
	0.0								
	0.0			0.0		0.0	0.0	0.0	0.0
				0.0		0.0			
	0.0								
0.0	0.0			0.0		0.0	0.0		0.0
