0	1	2	3	4	5	6	7	8	9
C	C	A	C	G	T	G	C	T	C
C	C	A	T	G	T	G	T	T	C
C	C	A	C	G	T	G	G	T	C
C	C	A	T	G	T	G	C	A	C
C	C	A	T	G	T	G	G	G	T
A	C	A	C	G	T	G	C	T	T
C	C	A	C	G	T	G	T	T	C
C	C	A	T	G	T	G	G	T	G
C	C	A	T	G	T	G	C	G	T
A	C	A	C	G	T	G	C	T	C
C	C	A	C	G	T	G	G	C	C
C	C	A	T	G	T	G	T	C	C
C	C	A	C	G	T	G	G	T	G
C	C	A	C	G	T	G	T	C	C
C	C	A	C	G	T	G	C	G	T
A	C	A	T	G	T	G	C	C	C
G	C	A	T	G	T	G	C	T	T
G	C	A	T	G	T	G	C	T	C
A	C	A	C	G	T	G	G	T	T
A	C	A	C	G	T	G	G	T	C
A	C	A	C	G	T	G	G	T	T
A	C	A	C	G	T	G	C	A	C
C	C	A	C	G	T	G	C	G	G
G	C	A	T	G	T	G	C	A	T
G	C	A	T	G	T	G	T	T	T
C	C	A	C	G	T	G	C	T	T
C	C	A	C	G	T	G	G	T	T
C	C	A	C	G	T	G	G	T	T
C	C	A	T	G	T	G	C	A	C
C	C	A	C	G	T	G	G	T	T
C	C	A	C	G	T	G	G	T	C
C	C	A	T	G	T	G	C	A	T
C	C	A	C	G	T	G	G	T	C
C	C	A	C	G	T	G	C	A	C
A	C	A	C	G	T	G	C	T	T
C	C	A	C	G	T	G	G	C	T
C	C	A	C	G	T	G	C	G	C
C	C	A	C	G	T	G	C	G	T
C	C	A	C	G	T	G	G	A	C
C	C	A	C	G	T	G	C	C	G
C	C	A	T	G	T	G	T	A	C
A	C	A	T	G	T	G	C	T	G
A	C	A	C	G	T	G	G	T	T
A	C	A	C	G	T	G	C	C	C
C	C	A	C	G	T	G	G	G	T
A	C	A	C	G	T	G	C	A	T
A	C	A	C	G	T	G	C	A	T
C	C	A	T	G	T	G	C	T	A
C	C	A	C	G	T	G	C	G	G
C	C	A	C	G	T	G	G	A	G
C	C	A	C	G	T	G	G	A	G
C	C	A	C	G	T	G	G	A	G
C	C	A	C	G	T	G	T	G	T
C	C	A	T	G	T	G	C	T	C
C	C	A	C	G	T	G	C	T	T
C	C	A	C	G	T	G	C	T	C
C	C	A	C	G	T	G	C	T	T
C	C	A	T	G	T	G	C	C	C
C	C	A	T	G	T	G	C	T	G
C	C	A	C	G	T	G	G	T	T
C	C	A	C	G	T	G	G	T	C
C	C	A	C	G	T	G	G	T	T
C	C	A	T	G	T	G	T	T	C
C	C	A	C	G	T	G	G	T	T
C	C	A	C	G	T	G	C	C	C
C	C	A	C	G	T	G	C	C	T
C	C	A	C	G	T	G	C	C	T
C	C	A	C	G	T	G	C	C	C
C	C	A	C	G	T	G	C	T	G
C	C	A	T	G	T	G	G	C	T
C	C	A	T	G	T	G	G	C	T
C	C	A	C	G	T	G	T	T	T
C	C	A	C	G	T	G	T	T	C
C	C	A	C	G	T	G	C	A	T
C	C	A	T	G	T	G	G	A	T
C	C	A	T	G	T	G	G	A	C
A	C	A	C	G	T	G	C	T	C
C	C	A	C	G	T	G	C	T	A
C	C	A	C	G	T	G	G	C	C
A	C	A	T	G	T	G	G	T	C
C	C	A	C	G	T	G	G	C	T
C	C	A	C	G	T	G	G	C	T
C	C	A	C	G	T	G	G	C	T
C	C	A	C	G	T	G	G	C	C
C	C	A	C	G	T	G	G	T	G
C	C	A	C	G	T	G	C	G	T
C	C	A	C	G	T	G	G	T	G
G	C	A	T	G	T	G	C	T	T
A	C	A	T	G	T	G	C	C	C
G	C	A	T	G	T	G	C	T	C
C	C	A	C	G	T	G	G	T	G
C	C	A	C	G	T	G	C	G	C
C	C	A	C	G	T	G	C	G	C
A	C	A	T	G	T	G	C	T	G
C	C	A	T	G	T	G	T	A	C
C	C	A	C	G	T	G	G	A	T
C	C	A	C	G	T	G	G	A	C
C	C	A	T	G	T	G	G	G	T
C	C	A	C	G	T	G	T	C	C
A	C	A	T	G	T	G	C	A	C
A	C	A	C	G	T	G	G	T	T
G	C	A	C	G	T	G	C	T	C
A	C	A	C	G	T	G	C	C	T
C	C	A	C	G	T	G	T	T	G
C	C	A	C	G	T	G	C	A	G
G	C	A	C	G	T	G	C	T	C
A	C	A	C	G	T	G	C	C	T
C	C	A	C	G	T	G	G	G	T
C	C	A	C	G	T	G	G	G	T
C	C	A	C	G	T	G	G	G	C
C	C	A	C	G	T	G	G	G	T
C	C	A	C	G	T	G	G	G	C
C	C	A	C	G	T	G	G	G	T
G	C	A	T	G	T	G	C	C	T
A	C	A	C	G	T	G	T	T	T
C	C	A	C	G	T	G	C	G	G
C	C	A	T	G	T	G	A	T	T
C	C	A	C	G	T	G	T	G	C
G	C	A	T	G	T	G	T	T	C
C	C	A	C	G	T	G	G	A	G
G	C	A	C	G	T	G	G	T	C
C	C	A	C	G	T	G	G	A	G
C	C	A	C	G	T	G	T	G	C
A	C	A	C	G	T	G	G	C	T
G	C	A	T	G	T	G	C	A	C
C	C	A	C	G	T	G	T	G	T
G	C	A	C	G	T	G	C	C	T
A	C	A	C	G	T	G	C	G	T
C	C	A	C	G	T	G	C	T	A
C	C	A	C	G	T	G	C	T	A
A	C	A	T	G	T	G	T	T	G
C	C	A	C	G	T	G	C	T	C
C	C	A	T	G	T	G	G	T	T
C	C	A	T	G	T	G	G	T	T
C	C	A	T	G	T	G	C	A	C
C	C	A	C	G	T	G	C	C	C
C	C	A	C	G	T	G	C	C	C
C	C	A	C	G	T	G	T	T	C
A	C	A	C	G	T	G	C	T	C
C	C	A	C	G	T	G	G	C	T
C	C	A	C	G	T	G	G	C	C
C	C	A	C	G	T	G	C	G	C
C	C	A	C	G	T	G	C	G	T
G	C	A	C	G	T	G	C	T	C
C	C	A	C	G	T	G	G	G	C
C	C	A	C	G	T	G	C	G	G
A	C	A	C	G	T	G	G	C	T
C	C	A	C	G	T	G	T	G	C
C	C	A	C	G	T	G	C	T	C
C	C	A	T	G	T	G	C	T	G
C	C	A	T	G	T	G	C	A	G
C	C	A	T	G	T	G	C	A	T
C	C	A	C	G	T	G	G	T	C
C	C	A	C	G	T	G	G	T	T
C	C	A	T	G	T	G	C	A	C
C	C	A	C	G	T	G	C	C	C
C	C	A	C	G	T	G	C	C	T
C	C	A	C	G	T	G	C	T	G
C	C	A	C	G	T	G	C	A	C
C	C	A	C	G	T	G	T	T	T
C	C	A	T	G	T	G	C	G	C
C	C	A	C	G	T	G	T	T	T
C	C	A	C	G	T	G	G	C	C
C	C	A	C	G	T	G	G	T	G
G	C	A	T	G	T	G	C	T	C
G	C	A	T	G	T	G	C	T	T
C	C	A	C	G	T	G	T	G	T
C	C	A	T	G	T	G	G	G	T
C	C	A	C	G	T	G	T	C	C
C	C	A	T	G	T	G	G	C	G
A	C	A	T	G	T	G	C	A	T
C	C	A	T	G	T	G	G	A	G
C	C	A	C	G	T	G	C	G	G
C	C	A	C	G	T	G	C	G	G
C	C	A	T	G	T	G	A	T	C
C	C	A	C	G	T	G	C	T	T
C	C	A	C	G	T	G	G	T	T
C	C	A	C	G	T	G	G	G	C
C	C	A	C	G	T	G	G	T	C
C	C	A	C	G	T	G	C	T	G
C	C	A	C	G	T	G	T	T	T
C	C	A	T	G	T	G	C	C	G
C	C	A	C	G	T	G	G	C	T
C	C	A	C	G	T	G	G	C	T
C	C	A	T	G	T	G	T	T	G
C	C	A	C	G	T	G	C	C	G
A	C	A	C	G	T	G	G	T	C
G	C	A	C	G	T	G	C	T	T
A	C	A	C	G	T	G	C	A	C
C	C	A	C	G	T	G	T	G	T
C	C	A	T	G	T	G	G	T	T
C	C	A	C	G	T	G	T	T	T
C	C	A	T	G	T	G	G	T	G
A	C	A	C	G	T	G	C	T	C
C	C	A	C	G	T	G	G	C	C
C	C	A	C	G	T	G	G	C	T
C	C	A	C	G	T	G	G	T	G
C	C	A	C	G	T	G	C	G	C
C	C	A	C	G	T	G	G	T	G
C	C	A	T	G	T	G	T	A	T
C	C	A	C	G	T	G	T	C	C
G	C	A	C	G	T	G	C	T	C
G	C	A	T	G	T	G	C	C	C
A	C	A	T	G	T	G	G	T	G
A	C	A	C	G	T	G	C	A	C
C	C	A	C	G	T	G	C	G	G
G	C	A	C	G	T	G	C	C	T
A	C	A	T	G	T	G	T	C	C
G	C	A	C	G	T	G	C	C	T
A	C	A	C	G	T	G	C	G	C
C	C	A	T	G	T	G	C	T	T
C	C	A	C	G	T	G	C	T	C
C	C	A	C	G	T	G	C	T	C
C	C	A	T	G	T	G	G	T	T
C	C	A	T	G	T	G	C	A	C
C	C	A	C	G	T	G	G	T	T
C	C	A	C	G	T	G	G	T	C
C	C	A	C	G	T	G	C	C	C
C	C	A	C	G	T	G	T	T	T
C	C	A	C	G	T	G	T	T	T
C	C	A	C	G	T	G	T	T	C
C	C	A	C	G	T	G	C	A	C
C	C	A	C	G	T	G	C	A	T
C	C	A	T	G	T	G	G	A	T
C	C	A	C	G	T	G	C	G	T
G	C	A	T	G	T	G	C	T	T
A	C	A	C	G	T	G	C	T	G
G	C	A	T	G	T	G	G	T	C
A	C	A	C	G	T	G	C	T	G
C	C	A	C	G	T	G	T	A	T
C	C	A	T	G	T	G	C	T	A
A	C	A	C	G	T	G	T	T	C
G	C	A	T	G	T	G	C	T	G
C	C	A	T	G	T	G	A	T	T
A	C	A	C	G	T	G	C	G	T
C	C	A	T	G	T	G	C	T	C
C	C	A	C	G	T	G	C	T	C
C	C	A	C	G	T	G	T	C	C
C	C	A	T	G	T	G	G	T	T
C	C	A	T	G	T	G	G	T	T
C	C	A	C	G	T	G	G	T	C
C	C	A	C	G	T	G	C	C	T
C	C	A	C	G	T	G	C	T	G
C	C	A	T	G	T	G	G	C	T
C	C	A	C	G	T	G	C	T	G
C	C	A	C	G	T	G	G	C	C
C	C	A	T	G	T	G	C	A	G
C	C	A	C	G	T	G	T	C	T
C	C	A	C	G	T	G	T	C	C
C	C	A	C	G	T	G	T	C	T
C	C	A	C	G	T	G	C	A	G
G	C	A	C	G	T	G	C	T	C
C	C	A	C	G	T	G	T	T	G
C	C	A	C	G	T	G	T	T	G
C	C	A	C	G	T	G	C	A	G
A	C	A	C	G	T	G	T	T	C
C	C	A	C	G	T	G	G	C	G
G	C	A	T	G	T	G	C	C	T
A	C	A	C	G	T	G	T	T	T
A	C	A	T	G	T	G	G	A	T
C	C	A	C	G	T	G	C	G	G
A	C	A	T	G	T	G	G	A	T
C	C	A	C	G	T	G	G	A	G
A	C	A	T	G	T	G	C	A	G
C	C	A	T	G	T	G	C	C	C
C	C	A	C	G	T	G	G	T	T
C	C	A	C	G	T	G	T	T	T
A	C	A	C	G	T	G	C	T	C
A	C	A	C	G	T	G	C	T	C
C	C	A	C	G	T	G	G	C	T
C	C	A	C	G	T	G	G	C	T
C	C	A	C	G	T	G	C	G	C
C	C	A	C	G	T	G	G	T	G
C	C	A	C	G	T	G	T	C	C
C	C	A	T	G	T	G	G	C	G
G	C	A	T	G	T	G	C	T	G
C	C	A	T	G	T	G	G	T	T
C	C	A	C	G	T	G	G	T	T
C	C	A	C	G	T	G	G	T	T
C	C	A	C	G	T	G	T	T	C
C	C	A	C	G	T	G	C	G	T
C	C	A	C	G	T	G	C	G	T
G	C	A	T	G	T	G	C	T	T
C	C	A	C	G	T	G	T	C	C
C	C	A	T	G	T	G	G	A	G
A	C	A	C	G	T	G	C	A	C
A	C	A	C	G	T	G	C	A	C
A	C	A	C	G	T	G	T	T	T
A	C	A	C	G	T	G	T	T	C
C	C	A	C	G	T	G	G	C	G
C	C	A	C	G	T	G	T	G	T
C	C	A	C	G	T	G	T	G	T
A	C	A	C	G	T	G	G	C	T
C	C	A	C	G	T	G	T	G	C
C	C	A	C	G	T	G	T	C	G
C	C	A	C	G	T	G	C	T	A
A	C	A	C	G	T	G	C	G	C
C	C	A	T	G	T	G	C	T	T
C	C	A	T	G	T	G	C	T	C
C	C	A	T	G	T	G	C	T	T
C	C	A	C	G	T	G	C	T	T
C	C	A	C	G	T	G	C	T	C
C	C	A	T	G	T	G	G	T	T
C	C	A	T	G	T	G	C	C	C
C	C	A	T	G	T	G	C	C	T
C	C	A	C	G	T	G	G	T	T
C	C	A	C	G	T	G	G	T	T
C	C	A	C	G	T	G	G	T	T
C	C	A	C	G	T	G	G	T	T
C	C	A	C	G	T	G	C	C	C
C	C	A	C	G	T	G	C	C	T
C	C	A	C	G	T	G	C	C	C
C	C	A	T	G	T	G	G	C	T
C	C	A	C	G	T	G	C	T	G
C	C	A	C	G	T	G	C	A	C
A	C	A	C	G	T	G	C	T	C
C	C	A	C	G	T	G	G	C	C
C	C	A	C	G	T	G	G	C	C
C	C	A	C	G	T	G	G	C	C
C	C	A	C	G	T	G	G	C	C
C	C	A	C	G	T	G	C	G	C
C	C	A	C	G	T	G	C	G	T
A	C	A	T	G	T	G	C	C	C
C	C	A	C	G	T	G	G	A	T
A	C	A	C	G	T	G	G	T	T
C	C	A	C	G	T	G	T	C	T
A	C	A	C	G	T	G	G	T	T
C	C	A	C	G	T	G	T	C	T
C	C	A	C	G	T	G	C	A	G
G	C	A	C	G	T	G	C	T	T
C	C	A	T	G	T	G	G	A	G
C	C	A	T	G	T	G	C	T	A
G	C	A	C	G	T	G	G	T	C
C	C	A	C	G	T	G	C	T	A
A	C	A	T	G	T	G	T	T	G
C	C	A	C	G	T	G	C	T	T
C	C	A	C	G	T	G	C	T	C
C	C	A	T	G	T	G	G	T	T
C	C	A	T	G	T	G	G	T	T
C	C	A	T	G	T	G	G	T	T
C	C	A	T	G	T	G	C	C	C
C	C	A	T	G	T	G	C	C	T
C	C	A	T	G	T	G	C	C	T
C	C	A	C	G	T	G	G	T	C
C	C	A	C	G	T	G	C	C	C
C	C	A	C	G	T	G	C	T	G
A	C	A	C	G	T	G	C	T	T
C	C	A	C	G	T	G	G	C	T
A	C	A	T	G	T	G	G	T	T
A	C	A	T	G	T	G	G	T	C
C	C	A	C	G	T	G	G	A	T
C	C	A	C	G	T	G	C	C	G
A	C	A	T	G	T	G	C	A	C
C	C	A	C	G	T	G	T	C	T
A	C	A	T	G	T	G	C	A	C
A	C	A	C	G	T	G	G	T	T
G	C	A	C	G	T	G	C	T	C
A	C	A	C	G	T	G	C	C	T
C	C	A	C	G	T	G	G	G	T
C	C	A	C	G	T	G	T	A	T
G	C	A	T	G	T	G	T	T	C
A	C	A	T	G	T	G	T	C	T
C	C	A	C	G	T	G	G	A	G
C	C	A	C	G	T	G	T	G	C
G	C	A	C	G	T	G	C	C	T
C	C	A	C	G	T	G	C	T	C
C	C	A	C	G	T	G	C	T	T
C	C	A	T	G	T	G	G	T	T
C	C	A	T	G	T	G	C	C	T
C	C	A	C	G	T	G	G	T	T
C	C	A	C	G	T	G	C	C	C
A	C	A	T	G	T	G	C	T	C
A	C	A	T	G	T	G	C	T	T
C	C	A	C	G	T	G	C	C	T
C	C	A	C	G	T	G	C	T	G
C	C	A	T	G	T	G	G	C	C
C	C	A	T	G	T	G	G	C	C
C	C	A	C	G	T	G	C	A	C
C	C	A	T	G	T	G	C	G	T
C	C	A	C	G	T	G	G	C	C
C	C	A	C	G	T	G	C	G	T
C	C	A	C	G	T	G	G	T	G
C	C	A	C	G	T	G	C	G	C
C	C	A	C	G	T	G	G	A	C
A	C	A	T	G	T	G	C	T	G
C	C	A	C	G	T	G	T	C	T
C	C	A	C	G	T	G	T	T	G
C	C	A	T	G	T	G	C	G	G
C	C	A	C	G	T	G	T	T	G
G	C	A	C	G	T	G	C	T	C
C	C	A	C	G	T	G	C	A	G
C	C	A	C	G	T	G	G	G	C
C	C	A	C	G	T	G	G	G	C
A	C	A	C	G	T	G	C	T	G
C	C	A	C	G	T	G	G	G	C
A	C	A	C	G	T	G	T	T	T
C	C	A	C	G	T	G	T	G	T
C	C	A	C	G	T	G	T	G	T
C	C	A	T	G	T	G	T	A	G
G	C	A	T	G	T	G	C	A	C
A	C	A	C	G	T	G	C	G	T
C	C	A	C	G	T	G	C	T	T
C	C	A	C	G	T	G	C	T	T
C	C	A	C	G	T	G	C	T	C
C	C	A	C	G	T	G	C	T	C
C	C	A	C	G	T	G	C	T	C
C	C	A	C	G	T	G	G	T	C
C	C	A	C	G	T	G	G	T	C
C	C	A	T	G	T	G	T	T	T
C	C	A	C	G	T	G	G	T	C
C	C	A	C	G	T	G	G	T	T
C	C	A	C	G	T	G	G	T	T
C	C	A	T	G	T	G	C	A	T
C	C	A	T	G	T	G	C	A	T
C	C	A	C	G	T	G	G	T	C
C	C	A	C	G	T	G	C	C	C
C	C	A	C	G	T	G	C	T	G
C	C	A	C	G	T	G	C	A	C
C	C	A	C	G	T	G	C	A	C
C	C	A	T	G	T	G	C	G	T
C	C	A	C	G	T	G	T	T	T
C	C	A	T	G	T	G	G	A	T
C	C	A	C	G	T	G	G	C	C
C	C	A	C	G	T	G	G	C	C
C	C	A	C	G	T	G	G	C	T
C	C	A	C	G	T	G	G	C	C
C	C	A	C	G	T	G	G	C	C
C	C	A	T	G	T	G	C	A	G
G	C	A	T	G	T	G	C	T	C
C	C	A	C	G	T	G	G	T	G
C	C	A	C	G	T	G	C	G	T
A	C	A	T	G	T	G	C	C	C
C	C	A	C	G	T	G	G	T	G
A	C	A	T	G	T	G	C	C	C
C	C	A	C	G	T	G	G	A	C
C	C	A	C	G	T	G	C	C	G
C	C	A	C	G	T	G	C	C	G
C	C	A	C	G	T	G	T	C	T
A	C	A	T	G	T	G	C	A	C
C	C	A	C	G	T	G	C	A	G
C	C	A	C	G	T	G	C	A	G
A	C	A	C	G	T	G	C	T	G
A	C	A	C	G	T	G	C	T	G
C	C	A	C	G	T	G	T	A	C
C	C	A	C	G	T	G	G	G	T
A	C	A	C	G	T	G	C	A	T
C	C	A	C	G	T	G	G	C	G
C	C	A	C	G	T	G	C	G	G
C	C	A	C	G	T	G	C	G	G
C	C	A	C	G	T	G	T	G	T
G	C	A	T	G	T	G	T	T	C
C	C	A	C	G	T	G	T	G	C
C	C	A	C	G	T	G	T	C	G
C	C	A	T	G	T	G	C	T	C
C	C	A	T	G	T	G	T	T	T
C	C	A	T	G	T	G	C	A	T
C	C	A	C	G	T	G	G	T	T
C	C	A	C	G	T	G	C	C	C
C	C	A	C	G	T	G	C	C	C
A	C	A	T	G	T	G	C	T	C
C	C	A	C	G	T	G	C	A	C
C	C	A	C	G	T	G	T	T	T
C	C	A	C	G	T	G	T	T	C
A	C	A	C	G	T	G	C	T	C
C	C	A	T	G	T	G	G	A	T
C	C	A	C	G	T	G	C	G	C
A	C	A	C	G	T	G	G	T	C
C	C	A	T	G	T	G	G	C	G
A	C	A	T	G	T	G	C	A	T
A	C	A	T	G	T	G	C	A	C
G	C	A	C	G	T	G	C	T	T
A	C	A	C	G	T	G	T	T	C
C	C	A	C	G	T	G	C	G	G
C	C	A	T	G	T	G	A	T	T
C	C	A	C	G	T	G	T	G	T
A	C	A	C	G	T	G	C	G	T
C	C	A	T	G	T	G	C	T	C
C	C	A	T	G	T	G	G	T	T
C	C	A	T	G	T	G	G	T	T
C	C	A	T	G	T	G	G	T	T
C	C	A	T	G	T	G	C	C	C
C	C	A	T	G	T	G	C	C	T
C	C	A	C	G	T	G	G	T	T
C	C	A	T	G	T	G	G	C	T
C	C	A	C	G	T	G	C	A	T
C	C	A	C	G	T	G	C	G	G
C	C	A	T	G	T	G	G	A	C
C	C	A	C	G	T	G	T	G	T
C	C	A	C	G	T	G	G	C	T
C	C	A	C	G	T	G	G	C	T
C	C	A	C	G	T	G	G	C	C
C	C	A	C	G	T	G	G	C	T
C	C	A	T	G	T	G	C	A	G
A	C	A	T	G	T	G	G	T	G
C	C	A	C	G	T	G	C	G	C
C	C	A	C	G	T	G	C	G	C
C	C	A	C	G	T	G	G	A	C
C	C	A	C	G	T	G	G	A	T
A	C	A	C	G	T	G	G	T	T
A	C	A	C	G	T	G	G	T	T
G	C	A	C	G	T	G	C	T	C
G	C	A	C	G	T	G	C	T	C
C	C	A	C	G	T	G	C	A	G
C	C	A	C	G	T	G	C	A	G
A	C	A	C	G	T	G	C	T	G
A	C	A	T	G	T	G	G	C	C
C	C	A	C	G	T	G	G	G	T
C	C	A	T	G	T	G	T	G	C
C	C	A	C	G	T	G	G	G	T
G	C	A	T	G	T	G	G	T	C
G	C	A	T	G	T	G	G	T	C
C	C	A	C	G	T	G	T	A	C
C	C	A	C	G	T	G	T	G	C
G	C	A	C	G	T	G	C	C	T
C	C	A	T	G	T	G	C	T	C
C	C	A	C	G	T	G	C	T	T
C	C	A	C	G	T	G	G	T	C
C	C	A	C	G	T	G	C	T	C
C	C	A	C	G	T	G	C	T	T
C	C	A	T	G	T	G	G	T	C
C	C	A	T	G	T	G	G	T	C
C	C	A	C	G	T	G	G	T	C
C	C	A	C	G	T	G	G	T	C
C	C	A	C	G	T	G	G	T	C
C	C	A	T	G	T	G	T	T	C
C	C	A	C	G	T	G	G	T	T
C	C	A	C	G	T	G	C	C	C
C	C	A	C	G	T	G	C	T	G
C	C	A	T	G	T	G	G	C	T
C	C	A	C	G	T	G	T	T	T
A	C	A	T	G	T	G	G	T	C
C	C	A	C	G	T	G	G	C	C
C	C	A	C	G	T	G	G	C	T
C	C	A	C	G	T	G	G	C	T
C	C	A	C	G	T	G	G	C	T
C	C	A	C	G	T	G	G	C	C
C	C	A	C	G	T	G	C	G	T
C	C	A	C	G	T	G	C	G	C
C	C	A	C	G	T	G	G	A	C
C	C	A	T	G	T	G	G	G	T
A	C	A	T	G	T	G	C	A	C
G	C	A	C	G	T	G	C	T	C
A	C	A	C	G	T	G	C	C	C
A	C	A	C	G	T	G	C	T	G
A	C	A	T	G	T	G	G	C	T
C	C	A	T	G	T	G	T	G	C
C	C	A	C	G	T	G	G	C	G
A	C	A	T	G	T	G	C	G	T
C	C	A	T	G	T	G	A	T	C
G	C	A	T	G	T	G	C	T	G
A	C	A	T	G	T	G	C	C	G
C	C	A	C	G	T	G	T	G	T
A	C	A	C	G	T	G	C	G	T
A	C	A	C	G	T	G	C	G	T
A	C	A	C	G	T	G	C	G	C
C	C	A	C	G	T	G	C	T	T
C	C	A	C	G	T	G	C	T	C
C	C	A	C	G	T	G	C	T	C
C	C	A	T	G	T	G	G	T	T
C	C	A	C	G	T	G	G	T	T
C	C	A	C	G	T	G	G	T	T
C	C	A	C	G	T	G	G	T	T
C	C	A	T	G	T	G	C	A	C
C	C	A	C	G	T	G	G	T	C
C	C	A	T	G	T	G	C	A	C
A	C	A	T	G	T	G	C	T	T
G	C	A	C	G	T	G	C	T	T
C	C	A	C	G	T	G	C	A	T
C	C	A	C	G	T	G	T	T	T
C	C	A	C	G	T	G	G	C	C
C	C	A	C	G	T	G	G	A	T
C	C	A	C	G	T	G	G	A	C
C	C	A	C	G	T	G	C	C	G
C	C	A	T	G	T	G	G	G	T
C	C	A	C	G	T	G	T	C	C
C	C	A	C	G	T	G	T	C	C
G	C	A	C	G	T	G	C	T	C
C	C	A	T	G	T	G	C	G	G
C	C	A	C	G	T	G	C	A	G
C	C	A	C	G	T	G	G	G	T
C	C	A	C	G	T	G	G	C	G
C	C	A	C	G	T	G	C	G	G
C	C	A	C	G	T	G	T	G	T
A	C	A	C	G	T	G	C	G	T
A	C	A	C	G	T	G	C	G	C
C	C	A	T	G	T	G	G	T	C
C	C	A	C	G	T	G	G	T	C
C	C	A	C	G	T	G	C	C	C
C	C	A	C	G	T	G	C	C	T
C	C	A	C	G	T	G	C	A	C
C	C	A	C	G	T	G	T	T	T
C	C	A	C	G	T	G	C	A	T
C	C	A	C	G	T	G	G	C	C
G	C	A	T	G	T	G	C	T	T
C	C	A	T	G	T	G	G	G	C
C	C	A	C	G	T	G	T	C	C
C	C	A	C	G	T	G	T	A	C
A	C	A	C	G	T	G	C	T	G
G	C	A	T	G	T	G	T	T	T
A	C	A	T	G	T	G	G	C	C
A	C	A	C	G	T	G	C	A	T
A	C	A	T	G	T	G	G	A	T
G	C	A	T	G	T	G	C	A	C
