0	1	2	3	4	5	6	7	8	9
46.0	46.0					5.0	46.0		
6.0	6.0						7.0		7.0
									
									
0.0	0.0						0.0		
									
									
									
				0.0		0.0			
0.0	0.0			0.0		0.0	0.0		
									
6.0	6.0					0.0	6.0		5.0
				39.0		39.0			
124.0	125.0						125.0		
				62.0		62.0			
12.0	12.0		12.0	0.0		0.0	12.0		12.0
									
				6.0		6.0			
5.0	5.0		5.0				5.0		
									
									
									
				49.0		49.0			
6.0	6.0		6.0				6.0		6.0
				30.0		30.0			
11.0	11.0		11.0	19.0		19.0	11.0		
5.0	5.0		5.0				5.0		5.0
									
40.0	40.0								
									
17.0	18.0								
				0.0		0.0	0.0		
									
61.0	61.0								
				0.0		0.0	0.0		
				9.0		9.0	9.0		
0.0	0.0			12.0		12.0	12.0		
									
5.0	5.0								
									
14.0	14.0								
				38.0		38.0	38.0		
									
									
4.0	4.0								
									
				0.0		0.0	0.0		
									
				16.0		16.0	16.0		
									
				57.0		57.0			
				0.0		0.0			
									
				42.0		39.0			
0.0	0.0						0.0		
8.0	8.0						8.0		
5.0	5.0						5.0		
				0.0		0.0			
				0.0		0.0	0.0		
									
									
				0.0		0.0	0.0		
0.0	0.0		0.0						0.0
				15.0		15.0			
61.0	60.0								
				61.0		61.0			
				5.0		0.0	5.0		
									
									
47.0	47.0			125.0		125.0	46.0		
9.0	9.0						9.0		9.0
				0.0		0.0	0.0		
				0.0		0.0			
									
									
									
				0.0		0.0			
									
									
21.0	21.0		21.0						
23.0	23.0			0.0		0.0	23.0		23.0
				0.0		0.0			
									
0.0	0.0						0.0		
									
45.0	45.0						45.0		
				0.0		0.0			
0.0	0.0						0.0		
24.0	24.0								
				0.0		0.0	0.0		
				39.0		39.0	39.0		
									
				0.0		0.0			
									
									
8.0	8.0		11.0				6.0	6.0	6.0
4.0	4.0								7.0
									
									
									
									
				20.0		20.0			
									
									
									
4.0	4.0		4.0				0.0	0.0	
				0.0		0.0			
									
	0.0			19.0		19.0	0.0		
									
0.0	0.0			4.0		4.0	4.0	0.0	
				4.0		4.0	4.0	0.0	
									
0.0	0.0		0.0				0.0		
									
									
									
22.0	22.0			0.0		0.0			
									
				4.0		4.0	4.0		
				63.0		63.0	63.0		
0.0	0.0							0.0	
89.0	89.0			46.0		46.0	46.0	66.0	66.0
									
									
0.0	0.0		0.0				0.0		
									
0.0	0.0		0.0	0.0		0.0	0.0		0.0
				0.0		0.0	0.0		
									
									
0.0	0.0							0.0	0.0
				58.0		58.0			
									
									
15.0	15.0		15.0	6.0		6.0			
46.0	46.0		46.0	23.0		23.0			
									
									
									
				0.0		0.0			
									
17.0	31.0			5.0		5.0	5.0		5.0
									
									
0.0	0.0			0.0		0.0	0.0		0.0
									
									
0.0	0.0		0.0	17.0		17.0	0.0		0.0
									
0.0	0.0		0.0						
									
86.0	87.0								
				87.0		87.0			
									
									
									
	31.0		31.0				31.0		
									
				127.0		127.0			
	6.0		6.0	0.0		0.0			
				4.0		4.0	4.0		
									
7.0	7.0			0.0		0.0	0.0		
	10.0			4.0					
6.0	6.0			5.0		5.0	5.0		
				18.0		18.0			
90.0	90.0			6.0		6.0	4.0		
									
				0.0		0.0			
				20.0		20.0	20.0	0.0	0.0
43.0	43.0							43.0	
									
4.0	4.0		4.0					4.0	
									
									
0.0	0.0			0.0		0.0		0.0	
				0.0		0.0			
									
69.0	69.0		69.0					69.0	
				7.0		7.0			
20.0	0.0							20.0	20.0
									
0.0	0.0		0.0					0.0	
	10.0			0.0		0.0	0.0		
				0.0		0.0			
0.0	0.0		0.0						
				11.0		11.0			
									
10.0	10.0		10.0				14.0		14.0
									
									
									
				156.0		124.0			
									
52.0	51.0			98.0		98.0	26.0		98.0
	39.0						39.0		39.0
				13.0		12.0	13.0		13.0
									
0.0	12.0			0.0			12.0		12.0
	0.0						0.0	0.0	
90.0				90.0		90.0			
6.0	6.0		6.0				6.0		
									
									
									
									
0.0	0.0								
18.0				18.0		18.0			
0.0	0.0								
				49.0		49.0			49.0
									
									
									
	0.0						0.0		
30.0				30.0		30.0			
0.0				0.0		0.0			
	16.0						34.0		
									
									
									
									
									
									
									
				11.0		11.0	11.0	11.0	
									
				0.0		0.0	0.0		
									
									
									45.0
0.0	0.0		0.0					0.0	
									
				46.0		46.0			
	46.0		46.0				46.0		
0.0	0.0		0.0					0.0	0.0
									
									
				17.0		17.0			
									
	0.0		0.0						0.0
16.0	16.0		16.0	7.0		9.0		15.0	16.0
	20.0			8.0		8.0	20.0		8.0
	90.0		90.0	20.0		20.0			90.0
	20.0			175.0		175.0			20.0
	0.0						0.0		0.0
				7.0		7.0	0.0		0.0
								0.0	0.0
				0.0		0.0			
									
									
			0.0	7.0		7.0	0.0	0.0	
				23.0		23.0			23.0
									
									
									
				0.0		0.0			
				44.0		44.0			44.0
									
0.0	0.0		0.0						
	0.0		0.0	0.0		0.0			0.0
									
									
									
0.0	0.0			0.0		0.0	0.0		0.0
				0.0		0.0	0.0		
									
									
	0.0							0.0	
									
	18.0		18.0						
42.0	42.0		42.0						
									
	73.0								87.0
				22.0		22.0			
14.0				14.0		14.0	14.0		
			0.0	0.0					0.0
				10.0		10.0			
									
									
									
	10.0		10.0	30.0		57.0			
	0.0						0.0		0.0
									
				0.0		0.0			
125.0	125.0			5.0		5.0	125.0		
				44.0		44.0			
24.0	24.0						24.0		
	4.0						4.0		
									
									
19.0	24.0			19.0		19.0	24.0	24.0	24.0
									
	0.0		0.0				0.0		
									
	0.0						0.0		
									
									
	6.0								6.0
				0.0		0.0			
10.0				10.0		10.0			10.0
	0.0						0.0		
64.0				64.0		64.0			64.0
									
							4.0		
17.0	17.0		17.0						
37.0				37.0					
	59.0		59.0						
									
						0.0	0.0		0.0
									
									
10.0	21.0			6.0		6.0			
0.0	0.0		0.0						0.0
									
				4.0		4.0			
									
0.0									
	0.0								
									
30.0				28.0		28.0			
	0.0			0.0		0.0		0.0	
0.0	0.0		0.0	18.0		18.0	18.0		19.0
									
				24.0		31.0		30.0	
14.0	14.0		14.0						
	7.0								
	0.0								
									
	5.0			13.0		13.0		5.0	
									
	0.0		0.0				0.0	0.0	
				0.0		0.0			0.0
	4.0		4.0						
	360.0			323.0		281.0			
									
									
	16.0						8.0		
	4.0						4.0		
20.0	20.0			25.0		25.0	20.0		20.0
0.0	0.0						0.0		0.0
									
0.0	0.0			0.0		0.0	0.0		
									
									
									
0.0	0.0			7.0		7.0	0.0		
97.0	97.0						97.0		
									
			0.0	79.0		78.0	0.0		
				172.0		170.0			
0.0	0.0		0.0				0.0		0.0
116.0	116.0		116.0	0.0		0.0	116.0		116.0
				0.0		0.0			
46.0	46.0		46.0				46.0		
									
0.0	0.0		0.0						
0.0	0.0		0.0						
									
									
				27.0		27.0	27.0		
									
0.0	0.0			0.0		0.0	0.0		
									
									
				0.0		0.0	0.0		
0.0	0.0								
									
									
									
	0.0			0.0		0.0	0.0		
0.0	0.0			0.0		0.0	0.0		
10.0	10.0								
									
0.0	0.0								
0.0	0.0			0.0		11.0	11.0		0.0
									
									
									
				5.0		5.0	5.0		
									
28.0	28.0			6.0		6.0	5.0		
66.0	66.0								
									
									
				0.0		0.0	0.0		
				43.0		43.0	43.0		
11.0	11.0								
									
									
				0.0		0.0	0.0		
				15.0		15.0	15.0		
									
									
55.0	55.0								
									
									
0.0	0.0			0.0		0.0			
0.0	0.0						0.0	0.0	
									
				29.0		29.0			29.0
									
12.0	12.0			0.0		0.0	12.0		0.0
13.0	13.0			32.0		32.0	26.0		32.0
48.0	48.0			26.0		26.0	26.0		26.0
0.0	0.0			0.0		0.0	0.0		0.0
				12.0		12.0	12.0		
									
6.0	6.0		6.0						6.0
									
48.0	48.0						23.0		23.0
				144.0		144.0			
									
0.0	0.0		0.0	25.0		30.0	30.0		
									
									
				4.0		4.0			
				19.0		19.0			
44.0	44.0						43.0		
				27.0		27.0	27.0		
									
21.0	21.0								
15.0	15.0						15.0		29.0
				0.0		0.0		0.0	
0.0	0.0		0.0	0.0		0.0	0.0		
14.0	14.0			22.0		22.0			14.0
				0.0		0.0	0.0		
0.0	0.0		0.0						
13.0	13.0						13.0		
13.0	13.0							12.0	12.0
				10.0		4.0			
									
									
									
26.0	26.0		26.0	49.0		49.0	49.0		26.0
									
42.0	25.0		25.0	34.0		34.0	34.0		
				0.0		0.0			
				0.0		0.0		0.0	
	0.0						0.0		
									
									
									
									
				0.0		0.0			
									
									
40.0	40.0							40.0	40.0
0.0	0.0		0.0						
8.0	8.0		8.0	0.0		0.0	8.0		0.0
	4.0								
4.0	4.0			0.0		0.0	0.0	4.0	4.0
6.0	6.0								
20.0	20.0							20.0	
71.0	71.0		71.0				71.0		
									
				0.0		0.0			
				0.0		0.0	0.0		
				13.0		13.0	13.0		
49.0	49.0								
	0.0			50.0		50.0	0.0		0.0
				0.0		0.0			
									
									
									
				0.0		0.0			
0.0	0.0		0.0						0.0
10.0	10.0		10.0	0.0		0.0	10.0		
									
0.0	0.0								
0.0	0.0						0.0		0.0
0.0	0.0		0.0	0.0		0.0	0.0		0.0
	0.0		0.0				0.0		
									
				0.0		0.0	0.0		
				0.0		0.0	0.0		
									
7.0	7.0			12.0		24.0	24.0		
				32.0		32.0	32.0		
				0.0		0.0	0.0		
				0.0		0.0			
				0.0		0.0	0.0		
				0.0		0.0	0.0		
									
									
									
				78.0		77.0	78.0		
									
									
5.0	5.0		5.0	0.0		0.0	0.0	5.0	
				0.0		0.0	0.0		
									
									
				0.0		0.0	0.0		
								0.0	
									
									
				14.0		14.0			
17.0	17.0		17.0	81.0		81.0	17.0	81.0	17.0
									
0.0	0.0		0.0				9.0		
				13.0		13.0			
	49.0						49.0		
									
				27.0		27.0			
0.0	0.0						0.0		
									
	0.0						0.0	0.0	0.0
				0.0		0.0		0.0	
						7.0	7.0		7.0
				0.0		0.0	0.0		0.0
									
8.0	8.0		8.0						8.0
									
				46.0		46.0	46.0		
									
									
									
				0.0		0.0			0.0
				0.0		0.0	0.0	0.0	
				34.0		34.0			34.0
									
				0.0		0.0	0.0	0.0	
				0.0		0.0			0.0
	26.0		26.0	17.0		17.0	17.0		
	9.0			52.0		52.0	9.0		9.0
				77.0		77.0			
									
									
				0.0		0.0			
									
	0.0			61.0		61.0	0.0		
									
									
									
									
									
									
				0.0		0.0			
15.0	15.0						15.0		
									
				134.0		134.0		133.0	134.0
									
0.0	0.0		0.0						
	0.0		0.0				0.0	0.0	0.0
				0.0		0.0			0.0
32.0	32.0		32.0				62.0		
10.0	10.0		10.0				10.0		
									
									
									
									
									
				4.0		4.0	4.0		
12.0	12.0		12.0	50.0		50.0			
				0.0		0.0			0.0
	16.0							16.0	
0.0	0.0								
	119.0								
	7.0								7.0
									
21.0	21.0		21.0						
									
	0.0		0.0				0.0		
									
	0.0						0.0		0.0
				73.0		73.0			
	0.0		0.0	0.0		0.0	0.0		0.0
									
				289.0		288.0			
	16.0			6.0		6.0	6.0		6.0
			0.0	8.0		8.0	0.0		0.0
0.0				0.0		0.0			
23.0	23.0		23.0	5.0		5.0	23.0	5.0	5.0
									
									
0.0	9.0			0.0		0.0	9.0		0.0
19.0	19.0			0.0		0.0			19.0
									
12.0	3.0		12.0	0.0				0.0	12.0
									
15.0	15.0		15.0	0.0		0.0		0.0	15.0
									
				29.0		29.0			29.0
									
									
	0.0		0.0					4.0	4.0
	6.0			0.0		0.0			
				0.0		0.0	0.0		0.0
									
				0.0		4.0	4.0		
0.0	4.0			0.0		0.0	0.0		
									
									
									
									
32.0	32.0								
									
13.0	13.0		13.0				11.0		
									
									
				28.0		28.0			28.0
0.0	0.0			22.0		22.0	0.0		0.0
									
				0.0		0.0			
									
0.0	0.0						0.0		0.0
4.0	4.0						0.0		0.0
7.0	7.0						7.0		7.0
				0.0		0.0			
									
				9.0		9.0			
				0.0		0.0			
									
									
									
									
									
0.0	0.0			0.0		0.0	0.0		
0.0	0.0			0.0		0.0	0.0		0.0
				0.0		0.0	0.0		0.0
	0.0						0.0		
									
									
									
				0.0		0.0			
34.0			31.0				16.0		15.0
									
68.0	69.0		68.0				69.0		
16.0	27.0		27.0				27.0		
									
									
									
									
									
5.0	5.0		5.0	0.0		0.0	5.0		5.0
				11.0		11.0			
0.0	0.0		0.0				0.0		0.0
			0.0				0.0		0.0
									
0.0	0.0			15.0		15.0	15.0		
0.0	0.0								
0.0	0.0			0.0		0.0	0.0		0.0
8.0	8.0			0.0		0.0	0.0		9.0
0.0	0.0			44.0		26.0	44.0		
									
12.0	12.0			0.0		0.0	0.0		
									
101.0	101.0			0.0		0.0	0.0		
5.0	5.0			0.0		0.0	0.0		
				0.0		0.0	0.0		
									
30.0	30.0								
				4.0		4.0	4.0		
				0.0		0.0	0.0		
24.0	24.0								
0.0	0.0								
				104.0		98.0	101.0		
33.0	33.0			4.0		4.0	4.0		
									
0.0	0.0								
									
57.0	57.0								57.0
				89.0		89.0	89.0		
0.0	0.0								0.0
64.0	64.0								
									
									
0.0	0.0								
									
				0.0		0.0	0.0		
				114.0		115.0	115.0		
									
									
									
									
									
									
									
									
									
									
									
									
									
10.0	10.0								
150.0	150.0			64.0		64.0	64.0		
6.0	6.0								
0.0	0.0			0.0		0.0	0.0		
									
6.0	6.0			41.0		41.0	40.0		
				0.0		0.0	0.0		
									
									
									
				15.0		15.0			
				0.0		0.0		0.0	
				0.0		0.0			
									
									
				0.0		0.0			
									
									
4.0	4.0						4.0		
									
									
									
73.0	73.0		73.0						
									
									
									
0.0	0.0		0.0	16.0		16.0	16.0		0.0
									
				18.0		18.0	18.0		
110.0	111.0		111.0	0.0		0.0	0.0		
0.0	0.0								0.0
4.0	4.0		4.0	10.0		12.0	12.0		4.0
65.0	65.0						65.0		
0.0	0.0			69.0		69.0			0.0
									
0.0	0.0						0.0		
12.0	12.0			0.0		0.0		0.0	12.0
0.0	0.0						0.0		
									
									
16.0	16.0		16.0	0.0		0.0	0.0		16.0
									
				0.0		0.0	0.0		
0.0	0.0			0.0		0.0	0.0		0.0
							0.0		
				4.0		4.0	4.0		
160.0	160.0						160.0		82.0
0.0	0.0			4.0		4.0			
0.0	0.0		0.0	12.0		12.0	12.0		
				57.0		57.0	57.0		
				0.0		0.0	0.0		
6.0	6.0		6.0						
20.0	20.0			0.0		0.0	20.0		
20.0	10.0			7.0		1.0			10.0
									
									
									
4.0	4.0								
7.0	7.0			6.0		6.0	7.0		
									
				0.0		0.0	0.0		
				13.0		13.0	13.0		
				6.0		6.0			42.0
	51.0			10.0		10.0	101.0		
10.0	10.0		20.0	0.0		0.0	0.0		20.0
			0.0						
0.0	0.0								
									
174.0	174.0		174.0						
									
				10.0		10.0			
									
				4.0		0.0			
									
				37.0		37.0	0.0		
	6.0			28.0		26.0	6.0		
				0.0		0.0			
							0.0	0.0	
									
									
									
									
				11.0		11.0			
	17.0						17.0		34.0
	6.0						6.0		6.0
22.0	22.0		22.0				22.0	22.0	21.0
0.0	0.0		0.0	7.0		7.0	0.0	0.0	
				0.0		0.0	0.0		
14.0	14.0		14.0				14.0		
									
									
0.0	0.0		0.0						
				0.0		0.0	0.0		
									
0.0	0.0		0.0				0.0		
									
39.0	39.0							39.0	
5.0	5.0							6.0	
									
36.0	37.0		37.0	30.0		30.0	37.0		30.0
				0.0		0.0			0.0
									
				13.0		13.0	13.0		
0.0	0.0			0.0		0.0	0.0	0.0	
									
6.0	6.0		6.0	0.0		0.0	6.0		0.0
				101.0		51.0			
0.0	4.0		4.0				4.0		
				15.0		15.0	15.0		
47.0	47.0							47.0	2.0
47.0	47.0							47.0	47.0
19.0	19.0			6.0		6.0	6.0	0.0	
									
									
15.0	15.0		15.0						
11.0	11.0		11.0	26.0		26.0			9.0
	0.0		0.0						0.0
									
0.0	0.0						0.0		
									
									
56.0	55.0		56.0				56.0		
				5.0		4.0		4.0	
						0.0			
				4.0		4.0			
									
0.0	0.0		0.0	0.0		0.0	0.0		
				0.0		0.0			
0.0	0.0		0.0	13.0		12.0	0.0		0.0
28.0	28.0		27.0				28.0		28.0
									
	6.0						6.0		
				6.0		6.0		6.0	
									
									
									
				0.0		0.0			
0.0	0.0		0.0	99.0		99.0	0.0		
				0.0		0.0			
68.0	67.0		68.0				68.0		67.0
0.0	0.0		0.0	0.0		0.0			
15.0	15.0								
									
				9.0		8.0			9.0
81.0	81.0								81.0
				105.0		103.0			
				6.0		6.0	6.0		
	32.0		32.0	60.0		60.0	32.0		32.0
19.0	19.0								19.0
									
0.0									
				0.0		0.0	0.0		
									
				0.0		0.0			
									
									
				0.0		0.0			
0.0	0.0		0.0					0.0	0.0
									
	0.0			116.0		116.0	116.0		0.0
0.0	0.0		0.0					4.0	
									
				21.0		40.0	39.0		
									
7.0	7.0							7.0	7.0
				9.0		9.0			
									
									
									
									
	0.0		0.0					0.0	
0.0	0.0		0.0	4.0		4.0		0.0	0.0
0.0	0.0			4.0		4.0		0.0	
				20.0		20.0			
	81.0								
18.0	18.0		18.0	5.0		5.0	5.0	18.0	18.0
0.0	0.0		0.0	0.0		13.0	13.0	0.0	
65.0	65.0		65.0	14.0		14.0	14.0	65.0	65.0
7.0	7.0							7.0	
0.0	0.0							0.0	
				0.0		0.0	0.0		
									
				0.0		0.0	0.0		
	0.0			6.0		6.0	6.0		
									
24.0	24.0		24.0						
29.0	28.0		29.0				29.0		
	0.0						0.0		0.0
	0.0						0.0		
									
	10.0						10.0	10.0	
22.0	22.0		22.0						
									
0.0	0.0		0.0				25.0		26.0
	11.0			21.0		21.0	11.0	11.0	11.0
	0.0						0.0		0.0
				0.0		0.0			
				17.0		17.0	17.0		17.0
0.0	0.0		0.0				0.0		0.0
									
0.0	0.0		0.0	0.0		0.0	0.0		0.0
	0.0						0.0		0.0
0.0				0.0		0.0			
									
									
									
									
									
0.0	0.0			0.0		0.0	0.0		
									
									
				26.0		27.0	27.0		
									
51.0	51.0			0.0		0.0			98.0
0.0	0.0		0.0	38.0		35.0	35.0		
	0.0			0.0		0.0	0.0		0.0
				12.0		12.0	12.0		
35.0	35.0			15.0		15.0	15.0	15.0	
				0.0					
									
				0.0		0.0	0.0	0.0	
39.0	39.0		39.0	0.0					
									
14.0	15.0			72.0		72.0	72.0	72.0	
				0.0		0.0	0.0	0.0	
									
									
46.0	46.0			0.0		0.0	0.0	0.0	
									
				4.0		4.0			4.0
9.0	9.0								
	0.0			12.0		12.0	0.0		12.0
									
				0.0		0.0	0.0	0.0	
20.0	20.0								
									
23.0	23.0			0.0		0.0	0.0	0.0	
									
				0.0		0.0			
									
									
									
									
									
									
				0.0		0.0			
	17.0								16.0
									
39.0	39.0							65.0	
				0.0		0.0			
									
				9.0					
	0.0		0.0	0.0		0.0	0.0		
									
			0.0	100.0		100.0		0.0	
0.0	0.0		6.0					6.0	
									
									
									
				0.0		0.0	0.0		
45.0	45.0		45.0	0.0		0.0		45.0	
									
50.0	50.0		46.0	70.0		70.0		46.0	
	8.0						8.0		8.0
	8.0						4.0		4.0
				0.0		0.0			
									
									
				30.0		30.0	30.0		
				83.0		83.0			
									
				0.0		0.0	0.0		
									
									
				0.0		0.0			0.0
				0.0		0.0			0.0
									
									
									
75.0				76.0		76.0			
									
89.0				89.0		87.0			
0.0				0.0		0.0			
									
0.0				0.0		0.0			
9.0	9.0		9.0				9.0		
	4.0		4.0				4.0	4.0	
									
				12.0		12.0			
				27.0		27.0			
14.0	14.0						14.0		
	0.0		0.0						
									
				48.0		49.0	49.0		
0.0	0.0		0.0	0.0		105.0	105.0	105.0	
				5.0		5.0	5.0	5.0	
									
									
				38.0		38.0	37.0	38.0	
									
18.0	25.0			18.0		18.0	25.0	25.0	
18.0	18.0			25.0		25.0		25.0	
				41.0		41.0			41.0
				0.0		0.0	0.0	0.0	
38.0	0.0			38.0		38.0	38.0		
									
7.0				7.0		7.0	7.0		
									
									
									
	13.0		13.0				13.0		
6.0	6.0			0.0		0.0		0.0	
				0.0		0.0	0.0		
									
	0.0								
									
22.0	22.0								
									
	0.0								0.0
				0.0		0.0			
									
				0.0		0.0	0.0		
				0.0		0.0	0.0		
				0.0		0.0	0.0		
									
5.0	5.0			0.0		0.0		0.0	
	9.0							9.0	
0.0				0.0		0.0	0.0		
8.0	8.0			23.0		23.0	23.0		23.0
									
0.0	0.0		0.0						
				4.0		0.0		0.0	
	20.0		20.0	31.0		31.0			20.0
	20.0		20.0	31.0		31.0			
									
				0.0		0.0			
				0.0		0.0			
	0.0		0.0				0.0		0.0
									
7.0	7.0						7.0		
0.0	72.0			0.0		0.0	72.0		0.0
				72.0		72.0			
									
									
				16.0		16.0	16.0		16.0
	0.0		0.0				0.0		0.0
									
									
24.0	24.0						24.0		
	78.0		78.0	0.0		0.0	78.0		
				0.0		0.0			
	18.0		18.0						
									
									
61.0	61.0			0.0		0.0			61.0
0.0	0.0		0.0				0.0		
5.0	5.0		5.0	4.0		4.0		4.0	4.0
									
18.0	23.0			18.0			0.0		
0.0	0.0								
									
				15.0		15.0			
									
105.0	105.0			30.0		30.0			
									
									
	0.0								0.0
									
									
									
	7.0						7.0		
									
									
	0.0						0.0		0.0
28.0	28.0		28.0	0.0		0.0		0.0	28.0
				4.0		4.0		4.0	
									
									
				0.0					
									
28.0	28.0		28.0						
				46.0		46.0	46.0		
	0.0		0.0	0.0		0.0	0.0	0.0	0.0
0.0	0.0		0.0	82.0		82.0		82.0	
									
									
				149.0		150.0			
									
9.0	0.0			8.0		8.0	0.0		0.0
				0.0		0.0			
									
									
	0.0		0.0			0.0	0.0		
									
37.0				42.0		42.0			
15.0				15.0					
									
									
	45.0							45.0	
23.0	23.0		23.0						
									
	0.0								
									
									
	17.0		17.0				17.0	17.0	
	0.0		0.0				0.0		0.0
									
	0.0								
									
				7.0		7.0			7.0
18.0	18.0		18.0	0.0		0.0	10.0		
									
									
									
251.0	0.0		0.0	251.0		246.0	0.0	0.0	
									
									
				0.0		0.0			0.0
									
									
				47.0		47.0			
24.0	24.0						24.0		24.0
18.0	18.0			6.0		6.0	18.0		
65.0	65.0						33.0		33.0
				78.0		78.0			
				5.0		7.0			
0.0	4.0						4.0		4.0
0.0				0.0					
23.0	22.0						23.0		
23.0	23.0		23.0				23.0		
				9.0		9.0			
							0.0		0.0
									
				81.0		81.0			
0.0	0.0		0.0	28.0		29.0	0.0		
									
				5.0		5.0			
94.0	94.0		94.0				94.0		
				10.0		10.0			
0.0	0.0		0.0				0.0		
0.0	0.0								
				23.0		23.0	23.0		
				53.0		26.0	26.0		
10.0	3.0								
									
									
									
									
									
7.0	7.0			129.0		129.0	129.0		
									
28.0	27.0								
0.0	0.0					8.0	8.0		5.0
									
0.0	0.0			0.0		0.0	0.0		
				0.0		0.0	0.0		
									
									
									
									
									
				4.0					
									
									
0.0	0.0						4.0		
15.0	15.0			0.0		0.0	14.0		0.0
15.0	15.0		15.0						
				12.0		12.0	12.0		
									
0.0	0.0						0.0		0.0
17.0	17.0			11.0		11.0			17.0
									
				0.0		0.0			
0.0	0.0		0.0	0.0		0.0	0.0		
				0.0		0.0			
24.0	25.0			0.0			25.0		
									
									
	7.0								
40.0	40.0		40.0						40.0
									
				0.0		0.0	0.0		
				0.0		0.0			
									
				139.0		139.0			
									
									
	113.0						113.0		111.0
									
0.0	0.0		0.0				0.0		
				10.0		10.0	10.0		
4.0	4.0							4.0	4.0
0.0	0.0			0.0		0.0	0.0	0.0	
									
									
0.0	0.0		0.0						0.0
75.0	75.0		75.0				38.0		
									
0.0	0.0		0.0	0.0		0.0			
30.0	30.0		30.0	0.0		0.0			
									
									
0.0	0.0			16.0		16.0	16.0		16.0
29.0	38.0								
10.0	10.0								
				4.0		4.0			
									
38.0	38.0								38.0
									
				0.0		0.0			0.0
									
	34.0		30.0				30.0		
0.0	0.0			6.0		6.0	6.0		
									
0.0	0.0		0.0					0.0	
42.0	42.0		42.0	76.0		76.0	75.0	42.0	
									
62.0	64.0		64.0					64.0	64.0
	0.0								
									
				73.0		73.0	73.0		
14.0	14.0							14.0	
0.0	27.0		27.0					27.0	
									
									
	0.0								0.0
0.0	0.0		0.0						
									
4.0	4.0		4.0				4.0		4.0
0.0	0.0		0.0				0.0		
				88.0		88.0			88.0
	82.0						82.0		82.0
	44.0						44.0		44.0
18.0	18.0		18.0	32.0		32.0	32.0		31.0
0.0							9.0		
6.0				9.0		9.0			
									
0.0	0.0		0.0				0.0		0.0
									
0.0	0.0			5.0		5.0	5.0	5.0	
									
									
				168.0		192.0	192.0	192.0	
				0.0		0.0	0.0		
				0.0		0.0	0.0	0.0	
	0.0						0.0		0.0
									
				11.0		11.0	11.0	11.0	
0.0	0.0		0.0					0.0	
									
									
									
							0.0		0.0
				0.0		0.0			
									
									
									
									
									
									
				0.0		0.0			
									
	0.0		0.0				0.0		0.0
									
									
22.0				22.0		22.0			
									
									
				19.0		19.0			
									
									
0.0				0.0		0.0			
				0.0		0.0			
16.0	16.0		16.0						
0.0	0.0			126.0		76.0		75.0	0.0
									0.0
				58.0		58.0			58.0
									
									
	33.0								33.0
									
31.0	31.0								
				5.0		5.0			
									
									
									
	8.0		8.0						8.0
	0.0		0.0						
	0.0		0.0						
									
				12.0		12.0			
				0.0		0.0			
	16.0		16.0	5.0		5.0			16.0
	14.0						14.0	14.0	14.0
	0.0						0.0	0.0	0.0
0.0	0.0								
	0.0		0.0				0.0		
									
									
	0.0		0.0						
24.0	25.0		25.0				25.0		
							0.0	0.0	
6.0				6.0		6.0			6.0
	0.0		0.0	0.0		0.0	0.0	0.0	
26.0	4.0		26.0	31.0		30.0		31.0	
159.0	0.0			160.0		160.0	0.0		
									
	9.0			17.0		17.0		9.0	9.0
				121.0		121.0		121.0	
									
									
4.0	4.0		4.0						4.0
12.0	15.0			12.0		12.0	15.0		15.0
									
									
									
8.0	4.0			4.0		4.0			4.0
									
									
0.0	0.0								
8.0	8.0		4.0	4.0		4.0		4.0	4.0
0.0	0.0		0.0						
									
0.0	0.0		0.0	14.0		14.0	0.0		
									
	30.0			6.0		6.0	30.0		30.0
5.0	5.0			8.0		8.0	5.0		5.0
				0.0		0.0			
									
0.0	0.0			6.0		6.0	0.0		
									
									
94.0	59.0			11.0		11.0	59.0		
									
0.0	0.0		0.0				0.0		
									
0.0	0.0		0.0				0.0		0.0
35.0	35.0		35.0				35.0		35.0
				19.0		19.0	19.0		
				0.0		0.0			
0.0	0.0		0.0				0.0		0.0
0.0				0.0		0.0			
14.0	15.0		15.0	63.0		63.0	15.0		
13.0	13.0		13.0	0.0		0.0	13.0		
8.0	8.0		8.0				4.0		4.0
				9.0		9.0			
									
									
41.0	41.0		42.0				83.0		
5.0	5.0			16.0		16.0	16.0		
									
									
									
				0.0		0.0	0.0		
9.0	9.0			0.0		0.0	0.0		
									
									
13.0	13.0								
23.0	23.0			40.0		40.0	40.0		
81.0	81.0								
									
				0.0		0.0	0.0		
0.0	0.0								
									
4.0	4.0			0.0					
6.0	6.0								
0.0	0.0								
73.0	73.0								
9.0	9.0			39.0		0.0	39.0		
									
									
0.0	0.0								
0.0	0.0								
									
9.0	9.0						9.0	9.0	9.0
									
									
				66.0		66.0			66.0
				17.0		17.0			17.0
				0.0		0.0			0.0
0.0	0.0						0.0		
75.0	75.0						75.0		
									
72.0	72.0						72.0		
112.0	112.0						112.0		
				6.0		6.0	6.0		
									
									
									
27.0	27.0						27.0		27.0
				0.0		0.0	0.0		
12.0	13.0						9.0		9.0
									
									
									
53.0	53.0		53.0	9.0		9.0	9.0		
									
	0.0						0.0		0.0
				0.0		0.0	0.0		
									
									
15.0	15.0		15.0	9.0		9.0	9.0		
				31.0		31.0			
14.0	14.0		16.0	8.0		7.0	18.0	19.0	
48.0	48.0		36.0				37.0	37.0	
6.0	6.0		7.0				7.0	7.0	7.0
31.0	31.0			83.0		83.0	83.0	83.0	
	41.0			16.0		16.0			
									
	0.0						4.0		
32.0	32.0		32.0				32.0		
0.0	0.0		0.0	0.0		0.0	0.0		0.0
0.0	0.0		0.0				0.0		
0.0	0.0			0.0		0.0	0.0	0.0	
									
19.0	19.0							19.0	19.0
5.0	5.0		5.0	6.0		6.0	5.0		6.0
0.0	0.0			0.0		0.0	0.0	0.0	0.0
0.0	0.0		0.0	0.0		0.0	0.0		0.0
4.0	4.0		3.0	6.0		6.0			
				6.0		6.0		6.0	
									
				9.0		9.0			
									
				24.0		24.0			
				6.0					
45.0	45.0		45.0	0.0		0.0			45.0
				0.0		0.0			
									
				5.0		6.0			
									
6.0	6.0		6.0	0.0		0.0			
				0.0		0.0			
				29.0		29.0	29.0		29.0
0.0	0.0		0.0	29.0		29.0			0.0
									
									
	0.0		0.0				0.0		0.0
19.0	19.0								
									
	41.0		41.0				41.0		41.0
				0.0		0.0			
									
				28.0		28.0			
				59.0		59.0	59.0		
0.0	0.0		0.0	0.0		0.0	0.0	0.0	0.0
									
				26.0		26.0		0.0	
	4.0								
				47.0		47.0	47.0		
	6.0								6.0
				0.0		0.0	0.0		
									
									
0.0	0.0		0.0						
									
0.0	0.0		0.0				0.0		
28.0				28.0		28.0			
56.0	56.0		56.0						
84.0	0.0			84.0		83.0	0.0	0.0	0.0
				36.0		36.0	36.0		36.0
0.0				0.0					
				0.0		0.0			
									
11.0	0.0			11.0		11.0			
				16.0		15.0			
0.0	0.0						0.0		
	0.0						0.0		
0.0	0.0		0.0	0.0		0.0		0.0	
				69.0		69.0			69.0
0.0	0.0		0.0	0.0		0.0	0.0		0.0
									
									
				7.0		7.0			7.0
	0.0			43.0		43.0	0.0		43.0
									
19.0	19.0		19.0						
				0.0		0.0			0.0
4.0	4.0		4.0				4.0	4.0	
7.0	7.0			4.0		4.0	4.0	4.0	
									
				19.0		19.0	19.0	19.0	
				0.0		0.0	0.0	0.0	
									
0.0	0.0								0.0
				0.0		0.0		0.0	
				5.0		5.0			
									
0.0	0.0		0.0					0.0	
				130.0		130.0			
0.0	0.0		0.0	4.0		4.0		0.0	
4.0	4.0		4.0	87.0		87.0		4.0	4.0
									
				4.0		4.0			
									
									
									
	0.0						0.0		
	0.0								0.0
				5.0		5.0			
									
									
									
				4.0		0.0	0.0		
	4.0		4.0	74.0		74.0	74.0		4.0
				124.0		123.0			124.0
									
	0.0		0.0			0.0			
5.0	5.0		5.0				5.0		
				81.0		76.0			
	0.0		0.0	0.0		0.0	0.0		0.0
									
									
76.0	76.0			6.0		6.0	6.0		6.0
									
				0.0		0.0			
									
				0.0		0.0			0.0
25.0	23.0		23.0	5.0		5.0		5.0	
25.0				25.0		25.0	25.0		
65.0	64.0								32.0
0.0	0.0								0.0
									
				53.0		53.0			
				12.0		12.0	12.0	12.0	
				0.0		0.0	0.0		
									
									
									
	40.0		40.0	53.0		53.0	40.0		40.0
									
	117.0		117.0						
				0.0		0.0			
									
				64.0		64.0			
									
									
									
				12.0		12.0	12.0		
									
12.0	12.0								10.0
									
5.0	5.0								5.0
0.0	0.0								0.0
0.0	0.0		0.0	20.0		39.0		39.0	0.0
									
				6.0		6.0	6.0		
				49.0		49.0	49.0	49.0	49.0
									
									
				4.0		4.0	4.0		
				4.0		4.0	4.0		
									
				48.0		48.0		48.0	
				0.0		0.0		0.0	
	60.0		60.0	21.0		21.0	21.0	4.0	4.0
22.0	22.0		22.0						22.0
									
									
									
	11.0							11.0	
18.0				17.0		18.0			
				14.0		14.0			
	0.0		0.0						
									
	0.0		0.0						
12.0	12.0						12.0		
28.0	28.0			40.0		39.0	28.0		
				0.0		0.0			
0.0	0.0			74.0		74.0	0.0		
				13.0		13.0			
				21.0		21.0			
				58.0		57.0			
				11.0		10.0			
									
									
0.0	0.0		0.0				0.0		0.0
									
				5.0		4.0			
0.0	0.0			0.0		0.0			
0.0	0.0		0.0				0.0		0.0
				44.0		44.0			
26.0	26.0		26.0				26.0		
				27.0		27.0			
									
0.0	0.0			17.0		0.0	17.0		
				77.0		77.0	77.0		
									
				36.0		36.0	36.0		
									
				31.0		31.0	31.0		
									
									
0.0	0.0								
									
139.0	139.0			30.0		30.0	30.0		139.0
									
									
5.0	5.0						5.0	5.0	
									
									
									
				0.0					
									
47.0	47.0		47.0	0.0		0.0	0.0		
90.0	90.0		84.0	4.0		4.0	4.0	4.0	89.0
				0.0		0.0	0.0		
133.0	134.0			4.0		4.0			134.0
4.0	4.0		4.0						4.0
									
35.0	33.0			11.0		11.0			
0.0	0.0						0.0		
				6.0		6.0	6.0		
									
34.0	34.0		34.0	0.0		0.0	0.0		34.0
0.0	0.0			10.0		10.0	0.0		
				47.0		47.0			
0.0	0.0		0.0						
26.0	26.0		26.0	10.0		10.0	10.0		
									
				0.0		0.0	0.0		
									
				99.0		99.0	99.0		
43.0	43.0		43.0	0.0		0.0	0.0		43.0
6.0	6.0		6.0						
				0.0		0.0			
17.0	17.0		17.0	0.0		0.0	17.0	17.0	17.0
									
									0.0
				13.0		13.0			
				25.0		25.0	25.0		
									
				51.0		51.0			
									
				43.0		43.0			43.0
0.0	0.0							0.0	
5.0	5.0							5.0	
				4.0		4.0	4.0		
0.0	0.0		0.0	47.0		47.0	0.0		47.0
0.0	15.0			26.0		26.0	26.0	15.0	
15.0	23.0			15.0		15.0	26.0		26.0
									
									
9.0	9.0								
9.0	9.0		9.0						
0.0	0.0		0.0	71.0		71.0			0.0
				0.0		0.0			
				0.0		0.0			
				9.0		9.0	9.0		
									
									
									
0.0	0.0			4.0		4.0	4.0		4.0
				0.0		0.0			
									
				34.0		17.0			
									
				0.0		0.0			
									
				0.0		0.0			
				0.0		0.0	4.0		
0.0	0.0			76.0		77.0	77.0		
	49.0		49.0				49.0		
				33.0		33.0	33.0		
30.0	30.0		30.0	71.0		71.0	71.0	30.0	
4.0	4.0		4.0					4.0	
				54.0		54.0	54.0		
									
									
									
									
				0.0		0.0	0.0		
				11.0		11.0	11.0		
				13.0		7.0	7.0		
									
0.0	0.0			4.0		4.0		0.0	0.0
11.0	11.0			39.0		39.0		11.0	
									
				32.0		32.0	32.0		32.0
									
12.0				12.0		12.0			
0.0				0.0		0.0			
				0.0		0.0			0.0
									
6.0	6.0			31.0		31.0			31.0
									
									0.0
25.0	25.0		25.0				25.0	25.0	
				5.0		5.0	5.0	5.0	
									
									
				0.0		0.0	0.0	0.0	
0.0	0.0								0.0
				6.0		6.0	4.0		6.0
									
									
17.0	17.0								
0.0	0.0			4.0		4.0			
				16.0		16.0	16.0	16.0	
				13.0		13.0	13.0	13.0	
19.0	19.0			0.0		0.0	0.0	0.0	
10.0	10.0		10.0	18.0		18.0		10.0	10.0
				0.0		0.0	0.0		
				0.0		0.0	0.0		0.0
				0.0		0.0			
8.0	8.0		8.0	11.0		11.0		8.0	8.0
				4.0		4.0	4.0		
	0.0			0.0		4.0			
				33.0		33.0	33.0		
5.0	5.0							5.0	
				4.0		4.0			
									
38.0				38.0		38.0			
	54.0		54.0			0.0	54.0		
				0.0		0.0			0.0
									
0.0				0.0		0.0			
									
0.0	0.0		0.0				0.0		
									
							0.0		
				6.0		6.0		6.0	
									
									
	20.0								
				28.0		28.0			28.0
	0.0			10.0		10.0	10.0	0.0	
8.0	8.0		8.0	14.0		14.0			
									
	0.0		0.0	20.0		20.0			0.0
	6.0		6.0				6.0		6.0
									
									
28.0	28.0						28.0		
	17.0		8.0						8.0
				69.0		69.0			
125.0				125.0		125.0			123.0
	16.0								16.0
									
									
									
17.0	17.0			0.0		0.0			
									
9.0	9.0		9.0						9.0
									
17.0				17.0		17.0			
100.0	100.0		100.0						95.0
	0.0								
0.0	0.0		0.0	4.0		4.0		4.0	
26.0	26.0		26.0						
	0.0		0.0						
			0.0				0.0		
									
0.0				0.0		0.0			
				28.0		28.0	28.0		28.0
									
									
				16.0		16.0			
									
				15.0		15.0			
									
									
33.0	33.0			0.0		0.0	33.0		
									
29.0	29.0		29.0	30.0		28.0	29.0		
						0.0			
									
									
									
				21.0		21.0			
17.0	17.0								
105.0	105.0								
				6.0		6.0	6.0		
0.0	0.0								
				0.0		0.0	0.0		
									
									
7.0	7.0								
				4.0		4.0	4.0		
				16.0		16.0	16.0		
				79.0		79.0	79.0		
									
				0.0		0.0	0.0		
12.0	12.0								
				0.0		0.0	0.0		
									
									
				14.0		14.0	29.0		
									
				25.0		25.0	25.0		
									
5.0	5.0								
									
0.0	0.0			26.0		26.0	0.0	0.0	
0.0	0.0						0.0		
33.0	33.0						33.0		
				18.0		18.0	18.0		
						0.0	0.0		
0.0	0.0								0.0
54.0	54.0		54.0						
7.0	7.0		7.0						
25.0	25.0		25.0						24.0
4.0	4.0								
				4.0		4.0			
									
64.0	64.0		64.0	5.0		5.0	4.0		
									
13.0	13.0						13.0		
4.0	4.0							7.0	
7.0	7.0		7.0						7.0
8.0	8.0		0.0	0.0		0.0	0.0		
									
									
0.0	0.0								
									
									
									
0.0	0.0		0.0	0.0		0.0	0.0	0.0	
				12.0		12.0			
	0.0			54.0		54.0			
	15.0						15.0		15.0
	0.0			0.0		0.0	0.0		0.0
									
									
									
									
									
61.0	61.0			5.0		5.0	5.0	61.0	
									
0.0	0.0			0.0		0.0	0.0	0.0	
0.0				0.0		0.0			
									
	10.0		10.0						10.0
									
				23.0		23.0			
0.0	0.0		0.0	33.0		33.0			
				26.0		26.0	26.0		26.0
105.0	66.0		105.0	6.0		6.0	106.0		106.0
				16.0		16.0	16.0		16.0
18.0	18.0		18.0						18.0
				0.0		0.0			
				14.0		14.0			
				78.0		78.0			
	0.0		0.0				0.0		0.0
0.0	0.0			0.0		0.0	0.0		0.0
									
				41.0		41.0			
									
									
									
									
				49.0		49.0	49.0		
									
69.0	69.0		69.0					69.0	69.0
				120.0		120.0	120.0		
									
									
				43.0		43.0	43.0		
				36.0		36.0	36.0		
	0.0								0.0
									0.0
									
0.0	0.0		0.0	19.0		19.0	0.0	19.0	0.0
0.0	0.0						0.0		
17.0	17.0		17.0						
									
									
									
0.0	0.0		0.0						
0.0	0.0		0.0						
									
35.0				36.0		36.0			
	6.0			0.0		0.0	6.0	6.0	
									
									
0.0	0.0		0.0				0.0		0.0
									
17.0	17.0								
									
5.0	5.0		5.0	20.0		20.0	5.0	5.0	20.0
									
43.0	44.0			23.0		23.0	44.0		
14.0	14.0		14.0	45.0		45.0	14.0	14.0	45.0
5.0	5.0								
				13.0		13.0	13.0	13.0	
									
									
				32.0		32.0			
									
									
									
				0.0		0.0			
0.0	0.0		0.0	4.0		4.0		0.0	
	0.0		0.0	31.0		31.0	31.0		0.0
	0.0			118.0		118.0			
				46.0		46.0			
	4.0						4.0		
	0.0		0.0						0.0
									
				0.0		0.0	0.0		
									
									
14.0	14.0		14.0				14.0		
				0.0		0.0			0.0
									
0.0	0.0		0.0				0.0		
98.0				98.0		98.0			
51.0	51.0		51.0						
									
				74.0		75.0	75.0	75.0	
0.0	0.0		0.0						0.0
	4.0								4.0
	4.0							4.0	
	45.0		45.0	0.0		0.0	45.0		0.0
									
48.0	48.0		48.0						
18.0	18.0			8.0		8.0		8.0	
				13.0		13.0			
	40.0								
43.0				43.0		43.0			
									
									
						0.0			
				32.0		32.0			
				0.0		0.0			
				0.0		0.0			0.0
									
0.0	54.0			0.0		0.0	54.0	54.0	
				0.0		0.0			
	10.0		10.0						
				0.0		0.0			
121.0	121.0			44.0			79.0		
	18.0								
14.0	8.0		8.0				8.0		
44.0				44.0		44.0			44.0
									
									
	25.0						25.0		
				0.0		0.0		0.0	
									
0.0									
	0.0		0.0				0.0	0.0	
	0.0							0.0	0.0
									
11.0	0.0			11.0		11.0			
									
23.0	23.0		23.0	10.0		10.0		10.0	
									
9.0				9.0		9.0			
									
	6.0								6.0
	0.0		0.0					0.0	
	0.0		0.0	0.0		0.0	0.0		0.0
									
	0.0		0.0	0.0		0.0	0.0	0.0	
				0.0		0.0		0.0	
				0.0		0.0			
				0.0		0.0		0.0	
				0.0		0.0			
				0.0		0.0			
43.0	43.0			4.0		4.0	43.0		84.0
18.0	18.0						36.0		
0.0	0.0			0.0		0.0	0.0		
									
				22.0		21.0			
				17.0		17.0			
				74.0		74.0			
4.0	4.0		4.0				4.0		
				22.0		22.0			
									
				0.0		0.0			
4.0	4.0		4.0	0.0		0.0	4.0		
0.0	0.0		0.0	16.0		16.0	0.0		0.0
									
				4.0		4.0	4.0		
0.0	0.0								
23.0	23.0								
									
0.0	0.0								
									
28.0	28.0			0.0		0.0	0.0		
44.0	44.0								44.0
									
									
									
				45.0		45.0	45.0		
21.0	21.0								
									
45.0	45.0								
48.0	48.0								
				4.0		4.0	4.0		
									
									
117.0	117.0								
				20.0		20.0		0.0	
									
									
									
				10.0		10.0			
26.0	26.0						26.0	26.0	
				65.0		65.0			
									
				21.0		21.0			
26.0	26.0						18.0		
	18.0						18.0		18.0
				9.0		9.0			
							9.0		9.0
									
0.0	0.0		0.0	6.0		6.0	6.0		
7.0	7.0		7.0	39.0		39.0	39.0		
37.0	38.0						38.0		
				70.0		71.0	71.0		
									
									
				71.0		71.0	71.0		
									
									
				82.0		82.0	82.0		
									
									
									
				0.0		0.0			
	0.0						0.0		
									
									
	0.0			0.0		0.0	0.0		
	14.0						14.0		14.0
				0.0		0.0			
				0.0		0.0			
17.0	17.0		8.0	4.0		4.0	8.0		4.0
0.0	0.0		0.0				0.0		
									
0.0	0.0							0.0	
				22.0		22.0	22.0		
31.0	31.0			0.0		0.0	0.0	31.0	
									
									
									
4.0	4.0		4.0				4.0		
				0.0		0.0			
				12.0		12.0			
12.0	12.0		12.0						
									
									
0.0	0.0			0.0		0.0		0.0	
0.0				0.0		0.0			
				23.0		23.0			
6.0	6.0		6.0				6.0		
									
				113.0		113.0			
	35.0		35.0	24.0		24.0	35.0		35.0
6.0	6.0			0.0		0.0	0.0		
									
				0.0		0.0	0.0		
				53.0		53.0	53.0		
									
67.0	68.0			0.0		0.0		68.0	68.0
	0.0								
				0.0		0.0	0.0		
0.0	0.0								
	0.0								0.0
									
	6.0								
				0.0		0.0			
									
70.0	70.0		70.0				70.0		
70.0				70.0		70.0			
									
155.0	155.0		155.0	35.0		35.0	35.0		35.0
	26.0						51.0		51.0
									
				0.0		0.0			
	5.0						5.0		
0.0				0.0		0.0			
6.0				6.0		6.0			
				34.0		35.0			34.0
				12.0		12.0			
									
									
37.0	0.0			37.0		37.0	0.0		0.0
									
0.0	0.0						0.0		
	0.0			0.0		0.0	0.0	0.0	
	0.0						0.0	0.0	
									
				13.0		13.0	13.0	13.0	
0.0	0.0			6.0		6.0			
				15.0		15.0	15.0		
									
				194.0		194.0	194.0		
				6.0		6.0	6.0		
0.0	0.0								
				10.0		10.0			9.0
0.0	0.0								
0.0	0.0								
									
									
									
									
									
26.0	26.0							13.0	
				15.0		15.0	15.0		
									
	6.0		6.0						6.0
				20.0		9.0			6.0
				20.0		20.0			
40.0	40.0								40.0
20.0	20.0		20.0				20.0		
5.0	5.0		5.0						
0.0	0.0		0.0				0.0		0.0
									
									
0.0	0.0						0.0		
8.0	9.0		9.0	8.0		7.0	9.0		9.0
									
									
				22.0		22.0			22.0
0.0				0.0		0.0	0.0		
	0.0			5.0		5.0	5.0	0.0	
	0.0								
									
									
									
				55.0		55.0			80.0
									
				6.0		6.0	6.0		
									
				0.0		0.0			
									
	3.0		3.0						
				0.0		0.0			
9.0				9.0		8.0			
	13.0						13.0	13.0	13.0
	0.0								
									
				100.0		100.0			
	55.0						55.0		55.0
									
0.0				0.0		0.0			0.0
									
				0.0		0.0		0.0	0.0
6.0	5.0			6.0		6.0	5.0		6.0
6.0	6.0			0.0		0.0			
				52.0		52.0			
									
						0.0		0.0	
									
0.0	0.0		0.0						0.0
									
									
									
									
				0.0		0.0			0.0
				0.0		0.0		0.0	
129.0				129.0		128.0			
				0.0		0.0			
				57.0		57.0			
				112.0		113.0	0.0		0.0
				76.0		76.0			
59.0	59.0								
0.0				37.0		37.0			
14.0	14.0						14.0		
0.0	0.0			0.0		0.0	0.0		0.0
				0.0		0.0			
									
									
				24.0		24.0			
17.0	17.0			0.0		0.0	17.0		17.0
				24.0		24.0			0.0
4.0	4.0			0.0		0.0	4.0		
				48.0		48.0			
18.0	18.0						17.0		18.0
47.0	47.0			51.0		51.0	17.0		16.0
									
0.0	0.0			0.0		0.0	0.0		
80.0	80.0		80.0	0.0		0.0	80.0		80.0
				0.0		0.0			
				0.0		0.0			
				0.0		0.0			
0.0	0.0		0.0	38.0		37.0			
0.0	0.0								
									
									
									
49.0	50.0		49.0				49.0		50.0
21.0	21.0			0.0		0.0	0.0		
0.0	0.0								
									
									
									
0.0	0.0								0.0
0.0	0.0								
									
									
				27.0		27.0	27.0		
105.0	105.0			57.0		57.0	57.0		
	53.0						53.0	53.0	
0.0	0.0								
									
									
									
									
									
									
									
									
				0.0		0.0	0.0		
0.0	0.0			5.0		5.0	9.0		
									
0.0	0.0								
							0.0		
0.0	0.0								
				0.0		0.0	0.0		
				8.0		8.0	8.0		
9.0	9.0			0.0					
9.0	9.0								
									
									
									
									
									
									
0.0	0.0								
									
									
0.0	0.0							0.0	0.0
				109.0		2.0	109.0		
				110.0		111.0	111.0		
									
									
30.0	30.0					0.0	0.0		30.0
				0.0		0.0	0.0		
									
				0.0		0.0	0.0		
93.0	93.0								93.0
18.0	18.0								
									
									
0.0	0.0			20.0		20.0	0.0	0.0	
60.0	60.0			0.0		0.0	60.0	60.0	
52.0	52.0			0.0		0.0	52.0	52.0	
								17.0	
				0.0		0.0			
				0.0		0.0			
									
				92.0		92.0			92.0
30.0	30.0		50.0				50.0	50.0	50.0
				61.0		59.0			59.0
									
									
									
				22.0		22.0	22.0		
8.0	8.0			12.0		13.0			
				126.0		126.0	125.0		
				0.0		0.0			
									
0.0	0.0		0.0						
16.0	16.0						16.0		
0.0	0.0		0.0					0.0	
									
0.0	0.0						0.0		0.0
12.0	12.0								
				36.0		37.0			
				8.0		8.0	8.0		
35.0	35.0			5.0		5.0	35.0		35.0
									
10.0	10.0		10.0	87.0		87.0	87.0		
				16.0		16.0			
				0.0		0.0	0.0		
									
							0.0		
11.0	11.0		11.0	0.0		0.0	0.0		11.0
									
62.0	62.0						62.0		
									
22.0	22.0		22.0				22.0	22.0	
4.0	4.0		4.0				4.0	0.0	
				0.0		0.0			0.0
									
				13.0		13.0			
	0.0						0.0		
				36.0		34.0			
				26.0		26.0			
				30.0		30.0			
									
	43.0						43.0		43.0
	63.0						63.0		
				43.0		43.0			43.0
14.0	14.0			47.0		47.0	47.0		
									
									
72.0	72.0		72.0	0.0		0.0	72.0		0.0
				0.0		0.0			
									
									
									
									
22.0	22.0			0.0		0.0	0.0	22.0	22.0
									
									
11.0	11.0			6.0		6.0		11.0	
				8.0		8.0	8.0		
									
									
0.0	0.0		0.0				0.0		
56.0	56.0		56.0	42.0		42.0			56.0
27.0			6.0						6.0
				4.0		4.0			
66.0	66.0		66.0						66.0
0.0	0.0		0.0						
20.0	20.0		20.0				20.0		20.0
0.0	0.0		0.0	0.0		0.0			0.0
4.0	4.0								
18.0	18.0		18.0	16.0		16.0			18.0
19.0	19.0		19.0	0.0		0.0	19.0		
0.0	0.0								
									
									
							0.0		
									
									
				0.0		0.0			
	8.0		8.0				8.0		
									
									
0.0	0.0								
0.0	0.0								
									
21.0	21.0								
									
	0.0		0.0					0.0	
0.0	0.0								
								0.0	
				0.0		0.0	0.0		
									
									
0.0	0.0		0.0					0.0	0.0
	853.0			106.0		105.0	107.0		
									
	24.0								
									
7.0	7.0							7.0	
	44.0								34.0
0.0	0.0		0.0					0.0	
94.0	94.0							94.0	
									
6.0	6.0		6.0					6.0	
				4.0		4.0			
0.0				0.0		0.0			
									
	4.0						4.0		4.0
									
141.0	141.0								
									
				26.0		26.0	26.0		26.0
36.0				36.0		35.0			
									
0.0	0.0			0.0		0.0	0.0		0.0
55.0	56.0		56.0						
	28.0						28.0		
0.0				0.0		0.0			
									
9.0	9.0		9.0	9.0		9.0	9.0		9.0
									
									
	75.0						75.0	75.0	
									
				176.0		177.0			
									
									
									
				20.0		20.0			20.0
				18.0		18.0			18.0
				51.0		0.0			0.0
									
0.0	0.0			0.0		0.0	0.0	0.0	
									
									
0.0	0.0		0.0	17.0		17.0	17.0		
24.0	24.0								24.0
11.0	11.0		11.0					11.0	
23.0	23.0		23.0					23.0	
									
						0.0			
									
									
				28.0		28.0			
				18.0		18.0	18.0		18.0
				7.0		7.0	7.0		
									
									
				0.0		0.0			
	15.0		15.0	34.0		34.0	34.0		
	15.0						15.0		15.0
	0.0		0.0						0.0
	52.0						52.0		52.0
31.0	20.0		9.0	6.0		6.0		9.0	9.0
									
									
									
	0.0								
0.0	0.0		0.0	0.0		0.0	0.0		0.0
									
									
0.0	0.0		0.0						
10.0	40.0		40.0	10.0		10.0	40.0		
									
	7.0		7.0				7.0	7.0	
				25.0		25.0			25.0
									
				48.0		48.0			
				26.0		26.0			52.0
									
									
									
									
	8.0							8.0	
				53.0		53.0			
0.0	22.0			0.0		0.0	0.0		
	0.0			42.0		21.0	21.0	0.0	
	7.0		7.0				7.0		
				0.0		0.0		0.0	
									
	28.0			6.0		6.0	6.0		
				28.0		27.0		27.0	
6.0				6.0		6.0	6.0		
				0.0		0.0	0.0	0.0	
									
	0.0								
									
									
									
									
									
				0.0		0.0	0.0	0.0	
				0.0		0.0	0.0		0.0
0.0	0.0		0.0	0.0		0.0	0.0	0.0	0.0
									
				18.0		18.0	18.0		18.0
	4.0						4.0	4.0	
									
0.0	0.0							0.0	
	14.0		14.0						
				0.0		0.0			
				21.0		21.0			
10.0				10.0		10.0			
	0.0		0.0	73.0		72.0			
				111.0		111.0			
	26.0								
									
									
	28.0		28.0	23.0		21.0	29.0		29.0
									
									
									
96.0	0.0			96.0		96.0	0.0	0.0	
0.0	0.0			75.0		75.0			
									
	0.0			88.0		88.0	88.0		
0.0	0.0		0.0				0.0		
6.0				6.0		6.0			6.0
									
	14.0								
	7.0						7.0		
	39.0						39.0	39.0	
	60.0						60.0		
15.0	15.0								
				8.0		8.0			
7.0	0.0		0.0	7.0		7.0	7.0		
									
				44.0		43.0	44.0		39.0
				16.0		16.0	16.0		16.0
									
40.0				40.0		79.0			
									
									
7.0				7.0		7.0	7.0		
									
	0.0								
11.0				11.0		11.0	0.0		0.0
				15.0		15.0	15.0		15.0
									
6.0	6.0								
0.0	0.0		0.0						
									
4.0	4.0		4.0	0.0		0.0		0.0	
	5.0						5.0		
5.0	5.0		0.0	0.0		0.0		0.0	
									
									
									
									
	6.0						6.0		
									
	0.0		0.0	16.0		16.0	0.0	16.0	0.0
				0.0		0.0	0.0		0.0
									
									
12.0	12.0			5.0		5.0	12.0		12.0
				65.0		64.0			
4.0	4.0						4.0		4.0
									
8.0	8.0			96.0		96.0	7.0		
				0.0		0.0			
									
									
									
									
				0.0		0.0			
									
									
				0.0		0.0	0.0		
56.0	56.0								
									
									
									
4.0	4.0			20.0		20.0	20.0		
									
									
5.0	5.0			0.0		0.0	0.0		
0.0	0.0			5.0		5.0	5.0		
									
									
									
									
									
									
									
									
				35.0		35.0			
6.0	6.0			0.0			6.0	6.0	
0.0	0.0			22.0		22.0	0.0	0.0	
									
									
									
				175.0		175.0	175.0		
0.0	0.0		0.0	4.0		4.0	4.0		
									
0.0	0.0			33.0		33.0	0.0		
				0.0		0.0			
79.0	79.0		79.0	0.0		0.0	0.0		79.0
26.0	26.0								
									
165.0	165.0		165.0						163.0
				15.0		15.0	15.0		
									
									
23.0	23.0			38.0		39.0	0.0		
									
5.0	0.0		0.0	0.0		0.0	0.0	0.0	0.0
				7.0		7.0			
									
				10.0		10.0			
	20.0						19.0		20.0
				15.0		15.0	15.0		
5.0	5.0		5.0	25.0		25.0	5.0		25.0
				22.0		22.0	22.0		
22.0	22.0								
									
									
0.0	0.0		0.0						0.0
11.0	11.0								
				11.0		11.0	11.0		
				10.0		10.0		10.0	
									
				91.0		90.0			
0.0	0.0		0.0				0.0		
									
				100.0		100.0			
									
									
	0.0		0.0				0.0		0.0
									
				0.0		0.0	0.0		
4.0	4.0								4.0
4.0	4.0		4.0				4.0		
				21.0		21.0			
									
									
0.0	0.0							0.0	0.0
									
				0.0		0.0	0.0		
									
13.0									
				6.0		6.0	6.0		
112.0	112.0							112.0	
				119.0		119.0			
				0.0		0.0			
									
									0.0
									
				6.0		6.0	6.0		6.0
16.0	16.0		16.0	0.0		0.0	0.0		0.0
							0.0		
0.0				0.0		0.0			
				84.0		83.0			7.0
									
				8.0		7.0			8.0
0.0	0.0		0.0						0.0
									0.0
									
21.0	21.0		21.0					21.0	21.0
				61.0		61.0	61.0		61.0
									
									
									
				0.0		0.0			
0.0	0.0		0.0	51.0		50.0		0.0	0.0
	27.0						27.0		27.0
									
									
				38.0		38.0			
0.0	0.0		0.0	95.0		95.0		0.0	0.0
	87.0		87.0				87.0	87.0	
									
	86.0		86.0	9.0		9.0	86.0	86.0	
									
									
									
						0.0			
				0.0		0.0		0.0	
									
				18.0		39.0	39.0	39.0	
									
									
7.0	12.0		12.0	28.0		28.0	28.0	28.0	12.0
									
				0.0		0.0			
									
44.0	44.0								44.0
	11.0								
				4.0		4.0		4.0	
				66.0		66.0		66.0	
34.0	34.0		34.0	8.0		8.0			
59.0	59.0		58.0	0.0		0.0			
									
0.0	0.0						0.0		
47.0	0.0			48.0		48.0			0.0
	0.0		0.0	48.0		48.0			
									
									
									
44.0				44.0		44.0			44.0
23.0				23.0		23.0			23.0
				0.0		0.0	0.0		0.0
45.0	45.0		45.0						45.0
0.0	0.0		0.0						
	6.0							6.0	
	0.0		0.0	0.0		0.0	0.0		
									
									
10.0	10.0		10.0					7.0	
	38.0						76.0		
	16.0		16.0				16.0	16.0	
				61.0		60.0			
				0.0		0.0		0.0	
18.0	18.0						14.0		
									
22.0	22.0						22.0		22.0
				53.0		53.0			
									
									
									
0.0	0.0		0.0				0.0		0.0
				27.0		27.0			
									
				0.0		0.0			
5.0	5.0		5.0	24.0		24.0	5.0		5.0
7.0	7.0								
									
				24.0		24.0	24.0		
7.0	7.0								7.0
				20.0		20.0	20.0		
				23.0		23.0	23.0		
									
									
									
				61.0		61.0	61.0		
33.0	33.0								
0.0	0.0								
									
0.0	0.0			0.0		0.0	0.0	0.0	
0.0	0.0						0.0		0.0
				0.0		0.0	0.0		
				0.0		0.0	0.0		
									
11.0	11.0		11.0						
22.0	22.0						22.0		
									
									
									
				0.0		0.0	0.0		
									
				55.0		55.0			
59.0	59.0		59.0						
				0.0		0.0			
	5.0								
22.0	22.0							22.0	
11.0	11.0			0.0		0.0	0.0	11.0	
				0.0		0.0	0.0		
14.0	14.0							14.0	14.0
62.0	62.0		62.0				62.0		
									
									
									
									
4.0	4.0		4.0						
				0.0		0.0			
									
0.0	0.0		0.0	0.0		0.0			
10.0	10.0		10.0	4.0		4.0			
				4.0		4.0			
	0.0						0.0		0.0
									
				87.0		87.0	87.0		
									
									
									
									
									
									
	0.0								0.0
				16.0		16.0			
				0.0		0.0	0.0		
	23.0			20.0		20.0	20.0		
20.0	20.0		20.0					21.0	
				0.0		0.0	0.0		
									
									
				114.0		114.0	114.0		114.0
73.0	73.0		73.0				73.0		
									
				0.0		0.0			0.0
									
	0.0						0.0		
12.0	12.0		12.0			10.0	10.0		10.0
				17.0		17.0	17.0		16.0
									
34.0				34.0		33.0			
									
									
									
4.0	4.0								4.0
95.0	95.0			12.0		12.0	12.0	12.0	53.0
									
117.0	117.0			0.0		0.0	0.0	0.0	
									
0.0	0.0								
0.0	0.0								
	4.0						4.0		4.0
									
									
									
									
									
									
				28.0		0.0			
0.0									
				33.0		33.0			
				0.0		0.0			
									
									
				34.0		34.0			
4.0	4.0		4.0				4.0		
0.0	0.0		0.0	88.0		88.0			88.0
0.0	0.0		0.0	88.0		88.0		88.0	0.0
									
				38.0		38.0			18.0
									
16.0	16.0		16.0	5.0		5.0			
8.0	8.0								
31.0	31.0								
									
				0.0		0.0	0.0	0.0	
				0.0		0.0	0.0		0.0
				10.0		10.0			
	20.0		20.0				6.0		6.0
									
6.0	6.0			0.0		0.0	6.0		
	23.0		23.0	0.0		0.0			23.0
				4.0		4.0			
0.0	0.0			0.0		0.0	0.0		0.0
				30.0		30.0			
				22.0		35.0			
7.0				7.0		7.0			
									
	0.0		0.0				0.0		
				26.0		26.0	26.0		26.0
	0.0								0.0
0.0									
				0.0		0.0		0.0	
	0.0		48.0						
0.0	0.0		0.0	4.0		4.0		4.0	0.0
				0.0		0.0	0.0		
	0.0		0.0					0.0	
									
				22.0		22.0	22.0		22.0
0.0	0.0		0.0	8.0		16.0			16.0
0.0	0.0		0.0				0.0		
				7.0		7.0		7.0	
	7.0		7.0				7.0		
				6.0		6.0			
									
									
									
									
									
							0.0		0.0
									
				4.0		4.0		4.0	
4.0	4.0						4.0		
				38.0		38.0			
0.0	0.0		0.0	19.0		19.0	19.0	19.0	
87.0	87.0			0.0		0.0	87.0		86.0
87.0	43.0		43.0	0.0		0.0	0.0		43.0
0.0	0.0			177.0		176.0	0.0		
6.0	6.0						6.0		
									
									
				18.0		18.0			0.0
0.0	0.0			0.0		0.0	0.0		0.0
									
0.0	0.0			33.0		32.0	0.0		
									
				134.0		134.0			
									
28.0	28.0		28.0	0.0		0.0	28.0		
				0.0		0.0			
				0.0		0.0			
0.0	0.0		0.0				0.0		0.0
									
0.0	0.0		0.0	16.0		16.0	0.0		
0.0	0.0		0.0				0.0		
69.0	69.0		69.0						
									
				7.0		7.0			
7.0	7.0		7.0	0.0		0.0	8.0		
				0.0		0.0			
			4.0	12.0		12.0	4.0		8.0
				8.0		8.0			
									
									
5.0	5.0								
40.0	40.0			17.0		17.0	17.0		
									
									
121.0	121.0								
									
									
0.0	0.0			0.0		0.0	0.0		
21.0	21.0								
									
									
									
				23.0		23.0	23.0		
4.0	4.0			4.0		4.0	4.0		
0.0	0.0								
0.0	0.0								
									
									
0.0	0.0								
									
0.0	0.0								
14.0	14.0			0.0		0.0	0.0		
0.0	0.0			115.0		115.0	115.0		
0.0	0.0								
0.0	0.0								
0.0	0.0			0.0		0.0	0.0		0.0
181.0	181.0			27.0		27.0	27.0	27.0	24.0
13.0	13.0			92.0		92.0	92.0		
									
									
									0.0
									
				4.0		4.0	4.0		
									
				6.0		6.0	6.0		
0.0	0.0								
									
									
									
									
				34.0		32.0	34.0		
				30.0		30.0	30.0		
				0.0		0.0	0.0		
4.0	4.0			11.0		11.0	11.0		
									
5.0	5.0			12.0		12.0	6.0	6.0	6.0
				8.0		8.0			
0.0	0.0			0.0		0.0	0.0	0.0	
									
				0.0					
									
				0.0		0.0			
				47.0		47.0			
46.0	46.0						46.0	46.0	
				0.0		0.0			
9.0							9.0		
				0.0		0.0			0.0
0.0	0.0			0.0		0.0	0.0		0.0
									
				14.0		14.0	14.0		
0.0	0.0		0.0	5.0		5.0	5.0		0.0
0.0	0.0		0.0						
				7.0		7.0	7.0		
				30.0		30.0			
0.0	0.0		0.0						
0.0	0.0		0.0						
				16.0		16.0			
				34.0		34.0	34.0		
43.0	43.0			72.0		72.0			
									
				0.0		0.0			
				8.0		8.0	8.0		
0.0	0.0						0.0		
				46.0		46.0	46.0		
0.0	0.0		0.0	0.0		0.0	0.0		
				0.0		0.0	0.0		
									
									
8.0	8.0						8.0		
0.0	0.0								
									
0.0	0.0						0.0		0.0
							0.0		
0.0	11.0		11.0			0.0	0.0		
				4.0		0.0	0.0		
	72.0			17.0		17.0	72.0		72.0
									
				0.0		0.0			
									
									
									
									
									
									
									
									
				8.0		5.0	5.0		5.0
				5.0		5.0			
0.0	18.0			0.0		0.0	18.0	18.0	
	0.0			18.0		18.0	0.0		
				0.0		0.0			
121.0	121.0		121.0				120.0	121.0	
	15.0			13.0		13.0	15.0		
				23.0		23.0			
									
7.0	6.0							6.0	
9.0	14.0		14.0	0.0		0.0	14.0		0.0
				0.0		0.0			0.0
15.0	15.0			0.0		0.0	0.0	15.0	14.0
				0.0		0.0	0.0		
									
29.0	29.0							14.0	
									
									
									
									
									
				14.0		14.0	15.0		
129.0	130.0					0.0	0.0	130.0	
				0.0		0.0			
									
									
				14.0		14.0		13.0	
15.0	15.0								
6.0	6.0		6.0				6.0		6.0
									
0.0	0.0								
						7.0			
0.0	0.0		0.0						
									
0.0	0.0		0.0	4.0		4.0			0.0
									
0.0	0.0								
25.0	25.0		25.0						
45.0	45.0		45.0				45.0		
				16.0		16.0			
18.0	18.0		18.0	5.0		5.0	5.0		18.0
18.0	18.0		18.0	5.0		5.0	18.0		18.0
									
									
	0.0								
				0.0		0.0	0.0		0.0
				0.0		0.0			
	0.0		0.0	0.0		0.0	6.0		6.0
				5.0		5.0	5.0		
									
	38.0		38.0				38.0		38.0
	0.0		0.0				0.0		0.0
									
	196.0		196.0				196.0		
									
									
				0.0		0.0			
									
14.0	14.0								
									
				0.0		0.0	0.0		
0.0	0.0		0.0	19.0		19.0	19.0	0.0	0.0
				34.0		34.0	34.0		
0.0	0.0							0.0	
				14.0		14.0	38.0		
									
									
				40.0		41.0	40.0		
	0.0								
									
17.0	17.0		17.0					17.0	17.0
				187.0		187.0	187.0		
				187.0		116.0			
									
0.0	0.0		0.0	0.0		0.0	0.0		
									
66.0	66.0		66.0					66.0	66.0
				5.0		0.0			
				144.0		144.0			
	42.0			0.0		0.0	0.0		42.0
				0.0		0.0	0.0		
0.0	0.0								
21.0	11.0			21.0		43.0	11.0	11.0	
21.0	11.0			21.0		21.0	11.0		
									
									
				0.0		0.0		0.0	
				38.0		38.0	38.0		38.0
0.0				0.0		0.0			
54.0	108.0		108.0				108.0		
	26.0								
									
									
				0.0		0.0			
0.0	0.0			66.0		66.0	0.0		66.0
									
									
									
6.0	6.0		6.0	11.0		11.0	6.0	11.0	
									
7.0	7.0								
									
	56.0						57.0	57.0	57.0
									
				168.0		168.0	168.0		168.0
				230.0		228.0			
	0.0						4.0		
0.0	0.0		0.0						
0.0	0.0		0.0						0.0
									
	4.0						4.0		
									
	0.0			55.0		55.0	0.0		51.0
0.0	0.0								
29.0	22.0								
				0.0		0.0	0.0	0.0	
99.0	100.0			0.0		0.0	0.0	0.0	
									
0.0	0.0			0.0		0.0	0.0	0.0	
									
25.0	25.0			0.0		0.0	0.0	0.0	
				4.0		5.0	5.0		
									
	38.0		0.0	4.0		4.0	4.0		
				0.0		0.0		0.0	
	0.0		0.0				0.0		0.0
									
									
				43.0		43.0			
									
	52.0			10.0		10.0	10.0		10.0
	20.0			52.0		52.0	21.0		21.0
	0.0			13.0		13.0			0.0
	6.0		6.0						
									
				0.0		0.0			
	0.0						0.0		0.0
									
									
				4.0		4.0	4.0		
	0.0						0.0		0.0
									
									
									
									
									
									
									
									
									
									
4.0				4.0					
									
									
0.0	0.0		0.0	0.0		0.0	0.0		
0.0									
									
	0.0		0.0				0.0	0.0	
				24.0		24.0			24.0
37.0				90.0		55.0			
									
									
0.0	135.0			0.0		0.0	0.0		
									
									
									
								0.0	
				0.0					
									
				25.0		25.0	25.0		
	0.0		0.0				0.0		
	0.0								0.0
									
									
				0.0		0.0			
				26.0		26.0			26.0
									
0.0	20.0			0.0		0.0	0.0		
				24.0		24.0			
									
									
				12.0					
49.0	48.0								
									
									
	49.0			67.0		67.0	67.0	23.0	
				9.0		9.0	9.0		
0.0	0.0								
									
				0.0		0.0			
				0.0		0.0			
	18.0		18.0				18.0		18.0
	31.0								
									
									
6.0				6.0		6.0			
									
	0.0		0.0	0.0		0.0			0.0
									
									
				12.0		12.0			
	26.0								
	0.0						0.0	0.0	
	38.0		38.0				38.0		38.0
									
				2.0		22.0			
									
									
				0.0		0.0			
									
202.0	202.0			142.0		142.0			
6.0	6.0			6.0		6.0			
	0.0								
									
39.0	38.0								39.0
	100.0								
	100.0		100.0						
0.0	0.0								
									
				8.0		8.0	8.0		
	20.0		20.0					17.0	17.0
						0.0		0.0	
									
4.0	4.0		4.0						4.0
26.0	26.0		25.0						26.0
									
	4.0		4.0	113.0		72.0	72.0	4.0	4.0
	9.0		9.0					10.0	
100.0	99.0		100.0	16.0		16.0		16.0	
				75.0		75.0			
				45.0		45.0			
				0.0		0.0			
	0.0		45.0	0.0		0.0	0.0	45.0	
	0.0		0.0					0.0	
									
				0.0		0.0			
									
				0.0		0.0	0.0		0.0
				0.0		0.0			
42.0	42.0		42.0					42.0	
	94.0		94.0				94.0		
									
	0.0		0.0				0.0	0.0	0.0
									
									
45.0	45.0		45.0	0.0		0.0	45.0		
				40.0		40.0			40.0
				23.0		23.0	0.0		
									
12.0	1.0						12.0		12.0
				7.0		7.0			
				7.0		7.0			
				0.0		0.0			
				6.0		6.0			
0.0	0.0			0.0		0.0	0.0		0.0
0.0	0.0			0.0		0.0	0.0		0.0
0.0	0.0						0.0		0.0
									
									
10.0	10.0						10.0		
10.0	10.0			9.0		9.0	10.0		10.0
									
43.0	43.0		43.0				43.0		43.0
				52.0		52.0			
									
0.0	0.0		0.0				0.0		0.0
									
				38.0		38.0			
				38.0		38.0			
30.0	30.0		30.0				30.0		30.0
									
									
									
				0.0		0.0	0.0		
									
27.0	27.0								
				4.0		4.0	4.0		
									
									
									
0.0	0.0								
0.0	0.0								
									
									
8.0	8.0			93.0		93.0	93.0		
4.0	4.0								
20.0	20.0								
									
									
									
									
20.0	20.0			82.0		83.0	83.0		20.0
									
				46.0		46.0	46.0		
20.0	20.0								
									
									
									
									
									
				10.0					
0.0	0.0								
				33.0		33.0	33.0		
43.0	42.0			39.0		39.0	39.0		
									
8.0	8.0								
12.0	14.0			0.0		0.0	0.0		
34.0	34.0			0.0		0.0	0.0		
0.0	0.0			64.0		64.0	64.0		
43.0	43.0								
				110.0		107.0			
									
0.0	0.0								
									
4.0	4.0						4.0	4.0	
	4.0							4.0	
				0.0		0.0			
0.0	0.0						0.0	0.0	
									
14.0	14.0					0.0	14.0	14.0	
									
0.0	0.0			0.0		0.0	0.0	0.0	
									
101.0	101.0			0.0		0.0	101.0		0.0
	72.0								36.0
72.0	72.0						72.0		
				0.0		0.0	0.0		
									
									
0.0	0.0		0.0						7.0
				0.0		0.0	0.0		
									
									
56.0	57.0		57.0						
				14.0		14.0			
11.0	11.0			20.0		20.0	11.0		11.0
									
				8.0		8.0			
									
40.0	40.0								
									
									
0.0	0.0			27.0		27.0			0.0
									
									
				0.0		0.0	0.0		
						8.0			
4.0	4.0		4.0						4.0
4.0	4.0		4.0	156.0		156.0		4.0	4.0
									
									
				0.0		0.0			
									
									
	15.0						15.0		
									
									
	0.0						0.0		0.0
6.0	6.0		6.0				6.0	6.0	
				0.0		0.0			
				44.0		43.0			
									
	0.0						4.0		
									
	0.0			137.0		137.0	0.0		
				10.0		10.0			
	4.0								
				4.0		4.0			
						9.0	4.0		4.0
	0.0					0.0	0.0		
									
									
17.0	18.0		17.0	25.0		33.0	18.0		15.0
34.0	34.0		34.0	17.0		18.0		34.0	
				11.0		11.0			11.0
				0.0		0.0	0.0	11.0	
				0.0		0.0	0.0		
									
									
				0.0		0.0	0.0		
0.0	0.0								
0.0	0.0							0.0	
0.0	0.0			0.0		0.0	0.0	0.0	
52.0	52.0							52.0	52.0
									
	0.0							0.0	
	0.0		0.0						
0.0	0.0		0.0				0.0		0.0
									
									
									
0.0	0.0		0.0						0.0
				5.0		5.0	5.0		5.0
90.0	90.0								
									
				15.0		15.0		15.0	
				15.0		15.0			
									
									
0.0	0.0								
				0.0		0.0			
0.0	0.0		0.0						
				139.0		138.0			
	8.0		8.0				8.0		
									
						0.0			
	25.0		24.0	0.0		0.0			
									
				68.0		68.0			
				79.0		79.0			
	35.0		35.0	8.0		8.0	35.0		
0.0	0.0								0.0
									
									
									
									
				4.0		4.0			
									
				0.0		0.0	0.0		
	0.0		0.0				0.0		
									
60.0	61.0		61.0	0.0		0.0	0.0	61.0	
0.0	0.0		0.0					0.0	
									
									
									
	34.0								16.0
37.0	37.0		37.0					37.0	
									
14.0	14.0			0.0		0.0		14.0	
									
				111.0		111.0	110.0		
4.0	4.0							5.0	5.0
				33.0		32.0	112.0		
0.0	0.0		0.0	12.0		12.0	12.0	0.0	0.0
0.0	0.0		0.0	4.0		4.0	4.0	0.0	0.0
									
0.0									
0.0				0.0		0.0	0.0		
									
									
				4.0		4.0	0.0		0.0
	23.0						23.0		47.0
									
120.0				120.0		120.0			
			0.0						
				20.0		20.0	20.0		20.0
49.0	49.0						48.0		
49.0	49.0						49.0		
									
0.0	0.0			7.0			0.0		
98.0				98.0		1.0			
									
0.0	0.0		0.0						
				0.0		0.0	0.0		0.0
									
				0.0		0.0	0.0	0.0	
0.0									
									
									
									
19.0	0.0								
									
									
									
									
37.0	37.0			0.0		0.0	0.0	0.0	
				62.0		63.0			
	77.0		77.0	25.0		25.0	25.0		
	0.0						0.0		0.0
								0.0	
0.0	0.0		0.0					0.0	0.0
									
									
	0.0								
118.0	118.0		58.0					58.0	58.0
				4.0		4.0			
147.0	147.0		147.0			10.0		147.0	147.0
									
	0.0		0.0				0.0		0.0
									
									
	0.0		0.0						
	0.0		0.0	5.0					0.0
									
									
									
				12.0		12.0	12.0		
									
				0.0		0.0			
				18.0		18.0			
									
	19.0						19.0		
	19.0			0.0			19.0		
						0.0			
				0.0		0.0			
									
									
									
									
4.0				4.0		4.0			
65.0	65.0		65.0			0.0	65.0		0.0
	76.0		37.0	105.0		105.0	37.0	37.0	
29.0				29.0		29.0			
				11.0		11.0			11.0
	20.0		21.0				21.0		
36.0	7.0		7.0	18.0		18.0	13.0		13.0
									
									
	4.0		4.0				4.0		
5.0	5.0		5.0	0.0		0.0	0.0		
0.0	0.0		0.0						
				86.0		86.0	86.0	86.0	0.0
				36.0		36.0			
				78.0		77.0	77.0		
				4.0		4.0			4.0
									
									
	0.0								
0.0	0.0		0.0						0.0
									
									
									
0.0	0.0		0.0						
0.0	0.0			0.0		4.0		4.0	
									
									
									
	172.0							172.0	
	46.0			0.0		0.0	0.0	46.0	
0.0	0.0		0.0						
	28.0						28.0		
				0.0		0.0			
	15.0		15.0						15.0
37.0	38.0						38.0		
									
	0.0						0.0	0.0	0.0
									10.0
				0.0		0.0			
				0.0					
	104.0		104.0	84.0		83.0	104.0		66.0
									
									
0.0	0.0			0.0			0.0		
									
									
4.0	18.0			4.0		4.0	18.0	18.0	18.0
				90.0		90.0			
									
				10.0		10.0			
				74.0		76.0	76.0		76.0
									
				50.0		50.0			
0.0	0.0								
									
	34.0								
0.0				0.0		0.0			0.0
	10.0						10.0		
									
	99.0		99.0					99.0	99.0
14.0	14.0		14.0	11.0		11.0		11.0	28.0
0.0	0.0			0.0		0.0			0.0
	34.0			17.0		17.0		65.0	
									
									
									
				6.0		6.0	6.0		6.0
				50.0		50.0		50.0	
								0.0	
				18.0		18.0	18.0	18.0	18.0
49.0	49.0		49.0						0.0
				0.0		0.0			
	0.0						0.0		
0.0				0.0		0.0			
									
									
									
	0.0		0.0	18.0		18.0	0.0	18.0	
	0.0		0.0				0.0		
14.0	14.0		14.0	10.0		10.0	51.0		
									
									
	35.0		35.0				35.0	35.0	
				20.0		20.0			
									
				0.0		0.0	0.0		0.0
11.0	11.0		11.0				11.0		
									
									
0.0	0.0						0.0		0.0
									
									
34.0	34.0						34.0		34.0
0.0	0.0			0.0		0.0	0.0		0.0
22.0	22.0			48.0		48.0	33.0		
									
									
0.0	0.0						0.0		0.0
				60.0		60.0			
									
				0.0					
									
13.0	13.0						13.0		13.0
									
									
				0.0		0.0			
9.0	9.0			96.0		96.0	11.0		
									
49.0	50.0		50.0				50.0		50.0
				64.0		64.0			
23.0	23.0		23.0				23.0		23.0
				0.0		0.0			
									
									
7.0	7.0			34.0		34.0	34.0		14.0
119.0	118.0								
0.0	0.0								
									
4.0	4.0								
									
				5.0		5.0	5.0		
91.0	91.0			22.0		23.0	23.0		
				15.0		15.0	15.0		
83.0	83.0						0.0		
									
									
									
									
6.0	6.0								
54.0	54.0								
25.0	25.0								
25.0	25.0								
									
0.0	0.0			18.0		18.0	18.0		0.0
23.0	23.0								
30.0	30.0								29.0
									
									
				0.0		0.0		0.0	
									
									
									
9.0	9.0						9.0	9.0	
0.0	0.0						0.0		
				9.0		9.0			
				23.0		23.0			
23.0	23.0		23.0						23.0
									
0.0	0.0						0.0		
	0.0			0.0		0.0	0.0		0.0
0.0	0.0			22.0		18.0	0.0		18.0
									
				0.0		0.0	0.0		
									
									
				0.0		0.0	0.0		
0.0	0.0		0.0						
				4.0		4.0	4.0		
20.0	20.0		20.0						
0.0	0.0		0.0						
0.0	0.0						0.0		
									
42.0	42.0						41.0		
									
									
19.0	19.0						19.0		
4.0	4.0		4.0	0.0		0.0	0.0		
									
									
									
				0.0		0.0	0.0		
10.0	10.0		10.0						
41.0	41.0								
									
	48.0						48.0		
	49.0		48.0				48.0		
	4.0						4.0		
				0.0		0.0			
									
									
									
									
									
									
	4.0						4.0		4.0
0.0	0.0		0.0				0.0	0.0	
				10.0		10.0			
				7.0		7.0			
				109.0		110.0			
0.0	0.0		0.0						0.0
				0.0		0.0			
				0.0		0.0			
									
	0.0						0.0		0.0
									
									
0.0	0.0		0.0	0.0		0.0	0.0	0.0	
									
				8.0		8.0			
32.0	32.0		32.0				32.0	32.0	
									
									
4.0	4.0		4.0					4.0	
4.0	4.0							4.0	4.0
0.0	0.0			0.0		0.0	0.0	0.0	0.0
									
									
							0.0		
4.0	4.0		4.0	0.0		0.0	4.0		0.0
									
									
60.0	60.0							60.0	61.0
									
9.0	9.0							9.0	9.0
				0.0		0.0	0.0		
									
				15.0		15.0			15.0
									
	0.0		0.0						
									
				59.0		59.0			60.0
				20.0		20.0			
20.0	20.0							20.0	20.0
	14.0		14.0					9.0	
4.0	4.0		4.0				4.0		4.0
				0.0		0.0			
16.0	16.0		16.0						
				134.0		134.0			
21.0	21.0		21.0				21.0		21.0
0.0	0.0		0.0	0.0		0.0	0.0		
0.0	0.0			0.0		0.0	0.0	0.0	
0.0	0.0			6.0		6.0	6.0		6.0
0.0	0.0		0.0	0.0		0.0	0.0		0.0
			22.0	0.0		0.0			
									
				0.0		0.0			
									
81.0	81.0								
0.0	0.0								
									
									
									
4.0	4.0		4.0						4.0
20.0	20.0		20.0				20.0		
									
									
									
	0.0		0.0	7.0		7.0	0.0		
19.0	1.0								
									
									
0.0				0.0		0.0			5.0
				0.0		0.0	0.0		
17.0	17.0			8.0		8.0	8.0		
									
57.0	57.0		57.0					55.0	57.0
									
									
4.0	4.0		4.0	0.0		0.0	0.0	4.0	4.0
									
									
									
	21.0								
									
				0.0		0.0	0.0		
4.0	4.0		4.0					4.0	4.0
				0.0		0.0	0.0		
				96.0		96.0			
				9.0		9.0	9.0		
				0.0		0.0	0.0		0.0
				5.0		5.0		5.0	
9.0	9.0		9.0						
0.0	0.0		0.0						
				18.0		18.0	18.0		18.0
40.0	0.0			40.0		40.0	0.0		0.0
16.0				16.0		16.0			
									
				44.0		45.0		45.0	
0.0	0.0						0.0		
				0.0		0.0	0.0		0.0
0.0	0.0		0.0	34.0		34.0	0.0	34.0	
				0.0		0.0	0.0		0.0
									
16.0	26.0			16.0		16.0	27.0		27.0
20.0	20.0								
									
									
									
									
				27.0		27.0	27.0		27.0
				4.0		4.0		4.0	
42.0	42.0		42.0						
				0.0		0.0			0.0
	0.0			26.0		25.0	0.0	0.0	0.0
56.0	56.0						56.0		
13.0	13.0						26.0		
									
				10.0		10.0	10.0	10.0	
				19.0		19.0	0.0		
									
									
0.0	0.0		0.0	0.0		0.0	0.0		0.0
0.0	0.0								
4.0	4.0		4.0	16.0		16.0	16.0		6.0
16.0	16.0		16.0						
				82.0		82.0			
56.0	56.0								
									
									
									
	4.0		4.0	0.0		0.0	0.0		4.0
				30.0		30.0			
0.0	0.0		0.0	41.0		41.0		0.0	
	27.0		27.0	0.0		0.0	0.0		27.0
	7.0						7.0		7.0
30.0	30.0		30.0					30.0	30.0
0.0	0.0		0.0					0.0	0.0
0.0	0.0		0.0	9.0		9.0		0.0	
									
									
				0.0		0.0			
0.0	0.0		0.0					0.0	0.0
									
									
				109.0		109.0			
									
									
	14.0						14.0		
	67.0								
	0.0			7.0		7.0	0.0		
0.0	0.0						0.0		
16.0	16.0		16.0	4.0		4.0			4.0
									
				8.0		8.0			
									
									
									
									
									
8.0	8.0		8.0	0.0		0.0			0.0
	0.0		0.0	6.0		6.0	0.0		6.0
17.0	17.0		17.0						16.0
0.0	0.0		0.0						0.0
									
				16.0		16.0			16.0
									
									
				18.0		18.0	18.0	18.0	
	38.0							38.0	
									
7.0				6.0		7.0	7.0		
				21.0		21.0	21.0	21.0	
									
	13.0								
	13.0							13.0	
13.0	13.0								13.0
	0.0		0.0	0.0		0.0	0.0		0.0
	0.0			0.0		0.0	0.0		
									
	0.0					0.0	0.0		
									
				18.0		30.0	31.0		
									
15.0	15.0			8.0		8.0		8.0	
									
			0.0	0.0		0.0	0.0		
	0.0		0.0						
									
				33.0		33.0			
0.0	5.0			0.0		0.0	5.0	5.0	
	31.0		31.0						
									
									
									
									
	0.0		0.0				0.0		0.0
				30.0		30.0			
				4.0		4.0			
	20.0			33.0		31.0	20.0	20.0	32.0
44.0	44.0			199.0		199.0			44.0
									
36.0	36.0								36.0
									
0.0	0.0			60.0		60.0			4.0
0.0				0.0		0.0			
				34.0		34.0		34.0	
									
				0.0		0.0		0.0	
	28.0								
									
28.0				28.0		28.0			
	23.0		23.0	0.0		0.0	0.0	25.0	
									
				0.0		0.0		0.0	
				6.0		6.0	6.0		6.0
									
									
									
				10.0		10.0	10.0		
8.0				8.0		8.0	8.0		0.0
0.0				0.0		0.0			
									
				0.0		0.0			
0.0				0.0		0.0			
0.0	0.0		0.0					0.0	
	54.0		54.0	0.0		0.0	54.0	0.0	
									
									
				0.0		0.0			
									
6.0	0.0			0.0		0.0	6.0		6.0
0.0	0.0			8.0		8.0	0.0		
				5.0		9.0			
							0.0		
									
				23.0		22.0			
				65.0		65.0			
				48.0		48.0			
				0.0		0.0			
0.0	0.0			72.0		72.0	0.0		
23.0	24.0						19.0		19.0
									
12.0	12.0		12.0				12.0		
26.0	26.0		26.0				26.0		
78.0	78.0		78.0				78.0		
25.0	25.0		25.0	7.0		7.0	25.0		25.0
									
				0.0		0.0			
4.0	4.0		0.0	0.0		12.0	4.0		
			7.0				7.0		
				75.0		75.0	75.0		
									
46.0	46.0			30.0		30.0	30.0		
0.0	0.0					0.0	0.0		0.0
									
									
									
				60.0		60.0	60.0		
				60.0		60.0	60.0		
									
4.0	4.0								
0.0	0.0								
0.0	0.0								
	6.0								
12.0	12.0								12.0
									
12.0	12.0								
									
75.0	75.0			5.0		5.0	5.0		
				0.0		0.0	0.0		
									
				22.0		22.0	22.0		
									
									
									
									
									
							0.0	0.0	
									
26.0	26.0						26.0	26.0	
12.0	12.0						12.0		
9.0	9.0			16.0		15.0	9.0		16.0
9.0	9.0			8.0		9.0	9.0		
									
									
33.0	33.0		32.0	35.0		35.0	33.0		33.0
0.0	0.0		0.0	0.0					0.0
									
									
									
0.0	0.0		0.0	0.0		0.0	0.0		
24.0	24.0						24.0		
									
5.0	5.0		5.0						
				8.0		8.0			
0.0	0.0			0.0		0.0			
									
16.0	16.0		16.0						8.0
27.0	27.0						27.0		27.0
0.0	0.0		0.0						
									
0.0	0.0		0.0	0.0		0.0			
									
									
54.0	54.0			0.0		0.0	54.0		
				4.0		4.0			
									
				0.0		0.0	0.0		
									
									
19.0	18.0			0.0		0.0	4.0		
									
				0.0		0.0			
				65.0		65.0	65.0		
									
0.0	0.0		0.0	4.0		4.0	0.0	0.0	
42.0	42.0		0.0	41.0		41.0	42.0	42.0	
	24.0						24.0		
				15.0		15.0			
	8.0						8.0		
0.0	0.0		0.0				0.0	0.0	0.0
									
6.0	6.0		6.0				6.0	6.0	
				66.0		65.0			
									
				0.0		0.0			
				16.0		16.0			
				0.0					
4.0	4.0		4.0				4.0	4.0	
									
	0.0						0.0		0.0
									
2.0	4.0		4.0	4.0		4.0	4.0		4.0
									
0.0	0.0		0.0				10.0		
0.0	0.0		0.0				0.0		
18.0	18.0		18.0				18.0		
17.0	17.0							17.0	
				0.0		0.0			0.0
									
0.0	0.0			0.0		0.0	0.0		
									
									
36.0	36.0		16.0	0.0		0.0	16.0		0.0
0.0	0.0								
									
				12.0		12.0	12.0		
									
0.0	0.0		0.0	18.0		18.0	0.0		
26.0	26.0		13.0						
									
						25.0			
									
8.0	8.0		8.0				8.0		
7.0	7.0						7.0		
11.0	11.0		11.0						
									
				8.0		8.0			
				104.0		104.0			
				0.0		0.0			
				0.0		0.0	0.0		0.0
									
									
									
	0.0		0.0	0.0		0.0			
				50.0		50.0			
				0.0		0.0			
				28.0		28.0	28.0		
8.0									
				122.0		122.0	121.0		
13.0	13.0								13.0
	17.0		17.0				17.0		
				28.0		28.0	28.0		
	28.0								
	153.0		153.0				153.0		75.0
0.0	0.0								
				0.0		0.0	0.0		
				166.0		167.0	167.0		
				41.0		41.0			
				44.0		43.0	44.0		
0.0	0.0		0.0	23.0		23.0	23.0	0.0	0.0
				0.0		0.0	0.0		
4.0	4.0		4.0					4.0	4.0
				20.0		20.0	20.0		
									
									
				9.0		9.0	9.0		
				9.0		9.0	9.0	9.0	
	22.0								
	17.0								
5.0	5.0		5.0					5.0	5.0
									
									
									
				0.0		0.0	0.0		
				19.0		19.0	19.0		
									
				44.0		44.0	44.0		
				12.0		12.0	12.0		
				39.0		40.0	40.0		
									
113.0	113.0						112.0		
									
									
0.0	0.0		0.0						
	69.0						69.0		69.0
0.0	0.0		0.0						
									
									
							0.0		0.0
									
									
				0.0		0.0			
									
0.0	0.0								
19.0	19.0		19.0				19.0		
									
4.0	4.0						7.0		
7.0	7.0						7.0		
	34.0						34.0	34.0	
									
	0.0						0.0	0.0	
									
									
									
				16.0		16.0			16.0
				8.0		8.0			8.0
	22.0			8.0		8.0	22.0		8.0
37.0	37.0		37.0						55.0
									
25.0	25.0								
									
									
				0.0		0.0			0.0
				61.0		59.0	61.0		
41.0	41.0			45.0		45.0	45.0	45.0	41.0
2.0	57.0		57.0	0.0		0.0		0.0	
112.0	112.0								
									
				0.0		0.0			0.0
10.0	10.0								
0.0	0.0								
									
2.0	2.0			0.0		0.0			
				13.0		13.0	13.0	13.0	
	13.0						13.0		
				0.0		0.0	0.0	0.0	
									
									
				84.0		84.0			
									
									
	0.0			15.0		15.0			0.0
				99.0		99.0			
				0.0		0.0			
	14.0			15.0		15.0	14.0		14.0
									
									
									
									
									
	38.0								
									
	0.0					0.0	0.0		
				5.0		5.0		5.0	5.0
5.0	5.0		5.0						5.0
									
0.0	0.0		0.0	29.0		29.0	0.0		29.0
							0.0		
				5.0		5.0			
	0.0		0.0				0.0		0.0
	0.0		0.0	0.0		0.0	0.0		
									
									
0.0	0.0		0.0				0.0		
									
9.0	28.0		29.0	9.0		9.0	16.0		
	4.0		4.0				4.0		
									0.0
									
10.0	12.0		12.0						12.0
									
									
									
	9.0							9.0	
									
	60.0								60.0
				0.0		0.0	0.0		0.0
				0.0		0.0	0.0		
				8.0		8.0	8.0	8.0	
				66.0		66.0		66.0	
0.0	0.0		0.0						
								0.0	0.0
									
	0.0								
36.0	36.0								36.0
									
	0.0		0.0				0.0		
0.0	0.0							0.0	
0.0				0.0		0.0			
				0.0		0.0	0.0		0.0
107.0				107.0		107.0			
									
									
				5.0		5.0			
				174.0		174.0			
11.0				11.0		11.0			
	20.0						20.0	20.0	20.0
									
11.0	11.0		11.0					11.0	
									
	0.0		0.0						
									
	14.0						14.0		
									
				8.0					
	89.0						90.0		
28.0				28.0		28.0			0.0
	0.0			0.0		0.0	0.0		0.0
0.0	11.0						11.0		
									
				7.0		7.0		7.0	7.0
				14.0		14.0		13.0	
0.0	0.0		0.0	21.0		21.0		21.0	
									
14.0	15.0								
									
									
									
									
				0.0		0.0	0.0		
	24.0			78.0		78.0		24.0	
									
									
	123.0								125.0
				0.0		0.0	0.0		
									
19.0	76.0			17.0		17.0			
	44.0		44.0				43.0		0.0
	87.0								87.0
	42.0			17.0		17.0		42.0	
				56.0		56.0			55.0
	5.0			32.0		32.0			32.0
				0.0		0.0			
									
									
				0.0		0.0			
0.0	0.0		0.0	8.0		8.0	0.0		
	0.0		0.0				0.0	0.0	0.0
0.0	106.0		105.0	0.0		0.0	106.0	106.0	106.0
	9.0						9.0		
0.0	0.0			0.0		0.0	0.0		
									
				16.0		16.0			
11.0	11.0			0.0		0.0	11.0		11.0
									
									
									
				13.0		13.0			
				17.0		17.0			
									
28.0	29.0		29.0	106.0		80.0	29.0		29.0
									
									
									
									
				9.0		9.0			
									
									
7.0	7.0		7.0				7.0		
13.0	13.0		13.0				13.0		
11.0	9.0		9.0				9.0		
				16.0		16.0			
0.0	0.0		0.0	11.0		11.0	0.0		
									
0.0	0.0								
									
									
									
				35.0		35.0	35.0		
									
									
						0.0	0.0		
10.0	10.0			24.0		24.0	24.0		
				40.0		40.0	40.0		
				7.0		7.0	7.0		
									
				58.0		58.0			
									
									
				40.0		40.0			6.0
72.0	72.0						72.0		
17.0	17.0								
0.0	0.0								
									
									
									
									
									
0.0	0.0		0.0						
				0.0		0.0			
									
0.0	0.0			87.0		72.0			
8.0	8.0			0.0		0.0	16.0		
				33.0		33.0	33.0		
				51.0		51.0	51.0		
									
				0.0		0.0	0.0		
									
									
									
63.0	63.0		63.0						
0.0	0.0								0.0
0.0	0.0		0.0				0.0	0.0	0.0
									0.0
	4.0						4.0		4.0
0.0	0.0		0.0	0.0		0.0	0.0	0.0	
0.0	0.0		0.0	0.0		0.0	0.0	0.0	0.0
									
				13.0		13.0			
	8.0			14.0		14.0	8.0		8.0
	0.0						0.0		0.0
4.0	4.0		4.0	22.0		21.0	4.0	4.0	
									
									
									
				0.0		0.0			
	12.0			102.0		102.0	12.0		12.0
0.0	0.0							0.0	
				0.0					
0.0	0.0			19.0		19.0	19.0	0.0	0.0
				0.0		0.0	0.0		
									
				63.0		63.0	63.0		
0.0	0.0							0.0	0.0
									
									
									
									
				0.0		0.0	0.0		
49.0	49.0		49.0	2.0		5.0			49.0
									
0.0	0.0		0.0	0.0		0.0			
				9.0		9.0	0.0		0.0
	0.0			9.0		9.0	0.0		0.0
58.0	58.0		58.0						
				0.0		0.0			
				9.0		9.0			
									
				25.0		26.0	26.0		26.0
0.0	0.0			32.0		32.0	0.0	32.0	0.0
5.0	5.0		5.0				5.0		
									
				9.0		9.0	9.0		9.0
4.0	4.0		4.0	0.0		0.0			4.0
									
	0.0		0.0	7.0		7.0	0.0		0.0
									
									
				0.0		0.0			
18.0	18.0			5.0		5.0	0.0		
12.0	12.0								
				0.0		0.0			
				4.0		4.0			
									
				15.0		15.0	15.0		
									
0.0	0.0		0.0					0.0	
									
				0.0		0.0			
0.0	0.0		0.0	4.0		4.0	4.0	0.0	
				8.0		8.0	8.0		
				70.0		70.0	68.0		
				0.0		0.0	0.0		
									
									
	12.0			0.0		0.0	0.0		
39.0	39.0		39.0					39.0	
4.0	4.0							4.0	4.0
				0.0		0.0	0.0		
39.0	39.0		39.0					23.0	
	9.0								
				4.0		4.0	4.0		
									
	12.0						12.0		12.0
0.0	0.0								
				20.0		20.0	20.0		20.0
0.0	0.0		0.0				0.0		
0.0				0.0		0.0			
									
									
42.0	42.0		42.0				42.0		
	22.0						22.0	22.0	
									
0.0				0.0		0.0			
									
36.0	36.0						36.0		
									
									
									
0.0	0.0						0.0		
	0.0			0.0		0.0	0.0	0.0	0.0
									
	78.0						78.0		78.0
	48.0						48.0		
	0.0						0.0		0.0
				8.0		8.0			7.0
8.0				8.0		7.0			
									
									
									
									
0.0	0.0								
				9.0		9.0	9.0	9.0	
									
									
									
									
0.0	0.0								0.0
24.0	24.0								
				65.0		65.0	65.0	65.0	
									
	118.0			7.0		7.0	118.0		7.0
									
	6.0		6.0						6.0
									
									
				0.0		0.0	0.0		0.0
									
				0.0		0.0			
	0.0								
	104.0						104.0		
				0.0		0.0			
	63.0		63.0						63.0
						0.0			
	0.0		0.0						0.0
	0.0						0.0		
				14.0		14.0			
							0.0		
13.0	12.0		12.0	0.0		0.0	1.0		
									
				4.0		4.0			
33.0	59.0		59.0	33.0		33.0	31.0		
				53.0		53.0			68.0
	0.0		0.0				0.0	0.0	0.0
									
									
0.0	0.0								
	0.0			0.0		0.0	0.0	0.0	0.0
									
8.0	0.0			8.0		8.0	8.0		
37.0	56.0			37.0		37.0	37.0		57.0
77.0	77.0		77.0	32.0		32.0	32.0	27.0	
	0.0			14.0		14.0	14.0	0.0	
0.0	0.0		0.0	6.0		6.0	6.0	6.0	
				198.0		198.0	197.0		
35.0	35.0		35.0	28.0		28.0			
	46.0		46.0				46.0		
	0.0		0.0				0.0		
									
									
				74.0		74.0	74.0	74.0	
0.0	0.0								0.0
									
51.0	51.0			20.0		41.0	51.0		
									
	123.0		123.0						
27.0	28.0		28.0	10.0		10.0	7.0	28.0	7.0
									
				4.0		4.0			
	26.0			72.0		72.0	25.0	72.0	
									
	12.0						11.0		
	0.0								
	7.0		7.0				7.0		7.0
				0.0		0.0			
									
				5.0		5.0		5.0	5.0
									
				63.0		63.0			
			37.0						
	76.0		76.0					76.0	
									
	0.0		0.0	14.0		14.0	13.0	0.0	
0.0	0.0		0.0	31.0		31.0		31.0	
				0.0		0.0	0.0		
									
									
	17.0		17.0						
25.0				25.0		25.0			
0.0	0.0		0.0						
									
									
									
									
				27.0		27.0			
	18.0						18.0		18.0
									
									
									
									
									
									
									
	4.0						4.0		
									
0.0	0.0		0.0	0.0		0.0	0.0	0.0	
									
0.0	0.0						0.0		0.0
				0.0		0.0			
									
									
37.0	37.0			5.0		5.0	0.0		37.0
2.0	2.0						9.0		
				0.0		0.0			
0.0	0.0						0.0		
									
									
0.0				0.0		0.0			
									
									
100.0	100.0		132.0					132.0	
66.0	33.0		66.0				83.0		
				4.0		4.0			
									
									
				0.0		0.0		0.0	
									
				0.0		0.0			
0.0	0.0								
6.0	6.0								
28.0	28.0			0.0		0.0	0.0		28.0
									
									
									
									
									
0.0	0.0			0.0		0.0	0.0		
				79.0		79.0	79.0		
0.0	0.0								
0.0	0.0								
				14.0		14.0	14.0		
				0.0		0.0	0.0		
0.0	0.0								
11.0	11.0			0.0		0.0	0.0		
									
									
									
									
									
21.0	21.0			29.0		16.0	16.0		
									
									
									
				0.0		0.0	0.0		
24.0	24.0								
27.0	27.0								
									
									
									
				70.0		70.0			
0.0	0.0						0.0	0.0	0.0
									
15.0	15.0						14.0		
13.0	13.0			68.0		68.0	13.0		67.0
0.0	0.0						0.0		
									
									
									
				0.0		0.0	0.0		
									
				10.0		10.0	10.0		
				0.0		0.0			
				0.0					
									
									
0.0	0.0								
17.0	17.0		17.0	0.0		0.0	0.0		
10.0	10.0			8.0		8.0			
				10.0		10.0			
				13.0		13.0			
26.0	26.0								
18.0	18.0			8.0		8.0	18.0		
									
				0.0		0.0	0.0		
24.0	24.0		24.0	0.0		0.0	0.0		
				0.0		0.0			
									
									
10.0	10.0		10.0	52.0		52.0	52.0		10.0
				0.0		0.0			
									
49.0	0.0		49.0	16.0		15.0	49.0	49.0	
	36.0						36.0		36.0
0.0	0.0		0.0						
				0.0		0.0			
	17.0		2.0				17.0		17.0
				0.0		0.0			
	7.0			30.0		30.0	7.0		
				11.0		11.0			
									
				38.0		38.0			
									
									
									
0.0	0.0							0.0	0.0
									
									
									
				68.0		68.0	68.0		
								0.0	0.0
				0.0		0.0	0.0		
4.0	4.0			0.0		0.0	0.0	4.0	
10.0	10.0							10.0	
	21.0			9.0		9.0	9.0		21.0
18.0	18.0		18.0	22.0		22.0	18.0		22.0
				0.0		0.0	0.0		
0.0	0.0							0.0	
									
				0.0		0.0			
				26.0		27.0			
7.0	7.0		7.0				7.0		7.0
6.0	6.0		6.0	0.0		0.0	6.0		
									
				51.0		51.0			
0.0	0.0								
0.0	0.0			62.0		63.0	63.0		45.0
7.0	7.0		7.0	44.0		44.0			
				11.0		11.0			
				0.0		0.0			
									
5.0	5.0		5.0				5.0		
15.0	15.0		15.0	9.0		9.0	15.0		70.0
									
0.0	0.0		0.0				0.0		
				28.0		28.0		28.0	28.0
									
									
				5.0		5.0			
	0.0								
				8.0		8.0	8.0		
									
6.0	6.0		6.0					0.0	0.0
									
42.0	42.0		42.0	0.0		0.0	0.0	42.0	
				8.0		8.0	8.0		
				0.0		0.0	0.0		
12.0	12.0		12.0	61.0		61.0	60.0	12.0	
							0.0		
									
									
	10.0								9.0
									
									
									
	86.0								
									
	0.0								0.0
									
22.0	22.0		22.0	111.0		111.0	111.0	22.0	
				8.0		8.0	8.0		
				36.0		36.0			
15.0				15.0		15.0			
				15.0		15.0	15.0		
				32.0		32.0	32.0		
									
									
									
14.0				17.0		17.0			
				5.0		5.0	5.0		5.0
0.0	0.0		0.0						
									
0.0	0.0		0.0				0.0		0.0
				72.0		72.0		71.0	
0.0				0.0		0.0			
5.0	5.0						5.0		
5.0	5.0		5.0				5.0		5.0
									
									
0.0				0.0					
14.0	14.0		14.0						
42.0	0.0			42.0		42.0	5.0		5.0
									
0.0	0.0		0.0				0.0		0.0
				86.0		86.0		86.0	15.0
									
	11.0			0.0		0.0	11.0	11.0	11.0
									
									
7.0	192.0			7.0		7.0	192.0		191.0
84.0	84.0								
				230.0		229.0			
									
									
				18.0		18.0	18.0		
									
									
4.0	4.0			26.0		26.0	26.0		
20.0	20.0		20.0	26.0		26.0	26.0		20.0
									
				63.0		63.0			63.0
									
	4.0								
				8.0		8.0			
	0.0			0.0		0.0	0.0		0.0
	25.0		25.0	0.0		0.0	0.0		
				0.0		0.0			
				0.0		0.0			
				0.0		0.0			
									
	4.0		4.0						
									
0.0	0.0								0.0
				0.0		0.0			
									
10.0	10.0		10.0	102.0		103.0		10.0	10.0
									
	0.0		0.0						
									
	86.0		86.0	5.0		5.0	5.0		
	39.0		39.0	0.0		0.0	0.0		39.0
	0.0						0.0		
	52.0			77.0		77.0			52.0
						72.0			
									
	0.0		0.0				0.0		
				112.0		112.0			112.0
	71.0		71.0				71.0		71.0
5.0				5.0		5.0			
				8.0		8.0	0.0		8.0
				26.0		26.0			26.0
									
0.0	0.0		0.0	0.0		0.0	0.0		0.0
				0.0		0.0			0.0
									
									
117.0				117.0		115.0			
									
0.0	0.0		0.0				0.0		
									
	115.0		117.0				117.0		117.0
	8.0		8.0	61.0		61.0	8.0		61.0
				5.0		5.0	5.0	5.0	
									
162.0				162.0		162.0	162.0		
									9.0
									
12.0	12.0		12.0	16.0		16.0	16.0	16.0	
	27.0		27.0				27.0		
				4.0		4.0		4.0	
									
	0.0							0.0	
				0.0		0.0		0.0	
									
									
				14.0		14.0	14.0	14.0	
									
				12.0		12.0	11.0		
88.0	88.0		88.0	113.0		113.0	113.0	113.0	
86.0	86.0		86.0						
									
									
0.0				0.0		0.0	0.0		
	0.0								0.0
0.0	0.0		0.0						0.0
									
0.0	0.0			0.0		0.0	0.0		10.0
43.0	43.0		43.0						43.0
									
									
	39.0							20.0	20.0
	93.0								
				0.0		0.0			66.0
				26.0		26.0			
									
				74.0		74.0			
				18.0		18.0			
	18.0			0.0		0.0			0.0
32.0				32.0		32.0			
31.0				32.0		31.0			
	17.0		17.0				34.0		
				11.0		12.0			
									
									
	0.0		0.0						
									
111.0	111.0			0.0		0.0			111.0
				9.0		9.0			
				0.0		0.0	0.0		
19.0	19.0		19.0	0.0		0.0		0.0	9.0
	30.0								
						0.0		0.0	
10.0	10.0								
	0.0		0.0					66.0	
0.0	0.0								
									
0.0	0.0		0.0	12.0		12.0		12.0	0.0
	5.0						5.0		5.0
	5.0						5.0		5.0
	18.0			65.0		65.0		18.0	18.0
									
				0.0		0.0		0.0	
									
	0.0		0.0				0.0	0.0	
				0.0		0.0			
19.0	19.0						19.0		
				77.0		77.0			
									
									
0.0	0.0			0.0		0.0	0.0		0.0
0.0	0.0			0.0		0.0	0.0		0.0
0.0	0.0			0.0		0.0	0.0	0.0	0.0
0.0	0.0			0.0		0.0	0.0		
									
									
									
									
									
0.0	0.0						0.0		0.0
									
									
									
				4.0		4.0			
									
4.0	4.0		4.0	32.0		31.0	4.0		
				9.0		9.0			
									
	0.0		0.0	0.0		0.0	0.0		0.0
0.0	0.0		0.0	0.0		0.0	0.0		0.0
0.0	0.0		0.0	0.0		0.0	0.0		0.0
0.0	0.0			11.0		11.0	11.0		
0.0	0.0								
									
									
0.0	0.0								
									
									
									
									
5.0	10.0			54.0		54.0	54.0		
7.0	7.0								
									
									
									
				39.0		39.0	38.0		
									
									
									
46.0	46.0								23.0
	0.0						0.0	0.0	0.0
									
0.0	0.0								
0.0	0.0						0.0		
									
12.0	12.0						12.0		
				51.0		51.0	51.0		
17.0	17.0			0.0		0.0	17.0		17.0
									
125.0	125.0		125.0						
				24.0		24.0			
10.0	10.0			6.0		6.0			10.0
									
									
									
0.0	0.0								0.0
									
56.0	56.0								
				0.0		0.0			
0.0	0.0			11.0		11.0			
124.0	124.0			12.0		12.0	124.0		
									
									
									
0.0	0.0		0.0				0.0	0.0	0.0
	0.0			0.0		0.0	0.0		0.0
	9.0			4.0		4.0	9.0		
				27.0		27.0			
	0.0			256.0		255.0	0.0		0.0
	0.0						0.0		
0.0	0.0		0.0				0.0		
	0.0								
4.0	4.0							4.0	4.0
									
				9.0		9.0	9.0		
0.0	0.0							0.0	
				60.0		60.0	66.0		
50.0	50.0							50.0	
									
0.0	0.0			0.0		0.0	0.0	0.0	
									
				0.0		0.0			
	0.0							0.0	
				12.0		12.0	12.0		
									
	0.0		0.0						
									
									
24.0	24.0		24.0						23.0
19.0	19.0		19.0						19.0
21.0	21.0		21.0	0.0		0.0	21.0		
									
									
									
									
									
				0.0		0.0			
									
				0.0		0.0	0.0		
0.0	0.0								
0.0	0.0			6.0		6.0	6.0		
	27.0		27.0				27.0		27.0
12.0									
				0.0		0.0			
									
	29.0		29.0	11.0		11.0	29.0		29.0
	23.0		23.0				23.0		23.0
0.0	0.0								
	0.0			0.0		0.0	0.0		0.0
				0.0		0.0	0.0		
				0.0		0.0	0.0		
				0.0		0.0	0.0		
				5.0		0.0	0.0		
45.0	45.0		45.0					45.0	45.0
9.0	9.0		9.0	11.0		11.0	11.0	9.0	
125.0	125.0		125.0					125.0	124.0
									
				20.0		20.0	20.0		
				0.0		0.0			
				0.0		0.0	0.0		
									
0.0	0.0			11.0		11.0		0.0	0.0
									
	0.0								
	22.0			0.0		0.0	22.0	22.0	
									
0.0	29.0						29.0		
									
									
									
0.0	0.0			0.0		0.0	0.0		0.0
									
									
									
	19.0						20.0		
	61.0						0.0	0.0	
				124.0		123.0			
									
22.0	22.0		22.0						22.0
0.0	0.0		0.0						
									
25.0	25.0								
10.0	10.0								
									
									
0.0	0.0			0.0		0.0	0.0	0.0	0.0
									
									
									
				0.0		0.0			
									
				0.0		0.0			
									
									
	0.0								
									
									
									
5.0	5.0		5.0					5.0	5.0
				0.0					
0.0	0.0		0.0					0.0	
									
						0.0			
									
0.0	0.0		0.0	0.0		0.0			0.0
13.0	0.0		0.0	13.0		12.0	0.0		0.0
15.0	15.0		15.0	7.0		7.0	15.0		7.0
				105.0		105.0		105.0	105.0
				136.0		136.0			136.0
22.0	22.0		22.0				22.0		
									
	0.0		0.0				0.0	0.0	0.0
									
				0.0		0.0	0.0	0.0	
									
									
									
									
									
									
				13.0		13.0	13.0		
	146.0			14.0		14.0	14.0	146.0	146.0
	0.0							0.0	
									
				0.0		0.0			
				30.0		30.0			
	0.0							0.0	0.0
									
	0.0		0.0	0.0		0.0			0.0
				24.0		24.0			
7.0	7.0		7.0					7.0	
									
									
44.0	44.0						44.0		
									
									
				73.0		73.0			
				11.0		11.0		11.0	
									
									
				32.0		32.0			7.0
80.0	0.0			79.0		80.0			80.0
				0.0		0.0			0.0
									
				0.0		0.0		0.0	
0.0	8.0			0.0		0.0			
47.0	47.0								
									
	0.0								0.0
									
				5.0		5.0		5.0	
	46.0		46.0	0.0		0.0	46.0	0.0	
	185.0		185.0	0.0		0.0	184.0	0.0	185.0
									
				0.0		0.0	0.0		0.0
									
	0.0		0.0				0.0	0.0	
22.0	22.0						22.0		
4.0	4.0			0.0		0.0	4.0		
				23.0		23.0			
				23.0		23.0			
									
									
									
				8.0		8.0			
									
				0.0		0.0			
				49.0		49.0			
23.0	23.0		23.0	60.0		60.0	23.0		
									
									
0.0	0.0								
				6.0		6.0			
									
									
				0.0		0.0	0.0		
0.0	0.0								
0.0	0.0								0.0
8.0	8.0			56.0		56.0	56.0		
									
0.0	0.0								0.0
				0.0		0.0	0.0		
									
									
85.0	0.0								
33.0	33.0			12.0		12.0	12.0		
24.0	24.0								
									
									
									
									
						17.0	17.0		
									
10.0	10.0			17.0		17.0	17.0		
									
20.0	20.0			19.0		19.0	19.0		
				35.0		35.0	35.0		
37.0	37.0			0.0		0.0			
37.0	37.0		37.0				37.0		
				0.0		0.0	0.0		
0.0	0.0								
4.0	4.0						4.0	4.0	4.0
0.0	0.0						0.0	0.0	
				7.0		7.0			7.0
17.0	17.0						17.0		
									
									
									
0.0	0.0						0.0		
									
				52.0		52.0	52.0		
				60.0		60.0	60.0		
				59.0		59.0	59.0		
10.0	10.0								
									
				13.0		13.0	13.0		
									
8.0	8.0		8.0						
									
									
				28.0		28.0			
				14.0		27.0			
				8.0		8.0	8.0		
				30.0		30.0			
25.0	25.0						24.0		
									
									
7.0	7.0						7.0		
									
31.0	31.0								
0.0	0.0			43.0		43.0			
27.0	27.0		27.0						27.0
									
									
									
0.0	0.0		0.0						
									
	32.0						32.0		
									
				26.0		26.0			
									
	0.0			0.0		0.0	0.0		
0.0	0.0		0.0	0.0		0.0	0.0		
									
									
									
				27.0		27.0	27.0		
									
				16.0		16.0	15.0		
				153.0		153.0			153.0
				86.0		86.0			
				0.0		0.0	0.0		
12.0	12.0		12.0	27.0		27.0			
									
				25.0					
0.0	0.0		0.0	117.0		118.0	0.0		0.0
				51.0		51.0			
									
0.0	0.0		0.0	19.0		19.0	0.0		0.0
89.0	89.0		89.0						
									
				0.0		0.0			
									
									
0.0	0.0		0.0						
0.0	0.0		0.0	8.0		8.0	0.0		
				63.0		63.0	63.0		63.0
0.0	0.0			16.0		16.0	16.0		16.0
0.0	0.0								
0.0	0.0		0.0						0.0
									
									
				0.0					
				73.0		73.0	73.0		
									
							0.0		0.0
									
									
10.0	10.0			44.0		44.0	10.0	10.0	44.0
				15.0		15.0	15.0		
				22.0		22.0	22.0		
104.0	104.0		104.0					104.0	103.0
	9.0								
									
	55.0			38.0		38.0	38.0		55.0
15.0	15.0		15.0	147.0		147.0	147.0	15.0	
				0.0		0.0	0.0		
				9.0		9.0	9.0		
									
									
	52.0			6.0		6.0	6.0		
0.0	0.0		0.0					0.0	0.0
									
									
10.0	10.0		0.0					10.0	
									
									
									
				33.0		33.0	33.0		
									
5.0	5.0		5.0						
	14.0						15.0		15.0
				5.0		5.0			
				25.0		25.0		25.0	
22.0	26.0			22.0		22.0	27.0		
									
									
									
0.0	19.0			0.0		0.0	19.0		
									
	35.0		35.0						
									
98.0	0.0			119.0		119.0	0.0		0.0
									
									
				124.0		123.0			124.0
32.0				32.0		32.0	0.0		
17.0	17.0						17.0		
29.0	29.0		29.0						
89.0	89.0			42.0		42.0			42.0
180.0	180.0						135.0		
									
				53.0		54.0	54.0	54.0	
									
	18.0			6.0		6.0	18.0		6.0
0.0	0.0		0.0						
0.0	0.0								0.0
									
	8.0						16.0		
				32.0		31.0			32.0
									
									
									
0.0	0.0		0.0	7.0		7.0	0.0	0.0	7.0
									
				0.0		0.0	0.0	0.0	
									
136.0	136.0			12.0		12.0	12.0	12.0	
									
				0.0		0.0	0.0	0.0	
22.0	22.0								
				10.0		10.0			
				21.0		21.0			
	13.0			28.0		28.0			13.0
	0.0		0.0						0.0
5.0	5.0		5.0					5.0	5.0
	5.0						5.0		5.0
	14.0						14.0		14.0
				4.0		4.0			
	9.0		9.0						
	0.0		0.0						
									
				0.0		0.0			0.0
59.0	59.0		59.0				59.0		
									
									
61.0	0.0		0.0	61.0		61.0	0.0		0.0
	30.0		30.0				28.0		
0.0	0.0		0.0	0.0			0.0		0.0
38.0	40.0						38.0		
									
54.0	54.0		54.0	85.0		85.0	54.0		85.0
69.0	69.0		69.0	6.0		6.0	69.0		6.0
64.0	6.0			101.0		102.0	6.0		
									
									
									
									
				0.0		0.0	0.0	0.0	
0.0	0.0			8.0		8.0		8.0	
38.0	0.0			38.0		38.0	38.0		0.0
	0.0		0.0	0.0		0.0	0.0		0.0
									
									
									
	10.0		10.0	65.0		64.0			
	218.0						220.0	220.0	
				0.0		0.0			
									
	4.0		4.0	118.0		118.0	4.0		4.0
	4.0		4.0	75.0		75.0	4.0		4.0
									
									
									
									
									
	6.0		6.0						6.0
									
									
	24.0			0.0		0.0	0.0		24.0
									
				0.0		0.0		0.0	0.0
									
				94.0		94.0		94.0	94.0
0.0	0.0			0.0		0.0			
23.0				25.0		25.0			25.0
	36.0						36.0		
									
									
	92.0		93.0				93.0	93.0	93.0
				93.0		92.0	93.0		
	35.0		35.0	6.0		6.0	6.0	35.0	
105.0	0.0		0.0	105.0		95.0	59.0		
								0.0	
70.0	70.0								
	128.0							128.0	128.0
									
									
0.0	37.0		37.0	0.0		0.0	0.0		
				5.0		5.0	8.0		
	65.0						65.0		
	4.0		4.0	0.0		0.0	0.0	4.0	4.0
34.0	34.0								
				0.0		0.0	0.0		
									
				79.0		79.0	78.0	78.0	78.0
	89.0			17.0		17.0		89.0	
	0.0			0.0		0.0		0.0	
									
				36.0		36.0		36.0	
0.0	0.0		0.0						
	21.0						21.0		
				12.0		13.0	13.0	13.0	13.0
10.0	10.0		9.0	0.0		0.0		0.0	9.0
20.0				20.0		20.0			
									
	0.0		0.0	5.0		5.0	0.0	5.0	
									
									
									
									
37.0	37.0						37.0		
									
									
0.0	0.0		0.0				0.0		0.0
									
13.0	13.0		7.0	6.0		6.0	7.0		
				43.0		43.0			
				57.0		57.0	57.0		
									
									
									
									
									
									
				0.0		0.0	0.0		
									
									
				23.0		23.0	23.0		
				11.0		11.0	11.0		
									
									
				12.0		12.0	12.0		
20.0	20.0								
				0.0		0.0	0.0		
4.0	4.0								
									
7.0	7.0								
0.0	0.0								
				0.0		0.0			
									
0.0	0.0		0.0						0.0
				13.0		13.0	13.0		
				0.0		0.0	0.0		
									
									
									
5.0									
									
									
									
0.0	0.0		0.0				0.0	0.0	
									
									
									
	0.0			0.0		0.0	0.0		0.0
47.0	47.0		47.0	8.0		8.0	47.0		8.0
				0.0		0.0			
									
									0.0
									
0.0	0.0		0.0				0.0		
				31.0		31.0			
				12.0		12.0	12.0		12.0
25.0	25.0		25.0	57.0		57.0			
0.0	0.0		0.0						0.0
36.0	36.0		36.0				36.0		
68.0	68.0		67.0	157.0		157.0	68.0		
9.0	9.0		9.0						9.0
									
				12.0		12.0			
									
23.0	23.0			54.0		54.0	23.0	54.0	23.0
	0.0		0.0				0.0		
									
									
0.0	0.0		0.0	16.0		16.0	16.0	0.0	0.0
									
0.0	0.0								
0.0	0.0		0.0				0.0		
									
				0.0		0.0			
				0.0		0.0			
									
18.0	18.0			0.0		0.0			0.0
				4.0		4.0	4.0		4.0
	0.0						0.0	0.0	0.0
0.0	0.0						0.0		
	31.0			0.0		0.0	31.0		30.0
0.0	42.0			0.0		0.0	42.0		
									
									
0.0	0.0						0.0		
				51.0		51.0			51.0
									
				0.0		0.0	0.0	0.0	
									
	102.0			15.0		15.0	101.0		15.0
			15.0	50.0		50.0		15.0	
									
10.0	10.0								
0.0	0.0		0.0	265.0		267.0		0.0	0.0
				143.0		143.0			
									
									
	0.0		0.0	0.0		0.0	0.0		
				5.0		5.0			
									
									
0.0	0.0		0.0						0.0
				0.0		0.0			0.0
									
				5.0		5.0	5.0	5.0	
	43.0			0.0		0.0	0.0	43.0	43.0
				47.0		47.0			
									
									
									
									
							0.0		
									
	36.0		35.0						36.0
									
									
0.0	0.0								
	18.0						18.0		
									
0.0	13.0			0.0		0.0	13.0		
									
									
									
									
	0.0		0.0						
	10.0								
24.0				13.0		13.0			
							0.0		0.0
0.0				0.0		0.0	4.0		4.0
55.0				55.0		55.0			
									
									
				65.0		64.0		65.0	
							0.0		
									
