0	1	2	3	4	5	6	7	8	9
0.0	0.0			32.0		32.0	0.0		
									
				0.0		0.0			
0.0	0.0						0.0		
									
									
									
26.0	2.0			0.0		0.0	26.0		26.0
				0.0		0.0			
18.0	18.0			0.0		0.0	18.0		
				0.0		0.0			
14.0	14.0			12.0		12.0	14.0		14.0
									
									
									
7.0	7.0		7.0				7.0		7.0
40.0	40.0		40.0				40.0		40.0
				0.0		0.0			
				12.0		12.0			
50.0	50.0		50.0	0.0		0.0	50.0		
				0.0		0.0			
				6.0		6.0			
0.0				37.0		37.0	0.0		0.0
				7.0		7.0			
				0.0		0.0			
				51.0		50.0			
9.0	9.0		9.0	0.0		0.0	9.0		9.0
0.0	0.0		0.0				0.0		0.0
0.0	0.0								
									
									
				14.0		14.0	14.0		
10.0	10.0								
									
48.0	48.0								
0.0	0.0								
81.0	81.0								
									
									
60.0	60.0								
									
6.0	6.0			14.0		14.0	14.0		6.0
									
									
				4.0		4.0	4.0		
									
				36.0		36.0	36.0		
									
									
									
0.0	0.0			0.0		0.0			
				19.0		18.0			
				29.0		29.0			
12.0	12.0						12.0	12.0	12.0
9.0	9.0			4.0		4.0	9.0		4.0
0.0	0.0						0.0		
60.0	60.0			4.0		7.0	60.0		7.0
									
0.0	0.0		6.0						6.0
8.0	8.0		8.0	16.0		16.0	16.0		
37.0	37.0			0.0		0.0			
				12.0		13.0	13.0		
									
									
				0.0		0.0	0.0	0.0	
	0.0		0.0				0.0		
				8.0		8.0	8.0		
									
				0.0		0.0	0.0		
0.0	0.0						0.0		
0.0	0.0			0.0		0.0	0.0		0.0
									
				0.0		0.0			
									
				0.0		0.0	0.0		
									
				4.0		4.0			
9.0	9.0		9.0						9.0
				0.0		0.0	0.0		
4.0	2.0		4.0						
				14.0		14.0	0.0		0.0
									
									
32.0	32.0						32.0		
									15.0
									
14.0	14.0						14.0		14.0
				34.0		33.0			
									
				0.0		0.0	0.0		
12.0	12.0		12.0	0.0		0.0	0.0		
0.0	16.0			42.0		42.0	15.0		
				0.0		0.0			
				0.0		19.0			
0.0	0.0		0.0	5.0		5.0	0.0	0.0	0.0
				47.0		47.0			
				47.0		47.0	47.0		
51.0	51.0		46.0				46.0	46.0	
				0.0		0.0			
	16.0						15.0		
				0.0		0.0			
				87.0		87.0			
	10.0			10.0		9.0	10.0		10.0
	4.0						4.0		4.0
0.0	0.0		0.0				0.0	0.0	0.0
0.0	0.0		0.0	1.0		4.0	0.0	0.0	
				116.0		115.0			0.0
				0.0		0.0			
	11.0			14.0		14.0	11.0		
									
				14.0		14.0	14.0		
				13.0		13.0	13.0		
				40.0		40.0			39.0
				17.0		17.0			17.0
36.0	35.0			0.0		0.0	0.0	62.0	
									
12.0	12.0		12.0				12.0		
									
				10.0		10.0	10.0		
77.0	77.0							33.0	33.0
				25.0		25.0	25.0		
20.0									
									
14.0	14.0							14.0	
0.0	0.0			19.0				0.0	0.0
									
0.0	0.0							0.0	
							0.0		
75.0	75.0			0.0		0.0	0.0	75.0	
0.0	0.0			9.0		9.0	0.0	0.0	0.0
0.0	0.0			9.0		9.0	9.0	0.0	0.0
0.0	0.0			9.0		9.0	9.0	0.0	0.0
									
0.0	0.0		0.0						0.0
				7.0		7.0			
23.0	23.0		12.0	0.0		0.0			
				17.0		17.0			
18.0	18.0		18.0	6.0		6.0			18.0
									
				13.0		13.0		19.0	
6.0	6.0		6.0	20.0		20.0	6.0		
				20.0		20.0		20.0	
0.0	0.0								
									
									
				46.0		46.0	46.0		46.0
				61.0		61.0			
				31.0		0.0		0.0	
				0.0		0.0			
				9.0		9.0			
37.0	37.0		37.0	6.0		6.0			
				0.0		0.0	0.0		0.0
				9.0		9.0			10.0
10.0	10.0		10.0						
									
5.0	5.0								
0.0	0.0		0.0	93.0		67.0			0.0
	10.0		10.0				21.0		
									
									
									
									
	47.0		47.0				46.0		46.0
10.0	10.0								
									
0.0	0.0								0.0
				0.0		16.0			
									
	0.0		0.0	14.0		0.0	0.0		0.0
	0.0		0.0	1.0		7.0	0.0		
5.0	5.0		5.0					5.0	5.0
44.0	44.0			0.0		0.0		44.0	
									
				41.0		41.0	41.0		
				10.0		10.0	10.0		
									
9.0	9.0			8.0		8.0		9.0	
4.0	4.0			136.0		136.0		4.0	
				0.0		0.0	0.0		
34.0	34.0		34.0					33.0	
				12.0		12.0			
25.0	25.0			22.0		22.0		25.0	25.0
47.0	47.0							47.0	47.0
									
	0.0								0.0
0.0	0.0		0.0	0.0		0.0	0.0	0.0	
58.0	58.0		58.0						
				58.0		58.0			
							0.0		
									
	0.0						0.0	0.0	0.0
12.0				12.0		12.0			
0.0	0.0			0.0		0.0		0.0	
	7.0			28.0		28.0	7.0	7.0	
5.0	5.0						5.0		
				40.0		40.0			40.0
4.0	22.0			4.0			22.0		22.0
				0.0		0.0	0.0		0.0
									
0.0				0.0		0.0			
									
0.0				0.0		0.0			
5.0	5.0		5.0	34.0		34.0	5.0	34.0	
									
	16.0						16.0	16.0	
				14.0		14.0			14.0
				7.0		7.0			
				62.0		62.0			62.0
									
									
									
									
				0.0		0.0			
									
23.0	0.0			23.0		23.0	0.0		
14.0				9.0		9.0			
8.0	8.0			8.0		8.0	8.0		
	0.0			0.0		0.0	0.0		0.0
									
									
	0.0						0.0		
	0.0						0.0		
				29.0		29.0			
									
109.0	109.0			8.0		8.0	8.0	8.0	
									
									
				0.0		0.0	0.0		
	0.0						0.0		
									
				7.0		8.0	8.0		
8.0	8.0		8.0					8.0	
									
									
									
									
									
41.0	41.0		41.0	0.0		0.0		41.0	41.0
	13.0								
	28.0		28.0						
				0.0		0.0	0.0		
13.0	13.0		13.0					13.0	13.0
	4.0						4.0		
						4.0			
									
	16.0						16.0		16.0
									
				0.0		0.0			
									
									
	5.0		5.0				5.0	5.0	
				0.0		0.0			
				6.0		6.0			6.0
				4.0		4.0			4.0
									
									
8.0	8.0			0.0		0.0	8.0		
									
				73.0		73.0			
0.0	0.0		0.0						
47.0	46.0		47.0	23.0		23.0			71.0
				7.0		7.0	7.0		7.0
				0.0		0.0	0.0		
				4.0		4.0	4.0	4.0	
4.0	4.0			0.0		0.0	0.0		0.0
				27.0		27.0	27.0		
				7.0		7.0	7.0		
21.0				21.0		21.0	21.0		
				0.0		0.0	0.0		
									
									
				63.0		63.0	63.0	63.0	
									
									
	5.0		5.0	48.0		48.0	5.0		48.0
	14.0								20.0
				16.0		16.0			
	35.0		0.0						18.0
	5.0		5.0	20.0		20.0	5.0		
									
	15.0		15.0	0.0		0.0			15.0
	6.0		5.0	21.0		39.0			
	8.0			4.0		5.0	5.0	5.0	5.0
0.0	0.0						0.0		
	4.0		4.0				4.0		4.0
52.0	52.0						52.0		
									
0.0	0.0			16.0		16.0	0.0		
	20.0						20.0		
									
									
34.0				34.0		39.0			
	0.0		0.0	0.0		0.0	0.0		0.0
							0.0		
									
	15.0			0.0		0.0	15.0	0.0	
22.0	22.0		22.0				21.0		
	0.0						0.0		
	0.0			0.0		0.0	0.0		0.0
40.0	40.0			14.0		14.0			
									
7.0				7.0		7.0			7.0
									
									
									
									
5.0				5.0		5.0			
									
4.0	4.0		4.0						
				31.0		36.0	36.0		36.0
	0.0						0.0		
									
0.0	13.0			0.0		0.0			
				45.0		45.0		45.0	
									
									
									
									
	37.0								
0.0	0.0						0.0		
									
	0.0								
72.0	72.0		72.0	0.0		0.0	0.0		0.0
									
									
									
									
41.0	0.0			41.0		41.0			
									
				8.0		8.0			
13.0	13.0		13.0				13.0		
10.0	0.0		0.0	10.0		10.0	0.0	0.0	
									
	4.0		4.0						
	269.0			286.0		299.0	227.0		299.0
	0.0								
0.0	13.0		13.0	0.0		0.0	13.0	18.0	
				0.0		0.0			0.0
				0.0		0.0			0.0
				0.0		0.0			
				67.0		67.0			
									
				37.0		37.0			
									
20.0	20.0						20.0		
									
0.0	0.0			0.0		0.0	0.0		
0.0	0.0						0.0		
				0.0		0.0			
									
									
4.0	4.0		4.0	50.0		50.0	4.0		4.0
6.0	6.0		6.0				6.0		6.0
									
				5.0		5.0			
0.0	0.0		0.0				0.0		
0.0	0.0		0.0	15.0		15.0	0.0		
									
				17.0		17.0			
				0.0		0.0	0.0		
0.0	0.0			5.0		5.0	5.0		
						15.0	15.0		
				38.0		38.0	38.0		
0.0	0.0			19.0		19.0	19.0		
									
				0.0			0.0		
									
0.0	0.0			15.0		15.0	14.0		
				41.0		41.0	41.0		
									
									
0.0	0.0			7.0		7.0	7.0		
									
22.0	22.0						7.0		
									
32.0	32.0			11.0		11.0	11.0		32.0
									
4.0	4.0		4.0					0.0	0.0
				7.0		7.0	7.0		
13.0	13.0			15.0		15.0	15.0		
7.0	7.0			26.0		26.0	26.0		
									
				0.0		0.0	0.0		
				0.0		0.0	0.0		
4.0	4.0			0.0		0.0	0.0		
									
0.0	0.0								
0.0	0.0								
									
									
36.0	36.0								
77.0	77.0								
0.0	0.0								
							9.0		
0.0	0.0								
									
									
				0.0		0.0			
0.0	0.0						0.0	0.0	
									
59.0	2.0			0.0		0.0	59.0		0.0
46.0	46.0						47.0		
				6.0		6.0			6.0
44.0	44.0			13.0		13.0	44.0		13.0
				22.0		22.0	22.0		22.0
				0.0		0.0			0.0
									
									
									
				13.0		13.0	13.0		
0.0	0.0			0.0		0.0	0.0		0.0
				0.0		0.0			
				5.0		5.0	5.0		
0.0	0.0		0.0	47.0		47.0	47.0		
									
38.0	38.0		38.0	0.0		0.0	0.0		19.0
						0.0			
8.0	8.0			11.0		22.0	8.0		8.0
				0.0		0.0			
				0.0		0.0	0.0		
0.0	0.0		0.0						0.0
									
									
				15.0		15.0		15.0	
				15.0		15.0	15.0		
									
64.0	64.0		64.0						
				41.0		41.0	41.0		
									
									
63.0	63.0			8.0		8.0	63.0		
0.0	0.0			38.0		38.0			
				0.0		0.0			
				5.0		5.0	5.0		
									
				0.0		0.0	0.0		
									
				13.0		13.0			
				0.0		0.0		0.0	
	0.0						0.0		
				59.0		59.0	58.0		61.0
63.0	62.0		63.0				59.0	63.0	
	16.0						16.0		16.0
				0.0		0.0			
	6.0						0.0		
	0.0						0.0		0.0
13.0	13.0			0.0		0.0	0.0	13.0	13.0
				0.0		0.0	0.0		
				12.0		12.0			12.0
5.0	5.0		5.0	64.0		64.0	5.0		64.0
				0.0		0.0	0.0		
				0.0		0.0	0.0		
0.0	0.0							0.0	
	0.0							0.0	
4.0	4.0		0.0	4.0		4.0	4.0		4.0
0.0	0.0							0.0	0.0
				0.0		0.0			
0.0	0.0							0.0	0.0
									
									
				0.0		0.0			
26.0	26.0		26.0				26.0		
0.0	0.0		0.0				0.0		0.0
									
				0.0		0.0			
				89.0		89.0			
				8.0		8.0			
6.0	6.0		6.0				6.0		
6.0	6.0		0.0	76.0		76.0			0.0
0.0	0.0								
10.0	10.0						10.0		10.0
				0.0		0.0			
				0.0		0.0			
	0.0		0.0	0.0		6.0	0.0		
0.0	0.0			0.0		0.0	0.0		
73.0	73.0								
				0.0		0.0			
				31.0		31.0	31.0		
0.0	0.0			12.0		12.0	12.0		0.0
0.0	0.0								
	6.0		0.0				6.0		
42.0	42.0		42.0					42.0	
									
14.0	14.0		14.0	109.0		109.0	108.0	24.0	
									
									
									
									
									
				4.0		4.0	4.0		
				28.0		55.0	55.0		
73.0	73.0		73.0	0.0		0.0	0.0	73.0	
	7.0								
				72.0		72.0	72.0		
				31.0		31.0	31.0	17.0	
7.0	7.0							7.0	
	5.0								5.0
									
				6.0		6.0		5.0	
				0.0		0.0		0.0	
									
	73.0			4.0		0.0	92.0	92.0	92.0
	0.0						0.0		
				0.0		0.0	0.0		0.0
									
									
0.0				0.0		0.0			
									
									
				5.0		5.0	10.0		10.0
				10.0		10.0	10.0		10.0
				34.0		34.0	34.0		34.0
22.0	22.0		22.0	8.0		8.0	8.0		10.0
							0.0		
									
									
0.0	0.0			83.0		83.0			0.0
									
									
				9.0		9.0	9.0	9.0	
				0.0		0.0			0.0
32.0	32.0			15.0		15.0			32.0
				12.0		12.0	12.0	12.0	
							0.0		
	4.0		4.0						
				96.0		96.0			
0.0	0.0		6.0	8.0		8.0		6.0	
				0.0		0.0	0.0		
									
									
									
	0.0			70.0		70.0	0.0		
									
									
									
									
19.0	19.0		19.0					19.0	
	4.0			61.0		60.0	4.0		0.0
									
							0.0		
				31.0		31.0		30.0	31.0
									
0.0	0.0		0.0	44.0		44.0	0.0		44.0
				16.0		16.0			16.0
	12.0		12.0				12.0	12.0	12.0
									
22.0	22.0		22.0	0.0		0.0	22.0		0.0
									
0.0	0.0								
				57.0		57.0	57.0	41.0	
									
									
	0.0		0.0				0.0		
				5.0		5.0	5.0		
				4.0		4.0			
									
									
									
8.0				4.0		4.0	4.0		
									
				12.0		12.0		12.0	
12.0	12.0		0.0	5.0		5.0			
									
									
									
									
	46.0		46.0				46.0		
	0.0		0.0				0.0		0.0
0.0	0.0			4.0		4.0	0.0		
				108.0		108.0			
									
									
	0.0						0.0	0.0	
				0.0		0.0		0.0	0.0
0.0				0.0		0.0			0.0
									
						0.0			0.0
0.0	0.0								0.0
	0.0						0.0		
28.0	29.0		29.0						29.0
				0.0		0.0	0.0		0.0
									
6.0	6.0		6.0						
									
18.0				18.0		18.0	18.0		
									
				8.0		8.0	8.0		
									
				17.0		17.0	17.0		17.0
				0.0		0.0		0.0	
									
									
									
0.0	0.0		0.0						
	0.0						0.0		
0.0	0.0		0.0						
8.0	8.0			0.0		0.0			0.0
43.0	43.0		43.0						
12.0	12.0		12.0	50.0		52.0	23.0		
									
30.0	17.0		17.0	30.0		30.0	17.0	17.0	
16.0	16.0		16.0	0.0		0.0		16.0	0.0
									
0.0	0.0						0.0		
									
5.0	5.0			0.0		0.0	5.0		5.0
									
									
12.0	12.0						16.0		16.0
				21.0		21.0			
89.0	89.0			44.0		43.0	89.0		
				0.0		0.0			
0.0	0.0			4.0		4.0	0.0		
									
				0.0		5.0	0.0		0.0
									
4.0	4.0			33.0		32.0	4.0		4.0
	0.0		0.0				0.0		4.0
	0.0						0.0		
6.0	6.0						0.0		0.0
0.0	0.0			11.0		11.0	6.0		6.0
	10.0						10.0		
0.0	0.0						0.0		
0.0	0.0		0.0						
				0.0					
				11.0		11.0			
				0.0		0.0			
									
									
6.0	6.0			72.0		72.0			
				50.0		49.0			
				24.0		24.0			
5.0	5.0		5.0				5.0		
0.0	0.0		0.0				0.0		
									
									
0.0	0.0		0.0	0.0		0.0	0.0		0.0
									
28.0	28.0		28.0				28.0		28.0
16.0	16.0								
45.0	45.0								
				4.0		5.0	5.0		
									
									
14.0	14.0								
				0.0		0.0	0.0		
7.0	7.0			0.0		0.0	0.0		
0.0	0.0								0.0
									
									
26.0	26.0			0.0		0.0	0.0		
									
0.0	0.0								
				0.0		0.0	0.0		
									
						28.0	28.0		
									
				7.0		7.0	7.0		
				40.0		40.0	40.0		
				0.0		0.0	0.0		
0.0	0.0								
58.0	58.0			0.0		0.0	12.0		
									
0.0	0.0								
31.0	31.0			0.0		0.0	0.0		30.0
87.0	88.0								
8.0	8.0								
36.0	0.0			8.0		8.0	8.0		36.0
33.0	33.0								
0.0	0.0			28.0		28.0	27.0		
4.0	4.0			41.0		40.0	41.0		
									
0.0	0.0			0.0		0.0	0.0		
14.0	14.0			5.0		5.0	5.0		
				16.0		16.0	16.0		
62.0	62.0			30.0		30.0	30.0		
									
	0.0						0.0		0.0
5.0	5.0					32.0	32.0		
18.0	18.0								
									
									
				20.0		20.0	20.0		
									
									
105.0	105.0			0.0		0.0	0.0		
									
0.0	0.0								
									
6.0	6.0								
0.0	0.0								
				0.0		26.0	26.0		
7.0	7.0			12.0		12.0	9.0		
				5.0		5.0	5.0		
				0.0		0.0			
				18.0		2.0			
28.0	28.0			0.0		0.0		0.0	28.0
26.0	26.0			0.0		0.0	26.0	26.0	
				7.0		7.0			
0.0	0.0			4.0		4.0	0.0	0.0	
7.0	7.0						7.0	7.0	7.0
									
0.0	0.0						27.0	27.0	
				0.0		0.0			0.0
									
0.0	0.0						0.0		
				23.0		23.0			23.0
									
									
									
									
			7.0						7.0
				6.0		6.0			
26.0	26.0		26.0						
				5.0		5.0	5.0		
									
									
									
				8.0		8.0			
9.0	9.0		9.0	12.0		12.0	12.0		9.0
				103.0		96.0			
14.0	14.0								14.0
0.0	0.0						0.0		
0.0	0.0						0.0		0.0
19.0	19.0		19.0						
71.0	71.0		71.0	35.0		35.0	35.0		71.0
									
118.0	118.0		118.0						
26.0	26.0			4.0		4.0	26.0		26.0
				69.0		69.0	67.0		
									
				0.0		0.0			
									
29.0	29.0		29.0						
24.0	24.0		24.0	0.0		0.0	0.0		24.0
									
0.0	0.0		0.0			0.0	0.0		
									
				8.0		10.0			
0.0	0.0						0.0		
				11.0		11.0			
									
									
				0.0		0.0			
									
0.0	0.0		0.0						
16.0	16.0		16.0						
									
				6.0		6.0			
									
				86.0		86.0	86.0		
									
									
0.0	0.0		0.0						
0.0	0.0		0.0				0.0	0.0	0.0
				22.0		0.0			
				27.0		28.0			
28.0	28.0		28.0				28.0	28.0	
				8.0		8.0			
				31.0		31.0			
									
	0.0			13.0		13.0	0.0		
				0.0		0.0			
	45.0			34.0		34.0	45.0		
				4.0		4.0			
	0.0			13.0		13.0	0.0		0.0
6.0	6.0		6.0				6.0	6.0	
									
	54.0						27.0		27.0
				12.0		12.0			
6.0	6.0		6.0	37.0		37.0	6.0	6.0	6.0
									
0.0	0.0			24.0		24.0	24.0	0.0	
0.0	0.0		0.0				0.0		
53.0	53.0		52.0				52.0		
				0.0		0.0	0.0		
4.0	4.0		4.0	0.0		0.0	0.0		0.0
0.0	0.0			4.0		4.0	4.0	0.0	0.0
									
									0.0
84.0	84.0		84.0	0.0		0.0	84.0		0.0
									
15.0	15.0							15.0	
									
									
0.0	0.0		0.0	8.0		8.0	0.0		8.0
									
				4.0		4.0	4.0		
									
						0.0	0.0		
									
38.0	38.0			26.0		26.0	26.0	38.0	38.0
0.0	0.0		0.0	4.0		4.0	0.0		3.0
				21.0		21.0	21.0		
									
									
0.0				18.0		18.0	18.0		
0.0	0.0							0.0	
8.0	8.0							8.0	
									
0.0	0.0		0.0	34.0		34.0			0.0
78.0	78.0		78.0						27.0
				0.0		0.0			
									
10.0	10.0		10.0	0.0			10.0		
118.0	118.0		118.0	34.0		33.0			118.0
10.0	10.0		11.0				11.0		
10.0	10.0						10.0		
									
	11.0		11.0	8.0		8.0			12.0
0.0	0.0		0.0	0.0		0.0			
									
				99.0		102.0			
0.0	0.0		0.0				0.0		0.0
									
8.0	8.0		8.0	0.0		14.0	8.0		
	7.0						19.0		
				14.0		14.0		14.0	
8.0	8.0		8.0	0.0		0.0			8.0
									
0.0	0.0								0.0
				39.0		39.0			
				0.0		4.0			
									
				4.0		4.0			
				0.0		4.0			
									
				21.0		21.0	21.0		
0.0	0.0						0.0	0.0	
									
									
				0.0		0.0	0.0		
				21.0		21.0			
				21.0		21.0	21.0		
									
44.0	44.0								
49.0	49.0								
									
4.0	4.0		4.0	13.0		13.0			4.0
				6.0		6.0	6.0		
	12.0		12.0	0.0		0.0	12.0		12.0
0.0	0.0		0.0	47.0		48.0	0.0		
48.0	48.0		48.0	0.0		0.0	0.0	48.0	48.0
									
	0.0			0.0		0.0	0.0		0.0
0.0	0.0		0.0					0.0	
									
16.0	16.0		16.0	72.0		72.0	72.0	16.0	16.0
								8.0	
				0.0		0.0			
									
	0.0								0.0
0.0	0.0		0.0	0.0		0.0	0.0	0.0	
				0.0		0.0	0.0		
96.0	96.0		96.0					96.0	96.0
				51.0		50.0	50.0		
				90.0		90.0			
				90.0		90.0			
44.0	44.0							33.0	
	60.0								
									
									
				0.0		0.0	0.0		
				12.0		12.0			
47.0	47.0			18.0		18.0		47.0	
37.0	37.0		37.0					37.0	37.0
									
									
	34.0			77.0		77.0	82.0		
				10.0		10.0			
				0.0		0.0	0.0		0.0
				6.0		6.0		6.0	
0.0	40.0			0.0		0.0	40.0		40.0
	40.0						40.0		
24.0				24.0		22.0			
									
15.0	15.0		15.0						
41.0	29.0			4.0		4.0	29.0		
									
	0.0						0.0	0.0	0.0
									
				0.0		0.0			
									
									
									
				13.0		13.0	13.0		13.0
15.0	22.0			15.0		10.0	15.0		15.0
									
									
	0.0			0.0		0.0	0.0	0.0	0.0
				26.0		25.0			
	4.0			0.0		0.0	4.0		4.0
									
	77.0						78.0		
									
				0.0		0.0	0.0		
				0.0		0.0	0.0		
				0.0		0.0			0.0
									
									
	10.0			42.0		42.0	10.0		42.0
									
									
	19.0						19.0		
0.0	0.0		0.0	62.0		62.0	62.0		0.0
14.0	14.0			15.0		8.0	8.0	8.0	
14.0	14.0		14.0	15.0		15.0			
									
									
									
									
				0.0		0.0	0.0	0.0	
4.0	4.0								
									
				55.0		2.0			55.0
									
				33.0		33.0			33.0
									
									
									
				55.0		55.0	55.0	55.0	
0.0	0.0								
0.0	0.0		0.0					0.0	0.0
				0.0		0.0			
	0.0						0.0		
	0.0						0.0		0.0
	21.0						21.0		21.0
				21.0		21.0		21.0	
									
0.0	0.0		0.0					0.0	0.0
				58.0		58.0			
	14.0								7.0
	0.0						0.0		0.0
				0.0		0.0	0.0		0.0
				0.0		0.0			
	0.0		0.0	0.0		0.0	0.0		
17.0	17.0		17.0	0.0		0.0		17.0	
	0.0		0.0	6.0		6.0	6.0		
				11.0		11.0			
									
23.0	23.0			17.0		18.0			
				91.0		91.0			
	12.0			9.0		5.0	12.0		
5.0	12.0			5.0		5.0	12.0		12.0
									
									
									
				5.0		5.0			
				0.0		0.0			
				4.0		4.0			
	0.0								
0.0				0.0		0.0			
				8.0		8.0	8.0		
				4.0		4.0	4.0		
				0.0		5.0			
	16.0		16.0						16.0
	0.0		0.0						
	0.0		0.0				0.0		0.0
									
				11.0		11.0			11.0
									
				0.0		0.0			
17.0	17.0		17.0	50.0		50.0	16.0		50.0
									
									
									
0.0				0.0		0.0			
	0.0		0.0				0.0		0.0
	4.0		4.0				4.0		4.0
	10.0		10.0				10.0		10.0
									
				36.0		35.0			
				4.0		4.0			4.0
	0.0		0.0				0.0	0.0	
									
6.0	6.0						6.0		
0.0				0.0		0.0			
13.0	13.0								
				0.0		0.0	0.0		
85.0	85.0		85.0	0.0		0.0	0.0		
									
				48.0		48.0	48.0	48.0	
									
									
									
	4.0						4.0	4.0	
				4.0		4.0		4.0	
				0.0		0.0			0.0
17.0	16.0		17.0	24.0		24.0	24.0	24.0	17.0
	5.0								
0.0	0.0		0.0						0.0
									
15.0	15.0		15.0						
	6.0						6.0		
16.0				16.0		16.0	16.0		
									
0.0	0.0			47.0		47.0		47.0	
				4.0		4.0	4.0		
44.0	47.0			44.0		44.0	44.0		47.0
5.0	7.0			5.0		5.0	5.0		
4.0	14.0			4.0		4.0			
27.0	28.0			0.0		0.0	0.0		0.0
									
	10.0								10.0
									
5.0	5.0								
									
	0.0			0.0		0.0	0.0	0.0	
									
5.0	5.0		5.0						
46.0	46.0								
									
0.0				0.0		0.0	0.0		
				0.0		0.0	0.0		0.0
0.0	0.0		0.0						
									
									
	0.0		0.0						0.0
	0.0		0.0						
									
0.0	0.0						0.0		
	0.0		0.0	0.0		0.0	0.0		0.0
	18.0		18.0	32.0		31.0	18.0		18.0
	26.0						26.0	26.0	26.0
0.0	0.0						0.0		
10.0				10.0		10.0			20.0
20.0	20.0						20.0		
	0.0						0.0	0.0	
	16.0			6.0		6.0	6.0		6.0
0.0	0.0		0.0					0.0	
				0.0		0.0			
				27.0		27.0			
									
									
									
									
									
									
									
				30.0		30.0			
				6.0		6.0		6.0	6.0
									
									
8.0	0.0			8.0		8.0	0.0		8.0
				0.0		0.0			
									
25.0	25.0								
15.0	15.0								
0.0	0.0								
				12.0		12.0		12.0	
14.0	14.0		14.0	0.0		0.0		0.0	14.0
10.0				10.0		10.0			
0.0	0.0		0.0						
0.0	22.0		22.0	0.0		0.0	0.0		
0.0	0.0			0.0		0.0	0.0		0.0
	0.0						0.0		
				14.0		14.0	14.0		14.0
19.0				19.0		19.0	18.0		
									
15.0	15.0		15.0	0.0		0.0		0.0	33.0
				21.0		21.0		21.0	
30.0	30.0		30.0						30.0
									
				0.0		0.0	0.0		
0.0	19.0		19.0	0.0		0.0	0.0		
57.0	57.0		57.0						
									
				98.0		49.0	46.0		
5.0	5.0		5.0	40.0		40.0		40.0	
									
91.0	5.0		5.0	89.0		91.0	91.0		
	52.0							52.0	
	0.0								0.0
									
				4.0		4.0			
									
									
									
16.0	0.0			16.0		16.0			39.0
	0.0						0.0		0.0
									
									
12.0	12.0								
	0.0			9.0		9.0		0.0	
				24.0		24.0		24.0	
	73.0						75.0		75.0
									
									
				0.0		0.0			
9.0				9.0		9.0			
									
44.0	44.0		44.0	19.0		19.0	44.0		
									
				35.0		35.0		35.0	
									
									
0.0	0.0		0.0				0.0		
									
									
	18.0		18.0				18.0	18.0	
									
	69.0		69.0				69.0		69.0
	38.0						38.0		
				19.0		19.0			19.0
									
				0.0		0.0			
				0.0		0.0			
				0.0		0.0	12.0		
0.0	0.0						0.0		0.0
17.0	17.0			0.0		0.0	17.0		17.0
				15.0		14.0			
7.0	7.0			14.0		14.0	7.0		7.0
									
0.0	0.0						0.0		
31.0	31.0		57.0				57.0		
									
9.0	9.0						9.0		9.0
							0.0		0.0
				5.0		5.0			
0.0	0.0		0.0				0.0		
									
				9.0		9.0			
									
58.0	58.0		58.0				58.0		58.0
4.0	4.0		4.0				4.0		
6.0	6.0			4.0		4.0	4.0		
				0.0					
									
									
5.0	5.0			16.0		16.0	16.0		
				0.0		0.0	0.0		
									
				32.0		32.0	32.0		
									
26.0	25.0			6.0		6.0	6.0		
									
48.0	48.0			0.0		0.0	0.0		
									
4.0	4.0								
				0.0		0.0	0.0		
0.0	0.0								
0.0	4.0			22.0		22.0	22.0		
									
81.0	81.0								
17.0						0.0	0.0		17.0
				28.0		28.0			
4.0	4.0						4.0	4.0	
									
				0.0		0.0			0.0
				0.0		0.0			0.0
				66.0		62.0			66.0
				9.0		9.0	9.0		
				43.0		43.0	43.0		
				20.0		20.0	20.0		
19.0	19.0						19.0		19.0
									
									
0.0	0.0			30.0		30.0			
9.0	8.0		8.0						
									
									
69.0	12.0						12.0		12.0
				7.0					
				0.0		0.0	0.0		0.0
0.0	0.0		0.0						0.0
						0.0	0.0		
19.0	19.0		15.0	24.0		24.0	24.0		
				10.0		10.0			
									
				0.0		0.0			
									
0.0	0.0		0.0				0.0	0.0	
				5.0		5.0			
12.0	12.0							12.0	12.0
									
									
									
				4.0		4.0	4.0		
				0.0		0.0	0.0		
				0.0		0.0			0.0
0.0				21.0		21.0			
				0.0					
18.0	18.0		18.0				18.0		18.0
14.0	14.0		14.0						
				4.0		4.0			
0.0	0.0								
0.0	0.0								
0.0	0.0			43.0		43.0	43.0		43.0
									
54.0	54.0			28.0		28.0	28.0		28.0
	0.0		0.0				0.0		0.0
33.0	34.0			12.0		12.0	12.0		34.0
									
11.0	11.0								
4.0	4.0						4.0	4.0	
0.0	0.0								
									
				12.0		12.0	12.0		
				29.0		29.0			
0.0	0.0		0.0					0.0	
				0.0		0.0	0.0		
				0.0		0.0	0.0		
17.0	17.0		17.0					16.0	24.0
									
									
23.0	23.0		23.0					23.0	
17.0	17.0							17.0	
83.0	83.0		83.0					88.0	
	49.0						23.0		
									
	9.0			0.0		0.0	0.0		9.0
									
									
0.0	0.0		0.0				0.0		0.0
									
				0.0		0.0			0.0
	0.0						0.0		0.0
18.0				18.0		9.0			
									
	38.0						38.0		
	7.0						7.0		
24.0				24.0		24.0			
				4.0		4.0		4.0	
	36.0						36.0		
0.0	0.0								
				6.0		6.0			
									
				0.0		0.0	0.0	0.0	
			7.0						
				6.0		6.0	6.0	6.0	
	51.0						51.0		
				70.0		84.0	84.0		
14.0	14.0			58.0		58.0	58.0	58.0	
									
									
6.0	6.0		6.0	27.0		26.0		6.0	
9.0	9.0		9.0	0.0		0.0		9.0	
	10.0			8.0		8.0	10.0		10.0
	4.0		4.0	4.0		4.0	4.0		
33.0	33.0		33.0					33.0	
	0.0			18.0		18.0			0.0
				6.0		6.0			
	6.0						6.0		6.0
	6.0						6.0		6.0
									
5.0	5.0		5.0					5.0	
	0.0		0.0						
25.0	8.0		7.0	25.0		26.0	7.0		7.0
									
0.0				0.0		0.0			
	14.0		14.0				14.0		
73.0				73.0		71.0			
									
4.0				4.0		5.0			
0.0				0.0		0.0			
0.0	0.0		4.0	15.0		15.0			15.0
	0.0		0.0				0.0		0.0
									
0.0	0.0		0.0						
50.0	50.0			0.0		0.0		0.0	50.0
				21.0		21.0	21.0	21.0	
									
	0.0		0.0			25.0	25.0		25.0
44.0	44.0		42.0	25.0		25.0	25.0	25.0	44.0
0.0	25.0			0.0		0.0	0.0		0.0
5.0	5.0			5.0		5.0	5.0		5.0
									
0.0	0.0						0.0		
	0.0		0.0						0.0
	0.0		0.0						0.0
	0.0		0.0						
				73.0		73.0			
				0.0		0.0			
	45.0		45.0	65.0		65.0			
									
	47.0		47.0	14.0		14.0	47.0		47.0
									
	0.0		0.0	95.0		88.0			0.0
	10.0						12.0	12.0	12.0
	11.0						11.0	11.0	11.0
11.0	11.0								
	108.0		108.0				108.0		
									
									
	0.0		0.0	0.0		0.0			
28.0	28.0		28.0				28.0		
	41.0						41.0	3.0	
									
				0.0		0.0	0.0		
8.0	8.0		8.0						
	8.0								
				21.0		21.0		21.0	
	14.0			10.0		10.0		15.0	15.0
6.0	6.0		6.0						6.0
									
	25.0							25.0	
									
0.0	0.0						0.0		0.0
36.0	21.0		21.0	36.0		36.0	36.0		
				4.0		4.0	0.0		0.0
									
	6.0								6.0
									
	0.0							0.0	
									
18.0	17.0		18.0						18.0
30.0	30.0		30.0	8.0		8.0		8.0	
0.0				0.0		0.0			
26.0	26.0		26.0	0.0		0.0	26.0		
	0.0								
6.0	6.0			5.0		5.0	6.0		6.0
				44.0		1.0			
									
				0.0		0.0			
							10.0		
7.0	7.0			1.0		1.0	7.0		
22.0	22.0			16.0		16.0	22.0		
0.0	0.0			0.0			0.0		
22.0	22.0			0.0		0.0			
				0.0		0.0			
				46.0		46.0			
0.0	0.0		0.0	0.0		0.0	0.0		0.0
83.0	83.0		83.0				92.0		93.0
				7.0		7.0	7.0	0.0	
				8.0		8.0			
0.0	0.0		0.0				0.0		0.0
0.0				0.0		0.0			
0.0	0.0		0.0				0.0		
									
									
									
									
									
117.0	117.0		117.0				92.0		
0.0	0.0			0.0		0.0	0.0		
				63.0		62.0	63.0		
				0.0		0.0	0.0		
8.0	8.0			0.0		0.0	0.0		
				4.0		4.0	4.0		
				0.0		0.0	0.0		
				0.0		0.0			
				0.0		0.0	0.0		
0.0	0.0								
									
									
9.0	9.0								
87.0	83.0								
				0.0		0.0	0.0		
77.0	77.0			0.0		0.0	0.0		
				0.0		0.0	0.0		
				13.0		13.0	13.0		
0.0	0.0			20.0		20.0	20.0		
10.0	10.0								
9.0	9.0								
0.0	7.0								
13.0	13.0								
									
4.0	4.0			4.0		6.0	6.0		
									
									
									
0.0	0.0						0.0		
				12.0		12.0			12.0
0.0	0.0						0.0		
19.0	19.0						19.0		
				6.0		5.0			6.0
41.0	41.0						41.0		
				5.0		5.0	5.0		
0.0	0.0								
0.0	0.0						0.0		
									
0.0	0.0		0.0	38.0		38.0	38.0		
				27.0		27.0	27.0		
				4.0		4.0			
									
				8.0		8.0	8.0		
11.0	11.0						11.0		11.0
				32.0		32.0	32.0		
4.0	4.0		4.0	22.0		22.0	22.0		
56.0	56.0		56.0	4.0		4.0	4.0		54.0
									
									
5.0	5.0						5.0		6.0
12.0	12.0		12.0						
				14.0		14.0			
				7.0		7.0			
				39.0		39.0	39.0		
4.0	4.0		4.0	13.0		13.0	4.0	4.0	4.0
									
40.0	40.0		40.0				40.0	40.0	
0.0	0.0		20.0				20.0	20.0	20.0
				46.0		46.0	46.0	46.0	
				0.0		0.0			
				0.0		0.0	0.0		0.0
									
									
				0.0		0.0			0.0
									
				15.0		16.0	16.0		
									
				0.0		0.0	0.0		
0.0	0.0		0.0	9.0		9.0	0.0		9.0
	0.0			0.0		0.0	0.0	0.0	0.0
				13.0		13.0			
122.0	118.0		90.0	5.0		27.0			
									
				12.0		12.0		12.0	
									
				0.0		0.0	0.0		0.0
				12.0		12.0			
0.0	0.0		0.0	13.0		27.0	0.0		
									
				24.0		24.0			
4.0	4.0								
0.0	0.0		0.0	0.0		0.0			
0.0	0.0			7.0		7.0	7.0		7.0
									
				0.0		0.0			
18.0	18.0			0.0		0.0	0.0		0.0
									
0.0	0.0		0.0						0.0
6.0	6.0		6.0	80.0		80.0			6.0
				0.0		0.0			
0.0	0.0								
				0.0		0.0			
	0.0		0.0	0.0		0.0	0.0		0.0
	9.0		9.0				9.0		
4.0	4.0		4.0					4.0	
						0.0			
									
									
									
5.0	5.0							5.0	
	4.0			0.0		0.0	0.0		
				27.0		27.0	27.0		
	32.0			8.0		8.0	8.0		32.0
				6.0		6.0	6.0		
0.0	0.0		0.0	40.0		40.0	0.0	40.0	
									
									
16.0	16.0		8.0						
									
34.0				34.0		34.0			
				0.0		0.0	0.0		0.0
	0.0						0.0	0.0	0.0
									
	78.0						79.0		79.0
									
26.0									
	0.0						0.0		
	4.0						0.0	0.0	0.0
54.0	54.0			0.0		0.0	54.0		0.0
	9.0						10.0		
10.0	10.0		10.0						
				4.0		4.0			4.0
0.0	0.0		0.0						
	0.0						0.0	0.0	0.0
62.0	39.0			62.0		62.0	41.0		41.0
	41.0			65.0		65.0	41.0		65.0
	67.0			4.0		4.0	36.0		4.0
0.0	0.0			14.0		14.0	14.0	14.0	0.0
0.0	0.0		0.0						
									
									
									
						4.0			4.0
									
				15.0		15.0	15.0	15.0	
									
									
									
0.0	0.0		0.0	0.0		0.0		0.0	0.0
				18.0		18.0	18.0		18.0
18.0	15.0		18.0	0.0		0.0		18.0	
				5.0		5.0			
				88.0		88.0			
									
									
									
									
									
									
									
									
									
				122.0		122.0			
				0.0		0.0			
				0.0		0.0			
	54.0		53.0	0.0		0.0	0.0		54.0
	41.0		41.0	95.0		95.0	95.0		41.0
									
									
				0.0		0.0			
			25.0	0.0		0.0	25.0		0.0
				22.0		22.0			
									
									
									
				8.0		8.0	8.0		8.0
0.0	0.0		0.0	64.0		64.0	65.0	65.0	0.0
4.0	4.0			4.0		0.0			
									
									
				10.0		10.0		10.0	
	8.0								
									
						0.0		0.0	
	4.0							4.0	
									
66.0	66.0		33.0						
	22.0							21.0	
				0.0		0.0		0.0	
	9.0							8.0	
				4.0		4.0		4.0	
	0.0		0.0	0.0		0.0	0.0		0.0
									
	58.0		58.0	15.0		15.0			
	38.0		37.0	0.0		0.0	38.0		
				22.0		22.0	22.0		22.0
	6.0		6.0	122.0		129.0			
	8.0						8.0	8.0	
									
				18.0		18.0			
	73.0								70.0
13.0	13.0		13.0				13.0		
0.0	0.0								
5.0	5.0			4.0		4.0	5.0		4.0
15.0	15.0								15.0
									
33.0	33.0		33.0	0.0		0.0		0.0	33.0
								20.0	
									
				0.0		0.0	0.0	0.0	0.0
				22.0		22.0	22.0		
0.0	0.0		0.0						
									
									
	0.0								
				32.0		32.0		32.0	
				6.0		6.0		6.0	
									
									
0.0	0.0			0.0		0.0			0.0
									
	17.0			10.0		10.0		17.0	
	50.0							50.0	
									
									
									
				3.0		4.0	4.0		4.0
	29.0		29.0						
45.0	45.0						45.0		
									
24.0	24.0			34.0		34.0	24.0		
									
15.0	15.0						15.0		
									
						72.0			
				0.0		0.0			
6.0	6.0			0.0		0.0	6.0		
				15.0		15.0			
				2.0		55.0			
				86.0		43.0			
				0.0		0.0			
				16.0		16.0			
7.0	7.0		7.0				7.0		7.0
				5.0					
0.0	0.0		0.0	0.0		0.0	0.0		
				0.0		0.0			
54.0	54.0			0.0		0.0	0.0		
				110.0		110.0	110.0		
									
				0.0		0.0	0.0		
									
0.0	0.0								
									
56.0	56.0			0.0		0.0	0.0		
4.0	4.0								
64.0	64.0								
									
				0.0		0.0	0.0		
									
									
0.0	0.0						0.0	0.0	
				10.0		10.0			10.0
									
9.0	9.0			30.0		30.0	9.0		30.0
				6.0		5.0			6.0
				0.0		0.0			0.0
				0.0		0.0	0.0		
0.0	0.0		0.0	0.0		0.0	0.0	0.0	0.0
				10.0		10.0	10.0		
5.0	5.0								5.0
									
0.0	0.0			0.0		0.0	0.0		0.0
				24.0		24.0			
0.0	0.0			8.0		8.0	0.0		0.0
11.0	11.0		11.0	0.0		0.0	0.0		20.0
									
				11.0		11.0	11.0		
14.0	14.0						13.0		
	12.0								12.0
0.0									
0.0	0.0		0.0						
5.0	5.0						5.0		5.0
				10.0		10.0	10.0		
7.0	6.0		11.0						
				11.0		11.0	11.0		
23.0	23.0		23.0						23.0
16.0	16.0		16.0	4.0		4.0	4.0		
				28.0		28.0			
									
				36.0		36.0			
				6.0		6.0			
				0.0		0.0			
				0.0		0.0	0.0		
	0.0						0.0		
	0.0						0.0		0.0
6.0	6.0			52.0		52.0	52.0	6.0	
									
									
				66.0		66.0	66.0		
0.0	0.0							0.0	0.0
									
9.0	9.0							9.0	
9.0				9.0		9.0			
				38.0		38.0	38.0		
0.0	0.0		0.0				0.0		
18.0	18.0								
				0.0		0.0			
				7.0		8.0			
4.0	4.0		4.0	31.0		31.0			
									
				26.0		26.0	26.0		26.0
									
				0.0		0.0			
									
									
									
46.0	46.0			41.0		41.0	20.0		40.0
									
48.0	48.0								
	0.0		0.0				0.0		0.0
									
				0.0		0.0			
									
8.0	8.0								
	15.0		15.0				15.0		
				4.0		4.0	4.0		
				80.0		80.0	80.0		
35.0			18.0					18.0	
0.0	0.0		0.0					0.0	
									
									
									
19.0	19.0			0.0		0.0		19.0	
	24.0					12.0	12.0		
									
0.0	0.0		0.0	4.0		4.0	4.0	0.0	
				0.0		0.0	0.0		
0.0	0.0							0.0	0.0
									
									
0.0	0.0		0.0	6.0		6.0	6.0		6.0
38.0	0.0			38.0		38.0	0.0		0.0
0.0				0.0		0.0			
	46.0						68.0		
0.0	0.0			4.0		4.0	0.0		4.0
	4.0						4.0		
5.0	5.0								
									
				0.0		0.0			
									
24.0	24.0			9.0		9.0	9.0	9.0	
				0.0		0.0			0.0
				25.0		25.0			
									
									
									
0.0	0.0			9.0		9.0	9.0	9.0	0.0
	15.0						10.0		
49.0	49.0			0.0		0.0	0.0	0.0	
				0.0		0.0			
									
10.0	10.0			0.0		0.0	0.0	0.0	
									
0.0	0.0		0.0						
									
9.0	9.0							9.0	
									
21.0	21.0			8.0		8.0			
	7.0		7.0	0.0		0.0	0.0		
	0.0								
	0.0			4.0		13.0	13.0		
									
									
									
12.0	25.0		25.0	12.0		12.0	25.0		
	6.0		6.0				6.0		
									
	0.0		0.0	40.0		40.0	0.0	0.0	
									
11.0	4.0		4.0	0.0		22.0	4.0		4.0
0.0	0.0		0.0						
5.0	5.0		5.0						5.0
				29.0		29.0			29.0
				5.0		5.0		5.0	
									
	0.0			0.0		0.0	0.0	0.0	
	16.0								
				5.0		5.0			5.0
	26.0							26.0	
									
									
									
									
									
									
									
	5.0		0.0	17.0		17.0			5.0
									
0.0				0.0		0.0			0.0
									7.0
				73.0		73.0			
				16.0		16.0	16.0		
10.0	55.0			10.0		10.0	55.0		10.0
79.0	79.0			15.0		15.0			
				5.0		5.0	0.0		
47.0	47.0		22.0	12.0		12.0		12.0	34.0
	0.0		0.0						0.0
	0.0						0.0		0.0
21.0	21.0		21.0						
7.0	7.0			7.0		7.0			5.0
				49.0		49.0		12.0	
0.0	0.0		0.0						
24.0				24.0		24.0	24.0		
11.0	11.0		11.0				10.0		
									
									
									
0.0	0.0		0.0	0.0		0.0	0.0		
				50.0		50.0			
				0.0		0.0			
38.0	38.0			0.0		0.0	39.0		57.0
				0.0		0.0			
0.0	0.0						0.0		
									
				0.0		0.0			
				25.0		24.0			
									
			0.0	5.0		5.0	0.0		0.0
	16.0		16.0				16.0		16.0
				16.0		16.0			
0.0	0.0		0.0	0.0		0.0	0.0		
									
20.0	20.0								
21.0	21.0								
				4.0		4.0	4.0		
21.0	21.0			37.0		37.0	37.0		
29.0	29.0								
				0.0		0.0	0.0		
									
				100.0		100.0	100.0		
5.0	5.0			0.0		0.0	0.0		5.0
				0.0		0.0	0.0		
				27.0		27.0	27.0		
29.0				28.0		29.0			
				54.0		54.0	54.0		
8.0	8.0			28.0		28.0	28.0		
0.0	0.0			0.0					
4.0	4.0			20.0		20.0	20.0		
				25.0		25.0	25.0		
									
									
0.0	0.0			0.0		0.0	0.0		
				0.0		0.0	0.0		
0.0	0.0			7.0		7.0	7.0		
									
				16.0		1.0			
0.0	0.0			28.0		28.0	0.0		27.0
23.0	23.0						23.0		0.0
				0.0		0.0	0.0		
0.0	0.0		0.0	0.0		0.0	0.0		
5.0	5.0								5.0
				14.0		13.0	14.0		
13.0	6.0		13.0						
0.0	0.0		0.0						0.0
									
									
									
				12.0		12.0	12.0		
									
20.0	24.0			11.0		11.0	24.0		
									
									
									
				0.0		0.0	0.0		
13.0	13.0						13.0		
6.0	6.0			0.0		0.0			
0.0	0.0						0.0		
	17.0			14.0		13.0	17.0		
									
5.0	5.0		5.0				5.0	5.0	
									
	41.0			18.0		18.0	41.0		41.0
	0.0			23.0		23.0	0.0		0.0
									
	27.0						26.0		26.0
7.0	7.0		7.0				0.0	0.0	
0.0	0.0							0.0	
									
				4.0		4.0	4.0		
17.0	17.0							17.0	
									
0.0	0.0							0.0	
0.0				0.0		0.0			
									
0.0	0.0		0.0	0.0		0.0			0.0
19.0	19.0		19.0	4.0		4.0			19.0
									
0.0	0.0		0.0						
6.0	6.0			30.0		30.0	30.0		30.0
				5.0		5.0			
				28.0		27.0	28.0		28.0
0.0	0.0		0.0	0.0		0.0			0.0
				11.0		11.0			
				12.0		12.0			
						16.0			0.0
									
106.0	106.0								
									
	8.0		8.0	13.0		13.0	8.0		8.0
0.0	0.0						0.0	0.0	
				93.0		93.0	93.0		
				6.0		6.0			
				12.0		12.0	12.0	0.0	0.0
13.0	13.0		13.0	7.0		7.0	7.0	13.0	
				0.0		0.0			
				0.0		0.0	0.0		
						4.0	4.0		
39.0	39.0		39.0					39.0	
				87.0		89.0	89.0		
				0.0		0.0	0.0		
									
				10.0		10.0	10.0		
21.0	21.0		21.0						
6.0	52.0			4.0		4.0	26.0		26.0
									
0.0	0.0						0.0		
7.0	7.0		7.0	21.0		21.0	21.0		21.0
									
									
									
0.0	0.0		0.0						
47.0	47.0		0.0						
	7.0						13.0	13.0	
									
				6.0		6.0			
									
				10.0		10.0			10.0
									
4.0				4.0		4.0			
4.0	4.0								
				0.0		0.0			
7.0	0.0		7.0				7.0	7.0	
15.0	15.0								14.0
0.0	0.0			25.0		25.0	0.0		
25.0	25.0		0.0	0.0		0.0	25.0	0.0	0.0
									
7.0	7.0			35.0		35.0	35.0	35.0	
				7.0		7.0			7.0
10.0	41.0								
0.0	0.0		0.0	0.0		0.0			
	21.0		21.0	8.0		8.0	8.0		21.0
	0.0		0.0						
6.0	6.0							6.0	6.0
0.0	0.0		0.0	10.0		10.0		0.0	
6.0	6.0		6.0					6.0	
	0.0		0.0	10.0		10.0	10.0		0.0
									
0.0	0.0		0.0	0.0		0.0		0.0	
	12.0						12.0		
	73.0		73.0						73.0
	0.0			0.0		0.0	0.0		0.0
	17.0		17.0						17.0
									
	8.0		8.0				8.0		8.0
									
23.0	23.0		23.0	4.0		4.0			4.0
									
0.0	0.0		0.0				0.0		0.0
							17.0		
73.0	73.0		73.0	8.0		8.0	0.0	8.0	
				68.0		68.0	68.0	68.0	
									
0.0	0.0		0.0	0.0		0.0	0.0	0.0	0.0
0.0	0.0			0.0		0.0	0.0		
									
	4.0		4.0	6.0		6.0	4.0		6.0
									
64.0	64.0		64.0						
0.0	0.0								
				7.0		13.0	13.0	12.0	0.0
	23.0								
0.0	0.0			0.0			0.0	0.0	0.0
									
				5.0		5.0			
5.0	32.0			5.0		5.0	32.0	32.0	
									
									
									
	0.0								
									
									
	0.0		0.0	4.0		0.0	0.0		0.0
	23.0		23.0	38.0		38.0			23.0
0.0	0.0			29.0		29.0	0.0		
									
									
12.0	15.0			12.0		12.0	15.0		12.0
9.0	9.0		9.0	0.0		0.0	17.0	0.0	0.0
									
									
									
				0.0		0.0	0.0		
									
	68.0		1.0	0.0		0.0	69.0	69.0	
	35.0			0.0		0.0		69.0	69.0
									
	9.0								
									
				0.0		0.0		0.0	
	35.0		35.0						11.0
59.0	19.0			59.0		59.0			
									
									
				0.0		0.0	0.0		
	7.0		7.0	19.0		19.0	19.0		19.0
						0.0			
	0.0		0.0				0.0		
	4.0		4.0				4.0		4.0
0.0	11.0		11.0	0.0		0.0	11.0	11.0	
	8.0		8.0	17.0		17.0	8.0	17.0	8.0
									
				11.0		11.0			
									
50.0	50.0			17.0		17.0	50.0		
0.0	0.0			0.0		0.0	0.0		
									
				0.0		0.0			
				0.0		0.0			
8.0	8.0		4.0	44.0		41.0	4.0		4.0
									
									
									
				11.0		11.0			
				0.0		0.0			
0.0	0.0		0.0	0.0		0.0	0.0		0.0
8.0	8.0								
									
									
									
16.0	16.0			26.0		26.0	26.0		16.0
				5.0		5.0	5.0		
				0.0		0.0	0.0		
									
									
									
									
0.0	0.0								
0.0	0.0								0.0
									
28.0	28.0			36.0		36.0	36.0		
									
				4.0		4.0	4.0		
									
									
									
7.0	7.0			4.0		4.0	4.0		
									
20.0	20.0			38.0		38.0	20.0	20.0	
				0.0		0.0			
				10.0		10.0			
0.0	0.0			10.0		10.0			
				0.0		0.0			
									
									
									
4.0	0.0						4.0		
				12.0		12.0	0.0		0.0
0.0	0.0						0.0		0.0
10.0	10.0						10.0		10.0
0.0	0.0		0.0	5.0		5.0	6.0		
				12.0		12.0	12.0		
									
									
4.0	4.0		0.0	0.0		0.0	0.0		
16.0	16.0								
40.0	40.0						40.0		40.0
									
0.0	0.0		0.0						0.0
5.0	5.0			68.0		68.0	68.0		
				14.0		14.0	14.0		
									
0.0	0.0		0.0	6.0		57.0	57.0	57.0	
	0.0			5.0		5.0	0.0		0.0
									
	99.0						99.0		
									
				0.0		0.0			
				11.0		11.0			
									
				4.0		4.0			
	0.0						0.0		0.0
									
				0.0		0.0			0.0
									
14.0	14.0							14.0	
									
				4.0		4.0	4.0		
10.0	10.0		10.0	29.0		29.0	10.0		29.0
7.0	7.0							6.0	6.0
				4.0		4.0			
									
0.0	0.0		0.0	14.0		14.0			
4.0	4.0		4.0						4.0
99.0	99.0		99.0	6.0		6.0			
									
0.0	0.0		0.0	33.0		33.0			0.0
0.0	0.0			0.0		0.0		0.0	
0.0				0.0		0.0			
26.0	26.0		26.0				26.0		26.0
									
0.0	0.0		0.0	0.0		0.0	0.0		
				0.0		0.0			
	6.0		12.0	13.0		12.0	12.0		12.0
5.0	5.0			10.0		10.0	10.0		
									
									
				30.0		30.0	30.0		
				32.0		32.0	32.0		
									
									
									
				12.0		12.0			
	29.0								29.0
									
				37.0		37.0			
40.0	40.0							37.0	
	23.0								23.0
39.0	0.0		0.0				0.0		
38.0				37.0		37.0			
	0.0						0.0		
				0.0		0.0	0.0		0.0
21.0				22.0		21.0			
				15.0		15.0		15.0	
44.0	0.0			44.0		44.0	0.0		
									
5.0	15.0			5.0		5.0	7.0		7.0
4.0	38.0			4.0		4.0	38.0		
4.0	4.0			0.0		0.0	4.0		0.0
				0.0		0.0			
0.0	0.0			0.0		0.0	0.0		0.0
									
15.0	0.0			15.0		15.0	0.0		0.0
							0.0	0.0	0.0
				0.0		0.0			0.0
	42.0			0.0		0.0	42.0	42.0	
				4.0		4.0			
									
				14.0		14.0	14.0	14.0	
									
0.0	0.0		0.0						
40.0	40.0		40.0						40.0
				89.0		89.0	89.0		
				10.0		10.0	10.0		
									
	13.0			0.0		0.0	23.0		0.0
									
									
									
0.0	0.0		0.0	0.0		0.0		0.0	
									
									
				16.0		16.0			
								0.0	
	0.0		0.0						0.0
15.0	15.0		15.0	0.0		0.0		15.0	15.0
				7.0		7.0	7.0		
									
				120.0		120.0			
65.0	65.0								12.0
0.0	0.0		0.0				0.0		
				7.0		7.0			7.0
									
0.0	0.0		0.0						
0.0	0.0		0.0				0.0		
0.0	0.0						0.0		
	40.0		40.0				32.0		32.0
17.0	17.0		17.0						
									
									
0.0				0.0		0.0	0.0		
	26.0							35.0	
									
									
									
0.0	0.0								0.0
				0.0		0.0			0.0
									
	7.0			0.0		0.0	0.0	7.0	
23.0	23.0			14.0		14.0		14.0	
0.0	0.0						0.0		
				0.0		0.0			
	0.0		0.0						
									
									
									
				22.0		22.0	22.0		22.0
95.0				95.0		94.0			
13.0	13.0			0.0		0.0	0.0		
				0.0		0.0		0.0	
									
									
13.0				13.0		22.0			13.0
4.0	4.0		4.0				4.0		
									
5.0	5.0								
									
									
									
	0.0		0.0					0.0	0.0
									
				0.0		0.0		0.0	
									
				15.0		15.0	15.0	15.0	15.0
				15.0		15.0	15.0	15.0	15.0
									
	4.0		4.0				4.0		
	10.0		10.0				10.0	10.0	10.0
	12.0		11.0	11.0		11.0	12.0	11.0	
4.0	4.0			86.0		85.0	4.0		4.0
16.0	16.0			0.0		0.0	16.0		16.0
									
168.0	168.0								
				148.0		146.0			
0.0	0.0						0.0		
27.0	27.0						27.0		54.0
				26.0		26.0			
67.0	67.0			88.0		88.0	67.0		67.0
									
									
10.0	10.0			34.0		34.0	10.0		10.0
				0.0		0.0			
									
				41.0		41.0			
									
82.0	83.0			0.0		0.0	56.0		49.0
									
									
									
				30.0		30.0			
				29.0		29.0			
				10.0		10.0			
0.0	0.0		0.0				0.0		
				20.0		20.0			
				0.0		0.0			
									
				4.0		4.0			
0.0	0.0		0.0	46.0		46.0			
									
0.0	0.0			0.0		0.0	0.0		
									
31.0	21.0			42.0		42.0	39.0		51.0
				0.0		0.0	0.0		
				0.0		0.0	0.0		0.0
4.0	4.0								
63.0									
20.0	20.0			6.0		6.0	6.0		
				52.0		52.0	52.0		
				13.0		13.0	13.0		
				0.0		0.0			
									
									
				37.0		37.0	36.0		
				37.0		37.0			
									
									
4.0	4.0								
				99.0		99.0	99.0		
40.0	40.0			6.0		6.0		6.0	40.0
				0.0		0.0	0.0		
15.0	15.0								
									
8.0	8.0								
				31.0		31.0	31.0		
									
						8.0	8.0		
				0.0		0.0	0.0		
16.0	16.0			6.0		6.0	6.0		
									
0.0	0.0			0.0		0.0	0.0		
0.0	0.0			0.0		0.0	0.0		
22.0	22.0			36.0		36.0	36.0		
									
									
				5.0		5.0	4.0		
0.0	0.0								
									
									
0.0	0.0								
				0.0		0.0	0.0		
									
									
8.0	7.0								6.0
8.0	8.0								8.0
48.0	48.0								
									
									
0.0	0.0			7.0		7.0	7.0		0.0
0.0	0.0			20.0		20.0	20.0		
32.0	32.0								
									
66.0	66.0			0.0		0.0	66.0	66.0	
0.0	0.0			0.0		0.0	0.0	0.0	
36.0	36.0			0.0		0.0	36.0	36.0	
0.0	0.0						0.0	0.0	
7.0	7.0			12.0		12.0	7.0	7.0	5.0
33.0	33.0			0.0		0.0	33.0	33.0	
									
5.0	5.0						5.0		
				33.0		33.0			
34.0	34.0						34.0		
				0.0		0.0			
				0.0		0.0	0.0		
									
				57.0		57.0	57.0		
									
									
0.0	0.0						0.0		
				0.0		0.0			
									
									
77.0	77.0		77.0					77.0	
0.0	0.0						0.0		
				0.0		0.0			
									
									
				67.0		67.0	67.0		0.0
74.0	75.0						74.0		75.0
0.0	0.0		0.0						0.0
				50.0		49.0	49.0		
									
16.0	16.0		16.0						
0.0	0.0			0.0		0.0	0.0		
4.0	0.0			87.0		86.0	4.0		
0.0	0.0		0.0	0.0		0.0	0.0		0.0
									
				0.0		0.0			
				15.0		15.0	15.0		
0.0	0.0		0.0	8.0		8.0	0.0	0.0	
16.0	16.0		16.0	17.0		20.0	16.0	16.0	
	9.0		7.0	0.0		15.0	9.0		16.0
				0.0		0.0			
	10.0			50.0		49.0	10.0		10.0
	53.0			11.0		11.0	53.0		
									
	64.0			96.0		96.0			64.0
	37.0			96.0		24.0	37.0		37.0
				61.0		61.0			
	0.0			24.0		24.0	0.0		0.0
									
				102.0		102.0			102.0
									
45.0	45.0			0.0				62.0	
				0.0		0.0			0.0
									
6.0	4.0			20.0		20.0	20.0	8.0	
									
									
24.0	24.0			61.0		61.0	61.0	24.0	24.0
				8.0		8.0	8.0		
				13.0		13.0	13.0		
5.0	5.0							8.0	
									
6.0	6.0							6.0	
29.0	0.0								
	61.0		97.0				97.0	97.0	97.0
				72.0		72.0	72.0		
43.0	43.0		43.0				43.0		
20.0	20.0		20.0						27.0
									
11.0	11.0		11.0	7.0		7.0			
0.0	0.0		0.0						0.0
				47.0		47.0			
52.0	52.0		52.0	0.0			52.0		52.0
				0.0		0.0			
									
0.0	0.0		0.0	0.0		0.0			0.0
				4.0		4.0			
									
				32.0		32.0	23.0		23.0
									
									
				42.0		42.0			
				0.0		0.0			
0.0	0.0		0.0						0.0
	0.0		0.0	24.0		24.0	0.0		
	80.0		40.0				40.0		
				0.0		0.0	0.0		
4.0	4.0								
29.0	29.0						28.0	28.0	
0.0	0.0			0.0		0.0	0.0		0.0
0.0	0.0								
									
									
									
0.0	0.0		0.0	0.0		0.0	0.0		
				30.0		30.0	30.0		
4.0	4.0		4.0	0.0		0.0	0.0	4.0	4.0
				12.0		12.0	12.0		
54.0	54.0		0.0	5.0		5.0	5.0	54.0	54.0
	656.0			64.0		27.0	64.0		
	10.0								
									
				0.0		0.0		8.0	8.0
5.0	5.0			0.0		0.0		5.0	
	0.0			0.0		0.0	0.0		0.0
				10.0		10.0	10.0		
				4.0		4.0			
15.0	16.0		16.0					16.0	
									
				18.0		17.0			
0.0	8.0			57.0		57.0	8.0		
				6.0		6.0			6.0
									
5.0	0.0			5.0		5.0	0.0		
									
									
47.0	48.0		48.0						
									
				15.0		15.0	0.0	0.0	
				23.0		23.0			23.0
11.0	11.0		11.0						
									
	46.0						46.0	46.0	
34.0	34.0		34.0						
				14.0					
12.0	12.0		12.0						
									
									
0.0	0.0			0.0		0.0			0.0
				14.0		14.0			
	16.0						16.0	16.0	
0.0	0.0						0.0		
				101.0		96.0	100.0	101.0	
									
									
	8.0			42.0		21.0	7.0		21.0
									
10.0	9.0								
23.0	23.0			0.0		0.0	0.0	0.0	
				54.0		54.0			53.0
8.0	8.0		8.0	0.0		0.0	0.0		
									
0.0	0.0		0.0	0.0		0.0		0.0	
0.0	0.0		0.0	0.0		0.0		0.0	
				23.0		23.0			
				17.0		17.0			
				0.0		0.0	0.0		0.0
									
	4.0						4.0		4.0
5.0	5.0							5.0	
	0.0		0.0	0.0		0.0	0.0		0.0
				0.0		0.0			
									
	0.0			0.0		0.0	0.0		0.0
									
	0.0						0.0		0.0
									
	13.0						17.0		17.0
									
	4.0						4.0		4.0
				14.0		14.0			
				7.0		7.0			
				6.0		6.0			
4.0	4.0		4.0	0.0		0.0	4.0		0.0
16.0				16.0		17.0			
									
				32.0		32.0			24.0
	4.0		4.0				4.0		
									
									
									
				32.0		32.0			
									
0.0	0.0		0.0				0.0		
	0.0		0.0				0.0	0.0	
0.0	0.0		0.0						
									
									
	51.0							8.0	
0.0	0.0		0.0	35.0		35.0			0.0
0.0	0.0			0.0		0.0	0.0		
	0.0			21.0		21.0	21.0		
	6.0		6.0				6.0		
									
18.0	18.0		18.0	0.0		0.0			
									
				17.0		17.0		17.0	
									
0.0	0.0		0.0	8.0		8.0	8.0	8.0	
45.0	45.0		45.0						
6.0	0.0			6.0		6.0	6.0		
	23.0								
	17.0							17.0	17.0
				0.0		0.0		0.0	
									
	0.0							0.0	0.0
									
	62.0			12.0		12.0	12.0		12.0
4.0	4.0		4.0	56.0		56.0	55.0	4.0	0.0
				4.0		4.0			
									
	4.0						0.0	0.0	
									
4.0	4.0			0.0		0.0		4.0	0.0
									
									
									
									
	0.0		6.0	0.0		0.0			
				8.0		8.0			
	36.0			27.0		27.0	27.0		27.0
									
									
				0.0		0.0			
14.0	14.0		10.0					5.0	
									
	0.0		0.0						
0.0				0.0		0.0			
				28.0		28.0			
									
				0.0		0.0	0.0		
									
16.0				16.0		16.0			22.0
									
	0.0								
							24.0		
				25.0		25.0			25.0
	7.0						7.0		
									
				4.0		4.0			
0.0				0.0		0.0	0.0		
									
0.0	0.0		0.0						
				0.0		0.0	0.0		0.0
				14.0		14.0		14.0	
	60.0						60.0		60.0
16.0	16.0		16.0	0.0		0.0		0.0	
									
									
	0.0		0.0						
30.0	10.0			30.0		30.0	5.0		
4.0				4.0		0.0			
									
	70.0			7.0		7.0		70.0	62.0
									
									
				147.0		147.0		147.0	
									
	9.0						9.0		
42.0	42.0		42.0						
	26.0						51.0		51.0
									
30.0				30.0		30.0			
	0.0		0.0				0.0		0.0
									
	4.0			6.0		6.0	4.0		6.0
				97.0		97.0		97.0	
				41.0		41.0	41.0		41.0
10.0	10.0		10.0				10.0		
10.0	10.0						10.0		10.0
115.0	115.0			25.0		25.0	54.0		53.0
				51.0		51.0			
									
37.0	37.0						37.0		37.0
									
				0.0		0.0			
									
									
				0.0		0.0			
				64.0		64.0			
									
									
				8.0		4.0	4.0		
									
				53.0		53.0	53.0		
									
									
				7.0		7.0	7.0		
				25.0		25.0	25.0		
				14.0		14.0	14.0		
									
				0.0		0.0	0.0		
0.0	0.0								
									
				8.0		8.0	8.0		
4.0	4.0			0.0		0.0	0.0		
									
7.0	7.0			11.0		19.0	19.0		
				10.0		12.0	12.0		
0.0	0.0								
									
									
									
6.0	6.0			5.0		5.0	6.0	6.0	
				41.0		41.0			
									
									
									
6.0	6.0		6.0						
7.0	7.0		7.0						8.0
0.0	0.0						0.0		
				16.0		16.0			
0.0	0.0		0.0	0.0		0.0	0.0		0.0
41.0	41.0								
									
18.0	18.0		18.0	4.0		4.0	4.0		18.0
									
				133.0		133.0			
14.0	14.0		14.0						
0.0	0.0						0.0		
				0.0		0.0			
									
				0.0		0.0			
	4.0						4.0		
									
				21.0		21.0			
									
									
									
									
6.0	6.0			8.0		8.0	8.0	6.0	
				0.0		0.0	0.0		
				14.0		14.0			
				0.0		0.0	0.0		0.0
			0.0					0.0	
18.0	19.0			21.0		21.0	19.0	21.0	19.0
132.0	132.0		132.0	0.0		0.0			
									
							0.0		
				37.0		37.0			
8.0	8.0		8.0	0.0		0.0			8.0
8.0	8.0								
	10.0		10.0				10.0		10.0
			0.0				0.0		0.0
	5.0		5.0				5.0		5.0
				6.0		6.0	6.0		
20.0	20.0								20.0
20.0	20.0		20.0				10.0		
									
19.0	19.0			4.0		4.0	4.0		19.0
				0.0		0.0	0.0		
									
4.0	4.0		4.0					4.0	
									
				65.0		65.0	65.0		
									
	0.0			0.0		0.0	0.0		
									
									
									
49.0	49.0		49.0	0.0		0.0	0.0		0.0
10.0	10.0		10.0				10.0		10.0
									
0.0	0.0		0.0						
									
									
15.0				15.0		15.0			
				0.0		0.0			0.0
				18.0		18.0		18.0	
	7.0			6.0		6.0	18.0		5.0
				47.0		47.0	47.0		
0.0	0.0			21.0		21.0	21.0	21.0	0.0
									
4.0	4.0		4.0					4.0	4.0
4.0	4.0							4.0	
	5.0		5.0						
	12.0								12.0
									
	11.0			20.0		20.0	10.0		11.0
16.0	16.0		17.0					9.0	9.0
	28.0			46.0		46.0	28.0		27.0
6.0				6.0		6.0			
						6.0			
				0.0		0.0			
12.0	12.0		4.0	30.0		30.0		4.0	4.0
				0.0		0.0			
									
									
									
				6.0		6.0		6.0	
				6.0		6.0	6.0		6.0
									
									
									
				5.0					
				0.0		0.0		0.0	
									
									
				0.0		0.0	0.0		
14.0	14.0		14.0						14.0
	17.0			0.0		0.0	0.0	17.0	
0.0	0.0								0.0
6.0	0.0			6.0		6.0	7.0		
									
				39.0		39.0		39.0	
									
									
									
9.0	9.0						9.0		
0.0	48.0			0.0		0.0			48.0
	43.0		48.0	0.0		0.0			
									
									
	3.0		33.0						
	25.0						26.0		
24.0				24.0		24.0			24.0
									
									
22.0	22.0		22.0						
	10.0			0.0		0.0		10.0	
									
				11.0		11.0			11.0
0.0	0.0		0.0					0.0	
16.0	16.0		16.0					16.0	
							0.0		
									
				0.0		0.0			
				12.0		12.0		12.0	
38.0	38.0			10.0		10.0	38.0		
									
13.0	13.0						13.0		13.0
5.0	5.0			8.0		7.0	4.0		4.0
				0.0		0.0			
39.0	39.0						39.0		
19.0	19.0						19.0		19.0
									
0.0	0.0		0.0	9.0		9.0	0.0		0.0
34.0	34.0		28.0				28.0		
				28.0		36.0			
				0.0		0.0			
11.0	11.0			0.0		0.0	0.0		
12.0	12.0			34.0		17.0	17.0		
									
40.0	40.0								40.0
0.0	0.0								
4.0	4.0								
0.0	0.0			8.0		8.0	8.0		
				0.0		0.0	0.0		
4.0	4.0			12.0		12.0	12.0		
				8.0		8.0	8.0		
0.0	0.0								
49.0	49.0			0.0		0.0	0.0		
0.0	0.0					0.0	0.0		
									
28.0	28.0						14.0		14.0
				0.0		0.0	0.0		
			0.0						
24.0	24.0			13.0		13.0			24.0
									
13.0	13.0						13.0		
5.0	5.0						5.0		
0.0	0.0						0.0		
70.0	70.0		70.0						
									
									
9.0	9.0								9.0
									
19.0	20.0		20.0				20.0	20.0	20.0
	0.0			4.0		4.0	0.0		0.0
0.0	0.0							0.0	
0.0	0.0							0.0	
0.0	0.0							0.0	
				13.0		13.0	0.0		
				0.0		0.0			0.0
				25.0		25.0	25.0		
				0.0		0.0			
17.0	17.0								
				35.0		35.0			
10.0	10.0		10.0						
									
				0.0		0.0			
				0.0		0.0			
									
				0.0		0.0			
									
				0.0		0.0			
				39.0		39.0	31.0		
									
							4.0		
									
				0.0		0.0			
									
12.0	12.0			0.0		0.0		12.0	12.0
				7.0		7.0	7.0		
				0.0		0.0			
				95.0		1.0	95.0		
				0.0		0.0	0.0		
									
				15.0		15.0	14.0		
				6.0		6.0	6.0		
17.0	17.0		17.0				17.0		
									
6.0	6.0		6.0						
									
				0.0		0.0			0.0
									
									
16.0	16.0		16.0						
0.0	0.0		0.0						
0.0	0.0			14.0		14.0	0.0		14.0
0.0				0.0		0.0			
0.0	0.0								
									
									
									
				4.0		4.0	4.0	4.0	
				8.0		8.0	8.0		
									
				7.0		7.0	7.0	7.0	
									
				0.0		0.0	0.0	0.0	
	0.0						0.0		0.0
									
									
4.0	4.0		4.0						
				0.0		0.0			
				0.0		0.0			
13.0	13.0		13.0	0.0		0.0		13.0	13.0
				0.0		0.0			
				11.0		11.0			
	12.0			18.0		18.0	12.0		12.0
									
				9.0		9.0			
				0.0		0.0			
	120.0			5.0		5.0			121.0
				21.0		21.0			21.0
				13.0		13.0			13.0
0.0	0.0		0.0	13.0		13.0		13.0	0.0
									
				9.0		9.0			
									
63.0	63.0		63.0			10.0	10.0	10.0	
									
									
88.0	88.0								
11.0	11.0		11.0	0.0		0.0	0.0	0.0	
									
				0.0					
	36.0		36.0				36.0		36.0
				0.0		0.0			
				0.0		0.0			
	41.0		41.0	0.0		0.0			31.0
				0.0		0.0			
				5.0		5.0	5.0		5.0
	0.0		0.0	5.0		5.0			0.0
	0.0		0.0	5.0		5.0			0.0
									
13.0	13.0			5.0		5.0	13.0		
				27.0		27.0			
	6.0			34.0		34.0	34.0		34.0
									
0.0									
									
16.0	16.0		16.0					0.0	
									
									
	0.0		0.0	0.0		0.0	0.0	0.0	
				9.0		9.0		9.0	
				0.0		0.0	0.0		0.0
0.0	0.0		0.0					0.0	
									
									
									
				0.0		0.0			
									
8.0	8.0						8.0		8.0
4.0	4.0		4.0				4.0		
				21.0		21.0			
									
0.0	0.0			0.0		0.0	0.0		0.0
84.0	84.0						84.0		84.0
42.0	42.0		42.0	4.0		4.0		4.0	42.0
0.0	0.0			42.0		42.0	4.0		
				60.0		60.0			
				60.0		60.0	60.0	60.0	
									
0.0	0.0		0.0						0.0
				32.0		32.0			
21.0	21.0			25.0		25.0	21.0		
									
				43.0		42.0			
									
7.0	7.0			14.0		14.0	7.0		7.0
48.0	48.0						48.0		
				0.0		0.0			
				33.0		33.0			
									
0.0	0.0						0.0		
				0.0		0.0			
									
				0.0		0.0			
									
									
17.0	17.0		17.0				17.0		17.0
				17.0		17.0			
				0.0		0.0			
0.0	0.0		0.0				0.0		0.0
				5.0		5.0			
0.0	0.0		0.0				0.0		
				40.0		21.0			
				6.0		6.0			
37.0	37.0		37.0	34.0		34.0	37.0		
0.0	0.0								0.0
8.0	7.0			31.0		31.0	31.0		
									
9.0	9.0			17.0		16.0	16.0		
142.0	77.0			37.0		37.0	37.0		
									
4.0	4.0			20.0		20.0	20.0		
6.0	6.0								
15.0	15.0			10.0		10.0	10.0		15.0
6.0	6.0			0.0		0.0	0.0		
13.0	14.0			34.0		34.0	34.0		
37.0	37.0								
0.0	0.0			0.0		0.0	0.0		
									
									
31.0	31.0								
				8.0		0.0	17.0		
0.0	0.0								
									
12.0	12.0								
0.0	0.0			0.0		0.0	0.0		
7.0	0.0			6.0		6.0	6.0		
				10.0		10.0	10.0		
									
5.0	4.0			28.0		28.0	28.0		
				10.0		10.0			10.0
				10.0		10.0	10.0		
									
0.0	0.0			0.0		0.0	0.0	0.0	0.0
0.0	0.0								
25.0	25.0								
0.0	0.0								
4.0	4.0			49.0		49.0	49.0		4.0
0.0	0.0			0.0		0.0	0.0		
									
				70.0		70.0	70.0		
									
5.0	1.0			0.0		0.0	0.0		
4.0	4.0			44.0		54.0	49.0		
26.0	26.0								
									
									
									
									
				0.0		0.0	0.0		
									
0.0	0.0								
	0.0						0.0	0.0	0.0
				69.0		69.0			
54.0	54.0					0.0	54.0	54.0	
				0.0					
				20.0		20.0			
8.0	8.0						8.0	8.0	
0.0	12.0			0.0		0.0	12.0	12.0	
0.0	0.0			0.0		0.0	0.0	0.0	0.0
0.0	0.0			0.0		0.0	0.0	0.0	
				92.0		91.0			
									
									
0.0	0.0						0.0		
									
									
41.0	41.0		41.0						41.0
9.0	9.0		9.0						
									
9.0	9.0						9.0		9.0
4.0	4.0		4.0						
6.0	6.0		6.0	0.0		0.0	0.0		
6.0	6.0						6.0		6.0
				6.0		6.0	6.0		
				27.0		27.0			
				0.0		0.0			
									
				36.0		36.0	34.0		
									
10.0	10.0		10.0						
									
									
0.0	0.0			15.0		15.0	0.0		0.0
0.0	0.0		0.0						
				5.0		5.0			
0.0	0.0								
7.0	7.0			74.0		74.0	7.0		
20.0	20.0			0.0		0.0			
5.0	5.0						5.0		
0.0	0.0		0.0	25.0		14.0	14.0		
7.0	7.0		7.0						
	17.0						17.0		17.0
				4.0		4.0			
5.0	5.0		5.0				9.0	9.0	9.0
						0.0			
	0.0			0.0		0.0	0.0		
							8.0		8.0
									
6.0	6.0		6.0				6.0	6.0	
									
	39.0						39.0		
									
				23.0		23.0	23.0		23.0
				23.0		23.0			
4.0	0.0			4.0		4.0	0.0	0.0	
	0.0			0.0		0.0	0.0		
	5.0			29.0		29.0	5.0		
									
	24.0			7.0		7.0	24.0		
				27.0		27.0			
19.0	19.0							11.0	
				10.0		10.0	10.0		
									
0.0	0.0		0.0	5.0		1.0	7.0		5.0
				0.0		0.0	0.0		
									
									
				22.0		22.0	22.0		
				0.0		0.0	0.0		
									
									
									
62.0	62.0			17.0		17.0	17.0	62.0	62.0
0.0	0.0							0.0	
									
43.0	43.0		43.0	94.0		94.0			43.0
									
									
	0.0						0.0		0.0
				9.0		9.0	9.0		9.0
									
0.0	0.0		0.0	38.0		38.0	0.0		0.0
									
									
86.0	86.0		86.0	0.0		0.0			
0.0	0.0		0.0						
0.0	0.0		0.0	26.0		26.0			0.0
									
0.0	0.0			0.0		0.0	0.0		0.0
4.0	4.0		4.0						
9.0	9.0		9.0				9.0		
									
7.0	7.0		7.0						7.0
7.0	7.0		7.0				7.0		7.0
				107.0		108.0			
8.0	8.0		8.0	18.0		18.0			
12.0	12.0								
									
									
	0.0		0.0	0.0		0.0	0.0		0.0
0.0	0.0			15.0		15.0	15.0		0.0
				0.0		0.0			
	0.0		0.0				0.0		0.0
									
	0.0		0.0				0.0		0.0
									
	66.0		66.0				66.0		
34.0	34.0			31.0		31.0	31.0		
	93.0		93.0	26.0		26.0	93.0		93.0
				9.0		9.0			
									
				0.0		0.0			
				0.0		0.0	0.0		
				8.0		8.0	8.0		
									
				0.0		0.0			
53.0	53.0		53.0	0.0		0.0	0.0	35.0	
15.0	15.0		15.0					15.0	15.0
									
									
									
				0.0		0.0	0.0		
0.0	0.0		0.0	0.0		0.0	0.0		
42.0	42.0		42.0					42.0	
42.0	42.0		42.0					42.0	
0.0	0.0		0.0	10.0		10.0	10.0	0.0	0.0
0.0	0.0		0.0					0.0	0.0
				0.0		0.0	0.0		
				25.0		25.0	25.0		
									
				18.0		18.0			
									
0.0	0.0		0.0						
									
	9.0						9.0	9.0	
	9.0						9.0		
									
18.0	18.0		18.0						
				9.0		9.0		9.0	
25.0	25.0		1.0	45.0		45.0	45.0		45.0
	0.0						0.0		
64.0	64.0		64.0				34.0		
									
									
									
	0.0			5.0		5.0	0.0	0.0	0.0
				24.0		24.0			24.0
									
									
									
				51.0		51.0		51.0	
109.0	2.0		109.0				107.0		108.0
32.0	32.0								
									
				64.0		63.0			
	0.0						0.0		
									
							0.0	0.0	0.0
	0.0			40.0		40.0	0.0		40.0
									
									
	7.0						7.0		
	6.0						5.0		
									
	24.0			33.0		33.0	24.0		33.0
0.0	0.0								
16.0	16.0			0.0		0.0	0.0	0.0	
				0.0		0.0	0.0	0.0	
									
0.0	0.0			0.0		0.0	0.0	0.0	0.0
74.0	74.0			14.0		8.0	14.0	14.0	
34.0	34.0								
									
	0.0		0.0	0.0		0.0	0.0		
				0.0		0.0			
				10.0		10.0	10.0		
									
									
0.0	0.0		0.0					0.0	
	4.0		4.0	0.0		0.0	0.0		
0.0	0.0		0.0	0.0		0.0		0.0	
									
	4.0								
				4.0		4.0			
									
	17.0		17.0						
0.0	0.0		0.0					0.0	
	0.0			0.0		0.0			
									
	0.0			17.0		17.0			
6.0	6.0		0.0					6.0	
	14.0		14.0						
									
									
				30.0		30.0			
7.0	7.0			0.0		0.0			
				19.0		39.0			
	0.0		0.0	4.0		4.0			
	0.0			4.0		4.0	0.0		0.0
									
8.0	8.0		8.0	0.0		0.0		8.0	
									
									
	0.0		0.0						
									
0.0	14.0		21.0	0.0		0.0	11.0		11.0
16.0	0.0		16.0				16.0		
									
									
	9.0		9.0				9.0	9.0	
				0.0		0.0			0.0
0.0	5.0		5.0	0.0		0.0	5.0		5.0
									
				0.0		0.0	0.0	0.0	
0.0				0.0		0.0	0.0		
18.0	18.0		18.0	100.0		99.0	100.0	100.0	
									
0.0	0.0			34.0		34.0	34.0	34.0	
				5.0		6.0	6.0		
15.0	14.0								
				38.0		38.0			
	30.0			5.0		5.0	5.0	30.0	
				0.0		0.0			0.0
	4.0								4.0
									
0.0				0.0		0.0	0.0		
10.0	10.0		10.0	0.0		0.0			
							4.0		
									
									
				17.0		17.0			
0.0	0.0								
									
				7.0		7.0		7.0	
8.0	8.0			0.0		0.0	0.0		0.0
	0.0			11.0		11.0	11.0	0.0	
33.0	32.0			10.0		36.0		36.0	33.0
									
								24.0	
0.0	0.0								
									
0.0	0.0								
	0.0		0.0	0.0		0.0	0.0		
	0.0		0.0	9.0		9.0	0.0		0.0
	12.0			14.0		14.0	14.0		7.0
									
				0.0		0.0			0.0
									
7.0				7.0		7.0			
	10.0		10.0	37.0		37.0			10.0
	17.0		17.0						17.0
						0.0	0.0		0.0
	0.0		0.0				0.0		
	0.0					4.0	4.0		4.0
									
									
0.0	0.0			32.0		32.0	0.0		
				15.0		15.0			
									
	4.0								
43.0	43.0								
									
									
									
				22.0		22.0	22.0		
				5.0		5.0			
									
	0.0								
									
									
									
	37.0		37.0	14.0		14.0	14.0	38.0	38.0
				6.0		6.0	6.0		
				7.0		8.0		8.0	
66.0				66.0		133.0			
0.0	0.0		0.0	8.0		8.0		8.0	22.0
									
				5.0		5.0			
	4.0		4.0	14.0		14.0	14.0	4.0	4.0
				0.0		0.0	0.0		
26.0	26.0		26.0	14.0		14.0		14.0	
									
	0.0							0.0	
									
	0.0		0.0					0.0	
				0.0		0.0	0.0		
									
	0.0			0.0		0.0		0.0	0.0
									
									
9.0	9.0		9.0				9.0		
				8.0		8.0			8.0
									
									
15.0				15.0		15.0			
36.0	37.0		37.0	9.0		9.0		37.0	9.0
									
0.0	0.0		0.0				0.0		
									
13.0	13.0						13.0		
				67.0		67.0			
				37.0		36.0			
0.0	0.0			0.0		0.0			0.0
				0.0		0.0			
				10.0		10.0			
10.0	10.0						10.0		
9.0	9.0								
17.0	17.0						17.0		17.0
									
									
16.0	16.0			0.0		0.0	16.0		
									
									
									
				0.0		0.0			
6.0	6.0		6.0	9.0		9.0	6.0		
				67.0		67.0			
				0.0		0.0			
0.0	0.0		0.0	0.0		0.0	0.0		
				0.0		47.0			
				47.0		47.0			
									
13.0	13.0		26.0	11.0		11.0	25.0		26.0
									
									
				0.0		0.0	0.0		
19.0	19.0								
68.0	68.0								
0.0	0.0								0.0
				0.0		0.0	0.0		
20.0	20.0			0.0		0.0	0.0		
15.0	15.0								
7.0	7.0								
12.0	12.0								
									
									
				26.0		26.0	26.0		
0.0	0.0			0.0		0.0	0.0		
0.0	0.0			0.0		0.0	0.0		
0.0	0.0			10.0		10.0	10.0		
0.0	0.0								
									
									
				0.0		0.0	0.0		
									
				0.0		0.0	0.0		
4.0	4.0								
4.0	4.0			0.0		0.0	0.0		
									
5.0	5.0								
10.0	10.0			8.0		8.0	8.0		
				4.0		4.0	4.0		
				46.0		46.0	46.0		
									
									
									
				0.0					
									
									
									
									
28.0	28.0								
9.0	9.0			6.0		6.0	9.0	9.0	9.0
									
									
									
				28.0		27.0			
									
				4.0		4.0			
				4.0		4.0			
									
				26.0		23.0			
				12.0		12.0			
									
24.0	24.0			5.0		5.0	24.0	24.0	
0.0	0.0						0.0		
				0.0		0.0			
50.0	50.0			14.0		14.0	50.0		14.0
0.0	0.0		0.0	0.0		0.0	0.0		
47.0	47.0		47.0	0.0		0.0	0.0		47.0
46.0	46.0			22.0		21.0			23.0
19.0	38.0		38.0						38.0
0.0	0.0		0.0	0.0		0.0	0.0		
				19.0		19.0			
4.0	4.0		4.0	0.0		0.0	0.0		4.0
66.0	66.0		66.0						
									
0.0	0.0						0.0		0.0
									
				60.0		60.0			
									
									
98.0	98.0		98.0	0.0		0.0	0.0		
				9.0		9.0			
									
									
				0.0		0.0			
				105.0		105.0	105.0		
									
									
				23.0		23.0			
8.0	8.0		8.0						
				4.0		4.0			
5.0	0.0		5.0	0.0		0.0	5.0	5.0	5.0
	0.0			0.0		0.0	0.0		
	0.0						0.0		
	8.0			0.0		0.0	8.0		
				29.0		58.0			
	0.0			14.0		14.0	0.0		
				0.0		0.0			
				37.0		36.0			
	34.0			5.0		5.0	34.0		
	0.0			20.0		20.0	0.0		0.0
				0.0		0.0			
	0.0								
7.0	7.0		7.0	0.0		0.0	13.0	13.0	
	0.0								
				81.0		81.0			
	4.0			4.0		4.0	4.0		4.0
	0.0			8.0		8.0			
	0.0						0.0		0.0
	4.0			0.0			4.0		
				0.0		0.0	0.0		
									
4.0	4.0		0.0	0.0			4.0		0.0
0.0	0.0		0.0	4.0		4.0		0.0	
0.0	0.0		0.0				0.0		
									
14.0	14.0			4.0		4.0	4.0	13.0	14.0
				0.0		0.0	0.0		
						0.0	14.0		0.0
									
				16.0		16.0	16.0		
0.0	0.0							0.0	
0.0	0.0							0.0	
									
				0.0		0.0			
	0.0			0.0		0.0		0.0	
									
									
0.0	0.0		0.0						
				0.0		0.0			
				0.0		0.0	0.0		0.0
									
81.0	81.0								
									
									
0.0	0.0			42.0		42.0		42.0	
0.0	0.0		0.0				0.0		0.0
0.0	0.0		0.0	0.0		0.0			
									
									
				23.0		22.0			
				101.0		102.0			
	20.0		20.0				20.0		
									
									
									
	39.0		2.0				39.0		39.0
				0.0		0.0	0.0		
									
				0.0		0.0			
				0.0		0.0			
5.0	1.0								0.0
	6.0		6.0	0.0		0.0	6.0		6.0
0.0	0.0			0.0		0.0	0.0		
				0.0		0.0			
									
				72.0		71.0			
				28.0		27.0	28.0		
0.0	0.0								
				36.0		36.0			
13.0	13.0		13.0					13.0	13.0
0.0	22.0		22.0					22.0	
									
				0.0		0.0	0.0		
				0.0		0.0	0.0		
0.0	0.0		0.0						
									
24.0	24.0		24.0					24.0	
				0.0		0.0			
0.0	0.0							0.0	
				24.0		24.0	24.0		
0.0	0.0		0.0	12.0		12.0	12.0	0.0	0.0
0.0	0.0							0.0	0.0
26.0	26.0		26.0	68.0		68.0	68.0	26.0	
6.0	6.0		6.0	6.0		6.0	6.0	12.0	12.0
									
10.0	10.0		10.0						
73.0	0.0			73.0		73.0	0.0		0.0
	0.0					35.0	36.0		
									
	0.0						0.0		0.0
				55.0		9.0			
	0.0						4.0		4.0
	0.0		0.0	0.0					
86.0	0.0			86.0		86.0	0.0		0.0
				0.0		0.0	0.0		0.0
14.0	14.0		14.0						
29.0	29.0			0.0		0.0	29.0		0.0
0.0	0.0			0.0		0.0			0.0
9.0	0.0		9.0	97.0		97.0	96.0		96.0
19.0				19.0		19.0			
	0.0						0.0		0.0
87.0				71.0		71.0			
8.0	8.0		8.0						
				5.0		5.0	5.0		5.0
0.0	38.0			0.0			38.0		
16.0	16.0								
									
									
				0.0		0.0			0.0
									
14.0	14.0								
				14.0		14.0	14.0	14.0	
									
									
				17.0		17.0	17.0	17.0	
22.0	22.0								
	9.0			44.0		40.0	9.0		9.0
	26.0		26.0						
	15.0			80.0		80.0	16.0		16.0
25.0			25.0					25.0	
									
				7.0		7.0			
									
	0.0						0.0		0.0
				0.0		0.0			
									
				50.0		50.0			
				0.0		0.0			
				0.0		0.0			
	32.0		32.0	4.0		4.0	4.0		
	0.0						0.0		0.0
				47.0		47.0	47.0		
	16.0		16.0						16.0
	12.0		12.0	6.0		6.0	6.0		12.0
				21.0		21.0			
				17.0		17.0	17.0		
				7.0		7.0	7.0		
	11.0								11.0
	4.0						4.0		4.0
				43.0		43.0			
4.0	4.0		4.0	18.0		18.0		4.0	
									
	0.0						0.0		
				0.0		0.0			
									
	10.0			76.0		76.0	10.0		10.0
									
									
7.0				7.0		7.0			
0.0	0.0		30.0	0.0		0.0	30.0		30.0
									
							0.0	0.0	
									
				0.0		0.0			
									
	6.0		7.0				7.0		7.0
				0.0		0.0		0.0	0.0
				0.0		0.0			0.0
	0.0		0.0				0.0		
									
									
0.0	0.0		0.0	45.0		45.0	45.0	45.0	0.0
0.0	0.0		0.0	0.0		0.0			0.0
	12.0			19.0		19.0	19.0	12.0	12.0
									
									
									
16.0				16.0		16.0	16.0		
									
									
0.0	0.0								
18.0	18.0		18.0	12.0		12.0	12.0	12.0	
8.0	8.0		8.0	15.0		15.0	15.0	15.0	
									
									
0.0	0.0		0.0						
				0.0		0.0			
	0.0			4.0		4.0	4.0	0.0	
									
9.0	9.0		9.0						
	0.0						0.0		
	13.0		13.0						13.0
									
									
	5.0		5.0	11.0		11.0			
4.0	12.0			4.0		4.0	12.0	12.0	12.0
	36.0		36.0						36.0
				48.0		48.0			
16.0	17.0			22.0		22.0	17.0		
									
93.0				93.0		93.0			
	27.0						27.0		27.0
	27.0						27.0	27.0	
									
	6.0		6.0	8.0		8.0			
4.0	0.0			4.0		4.0	0.0		
	0.0		0.0	0.0		0.0	0.0		0.0
6.0	6.0			36.0		36.0	6.0		
49.0	49.0			8.0		8.0	49.0		
	0.0								
									
				43.0		43.0			
				0.0		0.0			
									
	0.0								
	0.0						0.0		
	6.0						6.0		
12.0	11.0			22.0		22.0			
	90.0		90.0	50.0		50.0	50.0	90.0	90.0
									
16.0				16.0		16.0			4.0
									
	4.0		4.0	0.0		0.0	0.0	4.0	4.0
									
81.0	81.0		81.0						
0.0	0.0		0.0						
9.0	9.0		9.0						9.0
									
8.0	8.0								
0.0	0.0		0.0	0.0		0.0	0.0		0.0
	10.0								
0.0				0.0		0.0			
20.0				20.0		20.0			
0.0	0.0			0.0		0.0	0.0		
									
									
									
	12.0		12.0	4.0		4.0	12.0	4.0	
10.0	39.0		31.0				39.0		
	4.0		4.0	64.0		64.0	4.0	62.0	4.0
0.0	0.0		0.0	15.0		15.0			
									
				26.0		26.0			
	0.0								
				15.0		15.0	15.0		15.0
8.0	8.0		8.0				8.0		
				9.0		9.0			
				13.0		13.0			
							4.0		4.0
				0.0		0.0			
									
									
				16.0		16.0			
				5.0		5.0			
				100.0		99.0			
									
									
									
						0.0			
				9.0		1.0	4.0		
5.0	5.0			0.0		0.0	6.0		
									
									
									
									
									
25.0	25.0		25.0				25.0		
				30.0		30.0			
10.0	10.0		8.0	17.0		17.0	8.0		8.0
59.0	59.0		59.0	0.0			59.0		59.0
22.0	22.0		19.0	19.0		19.0	18.0		
				0.0		0.0			
14.0	14.0		14.0				14.0		14.0
				0.0		0.0	0.0		
							0.0		
									
0.0	0.0								
8.0	8.0			0.0		0.0	0.0		
				0.0		0.0	0.0		
				0.0		0.0	0.0		
4.0	4.0								
41.0	41.0								41.0
									
9.0	9.0			0.0		0.0	0.0		9.0
									
				20.0		20.0	20.0		
									
36.0	36.0								
40.0	40.0			0.0		0.0	0.0		
									
0.0	0.0								
									
									33.0
4.0	5.0								
48.0	48.0								48.0
29.0	29.0			8.0		8.0	8.0		
27.0	27.0			24.0		24.0	27.0	26.0	2.0
27.0	27.0			24.0		24.0		24.0	27.0
	48.0		48.0	14.0		14.0	14.0	48.0	
22.0	17.0			0.0		0.0	22.0	22.0	
0.0	0.0						0.0	0.0	
0.0	0.0						0.0	0.0	
									
56.0	56.0						55.0	0.0	
22.0	22.0						22.0	22.0	22.0
0.0	0.0			22.0		22.0	22.0		
									
									
4.0	4.0						4.0		
									
						10.0	10.0		
				0.0		0.0	0.0		
				13.0		13.0	13.0		
				6.0		6.0	6.0		
				0.0		0.0	0.0		
0.0	0.0			0.0		0.0	0.0		
9.0	9.0		9.0	0.0		0.0	0.0		
82.0	82.0		78.0	120.0		140.0	140.0		
0.0	0.0		0.0	16.0		16.0	16.0		
									
				11.0		11.0			
12.0	12.0			0.0		0.0	13.0		
				4.0		4.0	4.0		
4.0	4.0						4.0		
6.0	6.0						6.0		
									
56.0	56.0		0.0						0.0
									
24.0	0.0			5.0		5.0	24.0		
									
0.0	0.0		0.0	20.0		20.0	20.0		
									
4.0	4.0		4.0						4.0
				12.0		12.0			
				12.0		12.0		12.0	
									
						0.0			
									
				0.0		0.0			
									
0.0	0.0		0.0				0.0	0.0	
	13.0			0.0		0.0	13.0		
	16.0						14.0		14.0
	75.0			64.0		64.0	75.0		75.0
									
							20.0		20.0
									
									
0.0	0.0		0.0	0.0		0.0	0.0		0.0
									
	14.0			0.0		0.0	14.0		
0.0	0.0								
	0.0			10.0		9.0	0.0		0.0
									
	23.0						23.0		0.0
									
	12.0						12.0		
	0.0						0.0		
				8.0		8.0			
				0.0		0.0			
7.0	6.0		7.0	0.0		0.0	7.0		0.0
0.0	0.0		0.0	5.0		5.0		0.0	
0.0	0.0			5.0		5.0	6.0	0.0	0.0
				0.0		0.0	0.0		
				8.0		8.0			8.0
0.0	0.0		0.0	0.0		0.0	0.0		0.0
6.0	6.0							6.0	6.0
39.0	39.0		39.0				39.0		
0.0	0.0		0.0	4.0		4.0	0.0		4.0
6.0	6.0		6.0	8.0		8.0	6.0		8.0
9.0	9.0							12.0	12.0
0.0	0.0		0.0				0.0		
34.0	5.0			60.0		60.0	60.0	5.0	5.0
				52.0		52.0	52.0		
5.0	5.0			0.0		0.0	0.0	5.0	
				80.0		80.0			80.0
				9.0		9.0			9.0
									
5.0	5.0		9.0				9.0		
				0.0		0.0			0.0
				38.0		38.0			
38.0	38.0							38.0	38.0
									
									
12.0	12.0		12.0				12.0		12.0
8.0	8.0		8.0						
46.0	46.0		46.0				46.0		46.0
19.0	19.0		38.0	7.0		7.0	38.0		38.0
				0.0		0.0			
									
				19.0		19.0	19.0		19.0
				9.0		9.0	9.0		
0.0	0.0		0.0						
							17.0		17.0
28.0	28.0		28.0				28.0		28.0
4.0	0.0								
28.0	14.0			43.0		43.0	43.0		43.0
									
									
36.0	36.0								
				20.0		28.0			
									
				0.0		0.0			
									
				5.0		5.0			
				0.0		0.0	0.0		
	0.0		0.0	10.0		10.0	0.0		
44.0	44.0								
	17.0		18.0	33.0		34.0	18.0		
0.0	0.0								
7.0	0.0			7.0		7.0	0.0		7.0
0.0	0.0			14.0		14.0	14.0		
				0.0		0.0	0.0		
0.0	0.0		0.0					0.0	
17.0	17.0								
				0.0		0.0	0.0		
	0.0								
									
				18.0		18.0			
									
8.0	8.0		8.0					8.0	
									
									
0.0	0.0		0.0	10.0		10.0	10.0	0.0	
				0.0		0.0	0.0		
				0.0		0.0	0.0		
									
									
									
				4.0		4.0		4.0	
8.0	8.0		8.0	9.0			9.0		9.0
67.0	67.0		67.0						
									
	28.0						29.0		29.0
5.0				61.0		61.0			
70.0	70.0		70.0				70.0		70.0
									
									
				22.0		12.0	12.0		12.0
				0.0		0.0		0.0	
									
				8.0		8.0			8.0
	6.0						6.0		6.0
15.0	15.0								
									
4.0	4.0		4.0						
	8.0						8.0	8.0	
									
									
4.0	4.0		4.0	14.0		14.0	4.0	14.0	4.0
				38.0		19.0	19.0		19.0
									
				22.0		22.0			
42.0	42.0						43.0		
									
				20.0		20.0	20.0		
									
									
4.0	4.0			5.0		5.0	5.0	5.0	
				16.0		16.0	16.0		
									
									
				6.0		6.0	6.0		
									
									
19.0	19.0								
									
									
	0.0		0.0	0.0		0.0	0.0		
									
61.0	65.0		65.0	6.0		6.0		65.0	65.0
				12.0		12.0			
									
									
				32.0					
				15.0		15.0			
				11.0		11.0			
									
									
				30.0		30.0			
								0.0	0.0
19.0	19.0		19.0					19.0	
				0.0		0.0			
0.0	0.0		0.0					0.0	0.0
	0.0			6.0		6.0	0.0		0.0
	0.0			0.0		0.0	0.0		
				0.0		0.0			
	12.0								
	17.0						33.0		
36.0	36.0			5.0		5.0	35.0	5.0	5.0
									
7.0				7.0		7.0			
									
0.0	0.0		0.0				0.0		
				10.0		10.0		10.0	10.0
11.0	11.0		11.0						
									
21.0	21.0		21.0	24.0		24.0	21.0		24.0
									
									
				0.0		0.0	0.0	0.0	
6.0	6.0		6.0						6.0
									
									
									
									
28.0	28.0		27.0						24.0
	53.0			110.0		110.0	110.0	54.0	
									
0.0				0.0		0.0	0.0		
				31.0		31.0	31.0	31.0	
35.0	35.0		35.0	0.0					35.0
									
									
									
	20.0		20.0	32.0		32.0	20.0		32.0
5.0				5.0		5.0	5.0		
				0.0		0.0	0.0	0.0	
									
									
									
80.0	53.0					6.0		6.0	
									
									
				7.0		7.0			
	8.0		8.0	0.0		0.0			
	0.0		0.0	0.0		0.0	0.0		0.0
	34.0		34.0						
0.0				0.0		0.0			
				7.0		7.0			
				10.0		10.0			
	8.0		4.0						
				0.0		0.0		0.0	
	0.0						0.0		
	5.0		5.0	0.0		0.0	5.0		5.0
0.0	0.0			16.0		16.0			0.0
4.0	4.0								
				13.0		13.0			0.0
									
				24.0		48.0			48.0
18.0	18.0			10.0		10.0			18.0
									
				0.0		0.0			
									
19.0	19.0		19.0						
0.0	0.0		0.0						
0.0	0.0		0.0						
15.0	15.0								
									
53.0				53.0		53.0			
				71.0		71.0	71.0		
									
									
0.0	0.0		0.0						
				0.0		0.0			
	13.0						13.0		
				13.0		13.0	13.0		
	0.0		0.0					0.0	
28.0				28.0		28.0	14.0		
4.0				0.0		0.0			
									
									
152.0				152.0		150.0			
0.0	0.0		0.0					0.0	
									
				0.0		0.0		0.0	
				22.0		24.0			
									
				35.0		35.0			
				26.0		25.0			
									
				0.0		0.0			
									
0.0	0.0			46.0		46.0	0.0		0.0
				0.0		0.0			
									
0.0	0.0						0.0		
29.0	29.0			0.0		0.0	29.0		
0.0	0.0			0.0		0.0	0.0		
				0.0		0.0			
39.0	39.0			6.0		6.0	39.0		
									
41.0	41.0		41.0				41.0		
13.0	13.0		13.0	32.0		32.0	13.0		
33.0	33.0		33.0	27.0		27.0	16.0		16.0
12.0	12.0		12.0	0.0			12.0		6.0
4.0	4.0		4.0				4.0		4.0
									
									
0.0	0.0								
0.0	0.0			4.0		4.0	4.0		0.0
									
	0.0			0.0		0.0	0.0		0.0
									
				17.0		31.0	31.0		
				10.0		10.0	10.0		
18.0	85.0			0.0		0.0	0.0		
85.0	85.0			0.0		0.0	0.0		
									
4.0	4.0			0.0		0.0	0.0		
				56.0		56.0	55.0		
0.0	0.0								
21.0	21.0								
107.0	107.0			56.0		56.0	56.0		107.0
46.0	46.0								
				37.0		36.0	37.0		
				20.0		19.0	18.0		
									
5.0	5.0								
11.0	11.0			13.0		0.0	13.0		
				65.0		57.0	57.0		
0.0	0.0								
				10.0		10.0	10.0		
									
				8.0		8.0	8.0		
30.0	30.0			9.0		9.0	9.0		
									
0.0	0.0						0.0	0.0	
									
									
				22.0		22.0			22.0
45.0	44.0						44.0		
									
				0.0		0.0			
				0.0		0.0	0.0		
0.0	0.0		0.0						0.0
0.0	0.0			12.0		12.0	12.0		0.0
0.0	0.0		0.0	0.0		0.0	0.0		0.0
									
10.0	10.0		8.0						
									
									
13.0	13.0		13.0	4.0		4.0	5.0		
5.0	5.0			25.0		25.0			
0.0	0.0						0.0		
37.0	37.0			0.0		0.0			
38.0	38.0		38.0	5.0		5.0	5.0		37.0
0.0	0.0						0.0		0.0
0.0	0.0		0.0	8.0		8.0	8.0		
25.0	25.0		25.0						25.0
152.0	152.0		151.0	9.0		9.0	0.0		
87.0	0.0						87.0		
									
19.0	21.0			23.0		23.0	21.0		
36.0	36.0			17.0		17.0			
									
									
15.0	15.0								
0.0	0.0		0.0	19.0		19.0		19.0	
0.0	0.0						4.0		
				0.0		0.0	0.0		
0.0	0.0								0.0
5.0	5.0		5.0	22.0		22.0	22.0		5.0
				0.0		0.0			
									
									
	0.0						0.0		
									
	0.0			7.0		7.0	0.0		
0.0	0.0		0.0	6.0		6.0	0.0	6.0	6.0
									
0.0	0.0		0.0				0.0	0.0	
									
	26.0						27.0		
23.0	23.0		23.0	6.0		6.0	26.0	26.0	
				16.0		16.0			
	4.0			0.0		0.0	4.0		4.0
				0.0		0.0			
				12.0		12.0			
									
									
				0.0		0.0			0.0
19.0	19.0								
21.0	21.0		21.0				21.0		
0.0	0.0		0.0				0.0		
									
									
				4.0		4.0			4.0
				8.0		7.0			8.0
									
10.0	10.0			0.0		0.0	0.0	10.0	
	0.0			10.0		10.0	10.0		
									
									
				5.0		5.0	5.0		
7.0	7.0							10.0	
									
									
				0.0		0.0			
				14.0		16.0			
11.0	11.0		11.0	5.0		5.0			11.0
0.0	0.0		0.0	0.0		0.0			
				0.0		0.0			
0.0	0.0			7.0		7.0	0.0	7.0	
									
									
				0.0		0.0			8.0
10.0	10.0		10.0	105.0		105.0			10.0
									
4.0	4.0			4.0		4.0	4.0		4.0
									
									
9.0	9.0								
									
	19.0		19.0	88.0		88.0	19.0		19.0
	9.0		9.0				9.0		9.0
25.0	25.0								
47.0	47.0								
									
13.0	13.0			0.0		0.0	0.0		13.0
									
18.0	18.0			47.0		47.0	47.0		
	46.0			13.0		13.0	13.0		13.0
									
				10.0		10.0	10.0		
				15.0		15.0	15.0		
0.0	0.0								
									
20.0	20.0		20.0					20.0	20.0
0.0	0.0		0.0					0.0	0.0
				9.0		9.0	10.0		
				0.0		0.0	0.0		
17.0	17.0		17.0					17.0	
0.0	0.0		0.0					0.0	0.0
0.0	0.0								
	0.0			42.0		42.0	42.0		
0.0	7.0			35.0		35.0	45.0	45.0	
	0.0			0.0		0.0	0.0		
	46.0			14.0		14.0	14.0		
52.0	52.0		52.0					52.0	52.0
34.0	34.0		34.0	29.0		29.0	29.0	34.0	
				60.0		109.0	109.0		
				0.0		0.0	0.0		4.0
									
									
0.0	0.0							0.0	
5.0	5.0		5.0					5.0	
				58.0		58.0	58.0		
0.0	0.0		0.0	0.0		24.0	24.0	0.0	0.0
0.0	0.0		0.0						
							0.0		
0.0				0.0		0.0			
	0.0			10.0		10.0	0.0	0.0	0.0
				8.0		8.0	8.0		8.0
14.0				14.0		13.0			
22.0	22.0		22.0						
									
									
	0.0					46.0	0.0		0.0
									
									
									
				6.0		6.0			
16.0	16.0			13.0		13.0			13.0
89.0	89.0		89.0				88.0		
				0.0		0.0			
69.0	69.0						69.0		
0.0	0.0			0.0		0.0	0.0		0.0
	12.0						12.0	12.0	
									
									
0.0				0.0		0.0			
	29.0						29.0		29.0
									
									
									
									
									
									
6.0	6.0								
				0.0		0.0	0.0	0.0	
0.0	0.0		0.0	79.0		77.0	0.0	0.0	79.0
	0.0			0.0		0.0	0.0		0.0
									
				33.0		33.0	33.0	33.0	
4.0	4.0		4.0						
0.0	0.0								
				0.0		0.0	0.0	0.0	
	10.0						10.0		
60.0	60.0								
									
									
									
									
									
0.0	0.0								0.0
	6.0		3.0						
				9.0		9.0			
				0.0		0.0			
76.0	76.0		76.0	4.0		4.0		76.0	
49.0	49.0							48.0	
	0.0								0.0
				38.0		38.0			
	0.0			9.0		9.0	0.0		0.0
									
	8.0			0.0		0.0	13.0		13.0
									
				21.0		21.0			
									
				0.0		0.0			
									
				22.0		19.0			
									
				11.0		11.0		11.0	11.0
32.0	32.0		32.0						32.0
0.0				0.0		0.0			
									
0.0	0.0		0.0	12.0		12.0	0.0		12.0
									
0.0				0.0		0.0			
28.0			52.0	28.0			81.0		
									
									
									
				0.0		0.0			0.0
	22.0		22.0				22.0		
									
	8.0		8.0	56.0		56.0	8.0		56.0
									
				0.0		0.0	0.0	0.0	
									
0.0	0.0		0.0						
									
									
8.0	8.0		8.0						
31.0				8.0		8.0	8.0		
130.0	130.0								
	0.0							0.0	
									
0.0	0.0			18.0		18.0		18.0	0.0
0.0	0.0		0.0	28.0		28.0	28.0	28.0	
									
0.0	0.0								
8.0	10.0			8.0		8.0	8.0		
0.0	0.0								9.0
	6.0		6.0	14.0		14.0			6.0
				0.0		0.0			
				20.0		20.0			20.0
0.0				0.0		0.0			
0.0	0.0		0.0					0.0	
35.0				35.0		35.0			
	24.0		24.0						
				0.0		4.0			
				6.0		6.0			
									
									
	0.0						0.0	0.0	0.0
	0.0					0.0	0.0		0.0
									
				98.0		49.0			
	5.0		5.0						
	0.0		0.0	4.0		4.0			0.0
14.0	5.0			14.0		14.0	5.0		14.0
									
0.0	0.0		0.0	0.0		0.0		0.0	0.0
									
	5.0						5.0		
				4.0		4.0	5.0		
13.0	5.0			13.0		13.0	5.0		13.0
	24.0						24.0		
									
0.0	0.0		0.0						0.0
8.0	8.0		8.0	0.0		0.0		0.0	
									
11.0	11.0								
				0.0		0.0		0.0	
13.0	13.0			0.0		4.0	4.0	4.0	4.0
	14.0								14.0
5.0	5.0		5.0						5.0
	38.0		39.0	22.0		22.0	22.0	39.0	
				21.0		21.0			
	29.0							29.0	
6.0	0.0			6.0		6.0	0.0		0.0
	0.0								0.0
				0.0		0.0			
5.0	5.0		5.0	89.0		90.0		88.0	5.0
									
									
									
	0.0			0.0		0.0		0.0	
				82.0		82.0			82.0
	8.0								
									
				0.0		0.0			0.0
									
				13.0		13.0			
0.0	0.0		0.0				0.0		
6.0	0.0		0.0	6.0		6.0	0.0	0.0	0.0
	34.0		35.0				35.0	35.0	35.0
				6.0		6.0			6.0
0.0	0.0						0.0		
				4.0		4.0			
				0.0		0.0			
24.0	24.0						24.0		24.0
4.0	4.0						4.0		4.0
6.0	6.0			0.0		0.0	6.0		
				6.0		6.0			
0.0	0.0								
				6.0		6.0			
				8.0		8.0			
				0.0					
0.0	0.0		0.0				0.0		0.0
0.0	0.0		0.0				0.0		0.0
									
8.0				0.0		0.0			0.0
				1.0		8.0			
4.0	4.0		4.0				4.0		4.0
				44.0		44.0			
				0.0		0.0			
									
									
				41.0		40.0	4.0		
				0.0		0.0			
									
28.0	28.0					0.0	0.0		28.0
				37.0		37.0	37.0		
				0.0		0.0	0.0		
98.0	97.0			79.0		80.0	80.0		
39.0	39.0			0.0		0.0	0.0		
5.0	5.0								
						5.0	5.0		
									
0.0	0.0								
									
				0.0		0.0	0.0		
31.0	31.0								
				0.0		0.0			
									
				0.0		0.0			
0.0	0.0						0.0		
0.0	0.0						0.0		
0.0	0.0			0.0		0.0			
									
67.0	67.0						67.0		
34.0	34.0		2.0	19.0		19.0			
									
				0.0		0.0	0.0		
0.0	0.0		0.0	0.0		0.0	0.0		0.0
65.0	65.0		19.0						
									
8.0	8.0								
				7.0		7.0			
									
				0.0		0.0	0.0		
									
				0.0		0.0			
15.0	15.0		0.0						
30.0	30.0		30.0	0.0		0.0	0.0		30.0
7.0	7.0		7.0						
6.0	6.0						6.0		
									
0.0	0.0			0.0		0.0			
				9.0		9.0			
				0.0		0.0			
	0.0						0.0		0.0
									
				7.0		7.0			
				0.0		0.0			
	0.0						0.0		0.0
	7.0			5.0		5.0	7.0		7.0
									
									
									
									
									
				12.0		12.0			
				37.0		20.0			
0.0	0.0							0.0	
	0.0						0.0		
0.0	0.0			0.0		0.0	0.0	0.0	0.0
14.0	14.0			28.0		28.0	28.0	14.0	
									
				11.0		11.0	11.0		
6.0	6.0			12.0		12.0	12.0	6.0	6.0
									
									
				34.0		34.0	34.0	0.0	0.0
				83.0		82.0			
0.0	0.0								
4.0	4.0		4.0						4.0
									
46.0	46.0		46.0	22.0		22.0			
				0.0		0.0			
									
				0.0		0.0			
									
									
0.0	0.0		0.0	0.0		7.0			
10.0	10.0					0.0	0.0		0.0
0.0	0.0			75.0		75.0	0.0	75.0	0.0
10.0	10.0		10.0				10.0		
8.0	8.0		8.0						8.0
16.0	16.0								
				76.0		76.0			
6.0	6.0								
									
8.0	8.0			4.0		4.0	4.0		
	81.0		81.0				81.0		
	11.0		11.0	6.0		6.0	11.0		
59.0	59.0			4.0		4.0	4.0		
0.0	0.0			0.0		0.0	0.0		
				29.0		29.0			
									
46.0	46.0			0.0		0.0	0.0		46.0
				0.0		0.0	0.0		
				0.0		0.0			
46.0	46.0		23.0					23.0	
				20.0		1.0	20.0		
				0.0		0.0			
4.0	4.0		4.0	0.0		0.0	0.0	4.0	
4.0	4.0		4.0					4.0	
				0.0		0.0	0.0		
				34.0		34.0	34.0		
23.0	23.0		23.0					23.0	23.0
32.0	0.0							0.0	
									
9.0	9.0		9.0	0.0		0.0	0.0	9.0	
13.0	13.0			6.0		6.0		13.0	13.0
				4.0		4.0	4.0		
				19.0		19.0	19.0		
	30.0								
				0.0		0.0	0.0		
									
19.0				19.0		19.0			
									
6.0	6.0		6.0						
0.0	0.0		0.0	0.0		0.0	0.0	0.0	0.0
6.0	0.0			6.0		6.0	0.0		0.0
	0.0						0.0	0.0	0.0
									
				4.0		4.0		4.0	
	5.0			0.0		0.0	5.0	5.0	
									
	5.0						5.0		4.0
									
163.0	163.0						162.0		
	6.0						6.0		6.0
	13.0						13.0	13.0	
				8.0		8.0	8.0		8.0
				19.0		19.0			19.0
	41.0						41.0	41.0	41.0
									
0.0				0.0		0.0			
	28.0						28.0		
16.0	15.0			16.0		16.0	9.0		9.0
				29.0		29.0			29.0
22.0				30.0		30.0			
0.0	18.0			0.0		6.0	38.0		38.0
	21.0						21.0	21.0	
	0.0						0.0		
									
0.0	0.0								
				27.0		27.0	27.0	27.0	
	0.0			11.0		14.0	0.0		14.0
	0.0								
				4.0		4.0			
				4.0		8.0			
									
5.0	5.0								
									
									
	61.0						61.0		
4.0	4.0								
	15.0		15.0	0.0					15.0
				5.0		5.0		0.0	
									
	0.0			0.0		0.0	0.0		0.0
0.0	0.0		0.0	0.0		0.0		0.0	
	0.0								0.0
				0.0		0.0			0.0
									
									
	13.0		13.0	17.0		17.0	17.0		13.0
				0.0		0.0			
	15.0		15.0	19.0		19.0	19.0		15.0
									
									
				5.0		5.0			
	5.0		5.0				5.0		
	0.0		0.0				0.0		
									
	0.0		0.0				0.0		
				0.0		0.0			0.0
									
	10.0		10.0				10.0	10.0	
31.0				30.0		28.0			
				0.0		0.0	0.0		0.0
									
0.0	0.0		0.0						0.0
0.0	19.0			0.0		0.0	0.0		
	20.0								42.0
				0.0		0.0	0.0	0.0	
									
5.0	5.0		5.0						
	32.0							31.0	
11.0	11.0		11.0						
	0.0		0.0				12.0		
									
				5.0		5.0	5.0		
	0.0							0.0	0.0
12.0	12.0		12.0	0.0		0.0	0.0	0.0	
8.0	8.0								4.0
				0.0		0.0			
				19.0		19.0			
6.0				6.0		6.0			
									
									
				54.0		54.0	0.0		
30.0	30.0			0.0		0.0	30.0		
	0.0			4.0		4.0	0.0	4.0	
	0.0						0.0	0.0	0.0
	25.0			20.0		20.0	25.0	20.0	
				0.0		0.0	0.0		0.0
									
				5.0		5.0			
									
				30.0		30.0		30.0	30.0
				13.0		13.0			
				11.0		11.0			
36.0	36.0		36.0	0.0		0.0			
	0.0		0.0	10.0		10.0	10.0	0.0	
									
	0.0		0.0					0.0	
8.0	8.0		8.0	0.0		0.0		0.0	
	0.0		0.0	4.0		4.0	4.0	0.0	0.0
									
									
4.0	5.0		5.0	4.0		4.0	4.0		
36.0				36.0		36.0			
									
	32.0							32.0	32.0
									
									
41.0	0.0			42.0		42.0			
	5.0							5.0	
									
	43.0		43.0	5.0		5.0	5.0	43.0	
									
	89.0		89.0				89.0	89.0	
0.0	0.0		0.0	0.0		0.0	0.0		
				28.0		28.0		28.0	
									
	0.0								
									
	18.0		18.0				18.0	18.0	18.0
	10.0		10.0				10.0	10.0	
									
5.0	5.0			5.0		5.0	5.0		5.0
9.0	9.0			6.0		6.0	9.0		9.0
61.0	61.0		61.0						
102.0	103.0						103.0		
24.0	24.0			0.0		0.0	24.0		24.0
0.0	0.0						0.0		
				0.0		0.0			
14.0	14.0			0.0		0.0	14.0		
									
32.0	32.0		32.0	8.0		7.0	32.0		
									
50.0	50.0		50.0				50.0		
4.0	4.0		4.0	0.0		0.0	4.0		4.0
				0.0		0.0			0.0
0.0	0.0		0.0	5.0		5.0			
									
									
0.0	0.0		0.0	0.0		0.0	0.0		
									
									
				10.0		10.0			
79.0	78.0								
0.0	0.0			4.0		10.0	10.0		
									
				8.0		8.0	8.0		
				13.0		13.0	13.0		
									
4.0	4.0			55.0		55.0	55.0		
									
									
18.0	18.0								
									
0.0	0.0			34.0		34.0	34.0		
32.0	32.0								32.0
				5.0		5.0	5.0		
17.0	17.0								
				4.0		2.0	4.0		
10.0	10.0			20.0		20.0	20.0		
							0.0		
4.0	4.0								
0.0	0.0								
				0.0		0.0	0.0		
									
0.0	0.0								
				0.0		0.0			
0.0	0.0			0.0		0.0	0.0		
48.0	48.0								
0.0	0.0			10.0		10.0	10.0		
52.0	26.0			0.0		0.0	0.0		
				0.0		0.0	0.0		
									
				9.0		9.0		9.0	
				16.0		16.0			
				0.0		0.0			
									
									
20.0	20.0			89.0		89.0	20.0		89.0
24.0	24.0						27.0		
25.0	25.0						25.0		
44.0	44.0		44.0	5.0		5.0	10.0		
7.0	7.0		7.0	0.0		0.0	0.0		7.0
				17.0		17.0	17.0		
0.0	0.0		0.0	0.0		0.0	0.0	0.0	
									
6.0	6.0						6.0		
				11.0		11.0	11.0		
				0.0		0.0	0.0		
	0.0		0.0				0.0	0.0	
0.0	0.0								0.0
									
0.0	0.0			22.0		22.0			
									
									
									
				0.0		0.0	0.0		
5.0	5.0		5.0	0.0		0.0	0.0		
				0.0		0.0	0.0		
				0.0		0.0	0.0		
0.0	0.0			0.0					
9.0	9.0		9.0						
20.0	20.0						20.0		
									
0.0	0.0			4.0		4.0	0.0		
									
									
	0.0						0.0		0.0
				7.0		6.0			
	40.0						40.0		
				81.0		81.0			
				56.0		56.0			
									
				6.0		6.0			
	0.0						0.0		0.0
				0.0		0.0			
	64.0						64.0		
				6.0		6.0			
									
19.0	19.0			0.0		0.0	0.0	19.0	19.0
				12.0		12.0			12.0
									
									
0.0	0.0			0.0		0.0	0.0	0.0	0.0
29.0	29.0							29.0	29.0
									
				14.0		14.0	14.0		
0.0	0.0			72.0		73.0	73.0	0.0	
									
				0.0		0.0			0.0
				0.0		0.0	0.0		
								15.0	
									
				103.0		103.0			
									
				58.0		58.0			
				0.0		0.0			
				0.0		0.0			
									
14.0	14.0								
6.0	6.0								
0.0	0.0		0.0						
94.0	94.0		93.0	0.0		0.0			
									
				83.0		83.0			
									
									
									
9.0	9.0		9.0				9.0		
0.0	0.0		0.0				0.0		
0.0	0.0								0.0
0.0	0.0		0.0	0.0		0.0		0.0	
				0.0		0.0			
				31.0		31.0			
				15.0		15.0	15.0		
				25.0		25.0	25.0		
									
									
9.0	9.0		9.0	0.0		0.0	0.0	9.0	
									
0.0	0.0		0.0	13.0		13.0	13.0	0.0	
50.0	50.0		50.0					50.0	
									
									
				36.0		36.0	36.0		
	40.0								40.0
									
				16.0		16.0			
									
									
									
				0.0		0.0	0.0		
									
				0.0					
									
31.0	31.0							39.0	
27.0				27.0		27.0	6.0	6.0	
				27.0		27.0	27.0		
0.0	0.0		0.0					0.0	0.0
				16.0		16.0	16.0		
									
	21.0								
0.0				0.0		0.0			
									
				0.0		0.0	0.0		0.0
				14.0		14.0		14.0	
0.0	0.0		0.0				0.0		0.0
				15.0		15.0		15.0	
0.0	16.0			0.0		0.0	16.0		
				0.0		0.0			0.0
59.0	59.0		59.0				59.0		59.0
									
									
	0.0						0.0		0.0
									
									
				9.0		9.0			9.0
0.0	0.0		0.0	0.0		0.0	0.0	0.0	0.0
									
									
	4.0						4.0	4.0	4.0
6.0	6.0		6.0	30.0		30.0	30.0		30.0
									
	6.0						6.0		6.0
0.0	0.0			0.0		0.0			0.0
									
	0.0			61.0		61.0	0.0	61.0	
	61.0			0.0		0.0	61.0	57.0	61.0
				0.0		0.0	0.0		
							0.0		
60.0	60.0								
0.0	0.0		0.0	0.0		0.0	0.0		
									
				0.0		0.0	0.0		
									
	0.0						0.0		
									
									
	26.0						25.0		26.0
	7.0		7.0						
				17.0		17.0			
				19.0		19.0			
									
									
									
	82.0		82.0						
11.0	11.0			13.0		13.0		13.0	11.0
	13.0			11.0		11.0	13.0		13.0
	0.0		0.0	22.0		24.0	24.0		
				0.0		0.0			
				0.0					
	6.0		6.0						
								22.0	
	38.0		76.0						
				86.0		62.0	62.0		
				4.0		4.0			
				0.0		0.0			
	12.0			0.0		0.0	16.0		16.0
5.0	5.0		5.0				5.0		
									
0.0	0.0		0.0				0.0		
13.0				13.0		12.0			
							0.0		0.0
5.0	5.0		5.0	20.0		20.0	4.0		20.0
									
									
18.0				18.0		18.0			
									
0.0	0.0		0.0	0.0		0.0	0.0		
				0.0		0.0			0.0
10.0				10.0		10.0			
	8.0		7.0				7.0		7.0
				0.0		0.0			0.0
									
									
	61.0		61.0	0.0		0.0	61.0		0.0
10.0	10.0		10.0	0.0		0.0	0.0	0.0	
				62.0		62.0	62.0	62.0	
15.0				10.0		10.0	11.0		
									
12.0	43.0			12.0		12.0	12.0		
									
				16.0		16.0			12.0
0.0	0.0			4.0		4.0		4.0	
0.0				0.0		0.0	0.0		
									
									
				0.0		0.0		0.0	
				7.0		7.0	7.0	7.0	
									
0.0				0.0		0.0	0.0		
				0.0		0.0	0.0		
0.0	0.0		0.0	21.0		21.0	21.0	21.0	
				5.0		5.0	5.0	5.0	
35.0	6.0			35.0		18.0	18.0		6.0
66.0	67.0		67.0						67.0
4.0				4.0		4.0	8.0		
	8.0								8.0
0.0	0.0		0.0	8.0		8.0			0.0
									
	25.0								25.0
0.0	0.0		0.0						0.0
	0.0		0.0	0.0		0.0	0.0		0.0
	0.0								0.0
	37.0							37.0	37.0
0.0				0.0		0.0	0.0		
	0.0		0.0				0.0		0.0
				0.0		0.0			
									
	25.0		25.0						
									
									
40.0				40.0		40.0			
40.0				40.0		40.0			
	0.0								
									
	5.0						5.0	5.0	
									
				20.0		20.0			
				16.0		16.0			
12.0	12.0								12.0
19.0	19.0			7.0		7.0			19.0
	15.0								15.0
13.0	13.0		13.0						13.0
12.0				12.0		12.0			
				22.0		20.0		22.0	
									
	8.0		8.0					8.0	
									
									
									
									
									
									
									
				4.0		4.0		4.0	
				0.0		0.0			0.0
0.0	13.0		13.0	0.0		0.0	13.0	13.0	
									
				0.0		0.0			
0.0	0.0						0.0		0.0
				0.0		0.0			
									
									
									
43.0	43.0			0.0		0.0	0.0	43.0	43.0
0.0	0.0			43.0		43.0			
5.0	5.0						5.0		
4.0	4.0			58.0		58.0	4.0		4.0
0.0	0.0						0.0		
									
				0.0		0.0			
									
6.0	6.0		6.0	0.0		0.0	6.0		
21.0	21.0		21.0						21.0
21.0	21.0		21.0				21.0		21.0
				83.0		82.0			
									
				0.0		0.0			
40.0	40.0		40.0				38.0		40.0
25.0	25.0		25.0	10.0		9.0	25.0		
12.0	12.0		12.0				12.0		12.0
12.0	12.0		12.0				12.0		12.0
12.0	12.0		12.0				12.0		12.0
									
									
				6.0		6.0	11.0		
				0.0		0.0	0.0		
				0.0		0.0	0.0		
0.0	0.0								
				0.0		0.0	0.0		
0.0	0.0								
									
									
10.0	10.0								
0.0	0.0			55.0		55.0	55.0		
4.0	4.0								
0.0	0.0			0.0		0.0	0.0		0.0
									
0.0	0.0								
									
9.0	9.0								
4.0	4.0								4.0
									
0.0	0.0						0.0	0.0	0.0
46.0	46.0						92.0		
0.0	0.0						0.0		
						0.0			
4.0	4.0			5.0		5.0	4.0		5.0
0.0	0.0		0.0	6.0		6.0	6.0		0.0
0.0	0.0			110.0		110.0	0.0		0.0
									
0.0	0.0		0.0	93.0		93.0	93.0		
									
				19.0		19.0			
				0.0		0.0			
									
8.0	8.0		8.0						
									
									
15.0	15.0								
									
	0.0			39.0		39.0			
				0.0		0.0			
0.0	0.0						0.0		
				0.0		0.0			
				10.0		10.0			
				4.0		4.0			
									
	0.0			17.0		17.0	0.0		
				30.0		29.0			
	29.0			30.0		29.0	29.0		29.0
	9.0						9.0		
25.0	25.0		21.0	0.0		0.0	4.0		0.0
	4.0						4.0		
0.0	0.0							0.0	0.0
									
10.0	10.0							10.0	10.0
									
0.0	0.0			0.0		0.0	0.0	0.0	0.0
				34.0		34.0	34.0		
									
0.0									
									
	21.0								
0.0	0.0			38.0		38.0	38.0	0.0	
				12.0		12.0	12.0		
									
0.0	0.0								
									
15.0	15.0		15.0						15.0
24.0	16.0		8.0	0.0		0.0			16.0
				43.0		44.0			
0.0	0.0		0.0				0.0		
									
									0.0
									
				5.0		5.0			
	9.0		9.0				9.0		
	0.0		0.0	44.0		44.0	0.0		0.0
	0.0		0.0	0.0		0.0	0.0		0.0
14.0	58.0			12.0		12.0	12.0		
									
				12.0		12.0	12.0		
				30.0		30.0			
				0.0		0.0	0.0		
				0.0		0.0			
	21.0		0.0				21.0		21.0
	12.0		12.0	50.0		50.0	12.0		12.0
	28.0		28.0	8.0		9.0	26.0		26.0
									
									
6.0	6.0		6.0					6.0	6.0
									
									
									
									
14.0	14.0		14.0	27.0		27.0	27.0	14.0	
4.0	4.0		4.0					4.0	4.0
				40.0		40.0	40.0		
									
				13.0		13.0			
				8.0		8.0	8.0		
				30.0		30.0	30.0		
				0.0		0.0			
5.0	5.0		5.0	0.0		0.0	4.0	0.0	
6.0	0.0			6.0		6.0	0.0		0.0
	0.0						0.0	0.0	
									
									
									
0.0				0.0		0.0			
0.0				0.0		0.0			
11.0	11.0			10.0		10.0	11.0		10.0
									
									
9.0	9.0		9.0	35.0		35.0	35.0		35.0
5.0	6.0			4.0		4.0	6.0		
									
									
									
				0.0		0.0	0.0		
				5.0		8.0	8.0		
0.0	0.0			15.0		15.0			
				12.0		12.0	12.0	12.0	
									
									
									
10.0	10.0			8.0		8.0	8.0	8.0	5.0
6.0	6.0								6.0
				0.0		0.0			
17.0	17.0		17.0	54.0		54.0		17.0	
	5.0			0.0		0.0	5.0		5.0
				0.0		0.0			
				32.0		32.0			
				140.0		140.0			
									
	0.0								
								0.0	0.0
									
	106.0								
10.0	10.0		10.0					10.0	10.0
									
0.0	0.0		0.0	6.0				0.0	
				85.0		85.0			
	0.0						0.0		0.0
									
18.0	18.0		18.0	15.0		15.0			15.0
	0.0		0.0				0.0		0.0
0.0	0.0		0.0				0.0		
				0.0		0.0		0.0	0.0
				0.0		0.0			0.0
0.0	0.0		0.0				0.0		
	16.0		16.0				16.0		
									
									
									
									
									
9.0	9.0								9.0
0.0	0.0		0.0						0.0
									
30.0									15.0
									
								0.0	0.0
	0.0			14.0		14.0	14.0	0.0	
									
									
									
				79.0		78.0	79.0		
39.0				39.0		38.0			
	0.0		0.0						0.0
0.0	0.0			0.0		0.0	0.0		
0.0	0.0		0.0	6.0		6.0	6.0	0.0	6.0
									
									
0.0	0.0						0.0		
	0.0								
	0.0		0.0	0.0		0.0			0.0
									0.0
	5.0						4.0		5.0
									
									
									
	13.0						13.0		
	6.0						6.0	5.0	
				0.0		0.0		0.0	
9.0	12.0		12.0						
0.0				0.0		0.0			
				9.0		9.0			9.0
	75.0						73.0		74.0
	7.0								7.0
									
				0.0		0.0		0.0	
	0.0		0.0				0.0		
									
									
									
									
	7.0		7.0				7.0	7.0	
0.0	0.0			17.0		17.0	0.0		
0.0	0.0						0.0		
10.0	10.0			26.0		26.0	10.0		10.0
				0.0		0.0			
									
									
				0.0		0.0			
									
				0.0		0.0			
0.0	0.0						0.0		0.0
									
				0.0		0.0			
				4.0		4.0			
									
							0.0		
				0.0		0.0			
									
				0.0		0.0			
									
									
0.0	0.0			4.0		4.0	4.0		0.0
				47.0		19.0	19.0		
				5.0		6.0	6.0		
9.0	9.0								
34.0	34.0			7.0		7.0	7.0		
34.0	34.0			4.0		4.0	4.0		
5.0	5.0								5.0
									
9.0	9.0			0.0		0.0	0.0		
									
				20.0		20.0	20.0		
				11.0		11.0	11.0		
				0.0		0.0	0.0		
				9.0		9.0	9.0		
				17.0		17.0	17.0		
75.0	75.0			8.0		8.0	8.0		
				10.0		10.0	10.0		
17.0	17.0			21.0		21.0	21.0		
									
									
9.0	9.0								
9.0	9.0		9.0				9.0		
				24.0		24.0	24.0		
				0.0		0.0	0.0		
6.0	6.0			6.0		6.0	6.0	6.0	6.0
8.0	8.0						8.0	8.0	
									
0.0	0.0			0.0		0.0	0.0		0.0
33.0	33.0			0.0		0.0	33.0		0.0
									
									
									
92.0	92.0			0.0		0.0	92.0		
				4.0		4.0	4.0		
				19.0		19.0	19.0		
28.0	28.0		28.0	5.0		5.0	5.0		
									
									
				78.0		78.0	78.0		
				0.0		0.0	0.0		
0.0	0.0		0.0						
12.0	12.0			34.0		34.0	12.0		12.0
									
				15.0		15.0			
				12.0		13.0			
7.0	7.0		7.0	7.0		7.0	7.0		
100.0	100.0			4.0		4.0	100.0		
18.0	18.0			6.0			18.0		
				0.0		0.0			
				11.0		11.0			
6.0	0.0						0.0		
				54.0		54.0	54.0		
									
									
									0.0
0.0	0.0						0.0		
									
									
4.0	4.0		4.0						
									
	5.0						5.0		
	0.0						0.0		0.0
0.0	0.0		0.0				0.0	0.0	
									
									
									
				29.0		29.0			
				0.0		0.0	0.0		
				15.0		15.0			15.0
50.0	50.0							50.0	
6.0	6.0							6.0	
				5.0		5.0	5.0		
									
									
				0.0		0.0	0.0		
									
									
26.0	26.0		26.0	20.0		20.0			
				26.0		26.0			
0.0	0.0		0.0				0.0		
57.0	57.0		35.0						
				0.0					
				0.0		0.0			
47.0	47.0		47.0	10.0		10.0	47.0		47.0
9.0	9.0		9.0						
									
				0.0		0.0	0.0		0.0
0.0	0.0		0.0						
				0.0		0.0			
22.0	22.0								
0.0	0.0								
7.0	7.0								
22.0	22.0		39.0						37.0
22.0				22.0		21.0			
0.0	0.0		0.0				0.0		
				13.0		13.0			
0.0	0.0								
									0.0
									
	74.0		74.0	0.0		0.0	74.0		74.0
0.0	0.0		0.0	73.0		73.0	73.0		73.0
									
									
23.0	23.0			0.0		0.0	0.0		23.0
									
									
0.0	0.0			0.0		0.0			
	64.0			16.0		16.0	16.0		64.0
82.0	82.0		82.0					82.0	
									
									
									
									
				14.0		15.0	15.0		
0.0	0.0		0.0					0.0	0.0
0.0	0.0							0.0	0.0
									
42.0	42.0		42.0	9.0		9.0	9.0	42.0	
				32.0		32.0	32.0		
	15.0								15.0
									
									
									
4.0	4.0		4.0						
0.0				0.0		0.0			
				6.0		6.0			
6.0	12.0		12.0				6.0		12.0
	6.0						6.0		
9.0	18.0		18.0	39.0		38.0	39.0		39.0
				4.0		0.0			
	4.0						4.0		
	35.0						35.0		
									
									
	10.0						10.0		
	48.0						48.0		48.0
				0.0		0.0			
6.0				6.0		6.0			
				5.0		5.0			5.0
13.0				13.0		13.0			
									
7.0	7.0		7.0						
20.0	20.0								
									
27.0	53.0			24.0		24.0	61.0		61.0
				4.0		4.0	4.0	4.0	
									
				36.0		36.0	0.0		36.0
76.0	76.0		76.0	22.0		22.0	22.0		
				10.0		10.0	10.0	10.0	
				0.0		0.0	0.0		
	0.0			52.0		52.0	0.0		52.0
	5.0			16.0		16.0	5.0		16.0
				19.0		19.0	19.0	19.0	
18.0	18.0		18.0						36.0
									
			0.0				0.0	0.0	
									
21.0	20.0								
0.0	0.0			48.0		48.0	48.0	48.0	0.0
									
									
79.0	79.0			7.0		4.0	7.0	7.0	
0.0	0.0								
									
4.0	4.0		4.0					4.0	4.0
	0.0			5.0		5.0			0.0
	0.0		0.0						0.0
								7.0	7.0
				6.0		6.0			
0.0				6.0		6.0			
				0.0		0.0			
	4.0		4.0	0.0		0.0	0.0		
	14.0		14.0	0.0		8.0	8.0		
									
									0.0
									
									
12.0				12.0		12.0			
0.0	6.0		6.0	0.0		0.0	6.0		6.0
5.0				5.0		0.0			
									
29.0	29.0			6.0		6.0	15.0	6.0	6.0
13.0	13.0		13.0						
									
				87.0		87.0			87.0
	74.0						73.0		
									
									
49.0				49.0		49.0	49.0		
7.0	7.0								
									
0.0	0.0								
4.0				4.0		4.0	4.0		
									
									
0.0	12.0			0.0		0.0	0.0		12.0
								7.0	
				0.0		0.0			
									
				6.0		6.0			8.0
	0.0		0.0				0.0		0.0
				6.0		6.0			
				7.0		4.0			
	17.0		17.0						17.0
				26.0		26.0		26.0	
	0.0		0.0	6.0		6.0			0.0
0.0	0.0			0.0		0.0	0.0		
49.0	49.0			30.0		30.0	98.0		
	4.0		4.0	16.0		16.0			4.0
0.0	0.0		0.0						
	0.0		0.0	3.0		57.0			
									
									
17.0	0.0		17.0	6.0		6.0	16.0	6.0	6.0
				0.0		0.0			
0.0	0.0		0.0	2.0		10.0	0.0	10.0	10.0
7.0	7.0			40.0		40.0			
67.0				67.0		67.0			67.0
	0.0						0.0		
	7.0						6.0	7.0	
11.0	11.0			48.0		49.0			8.0
0.0	10.0		10.0	0.0		0.0	10.0	10.0	10.0
	0.0		0.0	10.0		10.0	10.0	0.0	0.0
									
									
	7.0		7.0					7.0	
0.0	0.0			12.0		12.0	12.0	12.0	12.0
	60.0			17.0		16.0		60.0	59.0
				29.0		29.0	29.0		29.0
				6.0		6.0		6.0	
									
				42.0		42.0	42.0		
	48.0						52.0		
	0.0		0.0					0.0	0.0
				0.0		0.0	0.0	0.0	0.0
				5.0		5.0	5.0		
									
10.0	10.0			0.0		0.0	0.0	0.0	0.0
									
									
	0.0		0.0					0.0	
									
									
	12.0						12.0		
11.0	11.0								
0.0	0.0		0.0						0.0
0.0				0.0		0.0			
				12.0		12.0			12.0
	0.0		0.0				0.0		
									
	10.0		10.0	0.0		0.0	10.0	0.0	10.0
32.0	32.0		32.0	20.0		20.0	32.0		
									
15.0	15.0			46.0		46.0	15.0		
									
0.0	0.0						0.0		
				0.0		0.0			
									
				0.0		0.0			
0.0	0.0		0.0	24.0		24.0	0.0		0.0
21.0	20.0		21.0						
21.0	21.0			0.0		0.0	0.0		
21.0	21.0		21.0	10.0		10.0	10.0		
6.0	6.0			26.0		26.0	26.0		
									
8.0	8.0								
									
									
26.0	26.0								
				7.0		7.0	7.0		
									
7.0	7.0								
				0.0		0.0	0.0		
				5.0		5.0	5.0		
4.0	4.0			8.0		8.0	8.0		
									
									
7.0	7.0								
									
									
52.0	52.0			0.0		0.0	0.0		
0.0	0.0			0.0			0.0	0.0	0.0
8.0	8.0			16.0		16.0	8.0		16.0
				0.0		0.0	0.0		
									
				0.0		0.0	0.0		
									
									
				0.0					
25.0	25.0						50.0		
				50.0		50.0			
									
				15.0		15.0			
									
0.0	0.0		0.0	75.0		75.0	0.0	0.0	
									
	4.0						4.0		4.0
	39.0			0.0		0.0	39.0		39.0
41.0	41.0		41.0	4.0		4.0	41.0		4.0
				0.0		0.0	0.0		
				0.0		0.0	0.0		
									
0.0	0.0							0.0	0.0
									
				0.0		0.0			
									
7.0	7.0		7.0						
			4.0	5.0		5.0			4.0
				10.0		9.0			
									
33.0	33.0		33.0	0.0		0.0			33.0
				4.0		4.0	4.0		0.0
									
38.0	38.0			4.0		4.0	4.0		4.0
0.0	0.0						0.0		0.0
									
	6.0		6.0				6.0		6.0
				4.0		4.0	4.0		
12.0	12.0		12.0	0.0		0.0	5.0	12.0	12.0
0.0	0.0		0.0					0.0	
				17.0		17.0	17.0		
				29.0		60.0		60.0	
12.0	12.0		12.0	11.0		11.0	11.0		11.0
	51.0			17.0		17.0	51.0	51.0	
	0.0						0.0	0.0	0.0
13.0				13.0		13.0			
				4.0		4.0			4.0
14.0	14.0		14.0						
	11.0						11.0	11.0	11.0
									
									
									
	11.0						11.0	11.0	
									
				0.0		0.0			0.0
				94.0		94.0			94.0
				0.0		0.0			
				0.0		0.0	0.0	0.0	
									
	18.0			0.0		0.0	18.0		0.0
0.0	0.0		0.0	40.0		40.0		0.0	
0.0	0.0								0.0
0.0	0.0								
				13.0		13.0			
									
									
									
	5.0		5.0	28.0		28.0	28.0		
				0.0		0.0			
	0.0			0.0		0.0	0.0		0.0
									
									
	6.0								
									
8.0	8.0		8.0	95.0		108.0	109.0	109.0	
	0.0							0.0	0.0
	0.0		0.0	0.0		0.0			0.0
									
55.0				55.0		54.0			
									
									
									
	13.0			0.0		0.0	13.0	0.0	
									28.0
	22.0		22.0				22.0		
									
71.0	71.0								
	12.0						13.0		
				0.0		8.0	8.0		
	0.0						0.0		
				0.0		0.0			
									
8.0	0.0			8.0		8.0	0.0		8.0
									
	0.0		0.0					0.0	0.0
24.0				25.0		25.0			
51.0	20.0			51.0		51.0			20.0
0.0				0.0		0.0			
	15.0						15.0		15.0
6.0				6.0		6.0			
									
5.0	5.0		5.0				5.0		
				0.0		0.0		0.0	
									
	0.0		0.0				0.0		
