0	1	2	3	4	5	6	7	8	9	10	11
-	z	Z	Z	-	X	x	-	z	Z	-	Z
Z	-	Z	Z	-	X	x	-	z	Y	-	y
-	-	Z	Z	-	X	x	-	z	-	-	-
X	x	Z	Z	-	X	x	X	x	Z	-	Y
x	Z	Z	Z	-	X	x	-	z	z	Z	Y
y	z	Z	Z	-	X	x	-	z	z	z	X
X	x	Z	Z	-	Z	Y	-	y	Z	Z	-
z	-	Z	Z	-	X	x	-	z	Z	-	-
X	x	Z	Z	-	X	x	-	Z	Y	-	y
Z	-	Z	Z	-	X	x	-	z	Z	-	Z
-	Z	Z	Z	-	X	x	-	z	z	-	-
-	-	Z	Z	-	X	x	-	z	z	z	-
z	Z	Z	Z	Y	X	x	-	z	X	x	y
X	x	Z	Z	-	X	x	X	x	Z	Z	Z
y	z	Z	Z	-	X	x	-	z	Y	-	y
z	Z	Z	Z	-	X	x	-	z	Z	-	-
-	Z	Z	Z	-	X	x	-	z	-	-	z
Z	-	-	Z	-	X	x	-	z	z	z	-
x	y	Z	Z	-	X	x	y	z	Z	Z	Y
Y	X	x	Z	-	X	x	-	z	z	-	-
-	-	Z	Z	-	X	x	-	z	X	x	y
Z	-	Z	Z	-	X	x	-	z	-	Z	Z
y	-	Z	Z	-	X	x	-	z	-	z	Z
z	Z	Z	Z	-	X	x	-	z	Y	-	y
-	Z	Z	Z	-	X	x	-	z	Z	-	Z
-	Z	Z	Z	-	X	x	-	z	Z	Z	Y
-	-	Z	Z	-	X	x	-	z	-	Z	-
X	x	Z	Y	-	y	z	-	z	Z	-	-
-	Z	Z	Z	Y	X	x	-	z	Z	-	Y
-	Z	Z	Z	-	Z	-	-	z	Z	-	X
z	z	-	Z	-	X	x	-	z	Z	Z	-
X	x	y	Z	-	X	x	-	z	Y	X	x
X	x	y	Z	-	X	x	-	z	Y	X	x
X	x	Z	Z	Y	X	x	-	z	X	x	-
z	-	Z	-	-	X	x	-	z	X	x	-
Z	-	Z	Z	-	X	x	y	z	Z	Z	-
Z	-	Z	Z	-	X	x	y	z	Z	Z	-
X	x	Z	Z	-	X	x	-	z	-	Z	-
-	z	-	Z	-	X	x	-	z	z	X	x
-	-	Z	Z	-	X	x	-	z	X	x	-
x	y	Z	Z	-	X	x	-	z	z	z	Z
z	Z	Z	Z	-	X	x	-	z	z	Y	X
-	Z	Z	Z	-	Z	Y	-	y	Z	Y	-
x	Z	Z	Z	-	X	x	X	x	Y	-	y
Z	-	Z	Z	-	X	x	-	z	-	Z	Z
-	y	Z	Z	-	X	x	-	z	-	z	-
y	z	Z	Z	-	X	x	-	-	Y	-	y
z	Z	Z	Z	-	X	x	-	-	Y	-	y
x	X	x	Z	-	X	x	-	z	Z	-	-
-	-	z	Z	-	X	x	-	z	X	x	X
-	Z	Z	Z	-	Z	Y	-	y	Z	Y	-
X	x	Z	Z	-	X	x	-	Z	Y	-	y
X	x	Y	X	x	X	x	-	z	Y	X	x
-	-	z	Z	-	X	x	-	z	z	-	-
-	-	Z	Z	-	X	x	-	z	Z	-	-
X	x	Z	Z	-	X	x	-	z	-	Y	X
x	y	-	Z	-	X	x	-	z	z	X	x
X	x	Z	Z	-	X	x	-	z	-	Y	X
x	y	-	Z	-	X	x	-	z	z	X	x
X	x	Z	Z	-	X	x	-	z	-	-	-
z	z	Z	Z	-	X	x	-	z	z	z	z
Z	Z	Z	Z	-	X	x	-	z	z	Z	Z
X	x	-	Z	-	X	x	-	z	z	-	z
Z	-	Z	Z	-	X	x	-	z	-	X	x
-	Z	Z	Z	-	X	x	-	z	z	-	-
-	-	Z	Z	-	X	x	-	z	z	z	-
X	x	Z	Y	-	y	z	-	z	Z	-	-
X	x	Z	Y	-	y	z	-	z	Z	-	-
-	-	Z	Z	-	Z	-	-	z	Y	X	x
z	z	-	Z	-	X	x	-	z	Z	-	-
Z	Z	Z	Z	-	-	z	-	z	Z	Z	-
-	Z	Z	Y	-	y	z	-	z	Z	Z	Z
Z	-	Z	Z	-	X	x	-	z	Z	Z	-
Z	Z	Z	Z	-	X	x	-	-	Y	-	y
y	Z	Z	Z	-	X	x	-	z	-	z	z
x	y	Z	Z	-	-	z	-	z	X	x	X
-	z	Z	Z	-	X	x	X	x	Y	X	x
-	z	Z	Z	-	X	x	-	z	z	-	Y
y	-	Z	Z	-	X	x	-	z	z	Z	-
-	-	Z	Z	-	X	x	-	z	-	z	z
-	Z	Z	Z	-	X	x	-	z	z	-	-
-	-	Z	Z	-	X	x	-	z	z	z	-
y	Z	Z	Z	-	X	x	-	Y	X	x	Y
y	X	x	Z	-	X	x	-	z	X	x	y
Y	X	x	Z	-	X	x	-	z	X	x	Y
-	y	-	Z	-	X	x	-	z	Z	Y	X
Z	-	Z	Z	-	X	x	-	z	Z	Y	-
-	-	Y	X	x	X	x	-	z	X	x	X
y	z	Z	Z	-	X	x	-	z	Z	Z	Z
-	Z	Z	Z	-	X	x	-	z	z	-	-
-	-	Z	Z	-	X	x	-	z	z	z	-
y	Z	Z	Z	-	X	x	-	Y	X	x	Y
X	x	Z	Z	-	X	x	-	z	-	z	z
-	-	-	Z	-	X	x	-	z	Y	X	x
Z	-	Z	Z	-	X	x	-	z	Y	-	y
-	Z	-	Z	-	X	x	-	z	Y	-	y
-	Z	Z	Z	-	X	x	-	z	X	x	-
-	Z	Z	Z	-	X	x	-	z	-	Y	-
-	-	Z	Z	-	X	x	-	z	Z	Y	X
z	Z	Z	Z	-	X	x	-	z	Y	X	x
-	-	-	Z	-	X	x	-	z	X	x	Y
z	-	Y	X	x	X	x	-	z	Y	X	x
X	x	Y	X	x	X	x	-	z	Z	-	Y
X	x	y	Z	-	X	x	-	z	-	Y	X
x	y	-	Z	-	X	x	-	z	Y	X	x
X	x	Z	Z	-	X	x	X	x	Z	Z	Z
Z	Z	Z	Z	-	X	x	-	z	z	-	Y
y	-	Z	Z	-	X	x	-	z	z	z	z
Z	-	Z	Z	-	-	z	-	z	X	x	-
x	Z	Z	Z	-	X	x	X	x	Y	-	y
Z	-	Z	Z	-	X	x	X	x	Z	Z	-
-	y	Z	Z	-	X	x	-	z	-	-	X
z	z	-	Z	-	X	x	-	z	z	-	-
-	-	Z	Z	-	X	x	-	z	-	Z	Z
-	y	Z	Y	-	y	z	-	z	Z	-	X
-	z	-	Z	-	X	x	-	z	Z	-	Z
-	-	Z	Z	-	Z	Y	-	y	Y	X	x
-	-	Z	Z	-	X	x	-	z	-	-	-
Z	-	Z	Z	-	Z	Y	-	y	Y	-	y
x	y	Z	Z	-	X	x	-	z	-	-	z
-	-	Z	Z	-	X	x	-	z	-	-	-
Z	-	Z	Z	-	Z	Y	-	y	Y	-	y
-	Z	Z	Z	-	-	z	-	z	Z	-	X
Z	Z	Z	Z	-	X	x	-	z	-	Y	X
Z	Z	Z	Z	-	X	x	-	z	Y	-	y
-	z	Z	Z	-	X	x	-	z	Z	-	Z
Z	Z	Z	Z	-	X	x	-	z	Y	X	x
X	x	Y	X	x	X	x	-	z	Y	X	x
X	x	Y	X	x	X	x	-	z	Y	X	x
Z	-	-	Z	-	X	x	-	z	z	-	-
-	-	Z	Z	-	X	x	-	z	-	-	z
z	-	Z	Z	-	X	x	-	z	Z	Z	-
z	z	-	Z	-	X	x	-	z	-	-	Z
z	-	-	Z	-	X	x	-	z	-	Z	Z
-	y	Z	Z	-	X	x	-	z	Y	X	x
-	y	Z	Z	-	X	x	-	z	Y	X	x
y	z	Z	Z	-	X	x	-	z	Y	X	x
y	z	Z	Z	-	X	x	-	z	Y	X	x
z	X	x	-	-	X	x	-	z	X	x	-
-	X	x	Z	-	X	x	-	-	X	x	Z
Z	-	Z	Z	-	Z	Y	-	y	X	x	y
z	X	x	-	-	X	x	-	z	X	x	-
-	X	x	Z	-	X	x	-	-	X	x	Z
Z	-	Z	Z	-	X	x	-	z	Z	-	Z
-	Z	-	Z	-	X	x	-	z	z	X	x
X	x	Z	Z	-	X	x	-	z	-	z	-
z	Z	-	Z	-	X	x	-	z	Z	Y	-
-	y	Z	Z	-	X	x	-	z	z	Z	Z
z	z	Z	Z	-	X	x	-	z	z	Y	-
x	Z	Z	Z	-	X	x	-	z	Y	-	y
Z	-	-	Z	-	X	x	-	z	z	-	-
-	-	Z	Z	-	X	x	-	z	-	-	z
-	y	Z	Z	-	X	x	-	z	-	z	-
Y	X	x	Z	-	X	x	-	z	X	x	Z
z	X	x	Z	-	X	x	-	z	X	x	y
-	Z	Z	Z	-	X	x	y	z	Y	X	x
Z	Z	Z	Z	-	X	x	X	x	Y	-	y
Z	-	Z	Z	-	Z	Y	-	y	Z	Y	-
y	Z	Y	X	x	X	x	-	z	Z	Y	X
Z	Z	Z	Z	-	X	x	X	x	Z	-	X
Z	Z	Z	Z	-	X	x	-	z	Y	X	x
X	x	Z	-	-	X	x	-	z	-	X	x
-	Z	Y	X	x	X	x	-	z	X	x	X
y	Z	Z	Z	-	X	x	-	z	-	Y	X
-	z	-	Z	-	X	x	-	z	Y	X	x
X	x	y	Z	-	X	x	-	z	-	Z	-
Z	Z	Z	Z	-	X	x	-	z	Z	-	Y
z	-	Z	Z	-	X	x	-	z	Z	-	Z
X	x	Z	Z	-	X	x	X	x	Y	X	x
Z	Z	Z	Z	-	X	x	X	x	Z	Y	-
-	-	Z	Z	-	X	x	-	z	-	-	Y
y	-	-	Z	-	X	x	-	z	z	-	-
X	x	-	Z	-	X	x	-	z	Y	-	y
Z	Z	Z	Z	-	X	x	X	x	Z	Z	-
Z	-	Z	Z	-	X	x	-	z	Z	Z	Z
-	-	Y	X	x	X	x	-	z	Z	Z	Z
y	z	Z	Y	-	y	z	-	z	X	x	Z
Z	Z	Z	Z	-	X	x	-	z	Z	-	Y
y	-	-	Z	-	X	x	-	z	z	-	X
x	-	Z	Z	-	X	x	-	z	-	-	Y
Z	-	Z	Z	-	X	x	-	z	Z	-	-
y	z	Z	Z	-	X	x	-	z	Z	-	Z
x	y	Z	Z	-	Z	Y	-	y	Z	-	Z
x	y	Z	Z	-	Z	Y	-	y	Z	-	Z
-	z	Z	Z	-	X	x	-	z	Z	-	X
z	z	Y	X	x	X	x	-	z	X	x	Z
z	z	Y	X	x	X	x	-	z	X	x	Z
Z	-	Z	Z	-	X	x	-	z	z	z	-
-	Z	Z	Z	-	X	x	-	z	z	-	z
z	-	Z	Z	-	X	x	-	z	Z	-	Z
x	Z	Z	Z	-	X	x	-	z	Z	Z	-
Z	-	Z	Z	-	X	x	-	z	z	z	z
Z	Z	Z	Z	-	X	x	-	z	z	-	z
X	x	Z	Z	-	X	x	X	x	Y	X	x
x	-	Z	Z	-	X	x	-	z	Y	-	y
-	y	Z	Z	-	X	x	-	z	-	Z	Y
X	x	Y	X	x	X	x	-	z	X	x	Y
X	x	y	Z	-	X	x	-	z	Z	Z	Z
z	z	z	Z	-	X	x	-	z	Y	X	x
-	-	Z	Z	-	X	x	-	z	z	Z	Z
z	z	Z	Z	-	X	x	-	z	z	-	-
x	-	Y	X	x	X	x	-	z	Z	Y	-
-	z	Z	Z	-	-	z	-	z	X	x	-
-	-	Z	Z	-	X	x	-	Z	Z	-	Z
x	Z	Z	Z	-	X	x	-	z	Z	Z	-
z	z	Z	Z	-	X	x	y	z	X	x	y
z	Z	Z	Z	-	X	x	-	z	-	-	Y
x	y	Z	Z	-	X	x	-	z	z	-	z
Z	-	Z	Z	-	X	x	-	z	z	Y	X
y	-	-	Z	-	X	x	-	z	Y	-	y
-	z	Z	Z	-	X	x	-	z	-	Y	-
-	Z	Z	Z	-	X	x	-	z	X	x	Y
-	-	Z	Z	-	X	x	-	-	X	x	Z
-	-	Z	Z	-	X	x	-	-	X	x	Z
-	-	Z	Z	-	X	x	-	z	-	Z	Z
-	X	x	Z	-	X	x	-	z	X	x	Y
y	X	x	Z	-	X	x	-	z	X	x	-
Z	Z	Z	Z	-	X	x	-	z	z	-	Y
y	-	Z	Z	-	X	x	-	z	z	z	z
y	z	Z	Z	-	X	x	-	z	-	Y	-
y	-	Z	Z	-	X	x	-	z	-	z	Y
-	Z	Z	Z	-	X	x	-	z	Z	Z	Z
-	z	z	Z	-	X	x	-	z	X	x	Y
y	X	x	Z	-	X	x	-	z	Z	Z	-
-	X	x	Z	-	X	x	-	z	z	-	z
Z	-	Z	Z	-	X	x	-	z	X	x	-
y	z	Z	Z	-	X	x	-	z	-	-	z
-	-	Z	Z	-	X	x	-	z	Z	-	Z
-	-	Z	Z	-	X	x	-	z	-	Z	Z
-	-	Z	Z	-	X	x	X	x	Z	Z	-
Z	-	Z	-	-	X	x	-	z	Y	-	y
X	x	Z	Z	-	X	x	-	z	-	Z	Y
y	z	-	Z	-	X	x	-	z	z	X	x
z	z	Z	Z	-	X	x	X	x	Z	Z	-
z	z	Z	Z	-	-	z	-	z	Y	-	y
z	-	Z	Z	-	X	x	-	z	-	z	Z
z	z	Z	Z	-	X	x	-	z	Z	-	-
Z	Z	-	Z	-	X	x	-	z	Y	-	y
-	Z	Z	Z	-	X	x	-	z	-	z	z
X	x	Z	Z	-	X	x	-	z	Z	Y	-
X	x	Z	Z	-	X	x	-	z	Z	Y	-
-	-	Y	X	x	X	x	-	z	Z	-	-
y	z	Z	Z	-	X	x	-	z	z	-	-
-	-	Z	Z	-	X	x	-	z	z	Z	Y
z	-	Z	Z	-	X	x	-	z	-	z	Z
-	z	z	Z	-	X	x	-	z	X	x	Y
y	X	x	Z	-	X	x	-	z	Z	Z	-
Z	Z	Z	Z	-	X	x	-	Z	Y	X	x
-	z	Z	Z	-	X	x	X	x	X	x	y
-	X	x	Z	-	X	x	-	z	z	-	z
Z	-	Z	Z	-	X	x	-	z	X	x	-
y	z	Z	Z	-	X	x	-	z	-	Y	-
y	-	Z	Z	-	X	x	-	z	-	z	Y
z	z	z	Z	-	X	x	-	z	Z	-	-
-	-	z	Z	-	X	x	-	z	Z	Z	Z
z	-	Z	Z	-	X	x	X	x	Y	-	y
x	y	Z	Z	-	X	x	-	z	-	Z	-
y	-	Z	Z	-	X	x	-	z	-	z	Z
Z	-	Z	Z	-	X	x	-	z	-	z	-
z	z	Z	Z	-	X	x	-	-	Z	Y	-
-	y	Z	Z	-	X	x	-	z	X	x	y
z	z	Z	Z	-	Z	Y	-	y	X	x	y
-	-	Z	Z	-	X	x	-	z	z	Z	Y
y	z	Z	Z	-	X	x	-	z	z	-	-
X	x	y	Z	-	X	x	-	z	-	Z	Z
z	z	-	Z	-	X	x	-	z	Y	X	x
-	z	Z	Z	-	X	x	-	-	X	x	y
-	-	-	Z	-	X	x	-	z	-	Z	Z
z	z	-	Z	-	X	x	-	z	-	-	-
y	z	Z	Z	-	X	x	-	z	Z	Z	Z
Z	Z	Z	Z	-	X	x	-	z	-	-	z
-	-	z	Z	-	X	x	-	z	Y	X	x
X	x	y	Z	-	X	x	-	z	Z	-	-
Z	-	Y	X	x	X	x	-	z	Y	X	x
Y	X	x	Z	-	X	x	-	z	-	Y	X
x	y	-	Z	-	X	x	-	z	X	x	y
-	y	Z	Z	-	X	x	-	z	-	z	z
Z	Z	Z	Z	-	X	x	-	z	Z	Z	Z
X	x	Z	Z	-	X	x	X	x	X	x	Z
Z	-	Z	Z	-	X	x	-	z	z	z	Y
y	Z	Z	Z	-	X	x	-	z	z	-	z
-	y	Z	Z	Y	X	x	-	z	X	x	Z
x	Z	Z	Z	-	X	x	-	z	Z	Z	Y
Z	-	Z	Z	Y	X	x	-	z	Z	-	Y
z	Z	Z	Z	-	X	x	-	z	X	x	Z
z	-	Z	Z	-	-	z	-	z	Y	-	y
-	z	Z	Z	-	X	x	-	z	-	-	Z
Y	X	x	Z	-	X	x	-	z	-	Y	X
x	y	-	Z	-	X	x	-	z	X	x	y
Y	-	y	Z	-	X	x	-	z	X	x	y
Y	X	x	Z	-	X	x	-	z	Y	-	y
y	z	Z	Z	-	X	x	-	z	Z	Z	Z
-	y	Z	Z	-	Z	Y	-	y	Z	-	-
-	y	Z	Z	-	Z	Y	-	y	Z	Z	Y
-	Z	Z	Z	-	X	x	X	x	Z	Z	Z
x	-	-	Z	-	X	x	-	z	-	-	z
Z	-	-	Z	-	X	x	-	z	-	-	X
-	y	Z	Z	-	X	x	-	z	Z	-	Z
x	Z	-	Z	-	X	x	-	z	X	x	y
y	Z	Z	Z	-	X	x	-	Z	Y	-	y
Z	-	Z	Z	-	X	x	-	z	X	x	Z
Z	Z	Z	Z	-	X	x	-	z	Z	Y	-
X	x	Z	Z	-	X	x	X	x	Y	X	x
x	-	Z	Z	-	X	x	-	z	z	-	Z
z	-	Z	Z	-	X	x	-	z	z	-	X
Z	Z	Z	Z	-	Z	Y	-	y	Y	-	y
-	z	Z	Z	-	X	x	-	z	Z	Z	Y
-	Z	Z	Z	-	X	x	-	z	-	Y	-
y	z	Z	Z	-	X	x	-	z	X	x	y
-	-	Z	Z	-	X	x	-	z	Z	-	-
y	Z	Z	Z	-	X	x	-	z	-	Z	Z
z	-	Z	Z	-	-	z	-	z	Z	-	Z
-	z	Y	X	x	X	x	-	z	Z	-	X
x	-	z	Z	-	X	x	-	z	X	x	-
-	X	x	Z	-	X	x	-	z	Z	-	X
z	Z	Z	Z	-	X	x	-	z	Z	-	-
y	z	Z	Z	-	X	x	-	z	z	-	z
Z	-	Z	Z	-	X	x	-	z	z	Z	Y
y	Z	Z	-	-	X	x	-	z	Z	-	Y
X	x	Z	Y	-	y	z	-	z	Y	X	x
z	-	Z	Z	-	X	x	-	z	z	Z	Z
z	z	Z	Z	-	X	x	-	z	z	-	Z
Z	-	Z	Z	-	X	x	-	-	Z	-	X
X	x	Y	X	x	X	x	-	z	Z	-	X
y	z	Z	Z	-	X	x	-	z	z	-	z
Z	-	Z	Z	-	X	x	-	z	z	Z	Y
-	-	Z	Z	-	X	x	-	z	Y	-	y
-	-	Z	Z	-	X	x	-	z	Y	-	y
Z	-	Z	Z	-	X	x	-	z	Y	X	x
Z	Z	Z	Z	-	X	x	-	z	z	Y	-
-	y	Z	Z	-	X	x	-	z	z	z	z
-	z	Z	Z	-	X	x	-	z	z	-	Y
y	-	Z	Z	-	X	x	-	z	z	Z	-
X	x	Z	Y	-	y	z	-	z	Y	X	x
y	Z	Z	Z	-	X	x	-	z	X	x	X
z	-	z	Z	-	X	x	-	z	-	-	-
-	-	-	Z	-	X	x	-	z	Z	-	Z
Z	Z	Z	Z	-	X	x	-	z	-	-	z
Z	Z	Z	Z	-	X	x	-	z	Z	-	-
Z	-	Z	Y	-	y	z	-	z	Z	Y	-
Z	Z	Z	Z	-	X	x	-	z	z	Z	Z
z	z	Z	Z	-	X	x	-	z	z	z	z
x	-	Z	Z	-	X	x	-	z	Z	-	X
Z	-	Z	Z	-	X	x	-	-	Y	-	y
y	z	-	Z	-	X	x	-	z	-	Z	Z
z	z	-	Z	-	X	x	-	z	-	Z	Y
-	-	Z	Z	-	X	x	y	z	X	x	Y
x	-	Z	Z	-	X	x	-	z	Y	-	y
-	Z	Z	-	-	X	x	-	z	-	-	Z
X	x	Z	Z	-	X	x	-	z	Z	Z	-
-	-	Z	Z	-	X	x	-	z	z	z	-
-	Z	Z	Z	-	X	x	-	z	z	-	-
y	z	-	Z	-	X	x	-	z	Z	Z	Y
-	Z	Z	Z	-	X	x	-	z	z	z	X
x	Z	Z	Z	-	X	x	-	z	z	z	-
X	x	Z	Z	-	Z	Y	-	y	Y	-	y
Z	-	Z	Z	-	X	x	-	z	Y	-	y
Z	-	Z	-	-	X	x	-	z	Y	-	y
x	Z	Z	Z	-	X	x	-	z	X	x	y
z	z	Z	Z	-	X	x	-	z	-	-	-
-	-	Z	Z	-	X	x	y	z	X	x	Y
-	y	Z	Z	-	X	x	-	z	-	-	Z
-	z	Z	-	-	X	x	-	z	X	x	Z
X	x	Z	Z	Y	X	x	-	z	Y	-	y
Z	-	Z	Z	-	X	x	-	z	z	X	x
X	x	Z	Z	-	X	x	-	z	z	-	z
-	z	z	Z	-	X	x	-	z	X	x	y
Y	X	x	Z	-	X	x	-	z	Z	Z	-
-	Z	-	Z	-	X	x	-	z	Z	Z	-
Z	-	Z	Z	-	X	x	-	z	-	Z	-
Z	-	Z	Z	-	X	x	-	z	-	Z	-
Z	Z	Z	Z	-	X	x	-	z	z	-	Z
z	-	Z	Z	-	X	x	-	z	z	z	z
-	z	Z	Z	-	X	x	-	z	-	Z	Z
Z	-	Z	Z	-	X	x	X	x	Z	-	X
-	Z	Z	Z	-	Z	Y	-	y	X	x	Z
x	X	x	Z	-	X	x	-	z	-	Y	X
x	y	-	Z	-	X	x	-	z	X	x	X
x	Z	Y	X	x	X	x	-	z	Z	Y	X
y	z	-	Z	-	X	x	-	z	-	X	x
X	x	-	Z	-	X	x	-	z	-	Z	Y
X	x	-	Z	-	X	x	-	z	-	Y	X
x	y	-	Z	-	X	x	-	z	-	X	x
Z	Z	Y	X	x	X	x	-	z	X	x	X
-	Z	-	Z	-	X	x	-	z	Y	X	x
X	x	y	Z	-	X	x	-	z	-	z	-
-	y	Z	Y	-	y	z	-	z	Z	-	X
-	Z	Z	Z	-	X	x	-	z	-	Y	X
z	z	Z	Z	-	X	x	-	z	z	Y	-
-	y	Z	Z	-	X	x	-	z	z	Z	Z
-	Z	Z	Z	-	X	x	-	z	z	-	-
-	-	Z	Z	-	X	x	-	z	z	z	-
z	-	Z	Z	-	X	x	-	Z	Z	Z	Z
-	z	-	Z	-	X	x	-	z	Z	-	-
-	-	z	Z	-	X	x	-	z	-	Z	-
X	x	Z	Z	-	X	x	-	z	-	Z	Y
y	z	-	Z	-	X	x	-	z	z	X	x
Z	Z	Z	Z	-	X	x	-	z	-	-	X
Z	Z	Y	X	x	X	x	-	z	Y	-	y
x	y	Z	Z	-	X	x	-	z	-	-	-
X	x	y	Z	-	X	x	-	z	X	x	Z
z	X	x	Z	-	X	x	-	z	Y	X	x
z	z	Z	Z	-	-	z	-	z	Z	Y	-
-	-	z	Z	-	X	x	-	z	Z	-	-
-	-	z	Z	-	X	x	-	z	Z	-	-
-	Z	Y	X	x	X	x	-	z	Z	Z	-
z	-	z	Z	-	X	x	-	z	z	-	-
-	-	Z	Z	-	X	x	-	z	Z	-	Z
-	z	Z	Z	-	X	x	-	z	-	z	Z
y	z	z	Z	-	X	x	-	z	X	x	-
-	X	x	Z	-	X	x	-	z	Z	Z	Y
y	-	Z	Z	-	X	x	X	x	Z	-	Z
z	z	Z	Z	-	X	x	-	z	z	z	Y
y	Z	Z	Z	-	X	x	-	z	z	Z	Z
-	-	Z	Z	-	X	x	-	z	-	Y	-
-	y	-	Z	-	X	x	-	z	z	-	-
z	-	Z	Z	-	X	x	-	z	z	-	z
Z	-	Z	Z	-	X	x	-	z	z	-	Z
Z	-	Z	Z	-	X	x	-	z	-	Z	Y
-	-	Z	Z	-	X	x	-	z	-	z	z
-	Z	Z	Z	-	X	x	-	z	-	Z	Z
-	-	Y	X	x	X	x	-	z	X	x	-
-	y	Z	Z	-	X	x	-	z	z	z	Y
y	Z	Z	Z	-	X	x	-	z	z	Y	-
Z	-	Z	Z	-	X	x	-	Y	X	x	Z
Z	-	Z	Z	-	X	x	-	z	X	x	Y
-	X	x	Z	-	X	x	-	z	Z	Y	-
-	y	z	Z	-	X	x	-	z	X	x	-
y	-	Z	Z	-	X	x	-	z	z	Z	Z
z	z	Z	Z	-	X	x	-	z	z	-	Y
-	-	Y	X	x	X	x	-	z	X	x	-
z	X	x	Z	-	X	x	-	z	Y	-	y
Y	-	y	Z	-	X	x	-	z	X	x	Z
Z	-	Z	Z	-	X	x	-	Y	X	x	Z
y	-	Z	Z	-	X	x	-	z	X	x	y
Y	X	x	Z	-	X	x	-	z	z	-	Y
-	Z	Z	Z	-	X	x	-	z	-	-	z
z	-	Z	Z	-	X	x	-	z	z	-	z
Z	-	Z	Z	-	X	x	-	z	z	-	Z
Z	-	Z	Z	-	X	x	-	z	-	Z	Y
Z	Z	Z	Z	-	Z	-	-	z	Y	X	x
-	y	Z	Z	-	Z	-	-	z	Z	-	Y
-	-	Z	Z	-	-	z	-	z	X	x	-
-	z	-	Z	-	X	x	-	z	X	x	y
Y	X	x	Z	-	X	x	-	z	-	Z	-
-	Z	Z	Z	-	X	x	-	z	Z	-	-
Z	Z	Z	Z	-	-	z	-	z	Z	Z	-
-	-	Z	Z	-	Z	-	-	z	Z	Z	Y
-	-	Z	Z	-	X	x	-	z	z	-	z
Z	-	Z	Z	-	X	x	-	z	z	-	-
-	-	Z	Z	-	X	x	-	z	z	-	z
Z	-	Z	Z	-	X	x	-	z	z	-	-
Z	Z	Z	Z	-	X	x	-	z	-	-	Y
X	x	-	Z	-	X	x	-	z	z	z	Y
y	Z	Z	Z	-	X	x	-	z	-	X	x
-	Z	Z	Z	-	X	x	-	z	z	Z	-
-	z	Z	Z	-	X	x	-	z	z	z	-
x	y	-	Z	-	X	x	-	z	Z	Z	Y
Z	Z	Z	Z	-	X	x	-	-	Z	Z	-
y	Z	Z	Z	-	X	x	-	z	z	z	-
-	Z	Z	Z	-	X	x	-	z	z	z	Y
x	-	Y	X	x	X	x	-	z	Z	Y	X
Z	-	Z	Z	-	X	x	-	z	X	x	-
z	Z	Z	Z	-	X	x	-	z	X	x	-
-	Z	Y	X	x	X	x	-	z	Z	Z	Y
X	x	Y	X	x	X	x	-	z	Y	-	y
Z	-	Z	Z	-	X	x	-	z	X	x	-
z	X	x	Z	-	X	x	-	z	-	-	Y
y	-	-	Z	-	X	x	-	z	X	x	Z
y	z	Z	Z	-	Z	Y	-	y	Z	-	-
-	y	Z	Z	-	X	x	-	z	-	z	-
z	Z	Z	Z	-	Z	-	-	z	X	x	Z
z	z	Z	Z	-	-	z	-	z	Y	-	y
z	Z	Z	Z	-	Z	-	-	z	X	x	Z
z	Z	Z	Z	-	Z	-	-	z	X	x	Z
z	Z	Z	Z	-	Z	-	-	z	X	x	Z
z	X	x	Z	-	X	x	-	z	-	-	Y
y	-	-	Z	-	X	x	-	z	X	x	Z
x	Z	Z	Z	-	X	x	-	z	z	-	Y
y	-	Z	Z	-	X	x	-	z	z	z	X
y	Z	Z	Z	-	X	x	-	z	z	-	-
-	-	Z	Z	-	X	x	-	z	z	z	Y
-	y	Z	Z	-	X	x	-	z	-	Y	-
Z	-	Z	Z	-	X	x	-	z	Z	-	-
z	z	Z	Z	-	X	x	-	z	-	Y	X
Z	-	-	Z	-	X	x	-	z	-	X	x
X	x	-	Z	-	X	x	-	z	-	-	z
-	z	Z	Z	-	Z	Y	-	y	Y	-	y
X	x	Z	Z	Y	X	x	-	z	Y	X	x
X	x	-	Z	-	X	x	-	z	z	Y	X
x	y	Z	Z	-	X	x	-	z	-	X	x
x	-	Z	Z	-	X	x	-	z	-	Y	X
x	y	-	Z	-	X	x	-	z	z	-	X
y	z	Z	Z	-	Z	Y	-	y	Z	-	-
-	y	Z	Z	-	X	x	-	z	-	z	-
-	z	Z	Z	-	X	x	-	-	Z	Z	-
Z	-	Z	Z	-	X	x	-	-	Y	X	x
X	x	-	Z	-	X	x	-	z	z	Z	Y
y	z	Z	Z	-	X	x	-	z	-	X	x
y	z	-	Z	-	X	x	-	z	z	z	-
-	Z	Z	Z	-	X	x	-	z	-	Z	Y
z	z	-	Z	-	X	x	-	z	Y	X	x
X	x	y	Z	-	X	x	-	z	-	Z	Z
y	z	-	Z	-	X	x	-	z	Y	X	x
X	x	y	Z	-	X	x	-	z	-	Z	Y
y	z	-	Z	-	X	x	-	z	-	X	x
X	x	-	Z	-	X	x	-	z	-	Z	Y
Z	Z	Z	Z	-	X	x	-	z	-	X	x
X	x	-	Z	-	X	x	-	z	z	z	z
z	Z	Z	Z	-	X	x	-	Z	Y	-	y
x	-	Z	-	-	X	x	-	z	Z	Z	Z
-	z	Z	Z	-	X	x	-	-	Z	Z	-
Z	-	Z	Z	-	X	x	-	-	Y	X	x
y	Z	Z	Z	-	X	x	-	z	z	-	z
Z	-	Z	Z	-	X	x	-	z	z	z	Y
y	-	-	Z	-	X	x	-	z	-	Z	Y
y	z	-	Z	-	X	x	-	z	-	-	Y
-	Z	Z	Z	-	X	x	-	z	z	z	z
Z	Z	Z	Z	-	X	x	-	z	z	z	-
X	x	Z	Z	-	X	x	X	x	Y	X	x
z	z	Z	Z	-	X	x	-	z	-	z	Z
X	x	Z	Z	-	X	x	-	z	Y	-	y
-	y	Z	Z	-	X	x	-	z	-	Z	Y
-	Z	Z	Z	-	X	x	-	z	z	Z	Y
y	z	Z	Z	-	X	x	-	z	z	z	-
Z	-	Z	Z	-	X	x	-	z	Y	-	y
y	-	Z	Z	-	X	x	-	z	-	-	-
-	-	-	Z	-	X	x	-	z	z	-	Y
Z	-	Z	Z	-	X	x	-	z	-	Z	Z
Z	-	Z	Z	-	X	x	-	-	Z	Z	Z
X	x	Y	X	x	X	x	-	z	X	x	Z
Z	-	Z	Z	-	X	x	-	z	-	Z	Y
z	z	Z	Z	-	X	x	X	x	X	x	-
z	z	Y	X	x	X	x	-	z	Z	-	-
y	-	-	Z	-	X	x	-	z	-	Z	Y
y	z	-	Z	-	X	x	-	z	-	-	Y
-	Z	Z	Z	-	X	x	-	z	z	z	z
Z	Z	Z	Z	-	X	x	-	z	z	z	-
z	z	Z	Z	-	X	x	-	z	Y	-	y
Z	-	Z	Z	-	X	x	-	z	-	Z	Z
X	x	Z	Z	-	X	x	-	Z	Y	X	x
z	z	Z	Z	-	X	x	-	z	Y	-	y
Z	Z	Z	Z	-	X	x	-	z	Z	-	-
-	Z	-	Z	-	X	x	-	z	X	x	Z
X	x	-	Z	-	X	x	-	z	-	X	x
X	x	-	Z	-	X	x	-	z	-	X	x
Z	Z	-	Z	-	X	x	-	z	Z	Z	-
-	Z	Z	Z	-	Z	-	-	z	Z	Y	X
Z	-	Z	Z	-	Z	-	-	z	Z	Z	-
x	y	Z	Z	-	-	z	-	z	X	x	X
y	z	Z	Z	-	X	x	-	z	-	z	-
X	x	Z	Z	-	X	x	X	x	Z	Z	-
X	x	Z	Z	-	X	x	X	x	Y	X	x
-	-	Z	Z	-	X	x	-	z	z	-	-
-	-	Z	Z	-	X	x	-	z	z	-	-
x	y	-	Z	-	X	x	-	z	Z	-	X
-	y	Z	Z	-	Z	Y	-	y	Z	-	Z
y	-	Z	Z	-	X	x	-	z	-	z	X
z	Z	Z	Z	-	X	x	-	z	z	z	z
Z	Z	Z	Z	-	X	x	-	z	z	z	Z
X	x	Z	Z	-	X	x	X	x	Z	Z	Y
z	z	Y	X	x	X	x	-	z	X	x	-
-	y	Z	Z	-	X	x	-	Z	Z	-	Y
z	-	Z	Z	-	X	x	-	-	Y	-	y
Z	Z	Z	Z	-	X	x	-	z	X	x	X
z	z	X	x	-	X	x	-	z	Z	Y	X
Z	Z	Z	Z	-	X	x	-	z	X	x	X
x	y	Z	Z	-	X	x	-	z	-	X	x
X	x	-	Z	-	X	x	-	z	z	Y	X
z	z	Z	Z	-	X	x	-	z	-	-	z
Z	-	Z	Z	Y	X	x	-	z	X	x	-
-	-	z	Z	-	X	x	-	z	Y	X	x
X	x	y	Z	-	X	x	-	z	Z	-	-
z	z	X	x	-	X	x	-	z	Z	Y	X
z	Z	Z	Z	-	X	x	-	z	X	x	-
z	Z	Z	Z	-	X	x	-	z	-	z	Z
-	Z	Z	Z	-	X	x	-	z	Y	X	x
Z	Z	Z	Y	-	y	z	-	z	Z	-	-
x	y	Z	Z	-	X	x	-	z	-	z	X
X	x	Y	X	x	X	x	-	z	X	x	X
y	Z	Z	Z	-	X	x	-	z	-	Z	-
y	z	-	Z	-	X	x	-	z	-	X	x
X	x	-	Z	-	X	x	-	z	-	Z	Y
x	y	Y	X	x	X	x	-	z	Y	-	y
y	Z	Z	Z	-	X	x	-	z	-	Z	-
z	Z	Z	Z	-	X	x	-	z	Z	-	X
Z	-	Z	Y	-	y	z	-	z	X	x	y
Z	Z	Z	Z	-	X	x	-	z	Z	-	Z
Z	-	Z	Z	-	X	x	-	z	-	z	-
X	x	Y	X	x	X	x	-	z	Y	X	x
X	x	Y	X	x	X	x	-	z	X	x	X
-	Z	Y	X	x	X	x	-	z	Z	-	-
X	x	-	Z	-	X	x	-	z	z	z	X
x	Z	Z	Z	-	X	x	-	z	-	X	x
X	x	Y	X	x	X	x	-	z	Y	X	x
X	x	-	Z	-	X	x	-	z	-	-	z
Z	-	-	Z	-	X	x	-	z	-	X	x
z	Z	Z	Z	-	X	x	-	z	-	Z	-
-	Z	Z	Z	-	X	x	-	z	-	-	X
Z	Y	X	x	-	X	x	-	z	Z	Z	Y
-	-	Z	Z	-	X	x	-	z	Z	Z	-
-	z	Y	X	x	X	x	-	z	Z	-	Y
Z	Z	Z	Z	-	X	x	-	z	-	Y	X
Z	Z	Y	X	x	X	x	-	z	Y	-	y
Z	-	Z	Z	-	X	x	-	z	z	-	-
-	-	Z	Z	-	X	x	-	z	z	-	z
Z	Z	Y	X	x	X	x	-	z	Y	-	y
-	z	Z	Z	-	X	x	-	z	X	x	-
X	x	Z	Z	-	-	z	-	z	Z	-	-
y	z	-	Z	-	X	x	-	z	-	X	x
X	x	-	Z	-	X	x	-	z	-	Z	Y
z	z	Z	Z	-	X	x	-	-	Z	-	Z
y	Z	Z	Z	-	X	x	X	x	Y	X	x
X	x	Z	Z	-	-	z	-	z	X	x	X
Z	Y	X	x	-	X	x	-	z	Z	Z	Y
-	-	Z	Z	-	X	x	-	z	Z	Z	-
X	x	Z	Z	-	X	x	X	x	Z	Y	X
y	z	-	Z	-	X	x	-	z	-	X	x
X	x	-	Z	-	X	x	-	z	-	Z	Y
X	x	-	Z	-	X	x	-	z	-	-	z
Z	-	-	Z	-	X	x	-	z	-	X	x
z	Z	Z	Z	-	X	x	-	z	-	z	Z
X	x	X	x	-	X	x	-	z	Z	-	Y
z	z	Z	Z	-	X	x	-	z	X	x	Z
x	y	-	Z	-	X	x	-	z	Z	Z	-
X	x	Y	X	x	X	x	-	z	Y	X	x
x	y	X	x	-	X	x	-	z	Z	Y	X
x	Z	Z	Z	-	X	x	-	z	-	Z	Y
-	-	Z	Z	-	X	x	-	z	Y	X	x
X	x	y	Z	-	X	x	-	z	z	-	-
y	z	-	Z	-	X	x	-	z	z	z	-
-	Z	Z	Z	-	X	x	-	z	-	Z	Y
-	-	Z	Z	-	X	x	-	z	z	z	Z
z	Z	Z	Z	-	X	x	-	z	z	-	-
y	z	Z	Z	-	X	x	-	z	X	x	y
z	-	Z	Z	-	X	x	-	z	z	Z	Y
y	z	Z	Z	-	X	x	-	z	z	-	Z
-	Z	Z	Z	-	-	z	-	z	Z	Z	Y
y	Z	Z	Z	-	X	x	-	z	z	-	z
Z	-	Z	Z	-	X	x	-	z	z	z	Y
-	z	Z	Z	-	-	z	-	z	Z	-	-
-	-	Z	Z	-	Z	-	-	z	X	x	Y
-	z	Z	Z	-	-	z	-	z	Z	Y	-
X	x	-	Z	-	X	x	-	z	-	-	Z
z	-	-	Z	-	X	x	-	z	-	X	x
-	-	-	Z	-	X	x	-	z	-	Y	X
x	y	-	Z	-	X	x	-	z	-	-	-
Y	X	x	Z	-	X	x	-	z	-	z	-
-	Z	-	Z	-	X	x	-	z	X	x	y
X	x	-	Z	-	X	x	-	z	-	-	-
-	-	-	Z	-	X	x	-	z	-	X	x
X	x	Z	Z	-	X	x	-	z	Z	Z	Z
y	Z	Z	Z	-	X	x	-	z	Z	Y	-
z	z	Z	Z	-	X	x	-	z	z	z	z
Z	Z	Z	Z	-	X	x	-	z	z	Z	Z
X	x	Z	Z	-	X	x	y	z	Y	X	x
z	z	Z	Z	-	X	x	X	x	X	x	y
-	Z	Z	Z	-	X	x	-	z	z	Y	-
-	y	Z	Z	-	X	x	-	z	z	z	-
X	x	Z	Z	-	Z	Y	-	y	Y	X	x
Z	-	Z	Z	-	X	x	-	z	z	-	Z
z	-	Z	Z	-	X	x	-	z	z	-	z
X	x	Z	Z	-	Z	Y	-	y	Y	X	x
-	Z	Z	Z	-	X	x	-	z	z	z	-
-	Z	Z	Z	-	X	x	-	z	z	z	-
-	-	Z	Z	-	Z	Y	-	y	X	x	Z
-	Z	Z	Z	Y	X	x	-	z	X	x	y
Z	Z	Z	Z	-	X	x	-	z	X	x	Y
z	-	-	Z	-	X	x	-	z	Y	-	y
-	-	Z	Z	-	X	x	-	z	-	-	z
-	y	Z	Z	-	X	x	-	-	Z	Z	Y
Z	Z	Z	Z	-	X	x	-	z	z	-	z
Z	-	Z	Z	-	X	x	-	z	z	z	z
X	x	Z	Z	-	X	x	-	z	Z	Z	Z
Z	-	Z	-	-	X	x	-	z	Y	X	x
-	y	Z	Z	-	X	x	X	x	Z	Z	Z
x	y	Z	Z	-	X	x	-	z	Z	Y	-
y	z	Z	Z	-	X	x	-	z	Z	Y	-
y	Z	Z	Z	-	X	x	-	z	X	x	X
X	x	Z	Z	-	X	x	y	z	Y	X	x
-	z	-	Z	-	X	x	-	z	Z	-	-
x	-	Z	Z	-	-	z	-	z	Y	-	y
-	-	-	Z	-	X	x	-	z	z	z	-
-	Z	Z	Z	-	X	x	-	z	-	-	-
z	z	Z	Z	-	X	x	-	z	-	z	X
-	z	Z	Z	-	X	x	-	z	Y	X	x
-	z	-	Z	-	X	x	-	z	Z	-	-
x	X	x	Z	-	X	x	-	z	z	-	X
x	-	Z	Z	-	X	x	-	z	X	x	X
X	x	Z	Z	-	-	z	-	z	Y	-	y
X	x	Y	X	x	X	x	-	z	Y	X	x
-	y	Z	Z	-	X	x	-	-	Z	Z	Y
-	Z	Z	Z	-	-	z	-	z	Z	-	Z
x	y	Z	Z	-	X	x	-	z	Z	-	-
-	z	Z	Z	-	X	x	-	z	z	X	x
X	x	Z	Z	-	X	x	-	z	z	Z	-
Z	-	Z	Z	-	X	x	-	z	-	Z	-
z	Z	Z	Z	-	X	x	-	z	X	x	y
Z	-	Z	Z	-	X	x	-	z	-	Z	-
z	-	Z	Z	-	X	x	-	z	z	Z	Y
y	z	Z	Z	-	X	x	-	z	z	-	Z
x	y	Z	Z	-	X	x	X	x	Z	-	Z
x	y	-	Z	-	X	x	-	z	-	Z	Y
y	z	-	Z	-	X	x	-	z	-	Y	X
Z	-	Z	Z	-	X	x	-	z	-	Z	Z
y	-	Z	Z	-	X	x	-	z	-	z	-
-	Z	-	Z	-	X	x	-	z	z	-	Y
-	z	Z	Z	-	X	x	-	z	X	x	-
-	z	Z	Z	-	-	z	-	z	Z	-	-
-	-	-	Z	-	X	x	-	z	-	Z	Z
z	z	-	Z	-	X	x	-	z	-	-	-
-	z	Z	Z	-	X	x	-	z	X	x	Z
-	y	Y	X	x	X	x	-	z	X	x	Z
-	y	Z	Z	-	X	x	-	z	-	Z	-
z	Z	Z	Z	-	X	x	-	z	X	x	y
-	-	Z	Z	-	X	x	-	z	X	x	-
z	Z	Z	Z	-	X	x	-	z	Y	-	y
x	-	Z	Z	-	X	x	-	z	z	z	z
Z	Z	Z	Z	-	X	x	-	z	z	-	X
z	z	Z	Z	-	X	x	-	z	Y	-	y
X	x	-	Z	-	X	x	-	z	-	-	z
Z	-	-	Z	-	X	x	-	z	-	X	x
X	x	-	Z	-	X	x	-	z	-	-	z
Z	-	-	Z	-	X	x	-	z	-	X	x
z	z	Z	Z	-	X	x	-	z	-	Z	Y
X	x	Z	Z	-	X	x	X	x	X	x	Z
-	z	Z	Z	-	X	x	-	z	-	-	Y
Z	Z	Z	Z	-	X	x	X	x	Z	-	-
y	z	Z	-	-	X	x	-	z	Z	-	-
-	-	z	Z	-	X	x	-	z	Z	-	-
-	-	z	Z	-	X	x	-	z	Z	-	-
z	z	Z	Z	-	X	x	-	z	Y	-	y
x	-	Z	Z	-	X	x	-	z	X	x	y
-	-	Z	Z	-	X	x	-	z	z	-	Y
y	-	Z	Z	-	X	x	-	z	z	-	-
-	z	Z	Z	-	X	x	-	z	-	Y	X
Z	Z	Z	Z	-	X	x	-	z	Z	-	Z
x	Z	Z	Z	-	X	x	-	z	-	Z	Y
y	Z	Z	Z	-	X	x	-	z	z	-	-
-	-	Z	Z	-	X	x	-	z	z	z	Y
Z	Y	X	x	-	X	x	-	z	Y	X	x
z	-	Z	Z	-	X	x	-	z	z	z	Z
z	Z	Z	Z	-	X	x	-	z	z	-	Z
-	z	Z	Z	-	-	z	-	z	Z	-	-
y	-	Z	Z	-	X	x	-	z	z	-	z
Z	-	Z	Z	-	X	x	-	z	z	-	Y
x	y	Z	Z	-	X	x	-	z	z	-	z
Z	-	Z	Z	-	X	x	-	z	z	Y	X
Z	Z	Z	Z	-	X	x	X	x	Z	-	-
x	Z	-	Z	-	X	x	-	z	Y	-	y
Z	-	Z	Z	-	X	x	-	z	z	-	-
-	-	Z	Z	-	X	x	-	z	z	-	z
x	y	Z	Z	-	X	x	y	z	Z	-	Z
-	-	-	Z	-	X	x	-	z	Y	-	y
X	x	Z	Z	-	X	x	X	x	Z	-	-
Z	-	Z	Z	Y	X	x	-	z	X	x	Z
X	x	Z	Z	-	X	x	X	x	Z	-	Z
-	Z	Z	Z	-	X	x	-	z	X	x	Y
y	X	x	Z	-	X	x	-	z	z	z	-
y	z	Z	Z	-	X	x	-	z	z	-	Y
y	-	Z	Z	-	X	x	-	z	z	Z	Y
-	-	-	Z	-	X	x	-	z	Y	-	y
-	z	Z	Z	-	X	x	y	z	Z	Y	X
z	-	Z	Z	-	X	x	-	z	z	X	x
X	x	Z	Z	-	X	x	-	z	z	-	Z
-	z	Z	Z	-	X	x	-	z	Z	-	Y
z	-	Z	Z	-	X	x	X	x	Z	-	-
-	z	Y	X	x	X	x	-	z	Z	-	-
z	Z	Z	Z	-	X	x	-	z	-	Z	Z
X	x	Z	Z	-	X	x	-	z	Z	-	-
-	-	z	Z	-	X	x	-	z	z	X	x
Z	Z	Z	Z	-	X	x	-	z	-	z	z
-	z	Z	Z	-	X	x	-	-	Z	Z	Z
X	x	-	Z	-	X	x	-	z	z	-	-
-	-	Z	Z	-	X	x	-	z	-	X	x
Z	Z	Z	Z	-	X	x	-	z	-	-	z
-	z	Z	Z	-	X	x	-	z	Z	Y	X
X	x	Z	-	-	X	x	-	z	X	x	X
Z	Z	Z	Z	-	X	x	-	z	-	z	z
-	y	-	Z	-	X	x	-	z	z	X	x
X	x	Z	Z	-	X	x	-	z	-	Y	-
-	-	z	Z	-	X	x	-	z	X	x	Z
z	X	x	Z	-	X	x	-	z	Z	-	-
-	-	z	Z	-	X	x	-	z	X	x	Z
z	X	x	Z	-	X	x	-	z	Z	-	-
Z	-	Z	Z	-	X	x	-	z	-	Z	Z
-	-	Z	Z	-	X	x	-	-	Z	Y	-
Z	-	Z	Z	-	X	x	-	z	Z	-	X
y	-	z	Z	-	X	x	-	z	Z	Y	X
x	y	z	Z	-	X	x	-	z	Z	-	Y
Z	Z	Z	Z	-	X	x	-	z	-	-	z
X	x	Z	Z	-	X	x	-	z	Z	Y	-
X	x	Z	Z	-	X	x	-	z	-	Z	Y
y	z	-	Z	-	X	x	-	z	z	X	x
-	Z	Z	Z	-	X	x	-	z	X	x	X
z	Z	Z	Z	-	X	x	-	z	Z	-	Z
z	Z	Z	Z	-	X	x	-	z	Z	-	Z
-	y	Z	Z	-	X	x	-	z	z	z	Y
y	Z	Z	Z	-	X	x	-	z	z	Y	-
Z	Z	Y	X	x	X	x	-	z	Z	Z	Y
X	x	Z	Z	-	X	x	-	z	Z	-	Z
x	y	Z	Z	-	X	x	-	z	X	x	Y
-	y	X	x	-	X	x	-	z	-	-	X
y	Z	Z	Z	-	X	x	-	z	Z	Y	X
-	-	Z	Z	-	X	x	y	z	Z	-	X
X	x	Z	Z	-	X	x	X	x	Y	X	x
X	x	Z	Z	-	X	x	-	z	Z	-	Z
z	-	Y	X	x	X	x	-	z	X	x	X
Z	Z	Z	Z	-	X	x	-	-	Y	X	x
Z	-	Z	Z	-	X	x	X	x	Z	-	Z
Z	-	Z	Z	-	X	x	-	z	-	-	Z
-	Z	Z	Z	-	X	x	X	x	X	x	y
z	z	-	Z	-	X	x	-	z	X	x	X
x	X	x	Z	-	X	x	-	z	-	Z	Z
X	x	Z	Z	-	X	x	-	z	X	x	Y
Z	-	Z	Z	-	X	x	X	x	Z	-	Z
x	y	-	Z	-	X	x	-	z	Z	-	-
x	Z	Z	Z	-	X	x	-	z	Z	-	Z
Z	Z	Z	Z	-	X	x	-	z	-	z	Y
Z	Z	Z	Z	-	X	x	-	z	-	z	Y
X	x	Z	Z	-	X	x	-	z	-	Z	Z
z	z	-	Z	-	X	x	-	z	z	X	x
Z	Z	Z	Z	-	X	x	X	x	Z	Z	Z
y	-	Z	Z	-	X	x	X	x	Z	Y	-
X	x	Z	Z	-	X	x	-	z	-	Z	Z
z	z	-	Z	-	X	x	-	z	z	X	x
Z	-	Z	Z	-	X	x	-	z	Y	-	y
x	Z	Z	Y	-	y	z	-	z	X	x	y
Z	-	Z	Z	-	X	x	-	z	-	z	z
-	y	Z	-	-	X	x	-	z	X	x	-
Z	-	Z	Z	-	X	x	-	z	-	Y	-
-	z	Z	Z	-	X	x	X	x	Z	-	-
y	-	-	Z	-	X	x	-	z	z	X	x
X	x	Z	Z	-	X	x	-	z	-	-	Y
x	y	Z	Z	-	X	x	-	z	X	x	-
x	y	Z	Z	-	X	x	-	z	X	x	-
x	Z	Z	Z	-	X	x	-	z	z	X	x
X	x	Z	Z	-	X	x	-	z	z	z	X
z	-	Z	Z	-	Z	-	-	z	Z	Y	X
y	Z	Y	X	x	X	x	-	z	Z	Z	Y
X	x	Y	X	x	X	x	-	z	X	x	y
Z	-	-	Z	-	X	x	-	z	Z	-	-
Z	-	Z	Z	-	X	x	-	z	Z	-	Z
