0	1	2	3	4	5	6	7	8	9	10	11
22.0	31.0		24.0		25.0	29.0		29.0	29.0		29.0
4.0	4.0	5.0	5.0		5.0	5.0		5.0	0.0	5.0	4.0
5.0	5.0	5.0	5.0		6.0	23.0		31.0	31.0	6.0	6.0
19.0	19.0	13.0	13.0		13.0	20.0			14.0		12.0
33.0	11.0	34.0	32.0	11.0	30.0	11.0		12.0	31.0		31.0
20.0		18.0	17.0		18.0	16.0		12.0	12.0	18.0	12.0
19.0	34.0	34.0	38.0		38.0	22.0		22.0	37.0		
18.0	21.0	21.0	21.0		21.0	20.0		18.0	20.0	22.0	23.0
	39.0		35.0		35.0	27.0		27.0	35.0		35.0
20.0		20.0	20.0		20.0	21.0		21.0	20.0	20.0	20.0
	22.0	22.0	22.0		22.0	7.0		7.0	7.0	7.0	9.0
		6.0	6.0		8.0	9.0		8.0		8.0	
		21.0	12.0		11.0	15.0		21.0	9.0	13.0	
32.0	11.0	33.0	33.0		33.0	34.0		14.0	35.0		9.0
		12.0	23.0		23.0	18.0		16.0	20.0	16.0	16.0
	7.0	15.0	16.0		17.0	7.0	7.0	7.0	16.0		17.0
33.0		30.0	30.0		12.0	24.0		34.0	34.0		
20.0		20.0	20.0		20.0	19.0		19.0	20.0	20.0	20.0
	20.0	10.0	10.0		10.0	20.0		19.0		10.0	
20.0	19.0	24.0	24.0			16.0		16.0	16.0		16.0
19.0	48.0	19.0	19.0		21.0	48.0		23.0	23.0		60.0
7.0	7.0	16.0	16.0		16.0	7.0		7.0	7.0	17.0	17.0
18.0	19.0	18.0	17.0	19.0	17.0	19.0		19.0	17.0	19.0	
22.0	0.0	24.0			24.0	0.0		0.0	12.0	24.0	0.0
12.0	18.0	12.0	12.0		16.0	18.0		17.0	18.0		20.0
	23.0	29.0			29.0	23.0		22.0	32.0	32.0	32.0
13.0			12.0		13.0	28.0		26.0	12.0		12.0
	19.0	33.0	34.0		34.0	20.0		20.0		20.0	20.0
8.0	22.0	22.0	22.0		22.0	8.0			22.0		7.0
	24.0	38.0	38.0		39.0	25.0		25.0	25.0		
		17.0	17.0		17.0	22.0	22.0	22.0	17.0	18.0	
11.0		11.0	11.0		11.0	15.0		15.0	11.0		14.0
27.0	27.0	25.0	31.0		33.0	27.0		27.0		30.0	24.0
4.0		0.0	0.0		0.0	12.0		12.0		0.0	0.0
24.0	4.0	22.0	23.0		23.0	5.0		5.0		24.0	
	21.0	16.0	15.0		16.0	25.0		27.0	18.0		
17.0	17.0	7.0	7.0		7.0	16.0		16.0	16.0	7.0	7.0
		14.0	14.0		11.0	6.0		6.0	12.0		15.0
	22.0	22.0	22.0		22.0			15.0	11.0		11.0
12.0		12.0	12.0		12.0	22.0		24.0	24.0	11.0	
18.0	0.0	0.0	18.0		18.0	0.0		0.0	14.0	14.0	0.0
7.0	8.0	15.0	15.0		13.0	9.0		9.0	14.0		9.0
15.0	15.0	15.0	15.0		24.0	24.0		24.0	11.0		13.0
34.0	25.0	26.0	25.0		25.0	36.0		36.0	36.0	36.0	
		39.0	43.0		47.0	44.0		50.0	43.0		
	13.0	24.0	24.0		23.0	13.0		14.0	24.0		14.0
	27.0	22.0	22.0		20.0	24.0		26.0	27.0	24.0	26.0
20.0	13.0	13.0	13.0		11.0	18.0		20.0		19.0	19.0
24.0	24.0	24.0	24.0		23.0	8.0		8.0	23.0	8.0	23.0
20.0	20.0	20.0	21.0		21.0	20.0		20.0	20.0		20.0
5.0	19.0	5.0	5.0	20.0	5.0	21.0		20.0	5.0	21.0	5.0
	9.0	0.0	10.0		11.0	0.0		0.0	8.0	4.0	0.0
32.0	29.0	29.0	27.0		34.0	30.0		30.0	34.0		34.0
11.0	0.0	0.0	0.0		0.0	16.0		16.0	0.0		15.0
	25.0	10.0	10.0		10.0	29.0		29.0	29.0	10.0	
16.0	16.0	28.0	28.0		16.0	16.0		15.0	27.0	15.0	27.0
21.0	16.0	16.0	16.0		15.0	22.0		22.0	22.0		15.0
9.0	7.0	7.0	7.0		7.0	22.0		22.0	22.0	22.0	
39.0		35.0	35.0		36.0	29.0		29.0	35.0		
13.0		13.0	13.0		14.0	14.0		15.0	14.0		12.0
12.0	0.0	0.0	0.0		0.0	11.0		11.0	11.0	0.0	0.0
0.0		14.0	14.0	0.0	14.0	4.0		4.0	14.0		4.0
	9.0	19.0	19.0		17.0	9.0		8.0		9.0	20.0
	11.0	27.0	27.0		27.0			12.0	28.0	12.0	30.0
16.0	16.0	20.0	16.0		18.0	23.0		23.0	12.0		
16.0	16.0	0.0	0.0		0.0	16.0		15.0	16.0	16.0	16.0
28.0		28.0	29.0		30.0	43.0		45.0		39.0	
		43.0	50.0		44.0	47.0		43.0	39.0		
		25.0	13.0		14.0	25.0		27.0	27.0		
		34.0	34.0		34.0	23.0		23.0	28.0	23.0	23.0
			23.0		23.0	25.0		28.0	18.0		
5.0	9.0	5.0	5.0		6.0	9.0	5.0	9.0	5.0	5.0	5.0
	14.0	18.0	19.0		19.0	25.0		25.0	19.0		23.0
		11.0	9.0		11.0	26.0		26.0		11.0	
24.0	30.0		27.0		27.0	33.0		31.0	25.0	27.0	27.0
	24.0		5.0		5.0	23.0		23.0	22.0	4.0	24.0
15.0	15.0	18.0	18.0		17.0	15.0	15.0	15.0	14.0	14.0	14.0
36.0	15.0	36.0	35.0		37.0	14.0		14.0	34.0	32.0	34.0
		0.0	0.0		0.0	19.0		19.0	19.0	19.0	0.0
	24.0	21.0	22.0		22.0	11.0		9.0	22.0		23.0
13.0	9.0	13.0	13.0		13.0	9.0	13.0	9.0	13.0		13.0
22.0	10.0	10.0	10.0		10.0	22.0		23.0	13.0	23.0	23.0
	25.0	26.0	26.0		26.0	24.0		24.0	23.0	26.0	
	40.0	40.0	41.0		25.0	21.0		25.0	36.0	36.0	36.0
14.0	14.0		4.0		4.0	14.0		12.0	4.0	4.0	
10.0		18.0	18.0		18.0	8.0		8.0	8.0	15.0	17.0
	18.0	19.0	19.0			51.0		52.0	19.0		48.0
16.0	19.0	19.0	19.0		19.0	16.0		16.0	16.0	19.0	19.0
0.0	14.0	14.0	0.0		0.0	18.0		18.0	0.0	0.0	18.0
		27.0	27.0		25.0	14.0		13.0	25.0		
6.0	6.0	6.0	6.0		6.0	8.0			8.0	8.0	8.0
	54.0	47.0	47.0			54.0		53.0	43.0	41.0	13.0
	31.0	32.0	32.0			14.0		14.0	32.0		32.0
29.0	29.0	29.0	29.0		28.0	14.0			31.0		14.0
16.0	16.0	23.0	23.0		23.0	14.0		14.0	23.0	13.0	23.0
	10.0	39.0	37.0		38.0	11.0		11.0		37.0	
22.0	22.0	26.0	26.0		19.0	28.0		27.0	29.0		28.0
	11.0	24.0	24.0		22.0	12.0		12.0	12.0		12.0
	14.0	14.0	16.0		16.0	5.0		6.0			
	10.0	0.0	0.0		0.0	9.0		10.0	0.0	9.0	0.0
		43.0	45.0	41.0	45.0	40.0		40.0	44.0		
0.0	20.0	0.0	0.0		0.0	20.0	0.0	14.0	0.0	0.0	14.0
	15.0	16.0	15.0		15.0	15.0		15.0	15.0		
6.0		7.0	7.0			12.0		12.0	7.0	6.0	12.0
6.0	6.0	31.0	31.0		23.0	6.0		5.0	5.0	5.0	5.0
26.0	24.0	27.0	26.0		24.0	20.0		22.0	22.0	27.0	
7.0		8.0	7.0		7.0	10.0	7.0	10.0	7.0	10.0	
		15.0	15.0		15.0	18.0		18.0	13.0		13.0
17.0	18.0	0.0	0.0		0.0	20.0		20.0	0.0		20.0
	10.0	29.0	29.0		29.0	10.0		10.0	10.0	25.0	
	21.0	21.0	20.0		20.0			7.0	20.0	7.0	20.0
25.0	30.0	25.0	25.0		26.0	34.0		34.0			
	21.0	27.0			28.0	35.0		35.0	29.0		34.0
	25.0	63.0	61.0		47.0	14.0		28.0	65.0		
24.0	23.0	22.0	22.0		22.0	10.0		10.0	27.0	10.0	10.0
	32.0		18.0		18.0	33.0		33.0	33.0	18.0	32.0
32.0		11.0	11.0		11.0	32.0		33.0		34.0	21.0
19.0	19.0	16.0	16.0		16.0	19.0		19.0	19.0	19.0	16.0
20.0	14.0	21.0	21.0		21.0	22.0		20.0	22.0	22.0	
18.0		18.0	18.0		19.0	51.0	51.0	51.0	18.0		18.0
	0.0	13.0	13.0		14.0	14.0		0.0	13.0	0.0	13.0
	16.0	15.0	15.0		15.0	10.0		10.0	15.0	15.0	15.0
		26.0	26.0	24.0	25.0	26.0		26.0	25.0	24.0	25.0
8.0	14.0	9.0	6.0		11.0	0.0		9.0	8.0	9.0	
0.0	0.0	11.0	11.0		11.0	0.0		0.0	0.0	0.0	12.0
	0.0	28.0	28.0		30.0	0.0		0.0		26.0	26.0
		33.0	34.0		34.0	16.0		15.0			
29.0		29.0	29.0		29.0	25.0		24.0		31.0	22.0
14.0	13.0	30.0	30.0		24.0	15.0		17.0	30.0		16.0
		27.0	27.0		22.0	21.0		20.0	20.0		20.0
17.0		17.0	17.0		17.0	8.0		8.0	19.0		19.0
31.0	34.0	41.0	41.0			42.0		38.0	43.0		44.0
		21.0	21.0		21.0	41.0		35.0	21.0		37.0
		36.0	35.0		35.0	41.0		39.0	39.0		36.0
26.0	24.0	27.0	27.0	24.0	27.0	24.0		24.0	28.0	28.0	23.0
	21.0	22.0	22.0		22.0	34.0		33.0	35.0		34.0
23.0	14.0	28.0	28.0		28.0	28.0		19.0	27.0		18.0
		25.0	25.0			24.0		21.0	24.0		
	14.0	15.0	16.0		14.0	14.0		27.0	15.0	15.0	
33.0	33.0	33.0	14.0		14.0	32.0		32.0	14.0		14.0
15.0		15.0	15.0		13.0	6.0		6.0	6.0	13.0	13.0
17.0	15.0	8.0	8.0		8.0	18.0		18.0	18.0		10.0
24.0	23.0	23.0	23.0		23.0	26.0		24.0	24.0	23.0	24.0
13.0	13.0	6.0	6.0		6.0	13.0		15.0	15.0		15.0
	4.0	4.0	0.0			44.0		42.0	0.0		
15.0		22.0	22.0		22.0	15.0		16.0	16.0	16.0	21.0
		25.0	25.0		24.0	10.0		10.0	25.0		29.0
16.0	16.0	16.0	15.0		16.0	0.0		0.0	0.0	16.0	16.0
		17.0	17.0		16.0	0.0		0.0	19.0	0.0	
5.0	12.0	12.0	20.0	24.0	24.0	8.0		8.0	26.0	8.0	8.0
	9.0	9.0	9.0		9.0	32.0		26.0	9.0		9.0
			6.0		5.0	16.0		16.0	14.0	14.0	
	18.0	16.0	18.0		18.0	20.0		20.0			19.0
	36.0	36.0	36.0		36.0	25.0		25.0	26.0	25.0	34.0
34.0		35.0	33.0		34.0	22.0		22.0	22.0	21.0	
23.0	22.0	20.0	18.0		20.0	21.0		21.0	21.0	21.0	18.0
23.0	23.0	28.0	23.0		23.0	34.0		34.0	34.0		
32.0	18.0	33.0	33.0		33.0	18.0		18.0		32.0	
13.0	10.0	13.0	13.0		13.0	11.0		11.0	11.0		
15.0			12.0		12.0	14.0		14.0	13.0		
		15.0	15.0		15.0	15.0		15.0	16.0	15.0	
36.0	36.0	35.0	33.0		33.0	39.0	31.0	25.0	35.0		
35.0		18.0	35.0		17.0	43.0		48.0	24.0	44.0	44.0
0.0	4.0	8.0	0.0		0.0	11.0		10.0	0.0	9.0	
14.0		14.0	32.0		32.0	14.0		14.0	33.0	33.0	33.0
19.0	5.0	19.0	20.0		18.0	5.0		5.0	18.0		5.0
20.0		20.0	20.0		21.0	22.0		27.0	27.0		
24.0	23.0	24.0	24.0		26.0	23.0		23.0	23.0	23.0	24.0
	26.0	23.0	24.0		24.0	26.0		26.0	26.0	25.0	
	13.0	9.0	21.0		15.0	11.0		12.0	21.0		
0.0	19.0	19.0	19.0		19.0	0.0		0.0	0.0		
		25.0	25.0		25.0	39.0		38.0	38.0	24.0	
36.0		39.0	39.0		41.0	35.0		35.0	36.0		
13.0	13.0	13.0	6.0			31.0		28.0	11.0	11.0	29.0
	10.0	8.0	10.0		10.0	9.0		9.0	9.0		8.0
19.0		14.0	14.0		12.0	20.0		20.0	20.0	20.0	20.0
22.0	23.0	34.0	22.0		22.0	34.0		30.0	20.0	30.0	20.0
	19.0	26.0	26.0		26.0	19.0		18.0	19.0	26.0	26.0
9.0		9.0	9.0		9.0	54.0		59.0	22.0	32.0	
		20.0	18.0		20.0	22.0		22.0	19.0		
14.0	14.0	23.0	24.0		23.0	14.0		24.0	24.0	13.0	13.0
	6.0	5.0	4.0		4.0	6.0		6.0	4.0	6.0	4.0
	26.0	49.0	43.0		48.0	26.0		27.0	27.0	45.0	
		19.0	19.0		16.0	21.0		31.0	12.0	14.0	32.0
7.0	9.0	8.0	8.0		8.0	8.0		11.0	8.0	11.0	8.0
12.0		12.0	22.0		21.0	11.0		11.0	21.0		
34.0	26.0		24.0		18.0	30.0		30.0	11.0	16.0	25.0
24.0	24.0	22.0	22.0		21.0	24.0		24.0	24.0	24.0	24.0
	34.0	34.0	34.0		31.0	26.0		26.0	34.0	23.0	37.0
11.0		24.0	25.0		26.0	12.0		12.0		12.0	11.0
0.0	0.0		0.0		0.0	0.0		0.0	0.0	0.0	0.0
13.0	19.0	19.0	18.0		20.0	13.0		13.0			
	7.0	23.0	23.0		21.0	9.0		9.0			22.0
	27.0	36.0	36.0			29.0		29.0	34.0		33.0
	29.0	29.0	30.0		28.0	18.0		18.0			
	7.0		9.0		9.0	16.0		16.0			7.0
		49.0	49.0		49.0	53.0		52.0		51.0	51.0
9.0	15.0	9.0	9.0		9.0	16.0	16.0	15.0	9.0	9.0	
17.0		6.0	6.0		5.0	21.0		22.0	6.0	6.0	
		22.0	23.0		23.0	10.0		10.0		10.0	
9.0		9.0	9.0		9.0	17.0		17.0			9.0
		20.0	20.0		22.0	30.0		30.0			
24.0	24.0	24.0	24.0		24.0	21.0		22.0	22.0	24.0	24.0
27.0			25.0		25.0	22.0		22.0	25.0	25.0	
4.0	11.0	7.0	4.0		4.0	7.0		7.0		4.0	4.0
	41.0	11.0	11.0		10.0	38.0		32.0		9.0	
0.0	8.0	0.0	0.0		0.0	8.0		8.0		6.0	6.0
	19.0	19.0	18.0		20.0	22.0		22.0	20.0	23.0	23.0
21.0		23.0	21.0		23.0	27.0		26.0	23.0	23.0	
39.0		39.0	39.0			47.0		47.0	27.0	27.0	
15.0	32.0	15.0	15.0		16.0	29.0		28.0	14.0		
4.0	7.0		7.0		7.0	4.0		5.0	5.0	5.0	5.0
		14.0	14.0		14.0	12.0		12.0	14.0	14.0	14.0
16.0	16.0	17.0	17.0		17.0	16.0		14.0		17.0	17.0
21.0		21.0	21.0		21.0	18.0		18.0	13.0	13.0	14.0
4.0		8.0	8.0		8.0	4.0		4.0		8.0	
	7.0	4.0	7.0		7.0	5.0		7.0		8.0	
20.0	30.0	20.0	30.0		34.0	22.0		22.0	34.0	23.0	22.0
21.0	12.0	48.0	49.0		49.0	12.0		11.0		44.0	44.0
		30.0	29.0		31.0	72.0		74.0	31.0		65.0
		14.0	17.0		18.0	11.0		12.0		12.0	21.0
	39.0	40.0	41.0		45.0	20.0		24.0	23.0		40.0
	45.0	27.0	27.0		26.0	48.0		43.0	49.0	26.0	
15.0		15.0	15.0		16.0	16.0		17.0	16.0		16.0
23.0	9.0	9.0	10.0			25.0		23.0	9.0		9.0
23.0	29.0	23.0	31.0		37.0	23.0		23.0	23.0		
4.0	4.0		7.0		7.0	4.0		4.0	7.0	11.0	4.0
10.0	10.0	0.0	0.0		0.0	9.0		8.0	0.0	0.0	
	17.0		15.0		16.0	16.0		16.0	16.0	18.0	18.0
16.0		17.0	16.0		21.0	18.0		15.0	19.0		21.0
13.0		15.0	15.0		16.0	15.0		16.0	16.0	16.0	16.0
23.0	23.0	20.0	22.0		22.0	20.0		18.0	19.0	19.0	
46.0	26.0	46.0	46.0	26.0	46.0	24.0		23.0	45.0		44.0
12.0		14.0	14.0			30.0		27.0	14.0	27.0	
			18.0		18.0	28.0		30.0	29.0	29.0	
7.0	15.0	15.0	15.0		15.0	8.0		8.0	7.0	8.0	
12.0		12.0	12.0		12.0	10.0		10.0			
	11.0	12.0	11.0		12.0	11.0		11.0	11.0		13.0
		25.0	25.0		25.0	41.0		40.0	24.0		
15.0		13.0	15.0	31.0	15.0	31.0		25.0	15.0		25.0
51.0	51.0		52.0		53.0	49.0		49.0	49.0		
24.0		18.0	16.0		16.0	25.0		27.0	16.0		19.0
26.0	12.0	26.0	28.0		28.0	12.0		12.0	13.0	28.0	
16.0	16.0	15.0	15.0		15.0	16.0		16.0	11.0		11.0
15.0	15.0	24.0	28.0		29.0	14.0		16.0	29.0		
12.0		12.0	12.0		13.0	13.0		13.0	13.0		13.0
	8.0	7.0	8.0		8.0	15.0		15.0	15.0	15.0	7.0
	8.0		7.0		5.0	7.0		7.0	4.0	7.0	
16.0	7.0	16.0	16.0		16.0	9.0		7.0	16.0	16.0	
0.0		0.0	0.0		0.0	0.0		0.0	0.0	0.0	0.0
32.0	14.0	12.0	31.0		21.0	16.0		19.0	19.0		
16.0	16.0	10.0	10.0		12.0	12.0		24.0	8.0		8.0
10.0		12.0	15.0		15.0	10.0		10.0			
16.0	22.0	22.0	21.0		22.0	16.0		14.0	21.0		
5.0	12.0	5.0	5.0		5.0	15.0		15.0	14.0	5.0	5.0
12.0	12.0	12.0	12.0		12.0	25.0	25.0	25.0	12.0	12.0	12.0
			10.0		10.0	28.0		29.0	11.0	29.0	10.0
5.0		6.0	6.0		6.0	12.0		12.0	5.0		12.0
10.0	10.0	8.0	8.0			10.0		8.0	7.0	10.0	7.0
		21.0	11.0		11.0	21.0		22.0	12.0		12.0
4.0	4.0	4.0	6.0		6.0	4.0		4.0	5.0	4.0	
			30.0		30.0	22.0		20.0	20.0		
25.0	19.0	25.0	26.0		26.0	26.0		21.0	26.0		20.0
	30.0	16.0	12.0			30.0		26.0	14.0	20.0	16.0
	35.0	44.0	45.0		45.0	29.0		36.0	36.0	46.0	48.0
22.0	11.0	11.0	11.0		12.0	21.0		21.0	12.0		12.0
	20.0	29.0	19.0		21.0	29.0		29.0	20.0		21.0
	12.0	12.0	12.0		12.0	16.0		16.0	16.0		15.0
		16.0	15.0		16.0	13.0		15.0		15.0	15.0
8.0		9.0	9.0		9.0	10.0		10.0	8.0	10.0	
19.0			14.0		14.0	19.0		19.0	14.0		15.0
	19.0	19.0	20.0		21.0	21.0		20.0	21.0		21.0
16.0	16.0	16.0	16.0		15.0	16.0		15.0	15.0		13.0
		14.0	28.0		29.0	16.0		15.0	15.0	32.0	15.0
	34.0	34.0	34.0		30.0	18.0		18.0	34.0		35.0
	6.0	7.0	7.0		8.0	14.0		14.0	8.0	14.0	
	8.0	4.0	4.0		4.0	9.0	4.0	9.0	4.0	4.0	9.0
0.0	0.0	0.0	0.0		0.0	0.0		0.0	0.0		0.0
16.0	16.0	17.0	17.0		16.0	17.0		40.0	17.0		38.0
9.0		9.0	9.0		7.0	9.0	7.0	9.0	7.0	7.0	
7.0			16.0		16.0	9.0		9.0		7.0	
	8.0	8.0	8.0		8.0	9.0	9.0	9.0	10.0	9.0	10.0
26.0	26.0	19.0	18.0		19.0	26.0		26.0	26.0	19.0	
15.0	17.0	17.0	17.0		17.0	15.0		15.0	17.0	15.0	17.0
40.0		22.0	21.0		20.0	32.0		34.0		22.0	
29.0		33.0	28.0		29.0	28.0		29.0		25.0	29.0
10.0		14.0	14.0		12.0	10.0		9.0	15.0	15.0	15.0
		19.0	22.0		22.0	20.0		18.0	20.0		
	4.0	5.0	4.0		4.0	6.0		6.0	4.0	4.0	4.0
		39.0	39.0		39.0	15.0		15.0	39.0		
11.0		10.0	10.0		15.0	15.0		23.0	17.0		23.0
	28.0	13.0	12.0		12.0	28.0		28.0	26.0	12.0	26.0
		23.0	23.0		23.0	37.0		31.0	23.0	29.0	23.0
			71.0		70.0	40.0		41.0	41.0	40.0	40.0
12.0		12.0	12.0		12.0	19.0	12.0	19.0	13.0		
16.0		16.0	16.0		16.0	19.0		20.0	16.0	16.0	20.0
21.0		24.0	24.0	20.0	24.0	20.0		20.0	24.0	24.0	20.0
		47.0	53.0		56.0	18.0		18.0		17.0	18.0
	15.0	11.0	11.0	14.0	11.0	15.0		15.0	12.0	14.0	
20.0	20.0	20.0	20.0		20.0	12.0		14.0	14.0		19.0
		55.0	55.0		55.0	46.0		44.0	55.0		
		14.0	14.0			26.0		23.0	14.0	23.0	23.0
	10.0		9.0		8.0	32.0		32.0	9.0		32.0
5.0	26.0	23.0	23.0		23.0	5.0		5.0	18.0	19.0	5.0
40.0		23.0	24.0		20.0	45.0		41.0	40.0	39.0	
13.0		11.0	11.0		11.0	12.0		11.0	12.0	11.0	
48.0	46.0	36.0	36.0		29.0	45.0		45.0	44.0	35.0	
5.0	5.0	14.0	15.0		15.0	5.0		5.0	5.0	12.0	5.0
13.0	17.0	17.0	17.0		17.0	14.0	17.0	14.0	17.0		14.0
13.0		15.0	15.0		15.0	19.0		19.0	16.0	19.0	15.0
			0.0		0.0	12.0		12.0	0.0	0.0	12.0
		10.0	10.0		10.0			18.0	10.0	18.0	18.0
15.0		16.0	16.0		16.0	12.0		12.0	12.0	12.0	
40.0	40.0	41.0	41.0		40.0	70.0		71.0			
9.0		8.0	8.0	8.0	8.0	13.0		13.0	8.0	8.0	13.0
24.0	24.0	24.0	24.0		24.0	7.0		7.0	22.0		
21.0		20.0	29.0		29.0	21.0		19.0	29.0	20.0	
7.0	17.0	7.0	7.0		7.0	18.0	6.0	17.0	6.0		6.0
	35.0	40.0	40.0		41.0	36.0		35.0	32.0		34.0
	30.0	45.0	45.0		43.0	30.0		30.0		41.0	41.0
27.0		24.0	26.0		19.0	40.0		45.0			25.0
13.0	18.0	12.0			12.0	17.0		17.0	12.0		12.0
	7.0	20.0	20.0		20.0			7.0	21.0	7.0	7.0
15.0	16.0		14.0		15.0	16.0		16.0	16.0		15.0
10.0	0.0	10.0	0.0		0.0	10.0		6.0	0.0	6.0	
19.0		19.0	17.0		17.0	19.0		19.0	16.0	16.0	
		15.0	15.0		15.0	30.0		29.0	31.0	17.0	
	40.0	39.0	40.0			40.0		40.0	36.0		
	47.0	15.0	15.0			57.0		56.0	13.0		52.0
	24.0	21.0	21.0		21.0	20.0		20.0		20.0	
14.0		15.0	13.0		15.0	9.0		9.0	15.0	9.0	
38.0	38.0		31.0		31.0	38.0		38.0		31.0	39.0
14.0	6.0	6.0	6.0		6.0	14.0		14.0		14.0	
			32.0		32.0	31.0		29.0	28.0		31.0
15.0	15.0	15.0	15.0		15.0	13.0		13.0	15.0		13.0
	17.0	16.0	17.0		17.0	20.0		22.0	22.0		17.0
24.0			14.0		16.0	24.0		22.0		16.0	16.0
	17.0	31.0	29.0		30.0	15.0		15.0	15.0		
13.0	22.0	13.0	13.0	22.0	12.0	22.0		22.0	12.0	22.0	12.0
31.0		32.0	33.0		32.0	8.0		6.0	33.0		31.0
25.0	18.0	18.0	18.0		18.0	24.0		24.0	18.0		23.0
	35.0	23.0	23.0		22.0	32.0		35.0		35.0	25.0
		18.0	17.0		19.0	19.0		29.0	18.0	16.0	27.0
19.0	8.0	8.0	8.0		9.0	19.0		18.0	9.0		16.0
9.0		21.0	21.0			10.0		10.0	22.0	22.0	11.0
5.0	4.0	5.0	4.0		5.0	5.0		5.0	6.0	5.0	5.0
12.0	11.0	11.0	11.0		11.0	11.0		11.0	11.0	11.0	
	6.0	7.0	7.0			10.0		10.0	8.0		8.0
	22.0	26.0	26.0		26.0	24.0		24.0	26.0	26.0	27.0
30.0		31.0	31.0		28.0	36.0		39.0		32.0	
	11.0	11.0	11.0		12.0	14.0		15.0	12.0	12.0	
10.0	16.0		10.0		10.0	18.0		12.0	18.0	10.0	10.0
		31.0	31.0		28.0	39.0		39.0			43.0
	4.0	14.0	8.0		8.0	14.0		14.0	7.0	14.0	
12.0		12.0	12.0		12.0	18.0		17.0	17.0		16.0
16.0	16.0		22.0		24.0	16.0		14.0			24.0
0.0		0.0	0.0		0.0	9.0		9.0	0.0	9.0	
24.0		24.0	26.0		26.0	26.0		30.0	26.0		27.0
38.0		37.0	38.0		39.0	28.0		28.0		28.0	
17.0	25.0	21.0	21.0		21.0	24.0	24.0	24.0	21.0		23.0
14.0	21.0	15.0	17.0		17.0	16.0		22.0	17.0	17.0	
		30.0	30.0		30.0	31.0		31.0			
23.0	23.0	20.0	20.0		20.0	24.0		24.0	24.0		24.0
10.0	0.0	10.0	0.0		0.0	8.0		8.0	0.0	8.0	0.0
33.0		13.0	13.0		14.0	37.0		36.0	9.0	15.0	
	9.0	15.0	9.0		9.0	15.0		13.0	15.0		14.0
5.0	5.0	6.0	5.0		5.0	5.0		4.0	5.0	4.0	5.0
10.0	10.0	10.0	10.0		12.0			12.0	10.0	10.0	10.0
34.0		32.0	35.0		36.0	41.0		40.0	40.0	35.0	
25.0	28.0	25.0	25.0		27.0	29.0		29.0		29.0	
17.0		17.0	14.0		18.0	18.0		23.0	20.0	20.0	
	30.0	30.0	30.0		27.0	47.0		47.0		47.0	
	19.0	19.0	19.0		4.0	7.0		28.0	18.0		
	6.0	5.0	5.0		10.0	9.0		8.0	6.0	9.0	10.0
15.0		16.0	16.0		16.0	15.0		14.0		16.0	15.0
9.0		17.0	15.0		17.0	9.0	17.0	9.0	14.0	17.0	9.0
9.0	9.0	9.0	9.0		8.0	13.0		12.0		8.0	9.0
		29.0	21.0		21.0	27.0		29.0	21.0	21.0	21.0
0.0	8.0	0.0	8.0		8.0	0.0		0.0	10.0	0.0	10.0
6.0	6.0	32.0	33.0		32.0	13.0		13.0	13.0	33.0	
20.0		21.0	23.0		25.0	20.0		18.0	23.0	18.0	25.0
26.0	26.0	26.0	13.0		25.0	12.0		12.0	23.0		
39.0	31.0		38.0		38.0	31.0		31.0		38.0	38.0
17.0	17.0	7.0	7.0		7.0	17.0		18.0	7.0	11.0	18.0
	24.0		12.0		12.0	25.0		25.0	14.0		14.0
	18.0	25.0	23.0		23.0	18.0		19.0		26.0	
31.0	29.0	14.0	14.0		13.0	31.0		31.0			31.0
24.0		24.0	24.0		24.0	20.0		20.0	20.0	23.0	23.0
	9.0	7.0	7.0	7.0	7.0	15.0		15.0	7.0	15.0	7.0
	14.0	7.0	14.0		14.0	8.0		8.0	14.0	4.0	
	40.0	22.0	19.0		33.0	35.0		33.0	17.0	31.0	32.0
24.0	27.0	27.0	27.0		27.0	25.0		25.0	27.0		25.0
	35.0	34.0	34.0		33.0	14.0	15.0	15.0	28.0	28.0	14.0
5.0	5.0	5.0	5.0		5.0	25.0	4.0	27.0	5.0		5.0
	6.0	0.0	6.0		10.0	0.0		0.0	10.0	0.0	10.0
	16.0	16.0	19.0		19.0	17.0		17.0	19.0		19.0
			37.0		36.0	18.0		17.0	36.0		
	29.0		29.0		29.0	27.0		25.0	25.0	28.0	25.0
17.0		19.0	19.0		19.0	19.0		10.0	19.0	10.0	10.0
21.0	21.0	21.0	29.0		27.0	21.0		21.0	29.0		
	33.0	13.0	13.0		13.0	32.0		33.0	32.0	6.0	6.0
17.0		16.0	16.0		17.0	16.0		16.0	13.0		
11.0	11.0	0.0	0.0		0.0	10.0		10.0	0.0	4.0	0.0
0.0		14.0	15.0		15.0	0.0		0.0	14.0	15.0	
12.0	26.0	12.0	12.0		13.0	28.0		28.0	28.0		9.0
27.0	29.0	30.0	26.0		29.0	26.0		26.0	26.0	30.0	30.0
	18.0	23.0	23.0		18.0	18.0		17.0	24.0		24.0
7.0		7.0	7.0		7.0	7.0		0.0	7.0	7.0	
	43.0	33.0	33.0		34.0	45.0		43.0			42.0
32.0	32.0	16.0	16.0		16.0	32.0		32.0	17.0	17.0	
	15.0	16.0	16.0		16.0	15.0		15.0			14.0
17.0		22.0	22.0		20.0	17.0		17.0	16.0	17.0	
15.0		18.0	19.0		13.0	16.0	16.0	16.0	15.0	13.0	17.0
21.0	34.0	21.0	16.0		22.0	30.0		30.0	30.0		
24.0	25.0	18.0	18.0	24.0	15.0	24.0		24.0	14.0		
	45.0	40.0	38.0		36.0	41.0		44.0	40.0		40.0
19.0		19.0	19.0		18.0	41.0	15.0	41.0	16.0	41.0	19.0
43.0			39.0		39.0	28.0		31.0	31.0		
25.0	18.0	23.0	18.0		20.0	25.0		23.0	21.0		20.0
		30.0	30.0		30.0	22.0		16.0	21.0	34.0	21.0
		13.0	16.0		16.0	17.0		16.0	16.0		17.0
17.0		17.0	16.0		17.0	17.0		44.0	17.0	17.0	
30.0	30.0	26.0	26.0		26.0	29.0		26.0	30.0	29.0	27.0
	27.0	33.0	33.0		33.0	27.0		27.0	27.0		26.0
	12.0	12.0	15.0		14.0	12.0		11.0	11.0	11.0	
	24.0		24.0		24.0	24.0		24.0	17.0		18.0
10.0	10.0	18.0	12.0		18.0	10.0		10.0		16.0	10.0
	24.0	14.0	14.0		14.0	31.0		29.0	14.0		15.0
14.0	14.0	14.0	14.0		14.0	0.0		0.0	14.0	14.0	0.0
25.0	25.0	24.0	25.0		23.0	23.0		22.0			
16.0		17.0	17.0		18.0	12.0		12.0	12.0		12.0
			50.0		50.0	19.0		20.0	44.0		
	32.0	32.0	32.0		32.0	17.0		17.0	32.0		23.0
14.0	12.0	12.0	12.0		10.0	14.0	14.0	14.0	11.0	11.0	15.0
31.0		28.0	29.0		31.0	32.0		32.0			
	41.0		41.0		41.0	21.0		21.0	39.0		
	20.0	19.0	20.0		20.0	20.0	20.0	20.0	20.0	20.0	20.0
41.0	15.0	17.0	17.0		17.0	41.0		41.0		41.0	
25.0			45.0		40.0	19.0		26.0	24.0		27.0
26.0		27.0	27.0		27.0	33.0		33.0	33.0	27.0	
18.0	39.0	40.0	40.0		40.0			18.0	42.0	42.0	
9.0		28.0	28.0		28.0	13.0		12.0	12.0	26.0	12.0
28.0		30.0	30.0		31.0	22.0		21.0	20.0		19.0
27.0			16.0		16.0	29.0		28.0	23.0		
	15.0	15.0	15.0		15.0	16.0		16.0	16.0		16.0
8.0	8.0	7.0	7.0		7.0	4.0		4.0	6.0		6.0
16.0	31.0	16.0			17.0	26.0		26.0		21.0	26.0
	14.0	14.0	46.0		47.0	13.0		12.0			45.0
13.0		15.0	15.0		15.0	7.0		7.0	15.0		15.0
5.0	19.0	4.0	4.0			19.0		19.0	7.0	18.0	7.0
	4.0	11.0	11.0		13.0	0.0		4.0	13.0	13.0	
54.0			21.0		21.0	52.0		53.0	15.0	31.0	22.0
		23.0	28.0		29.0	16.0		16.0			27.0
14.0		14.0	14.0		14.0	7.0			14.0	14.0	7.0
48.0		52.0	54.0		52.0	55.0		55.0		51.0	
4.0		4.0	4.0		4.0	14.0		14.0		4.0	
	6.0	25.0	25.0		25.0	7.0		7.0	7.0		7.0
45.0			12.0		13.0	47.0		46.0	14.0	14.0	
	62.0	62.0	62.0		57.0	36.0		44.0		43.0	
6.0		6.0	6.0		6.0	6.0		6.0	7.0		
23.0	16.0	30.0	30.0		28.0	16.0		15.0	23.0	13.0	17.0
	18.0		18.0		18.0	16.0		17.0	18.0	18.0	
13.0	22.0	18.0	14.0		13.0	18.0		19.0		17.0	
	13.0	14.0	12.0		14.0	26.0		26.0	26.0	14.0	23.0
			40.0		37.0	28.0		28.0	43.0		28.0
11.0	11.0	11.0	11.0		11.0	20.0		19.0		19.0	18.0
22.0	31.0	15.0	53.0		52.0	21.0		21.0			54.0
21.0	18.0	17.0	17.0		17.0	19.0		19.0	17.0	19.0	
30.0	29.0	12.0	12.0		12.0	29.0		29.0	12.0		13.0
	17.0		19.0		18.0	13.0		14.0	18.0	22.0	13.0
	25.0	9.0	9.0		9.0	25.0		25.0	7.0		7.0
23.0	14.0	26.0	26.0		26.0	14.0		12.0	14.0	13.0	
19.0		30.0	30.0		30.0	17.0		17.0	29.0		30.0
43.0		14.0	14.0		14.0	44.0		46.0			14.0
	43.0		23.0		21.0	42.0		42.0	20.0		20.0
16.0	16.0	8.0	8.0	16.0	8.0	17.0		17.0	9.0	17.0	9.0
	9.0	9.0	8.0	24.0	9.0	24.0		20.0	9.0	24.0	9.0
34.0	33.0	16.0	16.0		16.0	16.0		33.0	16.0		16.0
26.0		40.0	40.0		36.0	24.0		26.0	36.0		26.0
7.0	9.0	7.0	7.0		7.0	9.0	7.0	9.0	6.0		6.0
	6.0	6.0	7.0		9.0	35.0		35.0		35.0	12.0
0.0	50.0	0.0	0.0		5.0	50.0		50.0	5.0	5.0	5.0
		16.0	16.0	18.0	16.0	18.0		18.0	17.0	19.0	18.0
16.0		16.0	16.0		16.0	15.0		15.0	15.0	15.0	
	6.0	6.0	6.0		6.0			17.0	6.0		
	34.0	36.0	36.0		36.0	30.0		28.0	34.0		31.0
21.0	20.0	20.0	20.0		20.0	22.0		18.0		20.0	20.0
14.0			46.0		44.0	14.0		14.0	14.0		43.0
7.0		7.0	7.0		7.0	25.0		25.0	25.0	6.0	
12.0	10.0	11.0	7.0		7.0	4.0		4.0	8.0	8.0	4.0
	6.0	6.0	6.0		6.0	19.0		19.0	6.0		6.0
		28.0	28.0		28.0	37.0		39.0	29.0		
29.0	30.0	31.0	30.0		17.0	14.0		14.0	28.0		27.0
22.0		22.0	23.0		22.0	30.0		30.0	22.0	23.0	22.0
	15.0	9.0	9.0		9.0	21.0	10.0	21.0	11.0	11.0	
19.0		20.0	21.0		22.0	31.0		30.0	30.0		28.0
17.0	13.0	23.0	15.0		16.0	28.0		30.0	30.0	16.0	23.0
		4.0	4.0		0.0	13.0		13.0	13.0	0.0	
18.0	4.0	18.0	19.0		19.0	4.0	4.0	4.0	20.0	19.0	
8.0	13.0	13.0	8.0		8.0	13.0		13.0	9.0	9.0	9.0
28.0	6.0		6.0		6.0	24.0		24.0			
11.0	10.0	11.0	11.0	10.0	11.0	10.0		11.0	11.0		11.0
28.0		24.0	8.0		8.0	24.0		26.0	9.0		8.0
	5.0	5.0	5.0		0.0	10.0		10.0	10.0	10.0	10.0
		21.0	25.0		25.0	15.0	25.0	15.0	25.0		25.0
33.0	33.0	34.0	34.0		33.0	33.0		43.0	33.0		45.0
10.0	10.0	10.0	10.0		10.0	0.0		5.0	5.0	5.0	
23.0			24.0		24.0	22.0		20.0		24.0	
8.0	8.0	8.0	8.0	9.0	8.0	9.0		9.0	8.0	9.0	
13.0	22.0		24.0		24.0	14.0		14.0	24.0	24.0	24.0
		16.0	16.0		16.0	20.0		18.0	18.0	14.0	14.0
	33.0	51.0	54.0		54.0	32.0		33.0	50.0	27.0	35.0
9.0		13.0	13.0			9.0		9.0	12.0		13.0
24.0		30.0	30.0		31.0	9.0		9.0	9.0	9.0	9.0
19.0		19.0	19.0		19.0	20.0		20.0	20.0	19.0	19.0
	0.0	13.0	13.0		13.0	0.0		4.0	4.0		
15.0	37.0	21.0	21.0		15.0	28.0		33.0	38.0	20.0	21.0
37.0		19.0	19.0		19.0	35.0		37.0	19.0		40.0
9.0	9.0	29.0	9.0		9.0	28.0		24.0	8.0		8.0
	6.0	13.0	13.0			5.0		5.0	13.0	5.0	
		7.0	7.0		7.0	0.0		0.0			7.0
	24.0		20.0		22.0	24.0		24.0			23.0
17.0		0.0	0.0		0.0	19.0	0.0	19.0	0.0	0.0	0.0
24.0	15.0	13.0	24.0	16.0	24.0	15.0		16.0	21.0	16.0	24.0
7.0			0.0		0.0	7.0		7.0	7.0		
27.0	9.0	27.0	26.0		26.0	10.0	23.0	10.0	23.0	23.0	10.0
14.0	14.0	18.0	18.0		20.0	16.0		16.0	16.0		
	10.0	39.0	40.0		41.0	14.0		13.0	14.0	40.0	40.0
	29.0	30.0	30.0			33.0		32.0	25.0		31.0
	30.0	36.0	34.0		15.0	24.0		26.0	32.0		
		10.0	12.0		12.0	13.0			12.0	12.0	
10.0		8.0	19.0		9.0	19.0		18.0	4.0	9.0	20.0
9.0	9.0	9.0	13.0		13.0	8.0		8.0	13.0	13.0	8.0
	40.0	38.0	38.0		39.0	39.0		40.0		39.0	
			24.0		24.0	6.0		6.0		6.0	28.0
19.0	5.0	5.0	5.0		6.0	18.0		17.0	6.0	6.0	
		18.0	19.0		19.0	33.0		19.0	19.0		19.0
	51.0	21.0	21.0		21.0	48.0		46.0	45.0		45.0
	24.0		24.0		24.0	18.0		18.0	24.0		26.0
13.0			14.0		14.0	11.0		11.0	13.0	11.0	13.0
18.0		18.0	18.0		19.0	18.0	18.0	18.0	20.0	20.0	17.0
45.0		45.0	46.0		48.0	21.0		21.0	21.0	51.0	
26.0	63.0		64.0		61.0	23.0		22.0	63.0		23.0
8.0		21.0	21.0		21.0	10.0		9.0	21.0	21.0	22.0
8.0		8.0	8.0		8.0	26.0	24.0	24.0	12.0	12.0	12.0
6.0	0.0	0.0	0.0	6.0	0.0	6.0		6.0	0.0	6.0	6.0
8.0		8.0	24.0		28.0	9.0		9.0	29.0	9.0	9.0
	28.0	29.0	29.0		29.0	37.0		37.0		35.0	28.0
	13.0	13.0	13.0			18.0		18.0	12.0		11.0
17.0	20.0	20.0	20.0		21.0	16.0		16.0	21.0		21.0
20.0	21.0	21.0	21.0		21.0	21.0		22.0	21.0	21.0	
0.0		4.0	4.0	0.0	0.0	0.0		0.0	0.0	0.0	
		0.0	0.0		0.0	15.0		13.0	0.0		0.0
19.0	19.0	20.0	20.0		20.0	19.0		19.0	19.0		19.0
17.0	39.0	39.0	39.0		39.0	18.0		18.0			34.0
40.0	40.0	14.0	13.0		14.0	41.0		40.0	39.0	10.0	
5.0	5.0	13.0	13.0		13.0	5.0	5.0	5.0	9.0	4.0	5.0
	22.0	29.0	29.0			21.0		20.0	33.0		33.0
34.0	13.0	28.0	29.0		29.0	13.0		13.0	29.0		
9.0	9.0	9.0	9.0		9.0	31.0		30.0	30.0		24.0
23.0	24.0	23.0	23.0	24.0	24.0	24.0		24.0	25.0	24.0	
	23.0	30.0	30.0		25.0	23.0	23.0	24.0	27.0	24.0	28.0
	13.0	13.0	13.0		12.0	11.0		10.0	14.0	10.0	10.0
	10.0	20.0	20.0		17.0	8.0		9.0	20.0		20.0
13.0	11.0	13.0	11.0		11.0	14.0		14.0			13.0
16.0	16.0	16.0	16.0		16.0	15.0		15.0		16.0	16.0
21.0	20.0	38.0	33.0		28.0	15.0		21.0	21.0	37.0	15.0
	39.0	17.0			17.0	39.0		39.0	17.0		37.0
27.0		29.0	32.0			35.0		35.0	33.0		33.0
18.0	18.0	20.0	21.0		21.0	17.0		18.0	23.0		21.0
8.0		9.0	26.0		24.0	8.0		8.0	24.0		28.0
7.0	15.0		7.0		7.0	16.0		17.0		11.0	16.0
14.0		14.0	14.0		13.0	16.0		16.0	13.0	16.0	10.0
8.0	17.0	8.0	9.0		9.0	17.0		17.0	9.0		9.0
		26.0	22.0		22.0	25.0		27.0		20.0	
	30.0	54.0	54.0			32.0		34.0	34.0	23.0	59.0
30.0		41.0	41.0		41.0	30.0		31.0		31.0	40.0
	21.0	23.0	23.0		24.0	21.0		21.0		21.0	21.0
10.0	23.0	10.0	10.0		11.0	23.0		22.0	12.0	12.0	
28.0	22.0	28.0	27.0		27.0	24.0		21.0	28.0	24.0	29.0
26.0			16.0		17.0	24.0		24.0	17.0	24.0	16.0
16.0	24.0	17.0	24.0		24.0	17.0		16.0			26.0
14.0	23.0	15.0	15.0		15.0	26.0	15.0	26.0	15.0	14.0	24.0
12.0		12.0	12.0		14.0	14.0		11.0	16.0	16.0	12.0
		12.0	12.0		13.0	10.0		10.0	10.0	12.0	12.0
		26.0	26.0		26.0	28.0		27.0	29.0		23.0
	42.0		48.0		48.0	42.0		40.0	50.0		47.0
23.0	23.0	45.0	37.0	17.0	43.0	23.0		24.0	43.0		
16.0	15.0	16.0	14.0		15.0	16.0		16.0		15.0	
7.0	11.0		11.0		11.0	7.0		6.0	11.0	0.0	
18.0	7.0	7.0	24.0		24.0	7.0		7.0	22.0		
6.0	22.0	22.0	22.0		22.0	6.0	22.0	6.0	34.0	6.0	
			22.0		22.0	36.0		35.0	19.0	19.0	
0.0	0.0		10.0		10.0	0.0		0.0	9.0	0.0	10.0
5.0	0.0	5.0	5.0		5.0	0.0		0.0	5.0		0.0
18.0	17.0	27.0	26.0		27.0	18.0		17.0		18.0	18.0
	6.0	18.0	11.0		11.0	18.0		18.0	11.0	9.0	
	8.0	8.0	8.0		8.0	4.0		4.0	8.0	4.0	8.0
		4.0	4.0		4.0	0.0		0.0	0.0	0.0	0.0
23.0	24.0	24.0	18.0		22.0	22.0		23.0	21.0		20.0
	9.0	11.0	18.0		18.0	11.0		11.0	18.0	6.0	
16.0		15.0	16.0		13.0	33.0		30.0	33.0		
	30.0	29.0	22.0	24.0	22.0	25.0		25.0	14.0	9.0	25.0
29.0	24.0	28.0	21.0		24.0	27.0		27.0	28.0	22.0	28.0
6.0	4.0		4.0		4.0	6.0		6.0	4.0	4.0	4.0
8.0		16.0	15.0		16.0	13.0		14.0		15.0	14.0
4.0	4.0	6.0	6.0	4.0	6.0	4.0		4.0	4.0		4.0
		50.0	50.0	25.0	47.0	24.0		26.0	46.0		
20.0		21.0	23.0		22.0	22.0		18.0	24.0	24.0	23.0
			12.0		12.0	15.0		15.0	12.0		12.0
25.0	4.0	4.0	4.0		4.0	25.0		25.0		4.0	
	26.0	27.0	27.0		12.0	12.0		12.0	28.0	12.0	
	8.0	8.0	8.0		8.0	23.0		27.0	27.0	27.0	8.0
	41.0	41.0	41.0			33.0		33.0	34.0		35.0
15.0		19.0	19.0		19.0	15.0		14.0		8.0	18.0
		23.0	23.0		24.0	35.0		33.0	27.0	27.0	
8.0	27.0	27.0	27.0		23.0	8.0		8.0	8.0	8.0	
27.0	26.0		13.0		13.0	26.0		30.0			
	20.0		27.0		25.0	22.0		22.0	26.0		
35.0	19.0	19.0	35.0		35.0	19.0		20.0		35.0	34.0
	19.0	18.0	21.0		23.0	41.0		42.0		43.0	43.0
	13.0	10.0	10.0		9.0	13.0		12.0			12.0
16.0	11.0		17.0		16.0	7.0		7.0		15.0	7.0
8.0	8.0		8.0		8.0	37.0		37.0	9.0		37.0
		15.0	12.0		14.0	27.0	14.0	27.0	14.0	14.0	
23.0		29.0	27.0		28.0	26.0		26.0	26.0		
31.0	31.0	20.0	35.0		37.0	20.0		19.0	22.0	34.0	22.0
	10.0	13.0	13.0	10.0	12.0	11.0		11.0	14.0	11.0	13.0
		31.0	31.0		31.0	31.0		31.0		30.0	31.0
7.0		7.0	7.0		7.0	0.0		0.0	7.0		
11.0	11.0	25.0	25.0		25.0	11.0		11.0		27.0	
22.0	34.0	22.0	19.0		20.0	37.0		35.0	20.0	31.0	31.0
18.0	18.0	18.0	18.0			58.0		58.0	16.0	16.0	
	13.0	15.0	15.0		14.0	15.0		14.0			
10.0	0.0	9.0	0.0		0.0	10.0		10.0		0.0	0.0
56.0	55.0	29.0	29.0		29.0	57.0		60.0	60.0		60.0
	26.0	23.0	23.0	26.0	23.0	26.0		26.0	25.0		25.0
19.0	24.0	36.0	35.0		36.0	24.0		24.0	31.0		30.0
9.0	9.0	9.0	11.0		11.0	18.0	11.0	20.0	11.0	20.0	20.0
22.0	22.0	21.0	22.0		21.0	22.0	22.0	22.0	17.0	19.0	
			30.0		28.0	21.0		20.0	20.0		27.0
60.0		60.0	60.0		57.0	29.0		29.0	29.0	55.0	56.0
		22.0	7.0		7.0	24.0		24.0	7.0	7.0	18.0
26.0	27.0	17.0	18.0		20.0	26.0		27.0		23.0	24.0
8.0		0.0	0.0		0.0	6.0	0.0	6.0	0.0		6.0
12.0	12.0	10.0	10.0		10.0	13.0		12.0	12.0		
	25.0	25.0	24.0		24.0	25.0		25.0	21.0	25.0	21.0
27.0		20.0	20.0		21.0	28.0		30.0			
21.0	22.0	22.0	22.0		22.0	12.0		21.0	22.0	22.0	13.0
23.0		38.0	37.0		36.0	24.0		23.0	23.0	22.0	22.0
5.0	9.0	9.0	9.0		9.0	4.0		0.0			10.0
21.0	25.0	21.0	25.0		25.0	24.0		24.0	25.0	25.0	
33.0	33.0	33.0	34.0	15.0	33.0	14.0		15.0	33.0		33.0
	19.0		20.0		18.0	19.0		19.0	19.0	19.0	18.0
8.0	4.0	8.0	4.0		4.0	8.0		8.0	8.0	8.0	
	38.0	14.0	14.0		12.0	43.0			20.0	37.0	37.0
12.0	12.0	12.0	12.0		12.0	8.0	12.0	8.0	12.0	12.0	12.0
0.0	0.0	0.0	0.0		0.0	4.0		4.0	4.0		
		12.0	12.0		12.0	0.0		0.0	12.0		12.0
	8.0	12.0	12.0		12.0	9.0	13.0	9.0	10.0	9.0	9.0
	18.0		12.0		13.0	18.0		17.0	14.0		15.0
18.0		17.0	17.0		17.0	21.0		19.0		19.0	
22.0	22.0	23.0	23.0		24.0	36.0		37.0	38.0		23.0
		33.0	30.0		33.0	13.0		16.0	15.0		16.0
	44.0	40.0	39.0			45.0		43.0	43.0		43.0
11.0	11.0	9.0	9.0		9.0	9.0		18.0	11.0	18.0	18.0
18.0	19.0	19.0	19.0		19.0	18.0		20.0		19.0	
	18.0	11.0	17.0		17.0	18.0		18.0	18.0	18.0	18.0
12.0	14.0	14.0	13.0		13.0	11.0		11.0	14.0		15.0
	22.0	27.0	23.0		23.0	27.0		27.0	27.0		26.0
10.0		10.0	10.0		10.0	28.0		28.0		10.0	
			30.0		26.0	13.0		13.0		26.0	27.0
		30.0	29.0		29.0	24.0		25.0	32.0		25.0
26.0		27.0	27.0		27.0	23.0		23.0	27.0	22.0	
	19.0	19.0	23.0		23.0	20.0		20.0	24.0	20.0	24.0
		17.0	18.0		18.0	31.0		31.0		19.0	20.0
31.0	14.0	31.0	14.0		14.0	31.0		31.0	16.0		31.0
24.0	20.0	24.0	20.0		20.0	23.0		23.0	19.0	19.0	
	65.0	25.0	26.0			67.0		58.0	27.0		
20.0	20.0	23.0	23.0			20.0		21.0	24.0		21.0
15.0		15.0	15.0		17.0	15.0		12.0	15.0	15.0	
	19.0		30.0		29.0	14.0		18.0	30.0		18.0
20.0	19.0		31.0		31.0	18.0		18.0	17.0		
31.0		16.0	31.0		31.0	14.0		14.0	31.0	14.0	31.0
	13.0	13.0	13.0		12.0	10.0		14.0	14.0		14.0
		39.0	39.0			21.0		23.0	38.0		0.0
34.0	35.0		20.0		19.0	35.0		35.0	19.0	19.0	35.0
12.0	12.0	15.0	15.0		15.0			13.0	16.0	16.0	16.0
	13.0	22.0	22.0		22.0	13.0	20.0	13.0	19.0	19.0	13.0
44.0	41.0	27.0	42.0		48.0	33.0		33.0	47.0	48.0	
	9.0	16.0	16.0		16.0	9.0		7.0	7.0		18.0
9.0		5.0	5.0		1.0	6.0		8.0	1.0	5.0	5.0
	21.0	22.0	22.0		24.0	45.0	24.0	45.0	24.0	24.0	24.0
19.0	47.0	50.0	58.0		60.0	19.0		19.0		60.0	
20.0		18.0	15.0		18.0	22.0	18.0	22.0	19.0		22.0
14.0	14.0	14.0	13.0		13.0	34.0		34.0			33.0
	36.0	37.0	37.0		37.0	37.0		20.0	37.0		
11.0		6.0	12.0		12.0	6.0		6.0	12.0		6.0
	27.0	20.0	19.0		15.0	26.0		30.0			17.0
4.0	4.0	24.0	25.0		24.0	4.0		4.0	24.0	0.0	4.0
			62.0		61.0	35.0		33.0	60.0		
	8.0	0.0	0.0		0.0	16.0		16.0	0.0		0.0
16.0		16.0	16.0		20.0	18.0		18.0	18.0	18.0	20.0
4.0	0.0	0.0	0.0		0.0	5.0		5.0	0.0	5.0	0.0
10.0	11.0	15.0	15.0		12.0	11.0		11.0	15.0		15.0
	22.0	30.0	30.0			22.0		22.0	30.0		22.0
5.0	4.0	5.0	5.0	9.0	5.0	10.0		10.0	5.0	9.0	5.0
12.0			16.0		16.0	14.0		14.0	16.0		16.0
23.0	22.0	23.0	23.0		23.0	22.0	23.0	22.0	23.0	22.0	22.0
		6.0	6.0	6.0	6.0	13.0		13.0	6.0	6.0	
32.0			37.0		38.0	31.0		31.0	41.0	28.0	31.0
6.0		6.0	6.0	31.0	6.0	31.0		31.0	6.0	6.0	31.0
20.0		47.0	47.0		47.0			19.0	48.0	35.0	14.0
15.0	14.0	14.0	14.0		11.0			17.0	16.0		17.0
20.0	18.0	18.0	18.0		18.0	20.0		16.0	16.0		16.0
	14.0	17.0	17.0		17.0	17.0		11.0	19.0	20.0	20.0
17.0			26.0		26.0	19.0		19.0			19.0
7.0		8.0	8.0		8.0	8.0		20.0	8.0	8.0	8.0
		11.0	11.0		11.0	8.0		8.0			8.0
18.0	25.0	24.0	23.0		24.0	18.0		19.0	19.0		19.0
11.0	7.0	7.0	7.0		7.0	9.0		10.0		10.0	10.0
0.0		14.0	13.0		14.0	0.0		0.0	0.0	0.0	
19.0		19.0	19.0		18.0	24.0		23.0	24.0	25.0	18.0
		24.0	20.0		23.0	15.0		15.0	22.0	15.0	21.0
17.0	39.0	38.0	38.0		39.0	18.0		18.0		39.0	
13.0	13.0	13.0	13.0		18.0	11.0		11.0	18.0		10.0
72.0	72.0		21.0		24.0	69.0		68.0			24.0
10.0	10.0	10.0	10.0		10.0	0.0		0.0	0.0	8.0	8.0
	13.0	17.0	18.0		14.0	14.0		13.0	19.0		
17.0	17.0	28.0	28.0		28.0	17.0		17.0			17.0
10.0	9.0		10.0		10.0	10.0		10.0	10.0		
	8.0	8.0	8.0		8.0	8.0		8.0	8.0	9.0	9.0
0.0	13.0		12.0		13.0	0.0		0.0	9.0	0.0	0.0
5.0		5.0	5.0		2.0	7.0		10.0	9.0	4.0	4.0
	12.0	15.0	13.0		13.0	12.0		12.0			10.0
	0.0	0.0	0.0		0.0	14.0		13.0	14.0		0.0
6.0	14.0	6.0	6.0		4.0	8.0	4.0	8.0	4.0	4.0	8.0
4.0	4.0	9.0	10.0		7.0	2.0		5.0	5.0		5.0
14.0	22.0		15.0		15.0	23.0		22.0			17.0
18.0	25.0	26.0	18.0		18.0	30.0		30.0		19.0	19.0
	12.0	11.0	11.0		11.0	11.0		11.0		11.0	11.0
15.0	15.0	24.0	20.0	12.0	25.0	15.0		15.0	25.0		25.0
15.0	15.0	15.0	16.0		18.0	12.0		12.0		18.0	18.0
0.0	0.0	43.0	43.0		35.0	0.0		0.0		4.0	33.0
		9.0	9.0	9.0	8.0	15.0		15.0	9.0	15.0	9.0
17.0			22.0		23.0	15.0		15.0		22.0	14.0
18.0		7.0	7.0		9.0	16.0		16.0	16.0	9.0	
11.0		12.0	12.0		12.0	5.0		5.0	5.0	13.0	13.0
	44.0		33.0		42.0	41.0		43.0	44.0		
22.0	22.0	22.0	22.0		22.0	7.0		7.0	23.0		23.0
16.0	16.0	15.0	16.0		16.0	16.0		16.0	16.0		19.0
8.0	8.0	0.0	0.0		0.0	10.0		10.0	10.0	10.0	10.0
	9.0	17.0	8.0		9.0	17.0		17.0	9.0		9.0
10.0	7.0	10.0	10.0		10.0	10.0		7.0	10.0	10.0	7.0
	21.0	15.0	15.0	16.0	15.0	21.0		20.0	17.0	21.0	16.0
19.0	21.0	18.0	21.0		19.0	21.0		21.0	20.0	20.0	20.0
13.0	13.0	5.0	5.0		5.0	12.0		12.0	12.0		11.0
24.0	25.0	8.0	8.0		7.0	25.0		25.0	6.0		6.0
	10.0	11.0	11.0		11.0	10.0		10.0	11.0		10.0
22.0	21.0	17.0	18.0		18.0	29.0		30.0	17.0		31.0
	48.0	47.0	33.0		33.0	48.0		42.0	27.0	41.0	44.0
24.0	33.0	30.0	22.0		21.0	28.0		27.0	21.0		
12.0	12.0		12.0		12.0	12.0		12.0	9.0		
5.0	5.0	1.0	8.0		6.0	1.0		5.0	5.0		9.0
6.0		12.0	6.0		6.0	12.0		12.0	6.0		11.0
13.0		10.0	12.0		11.0	13.0		13.0	13.0		11.0
15.0		28.0	28.0			17.0		16.0	28.0		15.0
18.0	14.0	29.0	29.0		29.0	9.0		9.0	9.0		
14.0	14.0	14.0	14.0		14.0	16.0		16.0			14.0
10.0	11.0	10.0	10.0		10.0	11.0		10.0	10.0	10.0	10.0
		9.0	9.0		9.0	29.0		29.0	29.0	14.0	18.0
10.0	10.0	10.0	20.0		22.0	9.0		10.0	22.0	10.0	24.0
11.0	11.0	24.0	23.0		24.0	11.0		11.0			8.0
5.0	5.0	5.0	5.0		5.0	12.0		10.0	5.0	5.0	
11.0		13.0	13.0		13.0	11.0		12.0	10.0		13.0
20.0	16.0	16.0	17.0	20.0	16.0	18.0		18.0	17.0	18.0	17.0
14.0	14.0	14.0	14.0		14.0	14.0		0.0	10.0		0.0
31.0	28.0	41.0	31.0		31.0	38.0		37.0			32.0
24.0			68.0		69.0	24.0		21.0		72.0	72.0
27.0		33.0	31.0		28.0	34.0		31.0	32.0		33.0
0.0		0.0	0.0	44.0	8.0	42.0		41.0	8.0	42.0	43.0
19.0			19.0		19.0	26.0		26.0			17.0
24.0	10.0	22.0	10.0		9.0	22.0		20.0	10.0	10.0	10.0
33.0		32.0	31.0		34.0	28.0		31.0	33.0		27.0
12.0	12.0	12.0	12.0		12.0	12.0		0.0	12.0		0.0
		21.0	27.0		28.0	21.0		22.0	30.0	33.0	24.0
19.0		19.0	19.0		20.0			15.0	15.0	15.0	
11.0	11.0	14.0	15.0		15.0	11.0		11.0	15.0	6.0	16.0
13.0	24.0	24.0	24.0		23.0	12.0		12.0			25.0
16.0		16.0	14.0		14.0	16.0		16.0			12.0
19.0	19.0		30.0		30.0	18.0		18.0	26.0	25.0	18.0
		44.0	43.0		41.0	42.0		33.0		44.0	
		10.0	10.0		10.0	10.0		10.0		9.0	10.0
		13.0	13.0		13.0	32.0			12.0	12.0	
11.0		22.0	22.0		13.0	12.0		12.0	19.0	8.0	6.0
9.0		9.0	17.0		17.0	9.0		8.0	17.0	9.0	
22.0		22.0	19.0		22.0	16.0		17.0	23.0	17.0	24.0
		16.0	16.0		16.0	26.0	16.0	26.0	16.0	16.0	26.0
0.0	0.0	0.0	0.0		0.0	6.0		6.0	0.0	0.0	0.0
23.0	41.0	42.0	25.0		26.0	42.0		40.0	25.0		39.0
13.0	44.0	43.0	44.0		45.0	13.0	13.0	13.0	45.0		
28.0		26.0	26.0		26.0	29.0		29.0	25.0		27.0
22.0	22.0	6.0	6.0			22.0		20.0	6.0	22.0	22.0
		26.0	25.0		26.0	19.0		19.0	26.0		19.0
13.0		13.0	13.0		13.0	5.0		5.0	11.0	11.0	5.0
0.0	13.0	12.0	13.0			0.0		0.0	13.0		13.0
	24.0	16.0	16.0		14.0			24.0	15.0	15.0	28.0
24.0	0.0	34.0	30.0		34.0	0.0		0.0	34.0	0.0	34.0
	24.0	7.0	7.0		6.0	22.0	6.0	22.0	6.0	6.0	
	15.0	5.0	5.0		5.0	22.0		22.0			4.0
34.0	0.0	34.0	0.0		0.0	34.0		30.0	34.0	0.0	24.0
13.0	7.0	13.0	13.0	7.0	13.0	7.0		7.0	13.0		13.0
	15.0	27.0	27.0		23.0	12.0		15.0	17.0	24.0	
19.0	20.0	19.0	19.0		19.0	21.0		20.0	20.0		18.0
39.0		25.0	40.0		42.0	26.0		25.0	42.0	41.0	23.0
	4.0	6.0	6.0		5.0	4.0		13.0	13.0	13.0	13.0
31.0		29.0	29.0		29.0	20.0		20.0	33.0	33.0	21.0
			46.0		43.0	7.0		7.0	44.0		43.0
7.0	7.0	7.0	9.0			10.0		10.0	10.0	10.0	10.0
5.0	13.0	15.0	15.0		15.0	5.0		0.0	14.0		
23.0	22.0	19.0	19.0		25.0	24.0		24.0	24.0		23.0
	54.0	54.0	13.0		13.0	37.0		47.0	13.0		13.0
61.0		59.0	60.0		48.0	16.0		18.0		18.0	
13.0		13.0	47.0		37.0	13.0		13.0	54.0	54.0	
15.0	15.0	4.0	4.0		4.0	14.0		14.0	14.0	8.0	8.0
11.0	17.0	21.0	21.0		21.0	12.0		12.0	12.0	22.0	
	44.0	26.0	26.0			47.0		45.0	26.0		26.0
		19.0	17.0		20.0	17.0		17.0	20.0		
7.0	15.0	16.0	15.0		16.0	8.0		8.0	14.0	8.0	14.0
33.0		15.0	15.0		15.0	31.0		31.0	31.0	15.0	
6.0		6.0	35.0		35.0	6.0		6.0			
	24.0	17.0	15.0		12.0	23.0		27.0	27.0	15.0	
			6.0		6.0	35.0		35.0	6.0		6.0
14.0	25.0	24.0	25.0		19.0	12.0		12.0	27.0		
	15.0	31.0	31.0		31.0	15.0		15.0	15.0		33.0
12.0	11.0	18.0	18.0	16.0	13.0	19.0		20.0	19.0		21.0
	5.0	16.0	16.0	5.0	15.0	5.0		5.0	16.0		16.0
14.0	13.0	13.0	19.0		19.0	14.0		14.0	19.0		22.0
15.0		22.0	22.0		22.0	8.0			22.0		21.0
6.0	28.0	6.0	6.0		7.0	31.0	7.0	31.0	7.0	32.0	
13.0	13.0	13.0	13.0		4.0	5.0		6.0	6.0	4.0	
23.0		24.0	24.0		24.0	25.0		19.0	19.0	22.0	23.0
0.0	7.0	0.0	0.0		7.0	7.0		7.0	0.0	0.0	7.0
22.0		19.0	14.0		14.0	19.0		19.0	13.0	13.0	14.0
10.0	10.0	9.0	10.0			10.0		10.0	10.0	10.0	10.0
18.0		20.0	20.0		21.0	19.0		19.0	19.0	20.0	19.0
	4.0	18.0	5.0		5.0	16.0		16.0	5.0		5.0
5.0		5.0	16.0		16.0	5.0		5.0	18.0	4.0	
15.0	17.0		16.0		17.0	10.0		10.0	17.0		17.0
8.0	8.0	14.0	14.0		14.0	4.0		4.0	4.0	15.0	15.0
	22.0	12.0	12.0		12.0	21.0		21.0	21.0	17.0	11.0
	50.0		50.0		49.0	32.0		32.0	48.0		
		27.0	26.0		26.0	16.0		16.0	29.0		16.0
8.0		29.0			29.0	8.0		8.0	25.0	8.0	
19.0		20.0	20.0		21.0	20.0		16.0	17.0	19.0	
18.0	18.0	18.0	18.0		17.0	17.0		18.0	18.0	15.0	
30.0		50.0	51.0		50.0	31.0		31.0			31.0
	18.0	26.0	26.0		26.0	17.0		17.0			20.0
		10.0	10.0		10.0	34.0		35.0	35.0		10.0
61.0		24.0	24.0		24.0	24.0		56.0	23.0	23.0	
	12.0	12.0			13.0	13.0		13.0			12.0
	20.0	25.0			25.0	20.0		20.0	27.0	20.0	21.0
7.0		12.0			11.0	7.0		7.0	10.0		
26.0	26.0		21.0		21.0	26.0		25.0	23.0		28.0
35.0	35.0	26.0	27.0		27.0	37.0		37.0	37.0	36.0	28.0
20.0		20.0			20.0	20.0		21.0	20.0		14.0
0.0	0.0	0.0	0.0		0.0	19.0		19.0	19.0	0.0	0.0
31.0			31.0		31.0	50.0		51.0	50.0		30.0
23.0	23.0	23.0	25.0		7.0	7.0		6.0	25.0	28.0	6.0
7.0	8.0	8.0	8.0		8.0	7.0		7.0	8.0	8.0	7.0
		37.0	9.0		9.0	32.0		31.0	9.0		8.0
	19.0	17.0	16.0		20.0	21.0		20.0	20.0		19.0
	15.0	21.0	24.0			19.0		20.0	32.0		22.0
37.0	37.0	37.0	36.0		37.0	17.0			37.0	37.0	17.0
	25.0	24.0	15.0		15.0	27.0		27.0	17.0		27.0
42.0			27.0		21.0	39.0		39.0	20.0	20.0	40.0
18.0	18.0	18.0	18.0			18.0		13.0	14.0	14.0	13.0
17.0		17.0	17.0		15.0	18.0		17.0	15.0		15.0
24.0	22.0	17.0	18.0		18.0	24.0	17.0	23.0	17.0		17.0
42.0	42.0	44.0	43.0		44.0	41.0		42.0	42.0		32.0
16.0	12.0	15.0	12.0		12.0	15.0		16.0			
46.0	47.0		5.0		5.0	46.0		45.0		5.0	5.0
		6.0	6.0	11.0	6.0	11.0		11.0	6.0	11.0	11.0
	15.0	15.0	14.0		16.0	12.0		13.0	16.0		
28.0	36.0	37.0	37.0		37.0	27.0		27.0	26.0	35.0	35.0
33.0	28.0	33.0	34.0		34.0	28.0		28.0	19.0	34.0	
56.0	56.0	27.0	25.0			52.0		51.0	27.0		28.0
0.0	0.0	0.0	0.0		0.0	0.0		0.0	0.0	0.0	
8.0		9.0	31.0		32.0	9.0		9.0	37.0		
	16.0	12.0	12.0			17.0		18.0	12.0		18.0
18.0		18.0	18.0		15.0	15.0		14.0	16.0	16.0	
9.0		9.0	8.0			8.0		8.0	9.0	9.0	9.0
8.0		7.0	7.0		7.0	26.0			10.0		27.0
27.0		17.0	27.0		27.0	15.0		15.0	24.0	25.0	
21.0		30.0	41.0		39.0	23.0		30.0	44.0		42.0
16.0	26.0	19.0	19.0		19.0	25.0		28.0		28.0	28.0
		25.0	23.0		27.0	34.0	34.0	33.0	25.0	33.0	26.0
10.0		35.0	35.0		34.0	10.0		10.0	10.0		
17.0	17.0		25.0		24.0	15.0		15.0	26.0	26.0	26.0
42.0		44.0	30.0		23.0	39.0		41.0	30.0		21.0
		15.0	15.0		17.0	22.0		23.0	24.0	24.0	
15.0	15.0		15.0		16.0	19.0		19.0	17.0	19.0	18.0
			16.0		15.0	12.0		12.0	15.0	12.0	16.0
4.0	4.0	7.0	4.0		4.0	7.0		7.0	4.0	4.0	7.0
32.0		42.0	42.0		41.0	44.0		43.0	44.0	42.0	42.0
18.0	8.0	7.0	8.0		6.0	18.0		18.0	6.0	18.0	18.0
	23.0	8.0	8.0		8.0	20.0		23.0	8.0		
48.0	48.0	48.0	48.0		48.0	22.0		18.0		18.0	
14.0	17.0	17.0	17.0		17.0	12.0		13.0	17.0		
40.0	20.0	20.0	39.0		39.0	21.0		27.0			42.0
8.0	12.0	12.0	13.0		13.0	8.0		8.0		13.0	8.0
8.0	13.0		8.0		8.0	13.0		13.0	12.0	12.0	8.0
	24.0	24.0	23.0		22.0	17.0		15.0	15.0		
	15.0		21.0		20.0	15.0		15.0	20.0	20.0	
24.0		13.0	13.0		13.0	22.0		21.0	10.0		8.0
7.0	4.0	4.0	7.0		7.0	4.0		4.0	7.0	4.0	4.0
0.0	0.0	19.0	19.0		19.0	0.0		0.0	0.0	0.0	0.0
	0.0	0.0	0.0		0.0	0.0		0.0	0.0	0.0	0.0
	34.0	19.0	28.0		28.0	34.0		34.0	33.0	28.0	33.0
41.0	40.0	26.0	26.0		43.0	42.0		42.0	25.0		42.0
	15.0	18.0	18.0		17.0	17.0		18.0	18.0	18.0	18.0
9.0		17.0	15.0		17.0	10.0		11.0	17.0		12.0
65.0	27.0	27.0	27.0		20.0	45.0		58.0	26.0	26.0	
0.0	5.0	5.0	5.0			0.0		0.0	5.0		5.0
5.0	5.0		45.0		46.0	5.0		5.0		47.0	46.0
		41.0	41.0		42.0	38.0		37.0	37.0	36.0	
25.0	25.0		22.0		22.0	25.0		23.0		27.0	19.0
	21.0		41.0		41.0	21.0		21.0	38.0		38.0
		19.0			19.0	8.0		8.0	19.0		8.0
6.0		19.0	9.0		9.0	19.0		19.0	9.0		20.0
	4.0	4.0	4.0		0.0	15.0		17.0	4.0	4.0	4.0
20.0		6.0	6.0		6.0	18.0		18.0		6.0	18.0
43.0	31.0	32.0	32.0			48.0		49.0	34.0		37.0
11.0		14.0	14.0		14.0	28.0	14.0	28.0	14.0		14.0
			21.0		21.0	25.0		21.0	21.0	21.0	19.0
11.0			15.0		13.0	11.0		11.0		15.0	11.0
		18.0	0.0		0.0	19.0		19.0	0.0		4.0
	0.0	0.0	0.0		0.0	14.0		17.0		0.0	0.0
28.0		30.0	31.0		30.0	25.0		27.0	26.0	29.0	29.0
28.0	28.0	28.0	28.0		28.0	19.0		20.0	20.0		
16.0		16.0	16.0		16.0	42.0		40.0	16.0	16.0	16.0
29.0	29.0	26.0	27.0		25.0	30.0		31.0	30.0		28.0
	10.0	37.0	36.0		36.0	11.0		8.0	8.0		30.0
16.0	17.0	23.0	23.0		23.0	16.0		18.0			
	26.0	7.0	7.0		7.0	24.0		26.0	26.0	7.0	7.0
	36.0	37.0	37.0		38.0	42.0		41.0	41.0		
19.0	27.0		23.0		25.0	22.0		22.0		25.0	25.0
17.0	17.0	18.0	18.0			17.0		17.0	17.0	17.0	
16.0	15.0	33.0	33.0		33.0	16.0		16.0	17.0		17.0
0.0	0.0	0.0	4.0		3.0	9.0		9.0	8.0	4.0	4.0
		24.0	25.0		23.0	28.0		28.0	25.0	28.0	22.0
0.0	13.0	0.0	13.0		15.0	0.0		0.0		14.0	15.0
	9.0	9.0	10.0		10.0	10.0	10.0	10.0	10.0	10.0	
		42.0	46.0		46.0	26.0		24.0	23.0		43.0
20.0	20.0	20.0	22.0		22.0	19.0		19.0	19.0		19.0
		19.0	6.0		6.0	17.0		17.0		10.0	
32.0	32.0	17.0	17.0		16.0	32.0		31.0			
	14.0	14.0	14.0		14.0			8.0	13.0		8.0
	19.0		53.0		52.0	19.0		19.0			
	21.0		22.0		19.0	34.0		51.0	22.0		22.0
4.0	4.0	4.0	4.0		0.0	7.0		9.0	9.0		
		52.0	25.0		25.0	50.0		50.0	26.0		
	31.0	0.0	0.0		0.0	28.0		28.0	0.0	0.0	0.0
		9.0	9.0		7.0	0.0		4.0	4.0	4.0	4.0
35.0	35.0	20.0	19.0			33.0		33.0	18.0		35.0
12.0		3.0	6.0		6.0	20.0		20.0	20.0	18.0	18.0
27.0	19.0		27.0		27.0	17.0		17.0		27.0	27.0
24.0	25.0	26.0	27.0		27.0	29.0		27.0	30.0		27.0
40.0		40.0	40.0		40.0	27.0		27.0	40.0		
19.0		19.0	19.0		19.0	22.0		22.0	20.0	20.0	20.0
	5.0	5.0	5.0		5.0	8.0		18.0	18.0		
28.0	10.0	10.0	29.0		31.0	11.0		17.0		18.0	
0.0	0.0	17.0	18.0		17.0	4.0		4.0			
19.0	21.0	21.0	21.0		25.0	21.0		21.0			
		10.0	10.0		10.0	15.0		15.0		10.0	10.0
6.0	7.0	7.0	6.0		6.0	7.0		7.0	7.0	6.0	7.0
4.0	15.0	4.0	4.0		4.0	16.0		3.0	20.0	4.0	20.0
18.0	18.0	20.0	20.0		20.0	6.0		6.0	3.0		12.0
16.0	16.0	16.0	16.0		16.0	10.0		10.0			15.0
16.0	20.0	20.0	20.0		20.0	20.0		19.0	20.0		19.0
		6.0	6.0		6.0	9.0		9.0	8.0	8.0	7.0
20.0		22.0	19.0		19.0	10.0		9.0	9.0	22.0	9.0
4.0	4.0	5.0	5.0		5.0	6.0	5.0	6.0	5.0	7.0	6.0
5.0	13.0	13.0	13.0		13.0	5.0		5.0	5.0	13.0	12.0
16.0	16.0	16.0	16.0	13.0	16.0	14.0		15.0	16.0		15.0
		26.0	50.0		50.0	25.0		25.0	52.0		
	6.0	6.0	6.0		6.0	15.0		16.0	6.0	15.0	6.0
10.0	12.0	12.0	11.0		11.0	12.0		12.0	11.0	14.0	10.0
26.0		15.0	26.0		15.0	26.0		26.0	13.0	26.0	26.0
7.0		17.0	17.0		18.0	7.0		7.0	7.0	16.0	16.0
18.0	18.0	22.0	22.0		19.0	18.0		18.0	18.0		21.0
38.0	38.0	20.0	20.0		19.0	37.0		38.0	19.0		38.0
	16.0		17.0		16.0	16.0		16.0	16.0	12.0	16.0
4.0	4.0	8.0	9.0		9.0	3.0		4.0	0.0	0.0	0.0
	16.0	18.0	16.0	15.0	15.0	15.0		15.0	15.0	15.0	
	19.0	20.0	19.0	19.0	17.0	15.0		16.0	19.0		16.0
43.0		23.0	24.0		26.0	46.0		46.0	42.0		
	10.0		17.0		17.0	6.0		6.0	19.0		
		8.0	8.0		9.0	16.0		16.0	16.0	7.0	
12.0	13.0	5.0	5.0		5.0	13.0		13.0	13.0	13.0	5.0
4.0		4.0	4.0		4.0	6.0		6.0	6.0	6.0	6.0
4.0		0.0	19.0		19.0	0.0		0.0	18.0		
	12.0		12.0		12.0	24.0		24.0	12.0	12.0	
18.0	6.0		18.0		18.0	6.0		6.0	6.0		20.0
5.0		0.0	0.0		0.0	0.0		4.0	0.0	4.0	
	10.0	24.0	24.0		23.0	13.0		15.0		23.0	25.0
7.0	6.0	7.0	7.0		7.0	6.0		6.0	7.0	7.0	6.0
5.0	5.0		21.0		17.0	7.0		7.0	7.0	22.0	7.0
	17.0	19.0	19.0		19.0	12.0		13.0	13.0		19.0
27.0	27.0		17.0		17.0	27.0		27.0		19.0	27.0
7.0	8.0	8.0	9.0		9.0	6.0		6.0	6.0		
16.0	12.0	16.0	16.0		16.0	16.0		17.0		16.0	
15.0	16.0	0.0	16.0		17.0	0.0		0.0	18.0	19.0	
27.0		30.0	27.0		29.0	27.0		27.0	26.0	25.0	24.0
13.0	13.0	16.0	16.0	16.0	16.0	13.0		13.0	16.0	13.0	15.0
15.0	14.0		0.0		0.0	15.0		13.0	0.0	13.0	0.0
		18.0	18.0		8.0	5.0		5.0	5.0	5.0	
16.0	19.0	19.0	19.0			18.0		18.0	18.0		
9.0	22.0	9.0	9.0		10.0	19.0		19.0	22.0		20.0
30.0		21.0	21.0		21.0	29.0		29.0	29.0		
		20.0	20.0		19.0	28.0		28.0	28.0	28.0	28.0
0.0	6.0	0.0	0.0	6.0	0.0	6.0		6.0	0.0		6.0
7.0	7.0	26.0	26.0		24.0	7.0		7.0	7.0	26.0	
16.0	16.0	7.0	7.0		7.0	18.0		17.0	17.0		7.0
	19.0	14.0	14.0	19.0	13.0	19.0		19.0	15.0	19.0	15.0
6.0	6.0	6.0	6.0		6.0	4.0		4.0	4.0		4.0
10.0			16.0		16.0	3.0		8.0	17.0		4.0
20.0	4.0	20.0	3.0		16.0	4.0		4.0	4.0	15.0	4.0
12.0	12.0	12.0	12.0	0.0	12.0	0.0		0.0	12.0	0.0	12.0
	5.0	5.0	5.0		5.0	5.0		19.0	5.0	19.0	5.0
10.0		27.0	29.0		29.0	10.0		29.0	29.0	29.0	29.0
7.0	22.0	7.0	7.0		7.0	17.0		21.0		5.0	5.0
	4.0	0.0	4.0		0.0	0.0		0.0	0.0		5.0
		29.0	29.0		29.0	21.0		21.0	21.0		30.0
30.0		8.0	8.0		11.0	36.0		36.0	37.0	10.0	
	19.0	18.0	0.0		0.0	17.0		16.0	0.0	16.0	15.0
10.0	14.0	11.0	12.0		12.0	11.0		11.0	12.0	12.0	10.0
11.0	15.0		11.0		11.0	13.0		15.0			11.0
	8.0	11.0	11.0		11.0	11.0	11.0	11.0	11.0		11.0
17.0		17.0	16.0		16.0	33.0		33.0	33.0	15.0	16.0
	7.0	16.0	16.0		16.0	9.0		8.0	8.0		
	18.0		17.0		11.0	31.0		29.0	10.0	10.0	28.0
22.0	28.0	25.0	28.0		28.0	23.0		25.0	24.0		
25.0	25.0	32.0	33.0		34.0	25.0		25.0		37.0	
20.0		9.0	19.0		19.0	9.0		9.0	19.0		6.0
23.0		7.0	7.0		7.0	21.0		21.0		7.0	
			19.0		19.0	52.0		53.0		19.0	
26.0	24.0	28.0	24.0		28.0	29.0		25.0	27.0		26.0
	19.0	19.0	19.0		19.0	47.0		45.0	19.0		
0.0	8.0	9.0	9.0	0.0	9.0	0.0		0.0	8.0	8.0	8.0
19.0		13.0	13.0		12.0	19.0		19.0	19.0	17.0	
21.0		18.0	18.0		18.0	19.0		22.0	22.0	18.0	18.0
12.0	12.0	12.0	12.0		12.0	11.0		11.0	13.0		12.0
27.0	27.0	13.0	15.0		15.0	26.0		26.0	26.0	26.0	
28.0	32.0	21.0	21.0		21.0			29.0	21.0	21.0	30.0
			20.0		20.0	36.0		34.0		19.0	19.0
		13.0			13.0	27.0		29.0		13.0	13.0
	35.0	36.0	37.0		34.0	35.0		36.0	36.0	36.0	32.0
17.0		13.0	13.0		13.0	17.0		16.0		13.0	17.0
4.0	0.0	4.0	4.0	0.0	4.0	0.0		0.0	4.0	5.0	5.0
20.0		20.0	20.0		22.0	47.0		47.0	21.0		20.0
11.0		7.0	7.0		7.0	11.0	7.0	11.0	7.0		7.0
10.0	10.0	17.0	17.0		17.0	10.0		15.0	15.0	15.0	
		36.0	36.0			39.0		36.0	35.0		
18.0	18.0	19.0	19.0		19.0	18.0		20.0	25.0	25.0	
15.0	14.0		7.0		7.0	14.0		14.0	10.0		
23.0		23.0	24.0		28.0	24.0		24.0	24.0	31.0	30.0
28.0	28.0	30.0	27.0		27.0	30.0		30.0	30.0		26.0
	10.0	10.0	10.0		10.0	21.0		21.0			20.0
		16.0	16.0	18.0	16.0	18.0		17.0	16.0	18.0	
41.0		31.0	27.0		27.0	38.0		26.0	27.0	36.0	29.0
17.0	13.0		16.0		17.0	13.0		13.0	13.0		17.0
8.0		8.0	11.0		11.0	15.0		15.0		12.0	12.0
31.0		17.0	33.0		33.0	17.0		19.0	27.0	19.0	26.0
		27.0	27.0		28.0	24.0		19.0	22.0		22.0
26.0		30.0	30.0		30.0	27.0		27.0	30.0	28.0	28.0
4.0	4.0		13.0		12.0	4.0		4.0	13.0	13.0	
30.0	31.0	24.0	24.0		24.0	28.0		24.0	23.0		23.0
	9.0	16.0	16.0		16.0	7.0		8.0		17.0	17.0
8.0		8.0	11.0		10.0	22.0		20.0		10.0	
	36.0	35.0	35.0		36.0	16.0		16.0	16.0	36.0	
0.0	18.0	0.0	0.0		0.0	10.0	11.0	11.0	4.0		10.0
32.0	16.0		32.0		33.0	18.0		19.0	19.0	19.0	19.0
27.0			28.0		28.0	8.0		6.0			5.0
18.0	18.0	18.0	18.0		18.0			24.0	7.0	6.0	24.0
		15.0	34.0		34.0	16.0		16.0		29.0	
	10.0		11.0		10.0	42.0		40.0	10.0	11.0	39.0
	11.0	32.0	32.0		31.0	10.0		11.0			17.0
11.0	11.0	11.0	11.0		11.0	11.0		11.0			11.0
		15.0	15.0		14.0	28.0		28.0	14.0		33.0
	29.0		16.0		16.0	34.0		34.0	15.0		
0.0		4.0	4.0			20.0		20.0	4.0	4.0	5.0
25.0	25.0	23.0	26.0		29.0	24.0		24.0		31.0	
13.0	13.0		16.0		16.0	13.0		13.0	17.0	17.0	17.0
21.0	21.0	27.0	27.0		27.0	27.0		21.0	27.0		
17.0	15.0	15.0	14.0	17.0	15.0	17.0		16.0	16.0		
	9.0		20.0		20.0	9.0		9.0	20.0	19.0	20.0
		15.0	15.0		15.0	20.0		20.0		19.0	16.0
	6.0	6.0	6.0		6.0	15.0		5.0	5.0	15.0	
26.0	26.0	25.0	24.0		25.0	25.0		24.0	22.0	23.0	
	21.0		37.0		37.0	23.0		23.0	21.0		
13.0	6.0	6.0	6.0		6.0	14.0		14.0	14.0	5.0	5.0
	23.0	22.0	24.0		25.0	25.0		24.0	25.0	26.0	26.0
19.0	19.0		34.0		36.0	20.0		20.0			
	10.0	6.0	6.0	10.0	6.0	10.0		10.0	6.0	10.0	7.0
0.0	12.0		0.0		0.0	13.0		12.0	0.0		0.0
		14.0	14.0		14.0	10.0		10.0		6.0	
32.0	36.0	36.0	36.0		35.0	34.0		37.0	36.0	35.0	
5.0	5.0	14.0	14.0		14.0	6.0		6.0	6.0	6.0	13.0
	9.0	9.0	9.0		8.0	43.0	42.0	38.0	7.0		36.0
0.0		0.0	12.0		13.0	0.0		0.0		12.0	0.0
13.0		15.0	15.0		15.0	16.0		18.0	17.0		15.0
11.0	11.0	21.0	26.0		26.0	12.0		12.0		12.0	10.0
41.0		23.0	41.0		42.0	23.0		23.0	42.0	23.0	42.0
23.0	25.0		24.0		24.0	26.0		26.0		24.0	25.0
19.0	19.0	19.0	19.0		18.0	33.0		32.0		16.0	32.0
42.0	23.0	42.0	23.0		23.0	42.0		41.0	23.0		41.0
5.0			6.0		8.0	28.0		28.0			27.0
	15.0	10.0	10.0		10.0	10.0		16.0	10.0	10.0	
13.0		13.0	13.0		13.0	22.0		22.0	13.0	13.0	
25.0	24.0		26.0		26.0	24.0		24.0		25.0	23.0
26.0	19.0	27.0	19.0		17.0	33.0		33.0	17.0		31.0
15.0		17.0	18.0		16.0	15.0		15.0	15.0		13.0
34.0		7.0	7.0		7.0	34.0		34.0			7.0
	11.0	4.0	4.0	11.0	4.0	10.0		10.0	4.0	10.0	10.0
32.0	32.0	18.0	19.0		19.0	29.0		29.0	20.0		27.0
	26.0	26.0	26.0		26.0	15.0		15.0	13.0	27.0	27.0
	34.0	16.0	16.0		16.0			36.0	17.0		17.0
22.0		22.0	19.0		24.0	28.0		27.0	27.0		
		0.0	0.0	0.0	5.0	12.0		12.0	5.0	5.0	5.0
18.0		18.0	18.0		18.0	0.0		0.0	0.0	18.0	
	24.0	24.0	22.0		22.0	22.0		22.0	22.0	22.0	
17.0	17.0	17.0	17.0		17.0	16.0	15.0	17.0	16.0	17.0	16.0
	31.0		24.0		24.0	29.0		26.0	23.0	25.0	25.0
7.0			34.0		34.0	7.0		7.0	7.0		34.0
38.0		34.0	24.0		24.0	39.0		40.0	39.0		
	0.0	0.0	0.0		0.0	8.0		8.0		8.0	
		39.0	40.0		39.0	24.0		24.0	34.0		38.0
	36.0	16.0	16.0		16.0	36.0		35.0	35.0	36.0	
	33.0	21.0	20.0		20.0	32.0		29.0		21.0	21.0
39.0	11.0	10.0	40.0		42.0	10.0		11.0		10.0	
	18.0	0.0	0.0		0.0	18.0		18.0	18.0		18.0
17.0			11.0		10.0	31.0		32.0	32.0	11.0	
	22.0	22.0	22.0		22.0	22.0		22.0	24.0	24.0	
	42.0	42.0	42.0		43.0			13.0	42.0		13.0
28.0		29.0	29.0		29.0	9.0		9.0	29.0	7.0	29.0
		21.0	23.0		23.0	37.0		37.0		21.0	
	12.0	11.0	12.0		12.0	15.0		15.0		12.0	12.0
		59.0	59.0		59.0	61.0	61.0	61.0	60.0		
36.0		36.0	35.0		37.0	47.0		46.0			
5.0	5.0	13.0	13.0		13.0	4.0		4.0		4.0	4.0
		6.0	6.0		6.0	15.0		15.0		14.0	6.0
23.0	47.0	23.0	23.0		23.0	47.0		40.0	24.0		
	26.0		25.0		25.0	17.0		17.0	26.0	18.0	18.0
19.0	13.0	19.0	18.0		20.0	13.0		13.0			21.0
24.0		22.0	21.0		22.0	25.0		27.0	24.0		
	5.0	27.0	26.0		27.0	11.0		11.0	11.0	11.0	
	17.0	33.0	33.0		33.0	17.0		12.0			
21.0	24.0	19.0	19.0	24.0	24.0	16.0		15.0	24.0	15.0	24.0
	36.0	43.0	45.0		41.0	33.0		36.0			36.0
		15.0	13.0		12.0	11.0		13.0	14.0		
19.0		40.0	40.0		42.0	16.0		17.0	40.0	17.0	17.0
20.0	20.0	19.0	19.0		20.0	20.0		20.0	18.0	20.0	18.0
		18.0	18.0		18.0	18.0		18.0		21.0	
8.0		9.0	9.0	8.0	9.0	7.0		8.0	9.0	9.0	9.0
		10.0	10.0			28.0		29.0	11.0		
		14.0	14.0		13.0	34.0		33.0		15.0	14.0
25.0	19.0	19.0	19.0			26.0		25.0	18.0		24.0
0.0	8.0		0.0		0.0	8.0		8.0	8.0	4.0	4.0
21.0	21.0	31.0	30.0		31.0	20.0			31.0	30.0	21.0
	33.0	33.0	34.0		33.0	15.0		15.0	15.0	15.0	32.0
16.0	0.0	14.0	14.0		15.0	0.0		0.0	0.0		0.0
9.0		31.0	33.0		33.0	10.0		10.0	29.0		30.0
21.0	19.0	22.0	24.0		18.0	16.0		19.0	24.0		24.0
7.0	7.0	6.0	6.0		6.0	7.0		7.0	7.0	4.0	5.0
13.0	13.0	13.0	13.0		13.0	14.0		14.0	13.0		13.0
15.0	15.0	14.0	17.0		17.0	15.0		14.0			17.0
20.0	20.0	43.0	42.0		41.0	20.0		20.0	20.0	36.0	
	28.0	27.0	27.0			37.0		37.0	30.0		32.0
	18.0		36.0		39.0	18.0		18.0	18.0		
13.0		13.0	14.0		14.0	13.0		13.0	13.0	13.0	13.0
10.0	10.0	10.0	9.0		10.0	7.0			9.0	9.0	
6.0	0.0	6.0	6.0	6.0	6.0	0.0		0.0	6.0	6.0	0.0
6.0		8.0	8.0		8.0	4.0		4.0	4.0		5.0
13.0	11.0	13.0	13.0	11.0	13.0	11.0		11.0	12.0	12.0	12.0
14.0		15.0	15.0		15.0	0.0		0.0	17.0		17.0
		49.0	48.0	42.0	47.0	43.0		44.0	47.0		51.0
22.0	17.0		22.0		23.0	17.0		17.0		24.0	24.0
40.0	39.0	39.0	39.0		39.0	14.0		15.0	15.0	15.0	
32.0		32.0	32.0	45.0	31.0	45.0		49.0	32.0	31.0	31.0
27.0	27.0	19.0	17.0		17.0	27.0		27.0	27.0	27.0	16.0
0.0	0.0	11.0	11.0	0.0	10.0	0.0		0.0	11.0		0.0
9.0	9.0	30.0	31.0		31.0	8.0		9.0		30.0	30.0
28.0		29.0	31.0		30.0	31.0		32.0	32.0	32.0	
	22.0	20.0	22.0		26.0	19.0		19.0		18.0	32.0
	22.0		5.0		5.0	27.0		28.0	5.0		5.0
40.0	39.0		13.0		12.0	39.0		37.0	13.0	17.0	17.0
	31.0	14.0	15.0		14.0			34.0	15.0	15.0	33.0
17.0	17.0	17.0	17.0		16.0	4.0		17.0	17.0	17.0	4.0
24.0	24.0		17.0		17.0	23.0		22.0		17.0	22.0
17.0	17.0	17.0	17.0		17.0	37.0		37.0	38.0	18.0	18.0
28.0	6.0	6.0	6.0		6.0	29.0		28.0		6.0	27.0
	8.0	8.0	8.0		8.0			20.0	9.0		21.0
	4.0	5.0	5.0	44.0	5.0	44.0		44.0	6.0	6.0	6.0
	13.0	13.0	15.0		19.0	13.0		13.0		11.0	
		14.0	13.0		11.0	12.0		13.0	15.0		
18.0	18.0	38.0	37.0		37.0	17.0		17.0	17.0	17.0	17.0
	11.0	11.0	11.0		11.0	27.0		26.0	27.0	5.0	
	10.0	10.0	10.0	26.0	10.0	25.0		23.0	10.0	22.0	
12.0	11.0		37.0		40.0	11.0		11.0	42.0	40.0	39.0
			46.0		47.0	37.0		35.0	36.0		36.0
10.0	20.0	20.0	20.0		20.0	10.0		9.0	19.0	10.0	
21.0			13.0		13.0	20.0		18.0	19.0	13.0	19.0
17.0		17.0	18.0		17.0	25.0		25.0	17.0		
4.0	4.0	8.0	8.0		8.0	0.0		0.0		8.0	0.0
17.0	17.0	40.0	17.0		16.0	42.0		40.0	40.0		19.0
36.0			33.0		33.0	17.0		16.0		33.0	16.0
17.0	15.0	25.0	25.0		25.0	26.0		17.0	26.0		
21.0		13.0	13.0		14.0	20.0		20.0	12.0		20.0
20.0		20.0	19.0		19.0	27.0		27.0	27.0		
0.0		0.0	0.0		0.0	15.0		14.0	14.0	0.0	16.0
29.0		30.0	31.0		31.0	20.0		20.0	31.0		
5.0	4.0	7.0	7.0		7.0	6.0		6.0	6.0	7.0	7.0
			12.0		17.0	33.0		33.0	33.0	17.0	
16.0	33.0		16.0		17.0	33.0		33.0			36.0
0.0	14.0	16.0	16.0		16.0	0.0		0.0		4.0	4.0
		41.0	41.0		41.0	24.0		22.0		22.0	
4.0	17.0	0.0	4.0			22.0		23.0	4.0	23.0	4.0
10.0	7.0	10.0	9.0		11.0	11.0		9.0	12.0	12.0	9.0
	0.0		0.0		0.0	0.0		0.0	0.0		0.0
		27.0	27.0		27.0	19.0		19.0	20.0		20.0
10.0		10.0	10.0		10.0	23.0	9.0	20.0	9.0	9.0	
	36.0	20.0	20.0		20.0	41.0		42.0	43.0	20.0	20.0
32.0	15.0	15.0	15.0		15.0	33.0		34.0	33.0	33.0	
	15.0	15.0	15.0		14.0	39.0		39.0	39.0	39.0	40.0
		31.0	30.0		32.0	23.0		23.0		24.0	
		21.0	22.0		24.0	27.0		27.0	23.0		
		37.0	37.0		25.0	22.0		41.0	36.0	36.0	
9.0	8.0	0.0	0.0		0.0	8.0		8.0	8.0	0.0	0.0
		18.0	18.0		18.0	39.0		36.0		18.0	
5.0		4.0	4.0		4.0	8.0		8.0	8.0		6.0
15.0		16.0	19.0		19.0	29.0		29.0	21.0		30.0
	36.0	36.0	41.0		22.0	25.0		37.0	37.0		
22.0	22.0	14.0	14.0			20.0		20.0	13.0		28.0
17.0			14.0		15.0	17.0		17.0	14.0	15.0	15.0
15.0	15.0	7.0	7.0		7.0	15.0		15.0	9.0	9.0	18.0
	28.0	32.0	32.0		32.0	33.0		27.0	31.0		27.0
13.0	14.0	15.0	19.0	12.0	21.0	13.0		13.0	22.0		
16.0	27.0	27.0	27.0		27.0	17.0		17.0	19.0	27.0	27.0
27.0	6.0		28.0		29.0	6.0		6.0	6.0	6.0	28.0
0.0	0.0	8.0	8.0		8.0	0.0		0.0	0.0	8.0	9.0
	11.0		4.0		4.0	10.0		9.0	5.0		5.0
33.0	25.0	26.0	26.0		28.0	35.0		35.0	35.0		
	30.0	26.0	26.0		26.0	29.0		30.0		26.0	
21.0	26.0	22.0	23.0		23.0	23.0		35.0	23.0	23.0	34.0
		35.0	35.0		35.0	28.0		26.0	26.0	25.0	33.0
12.0		13.0	13.0		13.0	33.0		12.0	14.0	31.0	15.0
12.0	18.0	18.0	12.0		10.0	18.0		18.0		6.0	
18.0	6.0	19.0	20.0		21.0	5.0		5.0	22.0	21.0	5.0
	9.0	21.0	19.0		19.0	9.0		9.0	19.0	18.0	8.0
44.0	44.0		15.0		15.0	44.0		44.0	14.0	15.0	45.0
	44.0	45.0	45.0		45.0	7.0		7.0		44.0	37.0
14.0	14.0	4.0	4.0			13.0		13.0	0.0		0.0
37.0	44.0		7.0		7.0	45.0		45.0	45.0	44.0	
42.0	19.0		42.0		40.0	15.0		15.0		41.0	42.0
39.0	15.0	15.0	34.0		34.0	15.0		15.0		45.0	45.0
9.0	0.0		9.0		9.0	0.0		0.0	0.0	0.0	0.0
45.0	45.0		15.0		15.0	34.0		34.0	15.0	15.0	39.0
		38.0	37.0		36.0	38.0		34.0	38.0		34.0
11.0	11.0	12.0	11.0		12.0	23.0		22.0		11.0	22.0
	15.0	24.0	23.0		24.0	13.0			24.0	24.0	
	6.0		18.0		18.0	10.0		12.0	18.0	18.0	12.0
42.0	41.0		15.0		15.0	40.0		42.0		19.0	42.0
37.0	15.0		34.0		33.0	12.0		12.0	12.0	37.0	37.0
12.0		11.0	11.0		11.0	23.0			14.0	14.0	23.0
		7.0	7.0		6.0	33.0		32.0	6.0		31.0
	10.0	10.0	10.0		17.0	6.0		6.0	16.0		22.0
37.0	37.0	12.0	12.0		12.0	33.0		34.0		15.0	37.0
	11.0	11.0	11.0		11.0	17.0	11.0	15.0	11.0		14.0
22.0	8.0	24.0	22.0		23.0	8.0	23.0	8.0	23.0	23.0	
45.0	15.0	14.0	44.0		44.0	15.0		15.0		44.0	44.0
0.0	0.0	0.0	0.0		0.0	9.0		9.0		0.0	9.0
22.0	11.0		22.0		23.0	12.0		11.0	12.0	11.0	11.0
	29.0	23.0			23.0	33.0		31.0	23.0		30.0
10.0	18.0	19.0	19.0		18.0	10.0		18.0	19.0		11.0
0.0		19.0			18.0	10.0		10.0	18.0	19.0	19.0
21.0		25.0	25.0		18.0	28.0		27.0	26.0	23.0	
	23.0	26.0	27.0		28.0	18.0		25.0	25.0		21.0
22.0	37.0	37.0	37.0		37.0	24.0		24.0	23.0		
13.0	13.0		13.0		14.0	5.0		4.0	14.0	14.0	
0.0	0.0	0.0	0.0		0.0	0.0		0.0	0.0	0.0	0.0
21.0		23.0	23.0		24.0	15.0		15.0	15.0	15.0	20.0
	37.0	37.0	38.0		35.0	14.0		14.0	14.0	14.0	14.0
31.0	32.0	14.0	14.0		15.0	30.0		31.0	30.0	14.0	
	29.0	29.0	29.0		29.0	21.0		21.0			
	17.0	4.0	4.0		4.0	13.0		13.0	13.0		13.0
7.0	16.0	7.0	7.0		7.0	16.0	7.0	8.0	7.0	6.0	8.0
20.0		20.0	20.0		20.0	33.0		33.0		21.0	21.0
23.0	23.0	23.0	23.0	39.0	23.0	39.0		39.0	22.0	39.0	22.0
40.0	40.0		11.0		12.0	40.0		35.0			12.0
14.0		14.0	14.0			21.0		21.0	14.0	22.0	20.0
13.0		13.0	13.0		13.0	28.0		26.0	11.0		27.0
34.0	30.0	26.0	30.0		30.0			40.0	30.0	41.0	30.0
30.0		41.0	41.0			30.0		30.0	39.0	1.0	7.0
19.0	20.0		21.0		21.0	18.0		18.0	21.0		21.0
30.0		26.0	26.0	26.0	25.0	29.0		29.0	24.0		
	14.0	30.0	31.0		30.0	15.0		14.0	14.0	32.0	31.0
22.0		18.0	22.0		18.0	21.0		20.0	17.0	18.0	13.0
20.0	20.0	0.0	0.0	20.0	0.0	21.0		20.0	0.0		
18.0	16.0	11.0	11.0		11.0	16.0		16.0		11.0	11.0
10.0	10.0	39.0	41.0		38.0	13.0		13.0		13.0	39.0
12.0		12.0	12.0		12.0	9.0		7.0	9.0		12.0
6.0	0.0	4.0	4.0		4.0	0.0		0.0	4.0		0.0
8.0		8.0	7.0		8.0	15.0		14.0		5.0	6.0
0.0	0.0	0.0	0.0		0.0	0.0		0.0	0.0	0.0	0.0
39.0	39.0	39.0	39.0		39.0	29.0		28.0		28.0	
14.0	14.0	14.0	14.0		14.0	35.0		38.0	37.0	37.0	
		23.0	24.0		24.0	37.0		37.0	37.0	37.0	22.0
19.0	20.0	19.0	18.0			20.0		20.0	19.0		20.0
	8.0	8.0	8.0		8.0	33.0		29.0	8.0		33.0
6.0	33.0		5.0		5.0	32.0		32.0		5.0	32.0
25.0	14.0	26.0	27.0		25.0	15.0		23.0	25.0	25.0	15.0
27.0	27.0	27.0	27.0		25.0			27.0	29.0	29.0	
	25.0	9.0	9.0		9.0	27.0		27.0	8.0		8.0
6.0	6.0	6.0	6.0		6.0	6.0	6.0	6.0	6.0	6.0	6.0
20.0	15.0	15.0	15.0		15.0	24.0		23.0	23.0		21.0
13.0		13.0	13.0		13.0	4.0		4.0	4.0	17.0	
32.0	5.0		32.0		32.0	5.0		5.0		33.0	6.0
15.0			15.0		15.0	17.0		18.0	15.0		15.0
36.0		16.0	16.0		16.0	37.0		38.0	17.0	17.0	
18.0	18.0	30.0	30.0		26.0	19.0		18.0			18.0
12.0			35.0		40.0	12.0		11.0		40.0	40.0
19.0		19.0	19.0	18.0	19.0	17.0		17.0	19.0		
	32.0	32.0	24.0		24.0	33.0		31.0	24.0		29.0
11.0	30.0	30.0	29.0	11.0	30.0	12.0		11.0	26.0	11.0	25.0
13.0	14.0	42.0	43.0		35.0	14.0		15.0	15.0	15.0	
	15.0	15.0	15.0		14.0	35.0		43.0	42.0	14.0	13.0
19.0	19.0	19.0	19.0		18.0	4.0		4.0	18.0		
26.0		26.0	26.0			49.0		49.0	26.0		
29.0		24.0	31.0		33.0	24.0		24.0	32.0	32.0	
4.0		0.0	0.0		0.0	9.0			0.0	0.0	0.0
12.0		9.0	7.0		9.0	12.0		12.0	12.0		12.0
15.0	15.0	19.0	19.0		19.0	13.0		18.0	19.0		20.0
7.0	15.0	8.0	8.0	16.0	8.0	16.0		15.0	8.0	16.0	8.0
	24.0	16.0	16.0			21.0		21.0	17.0		
19.0		20.0	20.0		20.0	26.0	18.0	26.0	19.0		
	8.0	18.0	18.0		18.0	8.0		8.0		18.0	18.0
	22.0	22.0	23.0		23.0	25.0		24.0	23.0		
26.0	29.0	29.0	28.0		34.0	25.0		23.0	34.0		
	22.0	22.0	22.0		18.0	39.0		34.0	41.0	42.0	
8.0	31.0		8.0		8.0	31.0		32.0	8.0	31.0	8.0
29.0	29.0		16.0		16.0	29.0		29.0	15.0		15.0
5.0	5.0	39.0	41.0			13.0		13.0	42.0	13.0	43.0
4.0	15.0	4.0	4.0		4.0	14.0		14.0		4.0	14.0
9.0	14.0	14.0	15.0		13.0	10.0		10.0	10.0	10.0	10.0
24.0		12.0	12.0		12.0	23.0		23.0		21.0	13.0
		32.0	32.0		31.0	26.0		26.0	24.0		
	12.0	12.0	11.0		12.0	8.0		8.0	13.0		13.0
	42.0	17.0	16.0		18.0	41.0		42.0		42.0	
21.0		30.0	34.0		31.0	27.0		25.0	25.0	34.0	34.0
	8.0	8.0	8.0		6.0	5.0	6.0	0.0	8.0	8.0	7.0
			7.0		7.0	10.0		10.0		10.0	
14.0	17.0	18.0	32.0		32.0	18.0		16.0	30.0	16.0	
	21.0	20.0	20.0		20.0	35.0		28.0	20.0		32.0
16.0		16.0	16.0		17.0	16.0		17.0	17.0		
	23.0	30.0	23.0		23.0	29.0		28.0	20.0		21.0
33.0			29.0		28.0	34.0		32.0	30.0	30.0	32.0
	14.0	11.0	11.0		11.0	14.0		14.0	13.0	11.0	11.0
	50.0	31.0	29.0		33.0	48.0		49.0	50.0	27.0	
		24.0	26.0		26.0	31.0		32.0	32.0		
	11.0	11.0			11.0	13.0		13.0	11.0		11.0
		25.0	27.0			48.0		45.0	26.0		
13.0	14.0	11.0	12.0		21.0	12.0	20.0	12.0	20.0	20.0	20.0
16.0	16.0		18.0		18.0	17.0		17.0			
34.0	34.0	25.0	25.0		27.0	31.0		34.0	30.0		21.0
	6.0	6.0	6.0		6.0			13.0	6.0	6.0	6.0
19.0	13.0	13.0	13.0		13.0	24.0		23.0	23.0	16.0	16.0
13.0	25.0	25.0	26.0		26.0	13.0		13.0	26.0	26.0	23.0
14.0	4.0		14.0		14.0	4.0		4.0	4.0	15.0	4.0
20.0	20.0	19.0	20.0		21.0	23.0		23.0	19.0	23.0	23.0
	10.0		10.0		10.0	7.0		7.0			
28.0		26.0	26.0		26.0	26.0		27.0	30.0		
	25.0	29.0	30.0		30.0	34.0		34.0	34.0		
21.0		20.0	28.0		29.0	23.0		23.0	30.0	23.0	
		25.0	26.0		25.0	32.0		32.0	27.0		33.0
			17.0		17.0	18.0		18.0		16.0	16.0
15.0		15.0	16.0			32.0		33.0	17.0	15.0	
11.0	11.0	13.0	14.0		14.0	11.0		11.0	11.0	14.0	
	27.0	50.0	49.0		48.0	33.0		29.0	31.0	50.0	
32.0	30.0	30.0	32.0		34.0	28.0		29.0			33.0
14.0		12.0	12.0		12.0	14.0		13.0	10.0	14.0	14.0
10.0	10.0	10.0	10.0		10.0	13.0		15.0	14.0	14.0	9.0
	12.0	29.0	27.0		25.0	12.0		12.0		20.0	21.0
	22.0	18.0	18.0			21.0		20.0	19.0	18.0	
28.0		27.0	7.0		7.0	26.0		25.0		7.0	26.0
13.0	17.0	17.0	17.0		25.0	14.0	15.0	15.0	22.0	23.0	15.0
16.0	16.0	23.0	23.0		24.0	13.0		13.0	13.0	13.0	19.0
19.0			9.0		9.0	34.0		34.0	10.0		32.0
	20.0	20.0	20.0		20.0			14.0	20.0		13.0
8.0	2.0	9.0	9.0		13.0	4.0	12.0	4.0	13.0	10.0	3.0
18.0		8.0	8.0		13.0	13.0		13.0	8.0		8.0
8.0	31.0	8.0	32.0		31.0	8.0		8.0		31.0	8.0
26.0	7.0		25.0		26.0	7.0		7.0	27.0		28.0
32.0		33.0	33.0		33.0	35.0		34.0	33.0	31.0	33.0
37.0	38.0	13.0	12.0	30.0	10.0	28.0		31.0	9.0		31.0
	42.0	41.0	34.0		39.0	18.0		22.0	22.0	22.0	
14.0	14.0	10.0	13.0		14.0	12.0		12.0	12.0		14.0
	32.0	39.0	41.0			34.0		34.0	42.0		
16.0	17.0	7.0	7.0		7.0	17.0		17.0	8.0	8.0	
	16.0	30.0	16.0		18.0	32.0		32.0	18.0	17.0	14.0
		34.0	34.0		34.0	30.0		30.0	29.0	25.0	
26.0	26.0	32.0	32.0		29.0	26.0	26.0	26.0	33.0		26.0
16.0		0.0	0.0			19.0		19.0	0.0	19.0	
39.0	32.0		39.0		39.0	33.0		33.0	33.0		41.0
13.0		13.0	13.0		13.0	17.0		17.0	12.0	13.0	12.0
22.0		21.0	22.0		22.0	22.0		36.0	22.0		20.0
		15.0	15.0		15.0	31.0		31.0	15.0	26.0	15.0
10.0	17.0	10.0	10.0		10.0	17.0	10.0	17.0	10.0	10.0	11.0
27.0	38.0	38.0	38.0		29.0	29.0		31.0	31.0		
8.0	8.0	0.0	0.0		0.0	8.0		8.0	8.0		9.0
9.0	9.0	21.0	21.0		22.0	11.0			21.0		21.0
	18.0	0.0	0.0	18.0	0.0	18.0		18.0	0.0		5.0
39.0		37.0	40.0		42.0	43.0		44.0	38.0		43.0
21.0	26.0	11.0	11.0		11.0	25.0		26.0		26.0	10.0
	27.0	42.0	42.0		39.0	27.0		28.0	26.0	45.0	
	9.0	9.0	9.0		9.0	24.0		24.0		24.0	9.0
5.0	5.0	5.0	5.0		5.0	17.0		17.0	5.0	17.0	5.0
8.0	7.0	8.0	8.0		16.0	17.0		17.0	8.0		
13.0	36.0	13.0	19.0			36.0		36.0	17.0	30.0	17.0
8.0			8.0		8.0	16.0		16.0	8.0	14.0	14.0
39.0	14.0	13.0	14.0		8.0	38.0		41.0	8.0	9.0	41.0
5.0	5.0	5.0	5.0		5.0	11.0		11.0		5.0	5.0
14.0	14.0	14.0			14.0	22.0		22.0	13.0		13.0
18.0	16.0		11.0		11.0	16.0		16.0		10.0	16.0
		19.0	21.0		21.0	25.0		24.0	14.0	18.0	
34.0	17.0		23.0		23.0	17.0		17.0	9.0	23.0	23.0
27.0	27.0	26.0	35.0		29.0	13.0		26.0	37.0	37.0	37.0
13.0	13.0	13.0	13.0		13.0	10.0		9.0	12.0		12.0
20.0	18.0	18.0	18.0		18.0	20.0		20.0	16.0		16.0
15.0		15.0	15.0		5.0	5.0		5.0	15.0	5.0	5.0
16.0	16.0	14.0	20.0		14.0	24.0		24.0	19.0	19.0	19.0
0.0	0.0	0.0	0.0		0.0	19.0	19.0	19.0	0.0	0.0	0.0
20.0	17.0	17.0	17.0		17.0	21.0		22.0		19.0	
	19.0	19.0	19.0		20.0	32.0		30.0			19.0
14.0	13.0	0.0	0.0		0.0	13.0		13.0	13.0	0.0	
45.0		44.0	52.0		56.0	46.0		46.0	45.0		
	4.0		18.0		18.0	4.0		4.0	17.0	4.0	17.0
43.0		38.0	44.0		43.0	42.0		40.0	37.0		39.0
26.0	21.0	17.0	33.0		32.0	18.0		18.0	33.0	18.0	
		0.0	0.0		0.0	17.0		17.0	0.0	17.0	
28.0	28.0	20.0	20.0		21.0	28.0		28.0	28.0	27.0	
32.0	32.0	12.0	13.0		13.0	33.0		33.0			32.0
	10.0	10.0	10.0		10.0	20.0		19.0	20.0		9.0
	28.0	36.0	28.0		28.0	36.0		35.0	28.0		39.0
15.0	15.0	14.0	13.0		11.0	16.0		16.0	16.0	14.0	
0.0	0.0	0.0	0.0		0.0	0.0		0.0	0.0		0.0
33.0		11.0	12.0	35.0	11.0	35.0		33.0	12.0	12.0	12.0
	45.0	26.0	28.0		27.0	39.0		42.0	42.0	27.0	
	14.0	21.0	22.0		22.0	16.0		23.0	23.0		24.0
6.0		12.0	13.0		9.0	16.0		17.0		17.0	6.0
	19.0	19.0	19.0		18.0	17.0		16.0	15.0	20.0	
11.0	11.0	5.0	17.0	12.0	19.0	11.0		11.0	19.0		19.0
20.0	15.0	16.0	17.0		17.0	19.0		20.0	17.0		17.0
		11.0	18.0		17.0	11.0		11.0	16.0		11.0
15.0		15.0	15.0		15.0	11.0		11.0	11.0		
	36.0		14.0		14.0	37.0		38.0			14.0
23.0	23.0	9.0	17.0		17.0	23.0		23.0		17.0	34.0
	26.0	20.0	20.0		21.0	25.0		27.0	23.0	22.0	
20.0	14.0	21.0	21.0			14.0		14.0	19.0		
	36.0	35.0	15.0		15.0	35.0		35.0	15.0		15.0
	5.0	5.0	5.0		5.0	17.0		16.0	17.0		
31.0	27.0	29.0	37.0		37.0	31.0		35.0	37.0	37.0	37.0
41.0	41.0		41.0		44.0	14.0		13.0	35.0	43.0	
15.0	26.0	15.0	31.0		31.0	15.0		15.0	15.0		
14.0	14.0	21.0	21.0	12.0	22.0	12.0		12.0	22.0	12.0	23.0
30.0	31.0	32.0	32.0	15.0	32.0	0.0		10.0	35.0		10.0
10.0	10.0	26.0	27.0	11.0	26.0	11.0		11.0	26.0		11.0
17.0	4.0	17.0	4.0		4.0	18.0		18.0		4.0	
	18.0	33.0	18.0		18.0	32.0		33.0	17.0	21.0	26.0
		11.0	11.0		11.0	15.0		15.0	15.0		15.0
13.0	0.0	0.0	0.0		0.0	14.0		14.0	0.0	14.0	
	8.0	20.0	20.0		19.0	8.0		8.0	20.0		22.0
	18.0	14.0	24.0		25.0	21.0		21.0	19.0		
		45.0	46.0		46.0	56.0		52.0	44.0		45.0
15.0		15.0	35.0		35.0	15.0		15.0	35.0	36.0	
	10.0	11.0	11.0		11.0	6.0			11.0	11.0	
	27.0	28.0	28.0		28.0	21.0		20.0	20.0	28.0	28.0
29.0	25.0	33.0	26.0		33.0	26.0		27.0	33.0		34.0
20.0	20.0	20.0	9.0		10.0	18.0		17.0		10.0	16.0
9.0		20.0	19.0		20.0	10.0		10.0	10.0	10.0	
	14.0	16.0	16.0		16.0	11.0		13.0	14.0	15.0	15.0
16.0	11.0	11.0	11.0	16.0	11.0	16.0		16.0	11.0	16.0	
	14.0	18.0	18.0		18.0	13.0		13.0	19.0	13.0	
19.0	17.0	17.0	17.0		15.0	17.0		17.0		15.0	
		27.0	29.0			34.0		34.0	31.0	30.0	
5.0	4.0	10.0	9.0		9.0	5.0		5.0		5.0	8.0
		44.0	20.0		21.0	41.0		41.0	18.0	18.0	41.0
7.0	9.0	9.0	10.0		10.0	9.0		9.0		9.0	10.0
11.0		16.0	11.0		11.0	17.0		18.0	11.0		
37.0	37.0	37.0	26.0		13.0	29.0		35.0	26.0	27.0	27.0
8.0		8.0	7.0		8.0	19.0		8.0	8.0	19.0	
		20.0	20.0		20.0	27.0		26.0	18.0	19.0	
34.0	8.0		9.0		9.0	34.0		36.0	9.0		9.0
9.0		8.0	8.0		8.0	0.0		0.0	0.0	8.0	8.0
16.0	0.0	16.0	16.0		16.0	0.0	14.0	0.0	14.0		14.0
19.0	25.0	25.0	25.0		25.0			22.0	24.0	26.0	26.0
16.0	10.0		17.0		18.0	10.0		9.0	20.0	20.0	20.0
	5.0	5.0	5.0		9.0	0.0		0.0	9.0	13.0	
36.0		36.0	36.0		36.0	25.0		21.0		13.0	
39.0		28.0	35.0		36.0	28.0		28.0	36.0	28.0	
		17.0	16.0		17.0	5.0		5.0	5.0	5.0	
19.0		18.0			17.0	22.0		22.0	15.0		15.0
31.0			28.0		28.0	13.0		13.0	28.0		28.0
		12.0	12.0			20.0		16.0	10.0	17.0	17.0
44.0	44.0	4.0	4.0	43.0	4.0	42.0		43.0	0.0	37.0	
28.0	11.0	10.0	10.0		10.0	30.0	10.0	29.0	8.0	8.0	32.0
	0.0	13.0	13.0		13.0	0.0		0.0	0.0	13.0	14.0
41.0	18.0	18.0	41.0		41.0	21.0		20.0	44.0		
	20.0	15.0	16.0		17.0	18.0		19.0	19.0	19.0	
16.0	10.0		16.0		16.0	11.0		11.0		16.0	18.0
20.0	16.0	20.0	21.0		15.0	15.0			14.0	14.0	14.0
31.0	31.0	6.0	7.0		7.0	31.0		31.0	7.0	29.0	7.0
41.0		33.0	33.0		33.0	39.0		39.0		32.0	39.0
		31.0	31.0		29.0	29.0		38.0	38.0	38.0	27.0
	17.0	0.0	17.0		17.0	0.0		0.0	0.0		
18.0		18.0	18.0	21.0	21.0	44.0		44.0	20.0	44.0	
14.0			38.0		37.0	14.0		14.0		36.0	
	17.0	20.0	19.0		20.0			17.0	20.0	17.0	
5.0	5.0	6.0	5.0		5.0	6.0		6.0	5.0	5.0	
	10.0	10.0	10.0			0.0		0.0	11.0	11.0	11.0
	7.0	12.0	7.0		7.0	8.0		8.0	6.0	7.0	8.0
0.0	14.0	14.0	14.0		14.0	0.0		0.0	0.0	14.0	14.0
11.0		26.0	27.0			12.0		12.0	27.0		12.0
8.0	6.0	8.0	7.0		7.0	7.0		7.0		9.0	7.0
64.0	36.0	36.0	41.0		37.0	67.0		67.0	37.0	68.0	36.0
6.0	4.0	6.0	6.0		6.0	4.0		4.0	6.0	5.0	6.0
0.0	17.0	17.0	17.0		17.0	0.0		0.0	0.0		0.0
18.0	19.0	26.0	22.0		24.0	25.0		25.0	24.0		
20.0	36.0	36.0	36.0		36.0	20.0					41.0
22.0		43.0	46.0		47.0	24.0		25.0	25.0	44.0	43.0
	8.0	10.0	11.0		11.0	8.0		8.0	11.0	8.0	
0.0		0.0	0.0		0.0	17.0		18.0	17.0		0.0
0.0		0.0	0.0		0.0	22.0		22.0	22.0	22.0	20.0
13.0	13.0	5.0	5.0		5.0	13.0		7.0	7.0	5.0	
	23.0		10.0		9.0	23.0		22.0	10.0		
		40.0	42.0		42.0	11.0		12.0	12.0		42.0
7.0	9.0		7.0		7.0	7.0		7.0	8.0	6.0	8.0
35.0		8.0	9.0		9.0	31.0		29.0	29.0	12.0	12.0
		17.0	18.0		18.0	17.0		15.0	17.0		16.0
16.0	17.0	6.0	6.0		6.0	17.0		17.0	17.0	6.0	14.0
		35.0	20.0		18.0	30.0		38.0	27.0		33.0
5.0	5.0	4.0	4.0		8.0	6.0	8.0	6.0	8.0	6.0	5.0
		51.0	55.0		57.0	57.0		40.0	51.0		
7.0	30.0	7.0	30.0		28.0	7.0		7.0	7.0	7.0	
18.0	18.0	26.0	25.0		26.0	21.0		21.0	25.0	25.0	25.0
20.0		20.0	22.0		18.0	25.0		25.0	24.0	25.0	25.0
9.0	9.0		13.0		15.0	9.0		9.0	15.0	9.0	15.0
29.0	29.0	22.0			23.0	32.0		32.0	23.0		33.0
	31.0	25.0	25.0		28.0	31.0		31.0	30.0		
16.0		17.0	15.0		17.0	18.0		18.0	17.0		
	21.0	21.0	22.0		23.0	26.0		25.0	24.0	24.0	
		0.0	0.0		0.0	17.0		17.0	17.0	17.0	0.0
4.0	4.0	10.0	10.0		11.0	7.0		7.0	11.0	7.0	7.0
6.0	6.0	15.0	15.0		14.0	6.0		6.0		6.0	10.0
		52.0	50.0		47.0	38.0		38.0	41.0	41.0	51.0
	29.0	28.0	29.0		25.0	27.0		27.0	27.0	24.0	
		27.0	26.0		27.0			36.0	27.0		
		31.0	31.0			44.0		47.0	31.0		45.0
	27.0	13.0	13.0		13.0	26.0	13.0	27.0	12.0	12.0	12.0
	27.0	25.0	21.0	22.0	25.0	23.0		23.0	25.0		24.0
54.0		51.0	46.0			22.0		22.0	48.0		
37.0	37.0		10.0		12.0	40.0		40.0	12.0	12.0	
	12.0	23.0	23.0		23.0	12.0		10.0	20.0	19.0	10.0
14.0		14.0	14.0			10.0		10.0	14.0		14.0
24.0		24.0			25.0	19.0		19.0	23.0	27.0	20.0
	12.0	11.0	11.0		11.0	12.0		12.0	9.0		11.0
5.0		6.0	6.0		6.0	15.0	9.0	13.0	9.0	13.0	13.0
34.0		34.0	44.0		45.0	36.0		36.0		41.0	34.0
33.0		27.0	38.0		30.0	18.0		20.0	35.0		
39.0			24.0		24.0	41.0		41.0	36.0		41.0
29.0	12.0	29.0	29.0			12.0		12.0	39.0		12.0
		10.0	10.0		10.0	10.0		24.0	4.0	24.0	10.0
	18.0		18.0		18.0	24.0		24.0	18.0	24.0	23.0
		21.0	22.0		22.0	41.0		37.0		35.0	
25.0	25.0	24.0	25.0		25.0	18.0		22.0	20.0		20.0
10.0	27.0	10.0	10.0		10.0	28.0		26.0	29.0	27.0	10.0
0.0			8.0		8.0	4.0		4.0	8.0		4.0
0.0	0.0	21.0	0.0		0.0	21.0		20.0	0.0	0.0	21.0
	29.0	48.0	49.0			30.0		31.0	48.0	32.0	
0.0	17.0	17.0	17.0		17.0	0.0		0.0	0.0		
17.0			19.0		25.0	17.0		17.0		27.0	17.0
		16.0	16.0		15.0			13.0	11.0	14.0	11.0
16.0	21.0	15.0	23.0		23.0	26.0		25.0	22.0	22.0	21.0
	38.0	38.0	38.0		38.0	36.0		36.0	36.0	35.0	35.0
		23.0	23.0	39.0	22.0	39.0		40.0	22.0	35.0	37.0
14.0		14.0	14.0		14.0	11.0		12.0	14.0	13.0	13.0
20.0	0.0	20.0	0.0		0.0	21.0		21.0	0.0		0.0
21.0		21.0	28.0		27.0	24.0		25.0	28.0	25.0	34.0
7.0		7.0	7.0		8.0	8.0		8.0	8.0		8.0
20.0	20.0	48.0	48.0		48.0	16.0		12.0	12.0	12.0	12.0
		24.0	25.0		25.0	24.0		22.0	26.0	19.0	18.0
13.0		27.0	27.0			14.0		16.0	20.0		19.0
19.0	19.0		19.0		19.0	19.0		19.0			
43.0	44.0	25.0	25.0		24.0	47.0		46.0	43.0		22.0
		9.0	9.0		9.0	23.0		23.0	9.0		
19.0	19.0	19.0	7.0		7.0	19.0		19.0	7.0	18.0	18.0
47.0	46.0	46.0	42.0		50.0	34.0		35.0	48.0		34.0
33.0		32.0	20.0		18.0	25.0		28.0	16.0		
16.0	25.0	16.0	16.0		16.0	27.0		27.0	16.0		27.0
	16.0	16.0	16.0		16.0	11.0		8.0			
	18.0	11.0	11.0		11.0	18.0		17.0	11.0	17.0	11.0
	24.0	24.0	24.0		23.0	34.0		34.0		23.0	
23.0	24.0	18.0	24.0		24.0	18.0		18.0		18.0	
10.0	27.0	29.0	26.0		28.0	10.0		10.0	10.0	27.0	10.0
15.0	9.0	15.0	9.0		9.0	15.0		13.0		9.0	9.0
	13.0	16.0	16.0			17.0		17.0	15.0		
	24.0	24.0	25.0		26.0	23.0		22.0	21.0	21.0	
39.0		16.0	17.0		17.0	39.0		44.0		19.0	
17.0	27.0		17.0		17.0	25.0		19.0			17.0
12.0	12.0		17.0		17.0	12.0		11.0			17.0
21.0		21.0	21.0		22.0	19.0		18.0	22.0		18.0
40.0		34.0	35.0		34.0	37.0		34.0	28.0		26.0
34.0	25.0	28.0	25.0		24.0	27.0		28.0	21.0		21.0
			19.0		19.0	19.0		19.0		19.0	19.0
34.0	41.0		36.0		36.0	45.0		44.0	34.0		34.0
18.0	18.0	7.0	19.0		19.0	7.0		7.0	19.0	19.0	19.0
8.0		8.0	8.0		7.0	11.0		11.0		11.0	8.0
17.0		17.0	17.0		17.0	6.0		12.0	16.0		
12.0	12.0	29.0	29.0		31.0	9.0		9.0	8.0		35.0
11.0		9.0	12.0		12.0	11.0		11.0	11.0	12.0	
13.0		18.0	19.0		19.0	14.0		14.0	14.0		13.0
10.0	15.0	10.0	10.0		10.0	10.0		14.0	10.0	10.0	15.0
21.0	0.0	0.0	20.0		21.0	0.0		0.0	21.0	0.0	0.0
17.0		17.0	17.0		7.0	11.0		22.0	16.0		17.0
	8.0	20.0	20.0		16.0	7.0		8.0	8.0	13.0	
	24.0	27.0	27.0		27.0	25.0		29.0	28.0	29.0	
19.0	19.0	19.0	19.0		16.0	17.0		15.0	16.0	15.0	16.0
	0.0		14.0		12.0	0.0		0.0	14.0		0.0
28.0	28.0	28.0	21.0		14.0	28.0		22.0	22.0		19.0
18.0	18.0	29.0	28.0		29.0	17.0		17.0	26.0	25.0	26.0
16.0		16.0	16.0		16.0	14.0		14.0			13.0
	23.0	11.0	11.0		11.0	22.0		23.0			
13.0		13.0	44.0		44.0	12.0		12.0	44.0	12.0	44.0
	12.0	14.0	14.0		14.0	12.0		12.0		16.0	16.0
17.0			11.0		12.0	17.0		17.0		12.0	12.0
10.0	10.0	10.0	10.0		6.0	27.0		48.0	10.0		10.0
19.0		22.0	22.0		28.0	14.0		21.0	28.0	28.0	28.0
14.0	32.0	14.0	32.0		32.0	14.0		14.0	14.0		32.0
12.0	12.0	0.0	12.0		11.0	0.0		0.0	10.0		10.0
8.0	13.0	8.0	8.0		6.0	13.0		13.0	5.0	5.0	4.0
10.0	10.0	10.0	10.0		9.0	11.0		10.0	9.0		
		9.0	10.0		11.0	9.0		10.0	10.0	10.0	10.0
0.0		17.0	18.0		17.0	0.0		0.0	0.0		0.0
12.0	12.0	12.0	12.0		16.0	48.0		48.0	48.0	20.0	20.0
	10.0	10.0	8.0			35.0		33.0	14.0		11.0
	5.0	0.0	0.0	0.0	0.0	4.0		6.0	0.0	6.0	6.0
13.0		14.0	14.0		14.0	19.0		19.0	18.0		13.0
			27.0		24.0	25.0		25.0	27.0	27.0	
25.0	34.0	26.0	27.0		35.0	35.0		35.0	25.0	36.0	25.0
8.0	7.0	6.0	8.0		8.0	7.0		7.0	12.0	7.0	
0.0	6.0		0.0		4.0	7.0		7.0	7.0	5.0	4.0
	18.0	13.0	13.0		13.0	23.0			14.0	14.0	15.0
14.0	14.0	0.0	0.0		0.0	14.0		14.0	14.0	14.0	0.0
20.0	20.0	20.0	20.0		20.0	23.0			21.0		25.0
0.0		0.0	21.0		21.0	0.0		0.0	20.0	0.0	20.0
20.0	22.0	22.0	22.0		22.0	0.0		0.0	0.0		0.0
16.0		15.0	15.0		15.0	20.0		24.0	15.0	16.0	
	5.0	7.0	7.0		13.0	5.0		5.0	5.0	13.0	13.0
	13.0	12.0	13.0		14.0	16.0		16.0		16.0	16.0
15.0	10.0	10.0	10.0		11.0			15.0	12.0	15.0	12.0
0.0		0.0	0.0		0.0	17.0		17.0	17.0	17.0	0.0
	5.0	5.0	6.0		6.0	5.0		5.0	6.0	5.0	5.0
	12.0	12.0	12.0			14.0		14.0	14.0	14.0	
		16.0	28.0		25.0	18.0		20.0	32.0		33.0
26.0	25.0	26.0	26.0		26.0	25.0	22.0	26.0	23.0	23.0	24.0
	23.0	21.0	21.0		23.0			18.0	24.0		26.0
10.0		10.0	0.0		0.0	11.0		12.0	0.0	12.0	12.0
	7.0	7.0	7.0		7.0	28.0		30.0	7.0	30.0	7.0
42.0		12.0	12.0		11.0	42.0		42.0	40.0		
5.0	5.0	12.0	12.0	5.0	12.0	5.0		5.0	12.0	12.0	
44.0	12.0	44.0	12.0		12.0	44.0		44.0	13.0		13.0
33.0	38.0	32.0	32.0		36.0	38.0		37.0		34.0	
5.0	23.0	5.0	5.0		5.0	24.0		25.0			
35.0	35.0	36.0	36.0		36.0	38.0		38.0	38.0	38.0	
32.0		14.0	14.0		14.0	32.0		32.0	14.0	32.0	14.0
19.0		12.0	12.0		12.0	18.0		17.0	12.0		12.0
32.0		31.0	32.0		32.0	9.0		9.0	33.0		34.0
10.0	10.0	15.0	10.0		14.0	10.0		10.0	11.0	11.0	11.0
14.0	6.0	17.0	17.0		17.0	6.0		6.0	6.0	17.0	16.0
5.0	5.0	9.0	9.0			6.0		6.0	4.0		4.0
	13.0	11.0	11.0		11.0	13.0		13.0	11.0	13.0	11.0
	0.0		0.0		5.0	17.0		13.0	8.0	8.0	
25.0		25.0	24.0		36.0	36.0		36.0	20.0		37.0
27.0	41.0	41.0	40.0		41.0	23.0		23.0	45.0	45.0	
			8.0		11.0	16.0		16.0	16.0	16.0	
7.0	7.0	7.0	7.0	0.0	7.0	0.0		0.0	7.0	7.0	7.0
9.0	0.0	0.0	0.0		0.0	10.0		10.0		0.0	0.0
	13.0	8.0	8.0		7.0	16.0		20.0	20.0	8.0	
4.0	5.0	7.0	7.0		7.0	4.0		0.0		6.0	0.0
8.0	8.0	20.0	20.0		20.0	8.0		8.0		8.0	22.0
17.0		19.0	19.0	18.0	19.0	3.0		5.0	19.0		19.0
	16.0		4.0		4.0	16.0		16.0	4.0		4.0
29.0	29.0	24.0	24.0		24.0	30.0		30.0	30.0		24.0
24.0	27.0	24.0	23.0		24.0	28.0		24.0	25.0	23.0	
	29.0	29.0			29.0	6.0		6.0	29.0		
			16.0		16.0	11.0		11.0	16.0		16.0
		0.0	0.0		10.0	10.0		10.0	10.0		
	23.0	25.0	24.0		28.0	24.0		23.0	24.0	27.0	24.0
16.0	20.0	19.0	19.0		19.0	15.0		15.0	17.0	15.0	15.0
14.0	14.0		6.0		6.0	14.0		14.0	14.0		
23.0		40.0	40.0		41.0	24.0		24.0	24.0	23.0	
		10.0	10.0		10.0	10.0		0.0	0.0		
	33.0	32.0			31.0	31.0		30.0	31.0		31.0
24.0		30.0	30.0		30.0	24.0		24.0	24.0	29.0	29.0
	46.0	46.0	47.0		48.0	43.0		42.0		51.0	
15.0		14.0	15.0		15.0	42.0		43.0		15.0	
	24.0		24.0		24.0	13.0		13.0	24.0		12.0
		14.0	14.0		14.0	6.0		6.0		14.0	14.0
	23.0	24.0	24.0		24.0	41.0		40.0	40.0		23.0
59.0		59.0	55.0		58.0	18.0		16.0	17.0	60.0	61.0
12.0	27.0	12.0	10.0		12.0	28.0		32.0	16.0	16.0	
		0.0	0.0		0.0	0.0		0.0	0.0	0.0	0.0
	7.0	4.0	4.0			8.0		8.0	4.0		
29.0	29.0	30.0	30.0		31.0	17.0		17.0	17.0	17.0	
	18.0	15.0	15.0		13.0	19.0		19.0	14.0		14.0
27.0		28.0	28.0		28.0	35.0		35.0	27.0		
			13.0		12.0	21.0		21.0	13.0		21.0
23.0	23.0	15.0	15.0		14.0	24.0		24.0	24.0		13.0
0.0	0.0	18.0	18.0		14.0	0.0		14.0	20.0		19.0
		21.0	39.0		39.0	21.0		21.0	38.0		
22.0	20.0		22.0		22.0	20.0		20.0	22.0	20.0	
24.0		24.0	24.0		24.0	9.0		9.0	9.0	9.0	24.0
	9.0	9.0	9.0		9.0	15.0		14.0	14.0		14.0
34.0	34.0	34.0	23.0		36.0	27.0		27.0	37.0	38.0	27.0
10.0	10.0	0.0	0.0		0.0	10.0		9.0	0.0		
14.0		14.0	14.0		15.0	9.0		9.0	9.0	9.0	
		9.0	9.0		9.0	24.0		24.0	24.0		
	7.0	7.0	20.0		20.0	7.0		7.0	20.0	20.0	20.0
0.0	5.0	0.0	0.0		0.0	5.0			0.0	4.0	
		24.0	24.0		24.0	9.0		9.0	9.0		
	16.0	37.0	37.0		37.0	18.0		18.0	20.0		38.0
	22.0	10.0	10.0		14.0	22.0	14.0	22.0	17.0	17.0	17.0
16.0	13.0	16.0	16.0		16.0	13.0		12.0	12.0	14.0	14.0
44.0		44.0	44.0		44.0	25.0		37.0	36.0	34.0	44.0
		22.0	22.0		22.0	14.0		13.0	13.0	14.0	14.0
	18.0		18.0		18.0	31.0		30.0	33.0		20.0
		35.0	28.0		35.0	28.0		28.0		35.0	30.0
23.0	9.0	22.0	23.0	23.0	23.0	10.0		10.0	16.0		10.0
19.0		9.0	9.0		9.0	21.0		21.0	9.0		22.0
	14.0	23.0	21.0		24.0	15.0		14.0		24.0	
10.0		16.0	16.0		16.0	10.0		11.0	11.0	16.0	10.0
17.0	17.0	17.0	16.0		15.0	14.0		15.0	18.0	18.0	18.0
			22.0		20.0	22.0		23.0			20.0
19.0	6.0	20.0	19.0		17.0	7.0	17.0	7.0	17.0		7.0
		22.0	22.0			50.0		47.0	20.0		20.0
	0.0	0.0	0.0		0.0	13.0		13.0	0.0	6.0	0.0
23.0	30.0	31.0	27.0		27.0	19.0		20.0	18.0		
35.0	12.0	12.0	10.0		12.0			33.0	12.0		
19.0	18.0	14.0	14.0		15.0	19.0		19.0		15.0	15.0
33.0	18.0		18.0		18.0	32.0		32.0	16.0		31.0
20.0	19.0		21.0		21.0	18.0		18.0		21.0	
20.0		33.0	30.0		31.0	18.0		18.0		18.0	
14.0	14.0	12.0	12.0		13.0	16.0		16.0	16.0	13.0	16.0
		18.0	20.0		19.0	27.0		27.0	31.0	30.0	23.0
17.0	39.0	11.0	39.0		40.0	11.0		11.0	11.0	11.0	
16.0	17.0	17.0	27.0		27.0	8.0		9.0	9.0	28.0	28.0
31.0		32.0	33.0		33.0	6.0		6.0	6.0	33.0	32.0
12.0		12.0	12.0		16.0	7.0	16.0	8.0	16.0		16.0
17.0	17.0	17.0	17.0		16.0	16.0		14.0	15.0		15.0
28.0	28.0	9.0	9.0		8.0	27.0		27.0	17.0	17.0	16.0
	40.0		22.0		23.0	44.0		45.0	46.0	24.0	46.0
	26.0	27.0	27.0		26.0	18.0		18.0	22.0	18.0	
28.0	29.0	9.0	12.0		12.0	29.0		29.0	29.0		
32.0	33.0	6.0	6.0		6.0	33.0		33.0	32.0		31.0
3.0	31.0	31.0	31.0		25.0	25.0		25.0	25.0		25.0
11.0	11.0	39.0	11.0		11.0	35.0		35.0		9.0	35.0
15.0		14.0	13.0		14.0	39.0	16.0	38.0	16.0	38.0	38.0
28.0	14.0		30.0		30.0	13.0		14.0			14.0
15.0	15.0	17.0	17.0		17.0	21.0		21.0	19.0		19.0
21.0	21.0	13.0	13.0		13.0			20.0	14.0	21.0	14.0
20.0		42.0	42.0		33.0	17.0		22.0			
21.0		24.0	30.0		30.0	18.0		20.0	30.0	20.0	30.0
14.0	14.0	14.0	14.0		14.0	14.0		27.0	14.0	26.0	
12.0	12.0		21.0		21.0	12.0		12.0		21.0	21.0
19.0	26.0	25.0	26.0		25.0	17.0		19.0	28.0	28.0	
8.0	8.0	26.0	26.0		27.0	8.0		8.0	8.0		27.0
14.0		14.0	14.0		14.0	23.0		23.0			23.0
24.0			34.0		34.0	24.0		24.0		33.0	
	32.0	32.0	32.0		32.0	32.0		21.0	31.0	32.0	32.0
	18.0	22.0	18.0		18.0	26.0		27.0	27.0	26.0	
		29.0	29.0		29.0	12.0		12.0	9.0	29.0	28.0
16.0	10.0	16.0	16.0	10.0	16.0	10.0		10.0	16.0	9.0	16.0
7.0		24.0	24.0		24.0	24.0		25.0	25.0		25.0
	16.0	17.0	17.0		17.0	16.0		16.0		17.0	17.0
	33.0		24.0		24.0	34.0		34.0			24.0
23.0	21.0	23.0	23.0		23.0	27.0		29.0	30.0	29.0	29.0
68.0		68.0	68.0		67.0	19.0		18.0	18.0		66.0
	7.0	11.0	11.0		11.0	27.0		28.0	11.0	28.0	
36.0		35.0	36.0		26.0	34.0		35.0	39.0		35.0
33.0	40.0	39.0	40.0		39.0	33.0		33.0			33.0
18.0	18.0	18.0	18.0		19.0	19.0		5.0	17.0		5.0
15.0	15.0	37.0	37.0		38.0	35.0		15.0	35.0		
		27.0	27.0		28.0	34.0		23.0	33.0		26.0
7.0	7.0	7.0	7.0		7.0	15.0		4.0	6.0		9.0
	5.0		0.0		0.0	0.0		0.0	0.0		0.0
	6.0	21.0	21.0		22.0	6.0		6.0		22.0	22.0
34.0	18.0		34.0		35.0	19.0		15.0		15.0	
21.0	21.0		12.0		12.0	21.0		21.0		12.0	12.0
15.0		46.0	46.0		46.0	16.0		16.0	15.0		17.0
	10.0		10.0		10.0	13.0		13.0	10.0	10.0	13.0
			22.0		17.0	33.0		42.0	42.0		20.0
21.0		24.0	25.0		30.0	9.0		9.0	9.0	30.0	9.0
10.0	9.0	10.0	10.0		10.0	9.0	10.0	8.0	10.0		10.0
		17.0	17.0		17.0	18.0		18.0	17.0	15.0	14.0
6.0	25.0	25.0	25.0		6.0	6.0		6.0	26.0		7.0
	11.0	11.0	11.0		11.0	40.0		39.0	11.0	39.0	17.0
29.0	16.0	16.0	20.0		20.0	26.0		25.0	19.0	27.0	27.0
	26.0	28.0	29.0	28.0	29.0	28.0		28.0	28.0	28.0	29.0
	15.0		20.0		20.0	14.0		13.0	20.0	21.0	21.0
37.0		25.0	25.0		25.0	41.0		38.0			
	19.0	19.0	18.0		19.0	19.0		26.0	19.0	20.0	20.0
28.0	22.0	22.0	19.0	29.0	22.0	29.0		27.0	22.0	27.0	
4.0	4.0	4.0	4.0		4.0	8.0	4.0	12.0	4.0	7.0	12.0
22.0		22.0	22.0		22.0	17.0		16.0	14.0	13.0	17.0
7.0	6.0	7.0	7.0		10.0	0.0		0.0	10.0		0.0
15.0		14.0	15.0		15.0	9.0		9.0		14.0	15.0
13.0	5.0	5.0	5.0		5.0	13.0		13.0		13.0	5.0
15.0	14.0	14.0	13.0		14.0	22.0		22.0		14.0	14.0
21.0	21.0	32.0	33.0	22.0	32.0	22.0		22.0	33.0	22.0	34.0
20.0	20.0	20.0	7.0		7.0	20.0		20.0	7.0	7.0	
37.0		20.0	20.0		20.0	38.0		37.0	22.0	35.0	
	13.0	0.0	0.0		0.0	17.0		17.0	0.0	17.0	0.0
	21.0		21.0		21.0	19.0		16.0	23.0	18.0	0.0
10.0	10.0	12.0	12.0		12.0	10.0		10.0	10.0	10.0	10.0
10.0	32.0	11.0	11.0		11.0	32.0			11.0	11.0	12.0
		17.0	16.0		16.0	17.0		17.0	17.0	17.0	
15.0		36.0	15.0		15.0	31.0		30.0	13.0		29.0
4.0	4.0	0.0	0.0		0.0	4.0		4.0	0.0		
0.0		9.0	9.0		8.0	8.0		0.0	8.0		8.0
29.0		38.0	36.0		36.0	21.0		22.0	33.0		21.0
5.0	5.0	9.0	9.0		9.0	9.0	9.0	9.0	10.0		10.0
44.0	34.0	36.0	37.0		25.0	44.0		44.0	44.0		44.0
			7.0		7.0	15.0		15.0	7.0		15.0
12.0	12.0	15.0	15.0		15.0	12.0		12.0	15.0	12.0	16.0
	0.0	0.0	0.0		0.0	9.0			0.0	0.0	
25.0	25.0		26.0		25.0	12.0		12.0	17.0		12.0
0.0	18.0	23.0	16.0		19.0	21.0		21.0		21.0	
38.0		20.0	18.0		18.0	37.0		37.0	37.0	16.0	
	0.0	18.0	15.0		15.0	4.0	4.0	4.0	15.0	15.0	15.0
41.0		36.0	36.0		37.0	38.0		37.0	37.0	37.0	40.0
	20.0	22.0	20.0		20.0	22.0		22.0		20.0	22.0
17.0	17.0	17.0	17.0		19.0	24.0		24.0	20.0	24.0	14.0
11.0	19.0	38.0	39.0			19.0		19.0	37.0		35.0
23.0	21.0	26.0	26.0	22.0	22.0	17.0		13.0	20.0	13.0	13.0
4.0	4.0	0.0	4.0		4.0	0.0		0.0	4.0	0.0	0.0
	11.0	14.0	14.0		14.0	13.0		13.0			13.0
	12.0	12.0	12.0		12.0	45.0		45.0	47.0	11.0	
40.0	37.0	37.0	37.0		38.0	37.0		36.0	36.0		41.0
17.0	12.0	8.0	8.0		8.0	12.0		10.0	8.0	8.0	8.0
		4.0	4.0		4.0	10.0		11.0	4.0	11.0	
10.0	29.0	10.0	10.0		10.0	30.0		30.0	30.0		10.0
12.0	12.0	14.0			14.0	12.0		12.0	11.0		
	11.0		28.0		30.0	12.0		12.0	29.0		
10.0		30.0	30.0		30.0	10.0		10.0	10.0	29.0	10.0
29.0		13.0	30.0		31.0	15.0		15.0	36.0		15.0
			26.0		26.0	18.0		18.0	18.0		
		26.0	26.0		26.0	22.0	23.0	22.0	26.0		26.0
10.0	16.0	11.0	11.0		10.0	16.0		16.0	16.0		10.0
14.0		14.0	14.0		14.0	7.0		8.0		8.0	9.0
20.0			23.0		22.0	20.0		22.0			
13.0	7.0		7.0		7.0	15.0		14.0	7.0	7.0	14.0
		18.0	18.0		18.0	26.0		26.0			
0.0	0.0	4.0	0.0		0.0	4.0		4.0	0.0	4.0	4.0
13.0		24.0	24.0		24.0	14.0		15.0	15.0	23.0	23.0
	21.0		18.0		18.0	21.0		21.0		19.0	20.0
15.0		15.0	14.0		16.0	16.0		17.0	17.0	17.0	17.0
	11.0	47.0	45.0		45.0	12.0		12.0	12.0	12.0	
15.0	15.0	37.0	36.0	15.0	39.0	17.0		18.0	39.0	37.0	18.0
46.0	24.0	46.0	45.0		44.0	23.0		22.0		40.0	
17.0	17.0	37.0	35.0		37.0	17.0		17.0	38.0		17.0
			30.0		30.0	16.0		15.0	32.0		
17.0		16.0	16.0		16.0	17.0		18.0			17.0
	18.0	13.0	13.0		12.0	20.0		19.0	14.0	20.0	
20.0	4.0	4.0	4.0		0.0	17.0		19.0	0.0		0.0
24.0	9.0	9.0	9.0		9.0	24.0		24.0	24.0		24.0
8.0	6.0	6.0	5.0		6.0	8.0		8.0	5.0		5.0
14.0	15.0	15.0	15.0		15.0	13.0		13.0	16.0	17.0	16.0
17.0		15.0	16.0		16.0	46.0		46.0	46.0		15.0
30.0	20.0	30.0	20.0		18.0	30.0		30.0	24.0		21.0
17.0			18.0		17.0	16.0		16.0	16.0		17.0
6.0	9.0	10.0	10.0	7.0	10.0	7.0		7.0	5.0	7.0	6.0
35.0	9.0		35.0		35.0	11.0		11.0	39.0	11.0	11.0
	14.0	39.0	38.0			13.0		13.0	31.0	31.0	
9.0		6.0	4.0		15.0	7.0		7.0	7.0	7.0	7.0
23.0	19.0	23.0	24.0		23.0	19.0		18.0		19.0	19.0
27.0	13.0	13.0	13.0		12.0	32.0		31.0	12.0	15.0	32.0
14.0			14.0		13.0	30.0		30.0		14.0	28.0
14.0	14.0	13.0	13.0		14.0	22.0		22.0	22.0		
27.0		8.0	8.0		8.0	27.0		26.0	26.0	8.0	8.0
9.0	30.0	9.0	9.0		9.0	30.0		25.0	24.0		21.0
22.0		22.0	22.0		22.0	37.0		22.0	22.0		
66.0		18.0	18.0		19.0	67.0		68.0	68.0		68.0
15.0		6.0	6.0	15.0	5.0	15.0		14.0	5.0		6.0
	17.0	17.0	17.0		17.0	31.0		30.0	30.0	29.0	29.0
25.0		25.0	25.0		24.0	24.0		24.0	24.0		7.0
		38.0	21.0		21.0	39.0		39.0	21.0		
13.0	10.0	10.0	13.0		13.0	10.0		10.0		10.0	
4.0	4.0	0.0	0.0	4.0	0.0	4.0		4.0	0.0	0.0	0.0
4.0	4.0	0.0	0.0		0.0	4.0		4.0	0.0	5.0	0.0
29.0	29.0	30.0	29.0		27.0	23.0		23.0	23.0	21.0	23.0
	18.0	19.0	19.0		18.0	13.0		14.0	19.0		15.0
14.0	15.0	17.0	18.0		18.0	17.0		17.0	17.0		
0.0		6.0	6.0		6.0	0.0		0.0	6.0	6.0	6.0
61.0	60.0	17.0	16.0		18.0	58.0		55.0	59.0		59.0
0.0	0.0	0.0	0.0		0.0	0.0		0.0	0.0		
9.0		9.0	9.0		8.0	13.0		14.0		8.0	
	35.0	22.0	37.0		38.0	20.0		20.0	20.0		37.0
		26.0	26.0		25.0	17.0		17.0	17.0	17.0	
26.0		33.0	23.0		34.0	28.0		27.0	27.0		
14.0	13.0	15.0	15.0		15.0	13.0		16.0	16.0	16.0	
10.0	10.0	10.0	10.0		10.0	12.0		12.0	12.0	10.0	10.0
	15.0		15.0		19.0	35.0		34.0		18.0	34.0
14.0	16.0	16.0	16.0		16.0	14.0		13.0		13.0	13.0
17.0	9.0	17.0			17.0	9.0		9.0	10.0	9.0	10.0
		16.0	16.0			26.0		28.0	15.0		
	12.0	20.0	19.0	13.0	18.0	13.0		13.0	19.0		
	36.0	36.0	36.0		36.0	22.0		22.0			
30.0		30.0	26.0		26.0	31.0		31.0	23.0	24.0	24.0
		5.0	5.0		6.0	25.0			6.0	6.0	
14.0		14.0	14.0		9.0	9.0		9.0	14.0	9.0	7.0
	12.0	26.0	26.0			11.0		11.0	25.0		26.0
14.0	14.0	19.0	29.0		29.0	15.0		15.0	22.0	11.0	
		10.0	10.0		10.0	27.0		27.0			8.0
10.0	10.0	10.0	10.0		10.0	15.0		10.0	10.0	12.0	12.0
52.0	54.0	54.0	56.0		57.0	20.0		20.0		20.0	21.0
8.0			27.0		27.0	10.0		10.0	10.0		
24.0		24.0			25.0	18.0		18.0	25.0		
		4.0	0.0		0.0	17.0		17.0	0.0		0.0
5.0	17.0	5.0	18.0		18.0	5.0		5.0	15.0		
16.0	32.0	16.0	16.0		16.0	31.0		28.0		16.0	
34.0		34.0	35.0		39.0	9.0		9.0	9.0	41.0	
11.0	11.0	22.0	20.0	12.0	22.0	10.0		9.0	23.0		
4.0	4.0	4.0	4.0		4.0	30.0		27.0			29.0
	16.0	10.0	9.0		9.0	22.0			9.0	10.0	
23.0		20.0	20.0		20.0	21.0		20.0	19.0		20.0
21.0	7.0	21.0	21.0		21.0	7.0		6.0	21.0		
22.0	18.0	20.0	18.0		20.0	21.0		21.0	21.0	21.0	
0.0	5.0	5.0	5.0		5.0	0.0	5.0	0.0	5.0		5.0
	30.0	12.0	12.0		12.0	30.0		30.0	31.0	31.0	31.0
36.0	36.0	34.0	34.0		33.0	30.0		37.0	37.0		35.0
15.0	10.0	15.0	15.0		16.0	11.0		11.0	9.0	10.0	
18.0		18.0	18.0		18.0	10.0		10.0		11.0	
19.0	20.0	27.0	27.0		27.0	21.0		21.0	28.0		
	19.0	19.0	19.0		19.0	13.0		13.0		11.0	19.0
21.0	6.0	21.0	21.0		21.0	8.0		8.0		21.0	21.0
	16.0		28.0		31.0	16.0		16.0	16.0	32.0	16.0
21.0	21.0	30.0	30.0		30.0	23.0		24.0			24.0
	41.0	9.0	9.0		9.0	39.0		35.0	34.0		34.0
24.0	24.0	23.0	31.0		31.0	26.0		26.0	30.0		30.0
21.0	21.0		8.0		8.0	21.0		21.0	21.0	6.0	21.0
35.0		37.0	37.0		30.0	33.0		34.0	34.0	36.0	36.0
			22.0		22.0	36.0		36.0	36.0	36.0	
		15.0	5.0		5.0	18.0		18.0	5.0	17.0	5.0
	11.0	12.0	12.0		13.0	13.0		29.0	11.0	28.0	31.0
20.0		19.0	20.0		21.0	20.0		20.0	20.0		23.0
12.0	19.0	13.0	13.0			19.0		19.0	12.0		19.0
	21.0	21.0	21.0		21.0	20.0		18.0	20.0	18.0	22.0
	17.0	23.0	25.0		24.0	23.0			24.0	27.0	27.0
	19.0	19.0	25.0		25.0	8.0		8.0	27.0	8.0	27.0
30.0	29.0	15.0	14.0		14.0	29.0	17.0	31.0	17.0		31.0
14.0		14.0	18.0		19.0	21.0		21.0	18.0		17.0
28.0		14.0	14.0			27.0		28.0	14.0	28.0	28.0
	20.0	18.0	18.0		18.0	18.0		18.0	17.0	18.0	16.0
		21.0	6.0		7.0	21.0		21.0	21.0	7.0	21.0
12.0	12.0	12.0	12.0		12.0	12.0		11.0	13.0	13.0	
6.0	0.0	0.0	0.0		0.0	6.0		6.0	0.0		0.0
31.0	31.0	31.0	30.0		30.0	12.0		12.0	12.0	30.0	
	8.0	4.0	4.0		5.0	8.0		7.0	6.0	7.0	6.0
8.0	25.0	27.0	26.0		27.0	8.0		8.0	27.0	8.0	8.0
		36.0	36.0		35.0	16.0	16.0	16.0	36.0		37.0
17.0	21.0	17.0	17.0		18.0	23.0		23.0	15.0		15.0
		21.0	22.0		21.0	20.0		19.0	25.0	25.0	
25.0	10.0	10.0	10.0		10.0	26.0		26.0	11.0	26.0	26.0
21.0	11.0	19.0	21.0		21.0	11.0	21.0	11.0	21.0	21.0	11.0
27.0		31.0	31.0	31.0	31.0	26.0		25.0	31.0		30.0
9.0	9.0	9.0	9.0	0.0	9.0	0.0		0.0	9.0	9.0	9.0
	11.0	34.0	11.0		34.0	11.0		11.0			35.0
0.0	0.0	10.0	10.0		10.0	0.0		0.0	10.0	0.0	16.0
8.0		4.0	4.0	8.0	4.0	8.0		8.0	4.0	8.0	4.0
25.0	7.0	7.0	7.0		7.0	26.0		25.0	7.0	24.0	7.0
36.0	17.0	17.0	17.0		17.0	37.0		36.0	16.0	16.0	16.0
		28.0	29.0		22.0	23.0		28.0	25.0	27.0	
0.0	0.0	0.0	0.0		0.0	6.0		0.0	0.0		
27.0	27.0	27.0	27.0		28.0	24.0			30.0	30.0	27.0
	16.0	16.0	16.0		16.0	5.0		0.0	16.0	4.0	4.0
23.0		23.0	23.0		23.0	7.0	23.0	7.0	17.0		21.0
13.0	10.0	13.0	13.0		12.0	13.0		14.0	11.0	11.0	13.0
		24.0	25.0	57.0	25.0	56.0		57.0	25.0	57.0	29.0
23.0	22.0	23.0	27.0		27.0	24.0		23.0	29.0	28.0	29.0
31.0	31.0		19.0		21.0	31.0		31.0	31.0	20.0	31.0
	31.0	52.0	52.0		52.0	24.0		31.0	31.0	40.0	
16.0		16.0	16.0		16.0	0.0		0.0		0.0	0.0
31.0	20.0	31.0	31.0		31.0	21.0		19.0		31.0	31.0
8.0		8.0	8.0		9.0	22.0		22.0			9.0
24.0	24.0	24.0	24.0		24.0	30.0		29.0	20.0		29.0
16.0	14.0		20.0		21.0	14.0		14.0	20.0	14.0	20.0
20.0	33.0	20.0	20.0		20.0	33.0		33.0	14.0		14.0
19.0		22.0	20.0		20.0	21.0		21.0	20.0		22.0
7.0	10.0	16.0	20.0		20.0	15.0		15.0	15.0	20.0	20.0
30.0		13.0	30.0		30.0	13.0		13.0	29.0		
6.0	5.0	4.0	4.0	3.0	4.0	5.0		5.0	4.0	4.0	4.0
4.0	4.0	16.0	0.0		5.0	16.0		16.0	16.0	16.0	
7.0		27.0	8.0		7.0	15.0		28.0	7.0		7.0
34.0	14.0	34.0	14.0		14.0	34.0		34.0	14.0	34.0	34.0
		29.0	13.0		13.0	30.0		30.0	13.0		30.0
33.0	14.0	33.0	33.0			13.0		13.0	31.0	31.0	
	17.0	17.0	16.0		17.0	33.0		34.0	19.0		31.0
6.0	14.0	6.0	14.0		14.0	5.0		5.0	13.0		13.0
16.0		15.0	14.0		13.0	15.0		14.0	13.0		12.0
34.0	19.0	19.0	19.0		23.0	33.0		35.0	23.0		35.0
20.0	14.0	20.0	14.0		14.0	21.0		20.0		14.0	16.0
34.0		33.0	33.0		22.0	31.0		36.0	36.0		38.0
12.0		13.0	14.0		15.0	13.0		14.0	15.0		16.0
21.0	0.0	0.0	0.0		0.0	19.0		24.0	0.0		0.0
21.0	22.0	22.0	22.0		22.0	25.0		25.0		19.0	23.0
38.0		36.0	36.0		31.0	22.0		33.0	33.0		34.0
15.0	15.0	15.0	15.0		16.0	27.0		27.0	16.0		
13.0		13.0	5.0		5.0	14.0		14.0	6.0	14.0	6.0
20.0	20.0	15.0	15.0		15.0	20.0		20.0	16.0	10.0	7.0
	36.0	17.0	22.0		22.0	34.0		36.0	21.0		
19.0	18.0		6.0		5.0	15.0		19.0	4.0	4.0	
29.0	28.0	29.0	23.0		24.0	27.0		27.0	23.0	22.0	23.0
15.0		20.0	18.0		12.0	10.0		20.0	19.0		
8.0	9.0	28.0	28.0	16.0	28.0	18.0		18.0	28.0		28.0
		19.0	20.0		10.0	12.0		18.0	20.0		15.0
15.0	19.0	19.0	19.0		19.0	15.0	19.0	9.0	19.0	18.0	9.0
7.0		7.0	28.0		15.0	7.0		8.0	27.0		7.0
6.0	13.0	12.0	12.0		12.0	13.0		13.0	12.0	13.0	12.0
	40.0	31.0	31.0		24.0	52.0		52.0	52.0	31.0	
34.0	34.0	14.0	34.0		34.0	14.0		14.0	34.0	14.0	34.0
22.0		20.0	21.0		21.0	20.0		20.0	22.0		19.0
21.0	20.0	21.0	22.0		21.0	21.0		21.0	22.0	21.0	21.0
15.0			15.0		15.0	9.0		10.0	16.0		
6.0		6.0	6.0		6.0	7.0		6.0	6.0		6.0
	21.0	27.0	27.0		27.0	23.0		23.0	28.0	27.0	22.0
13.0			8.0		8.0	13.0		15.0	15.0	9.0	15.0
		19.0	19.0		20.0	13.0	20.0	13.0	20.0		20.0
13.0	13.0	13.0	13.0		13.0	13.0		13.0	14.0	14.0	
20.0	0.0	20.0	20.0		20.0	0.0	20.0	0.0	20.0	20.0	0.0
	11.0	24.0	26.0		26.0	11.0	26.0	12.0	25.0	10.0	23.0
	14.0	14.0	13.0		13.0	13.0		13.0	13.0	13.0	13.0
0.0		0.0	0.0	5.0	0.0	5.0		5.0	0.0	5.0	
22.0	13.0		23.0		23.0	13.0		13.0	23.0		13.0
5.0		18.0	19.0		19.0			5.0	18.0	18.0	17.0
	10.0	15.0	15.0		15.0	14.0		14.0	14.0		14.0
14.0		14.0	14.0		14.0	15.0		15.0	15.0	10.0	
15.0	9.0	15.0	15.0		13.0	8.0		8.0			13.0
9.0		6.0	5.0		6.0	9.0		10.0	6.0	6.0	6.0
17.0	16.0	10.0	10.0		10.0	13.0		13.0		10.0	10.0
	6.0	5.0			5.0	6.0		5.0	5.0	6.0	
9.0		7.0	7.0		7.0	8.0		10.0		7.0	
12.0		13.0	13.0		13.0	32.0		32.0	13.0		13.0
6.0	0.0	0.0	0.0		0.0	7.0		7.0	7.0	0.0	7.0
7.0	0.0	7.0	7.0		7.0	0.0		0.0	0.0	0.0	6.0
