0	1	2	3	4	5	6	7
	0.0	0.0		0.0			
					0.0		0.0
					0.0		0.0
							
							
	0.0	0.0		0.0			
					0.0		0.0
	0.0	0.0		4.0			
	0.0	0.0		0.0			
							
					0.0		0.0
	0.0	0.0		0.0			
					0.0		0.0
	0.0	0.0		0.0			
0.0	0.0	0.0		0.0	0.0		0.0
							
	0.0	0.0		0.0			
0.0					0.0		0.0
		0.0		19.0			
	0.0	0.0		10.0			
							
0.0					0.0		0.0
							
0.0					0.0		0.0
							
0.0					0.0		0.0
0.0					0.0		0.0
							
							
							
0.0					0.0		0.0
	0.0	0.0		0.0			
	0.0	0.0		0.0			
0.0							
							
0.0					0.0		0.0
	0.0	0.0		0.0			
	0.0	0.0		0.0	0.0		0.0
	0.0	0.0		1.0			
					0.0		0.0
	0.0	0.0		0.0	0.0		0.0
							
					0.0		0.0
					0.0		0.0
							
							
	0.0	0.0		6.0	0.0		0.0
							0.0
							
	0.0	0.0		0.0			
	0.0	0.0		0.0			
0.0	0.0				0.0		0.0
		0.0		0.0			
0.0	0.0				0.0		0.0
0.0							0.0
0.0							0.0
	0.0	0.0					
	0.0	0.0		0.0			
							
							
					0.0		
							
							
0.0	0.0	0.0		0.0	0.0		0.0
					0.0		0.0
					0.0		0.0
					0.0		0.0
							
					0.0		0.0
							
	0.0	0.0					
	0.0	0.0		0.0	0.0		0.0
					0.0		0.0
	0.0	0.0		0.0	0.0		0.0
	0.0	0.0		0.0			
					0.0		0.0
							
					0.0		0.0
	0.0	0.0		0.0			
	0.0	0.0		0.0			
							
					0.0		0.0
	0.0	0.0		0.0			
							
					0.0		0.0
	0.0	0.0		0.0			
	0.0	0.0		0.0	0.0		0.0
							
	0.0	0.0		0.0	0.0		0.0
	0.0	0.0		0.0	0.0		0.0
	0.0	0.0		0.0			
							
	0.0	0.0		0.0			
0.0					0.0		0.0
							
							
							
0.0					0.0		0.0
0.0					0.0		0.0
							
							
	0.0	0.0		0.0			
	0.0	0.0		0.0			
0.0	0.0	0.0		0.0	0.0		0.0
0.0	0.0	0.0		0.0	0.0		0.0
	0.0	0.0		0.0			
							
0.0					0.0		0.0
							
							
	0.0	0.0					
							
							
	0.0	0.0		0.0			
					0.0		0.0
							
					0.0		0.0
	0.0	0.0		0.0	0.0		0.0
							
		0.0		0.0			
	0.0				0.0		0.0
							
							
	0.0				0.0		0.0
							
							
							
	0.0	0.0		0.0	0.0		0.0
	0.0	0.0		0.0	0.0		0.0
							
		0.0		0.0			
		0.0		0.0			
							
	0.0				0.0		0.0
							
							
		0.0		0.0			
		0.0		0.0			
0.0	0.0				0.0		0.0
							
0.0	0.0	0.0		0.0			0.0
	0.0	0.0		0.0			
	0.0	0.0		0.0			
					0.0		0.0
							
							
							
							
					0.0		0.0
0.0	0.0	0.0		0.0			
	0.0	0.0		0.0	0.0		0.0
					0.0		0.0
	0.0	0.0		0.0	0.0		0.0
	0.0	0.0		0.0			
	0.0	0.0		0.0	0.0		0.0
	0.0	0.0		0.0			
	0.0	0.0			0.0		0.0
							
	0.0	0.0		0.0	0.0		0.0
	0.0	0.0		0.0			
							
							
	0.0	0.0		0.0			
	0.0	0.0		0.0			
	0.0	0.0		0.0			
							
	0.0	0.0		0.0	0.0		
					0.0		0.0
	0.0	0.0		0.0	0.0		0.0
					0.0		0.0
							
							
					0.0		0.0
0.0					0.0		0.0
							
							
							
	0.0	0.0		0.0			
					0.0		0.0
							
							
	0.0	0.0		0.0			
	0.0	0.0		0.0			
0.0	0.0	0.0		0.0	0.0		0.0
							
0.0					0.0		0.0
							
					0.0		0.0
							
							
0.0	0.0	0.0		0.0	0.0		0.0
0.0					0.0		0.0
	0.0	0.0		0.0			
							
0.0	0.0	0.0		0.0	0.0		0.0
							
							
0.0					1.0		0.0
							
							
0.0					0.0		0.0
				0.0			
0.0					0.0		0.0
	0.0	0.0		0.0			
	0.0	0.0		0.0			
0.0					0.0		0.0
	0.0	0.0		0.0	0.0		0.0
0.0	0.0	0.0		0.0	0.0		0.0
0.0	0.0	0.0		0.0	0.0		0.0
							
							
0.0	0.0	0.0		0.0	0.0		0.0
	0.0	0.0		0.0			
0.0	0.0	0.0		0.0	0.0		0.0
					0.0		0.0
	0.0	0.0		0.0	0.0		0.0
							
							
	0.0	0.0		0.0			
	0.0	0.0		0.0			
					0.0		0.0
					0.0		0.0
	0.0	0.0		0.0			0.0
	0.0	0.0		0.0			
					0.0		0.0
							
							
							
					0.0		0.0
							
	0.0	0.0		0.0			
							
							
							
	0.0				0.0		0.0
							
	0.0				8.0		0.0
							
	0.0				0.0		
	0.0	0.0		0.0	0.0		0.0
							
		0.0		0.0			
							
	0.0				0.0		0.0
							
							
	0.0	0.0		0.0	0.0		0.0
							
	0.0				0.0		0.0
	0.0				0.0		0.0
							
	0.0				0.0		0.0
	0.0	0.0		1.0	0.0		0.0
	0.0				0.0		0.0
	0.0	0.0		0.0	0.0		0.0
	0.0	0.0		0.0			
							
							0.0
							
		0.0		0.0			
0.0	0.0	0.0		0.0	0.0		0.0
							
		0.0		0.0			
							
		0.0		0.0			
	0.0	0.0		0.0			
							
							
	0.0	0.0		0.0			
							0.0
							
							
0.0	0.0	0.0		0.0			0.0
							
	0.0						
	0.0	0.0		0.0			
0.0	0.0	0.0		0.0			
					0.0		0.0
							
0.0	0.0	0.0			0.0		0.0
							
0.0	0.0	0.0		0.0			
							
					0.0		0.0
					0.0		0.0
					0.0		0.0
0.0	0.0	0.0		0.0	0.0		0.0
0.0	0.0	0.0		0.0	0.0		0.0
0.0	0.0	0.0		0.0			
					0.0		0.0
							
							
							
					0.0		0.0
							
	0.0	0.0		0.0			
0.0	0.0				0.0		0.0
					0.0		0.0
							
							
							
					0.0		14.0
	0.0	0.0		0.0	0.0		0.0
							
							
							
0.0					0.0		0.0
0.0					0.0		0.0
0.0					0.0		0.0
							
0.0					0.0		0.0
							
	0.0	0.0		0.0			
0.0					0.0		0.0
							
		0.0		0.0			
	0.0	0.0		0.0			
0.0	0.0	0.0		0.0	0.0		0.0
							
	0.0	0.0		0.0			
							
							0.0
	0.0	0.0		0.0			
							
	0.0	0.0		0.0	0.0		0.0
	0.0	0.0		0.0			
	0.0	0.0		0.0	0.0		0.0
					0.0		0.0
	0.0	0.0		0.0			
	0.0	0.0		0.0	0.0		0.0
		0.0		0.0			
	0.0	0.0		0.0	0.0		0.0
							
							
		0.0		0.0			
							0.0
							
0.0							0.0
							
							
					0.0		0.0
					0.0		0.0
	0.0	0.0		0.0			
	0.0	0.0		0.0			
					0.0		0.0
							
							
					0.0		0.0
	0.0	0.0		0.0			
							
							
							
0.0					0.0		0.0
0.0					0.0		0.0
							
	0.0	0.0		0.0			
0.0					0.0		
0.0					0.0		0.0
	0.0	0.0		0.0			
							
0.0					0.0		0.0
					0.0		0.0
	0.0	0.0		0.0			
							
					0.0		0.0
	0.0	0.0		0.0	0.0		0.0
					0.0		0.0
							
		0.0		0.0			
	0.0			0.0			
							
	0.0				0.0		0.0
							
		0.0		0.0			
							
							
		0.0		0.0			
0.0	0.0	0.0		0.0			
	0.0	0.0		0.0			
0.0	0.0	0.0		0.0			0.0
0.0							0.0
0.0	0.0	0.0		0.0	0.0		0.0
							
		0.0		0.0	0.0		0.0
							
							
							
					0.0		0.0
					0.0		0.0
					0.0		0.0
					0.0		0.0
					0.0		0.0
	0.0	0.0		0.0	0.0		0.0
	0.0	0.0		0.0			
0.0	0.0	0.0		0.0	0.0		0.0
							
	0.0	0.0		0.0			
	0.0	0.0		0.0			
	0.0	0.0		0.0			
							
							
							
0.0					0.0		0.0
							
	0.0	0.0		0.0			
0.0					0.0		0.0
0.0					0.0		0.0
							
0.0					0.0		0.0
							
							
	0.0	0.0		0.0	0.0		0.0
					29.0		0.0
							
							
							
	0.0	0.0		0.0	0.0		0.0
	0.0				0.0		0.0
	0.0	0.0		0.0	0.0		0.0
	0.0	0.0		0.0			
							
	0.0				0.0		0.0
							
							
	0.0						
							
0.0	0.0				0.0		0.0
0.0	0.0	0.0		0.0			0.0
0.0	0.0	0.0		0.0			0.0
							
					0.0		0.0
					0.0		0.0
					0.0		0.0
					0.0		0.0
	0.0	0.0		0.0	0.0		0.0
							
	0.0	0.0		0.0	0.0		0.0
	0.0	0.0		0.0	0.0		0.0
	0.0	0.0		0.0	0.0		0.0
							
	0.0	0.0		0.0			
					0.0		0.0
							
							
							
	0.0	0.0		0.0	0.0		0.0
					0.0		0.0
							
					0.0		0.0
	0.0	0.0		0.0			
							
0.0					0.0		0.0
					0.0		0.0
							
							
							
							
	0.0	0.0		0.0	0.0		0.0
							
							
	0.0	0.0		0.0	0.0		0.0
					0.0		0.0
	0.0	0.0		0.0	0.0		0.0
							
	0.0				0.0		0.0
	0.0				0.0		0.0
							
							
							
							
	0.0						
							
							
							0.0
	0.0	0.0		0.0			
							
	0.0	0.0		0.0			
							0.0
							4.0
							
							
0.0	0.0	0.0		0.0	0.0		0.0
0.0	0.0				0.0		0.0
		0.0		0.0			
		0.0					
							
							
							
	0.0	0.0		0.0			
0.0	0.0	0.0		0.0	0.0		0.0
0.0	0.0	48.0		0.0			
0.0	0.0	0.0		0.0	0.0		0.0
	0.0	0.0		0.0			
	0.0	0.0		0.0	0.0		0.0
							
	0.0	0.0		0.0			
					0.0		0.0
	0.0	0.0		0.0	0.0		0.0
0.0					0.0		0.0
	0.0	0.0		0.0			
0.0					0.0		0.0
							
0.0				0.0	0.0		0.0
							
0.0	0.0	0.0		0.0	0.0		0.0
0.0	0.0	0.0		0.0			
0.0	0.0	0.0		0.0	0.0		0.0
							
							
							
	0.0	0.0		0.0			
					0.0		0.0
							
							
	0.0	0.0		0.0	0.0		0.0
	0.0	0.0		0.0			
							
							
							
	0.0				0.0		0.0
	0.0				0.0		0.0
		0.0		0.0			
	0.0				0.0		0.0
	0.0				0.0		0.0
							
	0.0	0.0		0.0			
							
							
					0.0		0.0
							
							
0.0							0.0
							
					0.0		0.0
0.0	0.0	0.0		0.0			
							
							
							
					0.0		0.0
	0.0	0.0		0.0			
							
							
					0.0		0.0
					0.0		0.0
					0.0		0.0
					0.0		0.0
		0.0		73.0			
	0.0	0.0		0.0			
							
							
					0.0		0.0
					0.0		0.0
							
	0.0	0.0		0.0			
							
0.0	0.0	0.0		0.0	0.0		0.0
	0.0	0.0		0.0			
							
0.0	0.0	0.0		0.0	0.0		0.0
0.0					0.0		1.0
0.0					0.0		0.0
	0.0	0.0		0.0			
							
							
0.0	0.0	0.0		0.0	0.0		0.0
0.0					0.0		0.0
	0.0				0.0		0.0
		0.0		0.0			
0.0					0.0		0.0
0.0	0.0	0.0		0.0	0.0		0.0
	0.0	0.0		0.0			
	0.0	0.0		0.0			
	0.0	0.0		0.0			
14.0	0.0	0.0		0.0	0.0		0.0
	0.0	0.0		0.0	0.0		0.0
					0.0		0.0
					3.0		0.0
							
	0.0	0.0		0.0	0.0		0.0
							
					0.0		0.0
	0.0	0.0		0.0			
							
	0.0	0.0		0.0			
					0.0		0.0
					0.0		0.0
	0.0	0.0		0.0			
		0.0		0.0			
		0.0		0.0			
	0.0	0.0		0.0	0.0		0.0
							
							
							
	0.0				0.0		0.0
		0.0		0.0			
							0.0
	0.0	0.0		0.0			0.0
							
	0.0	0.0		0.0			
	0.0	0.0		0.0			
0.0	0.0	0.0		0.0	0.0		0.0
		0.0		0.0			
0.0	0.0	0.0		0.0	0.0		0.0
		0.0		0.0			
	0.0	0.0		0.0			
							
0.0	0.0	0.0		0.0			0.0
							0.0
	0.0	0.0		0.0			
							
							
0.0	0.0	0.0		0.0	0.0		0.0
					0.0		0.0
					0.0		0.0
					0.0		0.0
	0.0	0.0		0.0	0.0		0.0
							
	0.0	0.0		0.0			
					0.0		0.0
0.0	0.0	0.0		0.0	0.0		0.0
0.0					0.0		0.0
0.0					0.0		0.0
	0.0	0.0		0.0			
0.0					0.0		
							
0.0					0.0		0.0
	0.0	0.0		18.0			
	0.0	0.0		0.0			
					0.0		0.0
	0.0	0.0		0.0			
					0.0		0.0
	0.0				0.0		0.0
		0.0		0.0			
							
							
	0.0				0.0		0.0
	0.0	0.0		0.0	0.0		0.0
	0.0	0.0		0.0	0.0		0.0
	0.0				0.0		0.0
	0.0				0.0		
	0.0	0.0		0.0			0.0
							0.0
							
	0.0	0.0		0.0			
0.0							0.0
0.0	0.0	0.0		0.0			
0.0	0.0	0.0		0.0			
					0.0		0.0
0.0	0.0	0.0		1.0	0.0		0.0
					0.0		0.0
							
	0.0	0.0		0.0			
					0.0		
							
					0.0		0.0
	0.0	0.0		0.0			
							
0.0	0.0	0.0		0.0	0.0		0.0
							
	0.0	0.0		0.0			
	0.0	0.0		0.0			
	0.0	0.0		0.0			
					0.0		0.0
							
							
							
	0.0				0.0		0.0
		0.0		0.0			
							
	0.0				0.0		0.0
	0.0	0.0		0.0			0.0
	0.0	0.0		0.0			
	46.0	0.0		46.0			77.0
	0.0	0.0		0.0			0.0
0.0	0.0				0.0		0.0
		0.0		0.0			
							
							
	0.0	0.0		0.0			
0.0							0.0
							
							
					0.0		0.0
29.0	0.0	0.0		0.0			
							
					0.0		0.0
							
	0.0	0.0		0.0			
					0.0		0.0
							
							
							
					0.0		0.0
							
	0.0	0.0		0.0	0.0		0.0
							
	0.0	0.0		0.0	0.0		0.0
	0.0	0.0		0.0			
					0.0		0.0
	0.0	0.0		0.0	0.0		0.0
	0.0	0.0		1.0			
					0.0		0.0
					0.0		0.0
					0.0		0.0
					0.0		0.0
		0.0		0.0			
							
	0.0	0.0		0.0			
							
0.0	0.0	0.0		0.0	0.0		0.0
	0.0	0.0		0.0			
							
	0.0	0.0		0.0			
							
							
							
							
	0.0	0.0					
							
	0.0	0.0		0.0			
							
							
							
0.0	0.0	0.0		0.0	0.0		0.0
							
							
0.0					0.0		0.0
							
0.0	0.0	0.0		0.0	0.0		0.0
0.0	0.0	0.0		0.0	0.0		0.0
0.0					0.0		0.0
							
							
					0.0		0.0
	0.0	0.0		0.0			
	0.0	0.0		0.0	0.0		0.0
							0.0
							
							
							
	0.0	0.0		0.0	0.0		0.0
	0.0	0.0		0.0			
					0.0		0.0
							
	0.0	0.0		0.0	0.0		0.0
	0.0	0.0		0.0	0.0		0.0
	0.0				0.0		0.0
		0.0		0.0			
							
							
							
	0.0				0.0		0.0
							
	0.0	0.0		0.0			
13.0	0.0				0.0		0.0
							
0.0	0.0				0.0		0.0
							
							
		0.0		0.0			
							
0.0							0.0
							
	0.0	0.0		0.0			
0.0							0.0
							
	0.0	0.0		0.0			
							
							
0.0	0.0	0.0		0.0			
							
0.0	0.0	0.0		0.0	0.0		0.0
0.0	0.0	0.0		0.0	4.0		0.0
							
							
0.0	0.0	0.0		0.0			
0.0	0.0	0.0		0.0	0.0		0.0
					0.0		0.0
					0.0		0.0
							
							
							
	0.0	0.0		0.0	0.0		0.0
	0.0	0.0		0.0	0.0		0.0
					0.0		0.0
	0.0	0.0		0.0			
							
	0.0	0.0		0.0			
					0.0		0.0
	0.0						
							
							
							
	0.0	0.0		0.0	0.0		0.0
							
	0.0	0.0		0.0			
	0.0	0.0		0.0			0.0
					0.0		0.0
							
					0.0		0.0
0.0	0.0	0.0		0.0	0.0		0.0
				0.0			
0.0	0.0	0.0		0.0	0.0		0.0
0.0					0.0		0.0
0.0	0.0	0.0		0.0	0.0		0.0
							
							
0.0					0.0		0.0
	0.0	0.0		0.0			
							
	0.0	0.0		0.0			
							
							
					0.0		0.0
							
	0.0	0.0		0.0			
		0.0		0.0			
							
	0.0				0.0		0.0
		0.0		0.0			
	0.0				0.0		
							
	0.0	0.0		0.0	0.0		0.0
							
							
	0.0				0.0		0.0
							0.0
							
	0.0	0.0		0.0			0.0
	0.0	0.0		0.0			0.0
							0.0
							0.0
							
0.0	0.0				0.0		0.0
0.0	0.0				0.0		0.0
		0.0		0.0			
							
		0.0		0.0			
0.0	0.0	0.0		0.0	0.0		5.0
							
							
							
	0.0	0.0		0.0			
							
					0.0		0.0
							
							
0.0	0.0	0.0		0.0			
0.0	0.0	0.0		0.0	0.0		0.0
							
					0.0		0.0
	0.0	0.0		0.0			
	0.0	0.0		0.0			
0.0	0.0				0.0		0.0
	0.0	0.0		0.0	0.0		0.0
					0.0		0.0
	0.0	0.0		0.0	0.0		0.0
	0.0	0.0		0.0			
					0.0		0.0
							
	0.0	0.0		0.0			
	0.0	0.0		0.0	0.0		0.0
					0.0		0.0
					0.0		0.0
				0.0			
	0.0	0.0		0.0			
							
	0.0	0.0		0.0			
					0.0		0.0
							
							
	0.0	0.0		0.0			
	0.0	0.0		0.0	0.0		0.0
							
							
							
							
					0.0		0.0
0.0							0.0
							0.0
	0.0	0.0		0.0			
	0.0	0.0		0.0			
							
	0.0	0.0		0.0			
0.0					0.0		0.0
							
	0.0	0.0		0.0			
							
	0.0	0.0		0.0			
	0.0	0.0		0.0			
0.0					0.0		0.0
	0.0	0.0		0.0			
0.0	0.0	0.0		0.0	0.0		0.0
0.0	0.0	0.0		0.0	0.0		0.0
0.0	0.0	0.0		0.0	0.0		0.0
0.0					0.0		0.0
							
							
							
	0.0	0.0		0.0			
0.0	0.0	0.0		0.0	0.0		0.0
0.0	0.0	1.0		1.0			0.0
							
							
	0.0	0.0					
							
	0.0	0.0		0.0			
0.0				0.0	0.0		0.0
							
0.0					0.0		
0.0					0.0		0.0
					0.0		0.0
					0.0		0.0
	0.0	0.0		0.0			
	0.0	0.0		0.0			
							
	0.0						
	0.0	0.0		0.0	0.0		0.0
					0.0		0.0
							
	0.0	0.0		0.0			
	0.0	0.0		0.0			
	0.0	0.0		0.0	0.0		0.0
							
	0.0				0.0		0.0
		0.0		0.0			
		0.0		0.0			
							
							
	0.0	0.0		0.0			
							
	0.0				0.0		0.0
							
		0.0		0.0			
							
		0.0		0.0			
	0.0	0.0		0.0			
							0.0
							
							
0.0	0.0				0.0		0.0
0.0	0.0	0.0		0.0	0.0		0.0
							
0.0	0.0				0.0		0.0
		0.0		0.0			
	0.0	0.0		0.0			
							
0.0							
							
	0.0	0.0		0.0			
	0.0	0.0		0.0			
	0.0	0.0		0.0			
							
							0.0
0.0	0.0	0.0		0.0			
					5.0		0.0
							
							
0.0	0.0	0.0		0.0			
							
					0.0		0.0
0.0	0.0	0.0		0.0			
					0.0		0.0
0.0	0.0	0.0		0.0	0.0		0.0
					0.0		0.0
	0.0	0.0		0.0			
					0.0		0.0
	0.0	0.0		0.0			
	0.0	0.0		0.0			
	0.0	0.0		0.0			
							
					0.0		0.0
							
							
							
	0.0	0.0		0.0			
							
					0.0		0.0
							
					0.0		0.0
					0.0		0.0
							
							
	0.0	0.0		0.0			
							
0.0	0.0	0.0		0.0	0.0		
							
							
							
0.0					0.0		0.0
	0.0	0.0		0.0			
							
0.0	0.0	0.0		0.0	0.0		0.0
	0.0	0.0		0.0			
	0.0	0.0		0.0			
0.0	0.0	0.0		0.0	0.0		0.0
							
							
							
0.0	0.0	0.0		0.0			
0.0					0.0		0.0
	0.0	0.0		0.0			
							0.0
	0.0	0.0		0.0			
	0.0	0.0		0.0			
							
							
0.0					0.0		0.0
							
0.0					0.0		0.0
0.0	0.0	0.0		0.0	0.0		0.0
	0.0	0.0		0.0			
							
							
							
0.0					0.0		0.0
							
0.0	0.0	0.0		0.0	0.0		0.0
0.0	0.0	0.0		0.0	0.0		0.0
							
	0.0	0.0		0.0			
							
					0.0		0.0
	0.0	0.0		0.0			
					0.0		0.0
							
					0.0		0.0
							
					0.0		0.0
					0.0		0.0
	0.0	0.0		0.0			
					0.0		0.0
	0.0	0.0		0.0			
							
		0.0		0.0			
							
							
		0.0		0.0			
	0.0				0.0		0.0
							
		0.0		0.0			
	0.0	0.0		0.0			
							0.0
							
							
		0.0		0.0			
		0.0		0.0			
0.0	0.0				0.0		0.0
		0.0		0.0			
							
		0.0		0.0			
							
0.0							0.0
	0.0	0.0		0.0			
							
	0.0	0.0		0.0			
							
0.0	0.0	0.0		0.0			0.0
0.0	0.0	0.0		0.0			0.0
					0.0		0.0
					0.0		0.0
0.0	0.0	0.0		0.0	0.0		1.0
					0.0		0.0
							
							
							
	0.0	0.0		0.0	0.0		0.0
	0.0	0.0		0.0	0.0		0.0
				0.0	0.0		0.0
					58.0		0.0
							
					0.0		0.0
							
0.0	0.0	0.0		0.0	0.0		0.0
							
	0.0	0.0		0.0			
0.0					0.0		0.0
0.0					0.0		0.0
	0.0	0.0		0.0			
	0.0	0.0		0.0			
	0.0	0.0		0.0			
							
0.0	0.0	0.0		0.0	0.0		0.0
							
0.0					0.0		0.0
	0.0						
	0.0	0.0		0.0			
							
					0.0		0.0
							
					0.0		0.0
							
	0.0	0.0		0.0			
							
					0.0		0.0
					0.0		0.0
		0.0		0.0			
							
	0.0				0.0		0.0
	0.0				0.0		0.0
	0.0				0.0		0.0
							
							
							
							
		0.0		0.0			
0.0	0.0				0.0		0.0
							
							
0.0	0.0				0.0		0.0
		0.0		0.0			
							
0.0							0.0
							0.0
							
							
	0.0	0.0		0.0			0.0
0.0							0.0
							
0.0	0.0	0.0		0.0	0.0		0.0
							
					29.0		0.0
0.0	0.0	0.0		0.0			
							
					0.0		0.0
					0.0		0.0
							
							
	0.0	0.0		0.0	0.0		0.0
	0.0	0.0		0.0			
							
	0.0	0.0		0.0			
							
	0.0	0.0		0.0	0.0		0.0
	0.0	0.0		0.0			
	0.0	0.0		0.0	0.0		0.0
							
							
							
							
	0.0	0.0		0.0			
	0.0	0.0		0.0			
	0.0	0.0		0.0			
					0.0		0.0
	0.0	0.0		0.0			
	0.0	0.0		0.0			
0.0	0.0	0.0		0.0	0.0		0.0
					0.0		0.0
					0.0		0.0
	0.0	0.0		0.0	0.0		0.0
					0.0		
							
0.0					0.0		0.0
							
							
	1.0	1.0		1.0			
0.0					0.0		0.0
							
							
							
0.0					0.0		0.0
0.0					0.0		0.0
0.0					0.0		0.0
							
0.0					0.0		
							
							
0.0	0.0	0.0		0.0	0.0		0.0
							
							
0.0	0.0	0.0		0.0	0.0		0.0
0.0					0.0		0.0
0.0	0.0	0.0		0.0	0.0		0.0
							
0.0					0.0		0.0
0.0					4.0		0.0
	0.0	0.0		0.0			
	0.0	0.0		0.0	0.0		0.0
	0.0	0.0		0.0			
	0.0	0.0		0.0			
							
							
0.0	0.0	0.0		0.0	0.0		0.0
	0.0	32.0		0.0	0.0		0.0
					0.0		0.0
							
					0.0		0.0
	4.0	4.0		4.0	4.0		4.0
	0.0						
					0.0		0.0
							
	0.0	0.0		0.0	0.0		0.0
	0.0	0.0		0.0	0.0		0.0
							
	0.0	0.0		0.0	0.0		0.0
							
							
	0.0				0.0		0.0
							
							
		0.0		0.0			
	0.0						
	0.0				0.0		0.0
	0.0	0.0		0.0	0.0		0.0
		0.0		0.0			
	0.0	0.0		0.0			
	0.0	0.0		0.0			
							
0.0	0.0	0.0		0.0	0.0		0.0
							
		0.0		0.0			
							
							
0.0	0.0				0.0		0.0
							
							
0.0							0.0
0.0	0.0	0.0		0.0			0.0
							
							
							
							
	0.0	0.0		0.0			
0.0	0.0	0.0		0.0	0.0		0.0
							
							
					0.0		0.0
					0.0		0.0
					0.0		0.0
0.0	0.0	0.0		0.0			
							
0.0	0.0	0.0		0.0			
0.0	0.0	0.0		0.0			
							
							0.0
0.0	0.0	0.0		0.0			
					0.0		0.0
	0.0	0.0		0.0	0.0		0.0
							
							
	0.0	0.0		0.0	0.0		0.0
							
							
	0.0	0.0		0.0			
					0.0		0.0
							
	0.0	0.0		0.0			
							
					0.0		0.0
					0.0		0.0
	0.0	0.0		0.0			
	0.0	0.0		0.0	0.0		0.0
					0.0		0.0
							
							
	0.0	0.0		0.0			
0.0					0.0		0.0
							
0.0					0.0		0.0
							
							
	0.0	0.0		0.0			
							
0.0					0.0		0.0
					0.0		0.0
	0.0	0.0		0.0			
0.0					0.0		0.0
0.0	0.0	0.0		0.0	0.0		0.0
							
	0.0	0.0		0.0			
	0.0	0.0		0.0	0.0		0.0
					0.0		0.0
0.0							0.0
	0.0	0.0		0.0	0.0		0.0
							
							
		0.0		0.0			
		0.0		0.0			
	0.0	0.0		0.0	0.0		0.0
				0.0			
							
							
							
		0.0		0.0			
	0.0	0.0		0.0			1.0
							
	0.0	0.0		0.0			
							0.0
	0.0	0.0		0.0			
	0.0	0.0		0.0			
0.0							0.0
0.0	0.0				0.0		0.0
							
							
		0.0		0.0			
		0.0		0.0			
0.0							
							
0.0	0.0	0.0		0.0			0.0
0.0							0.0
							
	0.0	0.0		0.0			
	0.0	0.0		0.0			
0.0							0.0
0.0							
	0.0	0.0		0.0			
							
							
					0.0		0.0
0.0	0.0	0.0		0.0			
							
0.0	0.0	0.0		0.0	0.0		0.0
							
					0.0		0.0
							
0.0	0.0	0.0		0.0			
							
					0.0		0.0
							
							
	0.0	0.0		0.0			
	0.0	0.0		0.0			
					0.0		
	0.0	0.0		0.0			
	0.0	0.0		0.0			
							
	0.0	0.0		0.0	0.0		0.0
	0.0	0.0		0.0			
	0.0	0.0		0.0			
					0.0		0.0
							
							
							
	0.0	0.0					
0.0					0.0		0.0
							
							
	0.0	0.0		0.0			
				0.0			0.0
0.0	0.0	0.0		0.0	0.0		0.0
0.0					0.0		0.0
0.0					0.0		0.0
0.0					0.0		0.0
							
		0.0		0.0			
							
							
							
							
0.0	0.0	0.0		0.0	0.0		0.0
0.0	0.0	0.0		0.0	0.0		0.0
							
0.0							
							
	0.0	0.0		15.0			
					0.0		0.0
	0.0	0.0		0.0	0.0		0.0
							
	0.0	0.0		0.0			
							
							
							
							
		0.0		0.0	0.0		0.0
	0.0	0.0		0.0			0.0
							
							
							
							
							
							
	0.0	0.0		0.0			
							
							
					0.0		0.0
							
					0.0		0.0
							
							
					0.0		0.0
							
							
					0.0		0.0
	0.0	0.0		0.0			
					0.0		0.0
							
							
	0.0	0.0		0.0			
					0.0		0.0
	0.0	0.0		0.0			
	0.0				0.0		0.0
							
					0.0		0.0
							
							
		0.0		0.0			
	0.0	0.0		0.0	0.0		0.0
							
	0.0	0.0		0.0			
							
							
					0.0		0.0
							
