0	1	2	3	4	5	6	7
-	Z	Z	-	X	x	-	z
-	Z	Z	-	X	x	-	z
-	Z	Z	-	X	x	-	z
-	Z	Z	-	X	x	-	z
-	Z	Z	-	X	x	-	z
-	Z	Z	-	X	x	-	z
-	Z	Z	-	X	x	-	z
-	Z	Z	-	X	x	-	z
-	Z	Z	-	X	x	-	z
-	Z	Z	-	X	x	-	z
-	Z	Z	-	X	x	-	z
-	Z	Z	-	X	x	-	z
-	Z	Z	-	X	x	-	z
-	Z	Z	-	X	x	-	z
z	Z	Z	-	X	x	-	z
x	Z	Z	-	X	x	-	z
z	Z	Z	-	X	x	-	z
y	Z	Z	-	X	x	-	z
-	z	Z	-	X	x	-	z
z	Z	Z	-	X	x	-	z
y	Z	Z	-	X	x	-	z
y	Z	Z	-	X	x	-	z
z	Z	Z	-	X	x	-	z
y	Z	Z	-	X	x	-	z
z	Z	Z	-	X	x	-	z
y	Z	Z	-	X	x	-	z
y	Z	Z	-	X	x	-	z
z	Z	Z	-	X	x	-	z
y	z	Z	-	X	x	-	z
y	Z	Z	-	X	x	-	z
z	Z	Z	-	X	x	-	z
z	Z	Z	-	X	x	-	z
z	Z	Z	-	X	x	-	z
z	Z	Z	-	X	x	-	z
z	Z	Z	-	X	x	-	z
x	Z	Z	-	X	x	-	z
y	Z	Z	-	X	x	-	z
-	Z	Z	-	X	x	-	z
-	Z	Z	-	X	x	-	z
-	Z	Z	-	X	x	-	z
-	Z	Z	-	X	x	-	z
-	Z	Z	-	X	x	-	z
-	Z	Z	-	X	x	-	z
-	Z	Z	-	X	x	-	z
-	z	Z	-	X	x	-	z
-	z	Z	-	X	x	-	z
-	y	Z	-	X	x	-	z
-	Z	Z	-	Z	-	-	z
-	Z	Z	-	Z	-	-	z
-	Z	Z	-	Z	-	-	z
-	Z	Z	-	Z	-	-	z
y	z	Z	-	X	x	-	z
x	y	Z	-	X	x	-	z
y	z	Z	-	X	x	-	z
z	Z	Z	-	Z	-	-	z
z	Z	Z	-	Z	-	-	z
x	Z	Z	-	Z	-	-	z
y	Z	Z	-	Z	-	-	z
y	Z	Z	-	Z	-	-	z
y	Z	Z	-	Z	-	-	z
Z	Z	Z	-	X	x	-	z
Z	Z	Z	-	X	x	-	z
Z	Z	Z	-	X	x	-	z
Z	Z	Z	-	X	x	-	z
Z	Z	Z	-	X	x	-	z
Z	Z	Z	-	X	x	-	z
Z	Z	Z	-	X	x	-	z
Z	Z	Z	-	X	x	-	z
Z	Z	Z	-	X	x	-	z
-	Z	Z	-	X	x	-	z
-	Z	Z	-	X	x	-	z
-	Z	Z	-	X	x	-	z
-	Z	Z	-	X	x	-	z
-	Z	Z	-	X	x	-	z
-	Z	Z	-	X	x	-	z
-	Z	Z	-	X	x	-	z
-	Z	Z	-	X	x	-	z
-	Z	Z	-	X	x	-	z
-	Z	Z	-	X	x	-	z
-	Z	Z	-	X	x	-	z
-	Z	Z	-	X	x	-	z
-	Z	Z	-	X	x	-	z
-	Z	Z	-	X	x	-	z
-	Z	Z	-	X	x	-	z
-	Z	Z	-	X	x	-	z
-	Z	Z	-	X	x	-	z
-	Z	Z	-	X	x	-	z
-	Z	Z	-	X	x	-	z
-	Z	Z	-	X	x	-	z
-	Z	Z	-	X	x	-	z
y	Z	Z	-	X	x	-	z
z	Z	Z	-	X	x	-	z
y	Z	Z	-	X	x	-	z
y	Z	Z	-	X	x	-	z
z	Z	Z	-	X	x	-	z
y	Z	Z	-	X	x	-	z
z	Z	Z	-	X	x	-	z
z	Z	Z	-	X	x	-	z
x	Z	Z	-	X	x	-	z
z	Z	Z	-	X	x	-	z
y	Z	Z	-	X	x	-	z
x	Z	Z	-	X	x	-	z
z	Z	Z	-	X	x	-	z
y	Z	Z	-	X	x	-	z
y	Z	Z	-	X	x	-	z
z	Z	Z	-	X	x	-	z
y	Z	Z	-	X	x	-	z
z	Z	Z	-	X	x	-	z
z	Z	Z	-	X	x	-	z
z	Z	Z	-	X	x	-	z
y	Z	Z	-	X	x	-	z
-	Z	Z	-	X	x	-	z
-	Z	Z	-	X	x	-	z
-	Z	Z	-	X	x	-	z
-	Z	Z	-	X	x	-	z
-	Z	Z	-	X	x	-	z
-	Z	Z	-	X	x	-	z
-	Z	Z	-	X	x	-	z
-	Z	Z	-	X	x	-	z
-	y	Z	-	X	x	-	z
-	z	Z	-	X	x	-	z
-	y	Z	-	X	x	-	z
-	z	Z	-	X	x	-	z
-	z	Z	-	X	x	-	z
-	z	Z	-	X	x	-	z
-	z	Z	-	X	x	-	z
-	z	Z	-	X	x	-	z
-	z	Z	-	X	x	-	z
-	z	Z	-	X	x	-	z
-	y	Z	-	X	x	-	z
-	z	Z	-	X	x	-	z
-	z	Z	-	X	x	-	z
-	y	Z	-	X	x	-	z
-	z	Z	-	X	x	-	z
-	Z	Z	-	Z	-	-	z
x	y	Z	-	X	x	-	z
z	z	Z	-	X	x	-	z
y	z	Z	-	X	x	-	z
z	z	Z	-	X	x	-	z
z	z	Z	-	X	x	-	z
z	Z	Z	-	Z	-	-	z
z	Z	Z	-	Z	-	-	z
z	Z	Z	-	Z	-	-	z
Z	Z	Z	-	X	x	-	z
Z	Z	Z	-	X	x	-	z
Z	Z	Z	-	X	x	-	z
Z	Z	Z	-	X	x	-	z
Z	Z	Z	-	X	x	-	z
Z	Z	Z	-	X	x	-	z
Z	Z	Z	-	X	x	-	z
-	Z	Z	-	X	x	-	z
-	Z	Z	-	X	x	-	z
-	Z	Z	-	X	x	-	z
-	Z	Z	-	X	x	-	z
-	Z	Z	-	X	x	-	z
-	Z	Z	-	X	x	-	z
-	Z	Z	-	X	x	-	z
-	Z	Z	-	X	x	-	z
-	Z	Z	-	X	x	-	z
-	Z	Z	-	X	x	-	z
-	Z	Z	-	X	x	-	z
-	Z	Z	-	X	x	-	z
-	Z	Z	-	X	x	-	z
-	Z	Z	-	X	x	-	z
-	Z	Z	-	X	x	-	z
-	Z	Z	-	X	x	-	z
-	Z	Z	-	X	x	-	z
-	Z	Z	-	X	x	-	z
-	Z	Z	-	X	x	-	z
-	Z	Z	-	X	x	-	z
-	Z	Z	-	X	x	-	z
-	Z	Z	-	X	x	-	z
-	Z	Z	-	X	x	-	z
z	Z	Z	-	X	x	-	z
y	Z	Z	-	X	x	-	z
-	z	Z	-	X	x	-	z
z	Z	Z	-	X	x	-	z
z	Z	Z	-	X	x	-	z
y	Z	Z	-	X	x	-	z
z	Z	Z	-	X	x	-	z
z	Z	Z	-	X	x	-	z
z	Z	Z	-	X	x	-	z
z	Z	Z	-	X	x	-	z
z	Z	Z	-	X	x	-	z
z	Z	Z	-	X	x	-	z
z	Z	Z	-	X	x	-	z
x	Z	Z	-	X	x	-	z
z	Z	Z	-	X	x	-	z
x	Z	Z	-	X	x	-	z
z	Z	Z	-	X	x	-	z
y	Z	Z	-	X	x	-	z
x	Z	Z	-	X	x	-	z
x	Z	Z	-	X	x	-	z
x	Z	Z	-	X	x	-	z
z	Z	Z	-	X	x	-	z
y	Z	Z	-	X	x	-	z
x	Z	Z	-	X	x	-	z
x	Z	Z	-	X	x	-	z
z	Z	Z	-	X	x	-	z
x	Z	Z	-	X	x	-	z
z	Z	Z	-	X	x	-	z
z	Z	Z	-	X	x	-	z
z	Z	Z	-	X	x	-	z
z	Z	Z	-	X	x	-	z
z	Z	Z	-	X	x	-	z
z	Z	Z	-	X	x	-	z
-	z	Z	-	X	x	-	z
y	Z	Z	-	X	x	-	z
y	Z	Z	-	X	x	-	z
z	Z	Z	-	X	x	-	z
z	Z	Z	-	X	x	-	z
z	Z	Z	-	X	x	-	z
y	Z	Z	-	X	x	-	z
y	Z	Z	-	X	x	-	z
-	Z	Z	-	X	x	-	z
-	Z	Z	-	X	x	-	z
-	Z	Z	-	X	x	-	z
-	Z	Z	-	X	x	-	z
-	Z	Z	-	X	x	-	z
-	Z	Z	-	X	x	-	z
-	Z	Z	-	X	x	-	z
-	Z	Z	-	X	x	-	z
-	Z	Z	-	X	x	-	z
-	Z	Z	-	X	x	-	z
-	Z	Z	-	X	x	-	z
-	Z	Z	-	X	x	-	z
-	Z	Z	-	X	x	-	z
-	Z	Z	-	X	x	-	z
-	Z	Z	-	X	x	-	z
-	Z	Z	-	X	x	-	z
-	Z	Z	-	X	x	-	z
-	Z	Z	-	X	x	-	z
-	Z	Z	-	X	x	-	z
-	z	Z	-	X	x	-	z
-	y	Z	-	X	x	-	z
-	y	Z	-	X	x	-	z
-	z	Z	-	X	x	-	z
-	z	Z	-	X	x	-	z
-	z	Z	-	X	x	-	z
-	y	Z	-	X	x	-	z
-	z	Z	-	X	x	-	z
-	z	Z	-	X	x	-	z
-	z	Z	-	X	x	-	z
-	z	Z	-	X	x	-	z
-	z	Z	-	X	x	-	z
-	y	Z	-	X	x	-	z
-	y	Z	-	X	x	-	z
-	z	Z	-	X	x	-	z
-	z	Z	-	X	x	-	z
-	y	Z	-	X	x	-	z
Z	Z	Z	-	X	x	-	z
-	z	Z	-	X	x	-	z
-	y	Z	-	X	x	-	z
-	z	Z	-	X	x	-	z
-	z	Z	-	X	x	-	z
-	Z	Z	-	Z	-	-	z
-	Z	Z	-	Z	-	-	z
-	Z	Z	-	Z	-	-	z
-	Z	Z	-	Z	-	-	z
z	z	Z	-	X	x	-	z
z	z	Z	-	X	x	-	z
x	y	Z	-	X	x	-	z
y	z	Z	-	X	x	-	z
z	z	Z	-	X	x	-	z
y	z	Z	-	X	x	-	z
x	Z	Z	-	Z	-	-	z
y	Z	Z	-	Z	-	-	z
z	Z	Z	-	Z	-	-	z
y	Z	Z	-	Z	-	-	z
y	Z	Z	-	Z	-	-	z
x	Z	Z	-	Z	-	-	z
z	Z	Z	-	Z	-	-	z
z	Z	Z	-	Z	-	-	z
z	Z	Z	-	Z	-	-	z
y	Z	Z	-	Z	-	-	z
z	Z	Z	-	Z	-	-	z
Z	Z	Z	-	X	x	-	z
Z	Z	Z	-	X	x	-	z
Z	Z	Z	-	X	x	-	z
Z	Z	Z	-	X	x	-	z
Z	Z	Z	-	X	x	-	z
Z	Z	Z	-	X	x	-	z
Z	Z	Z	-	X	x	-	z
Z	Z	Z	-	X	x	-	z
Z	Z	Z	-	X	x	-	z
Z	Z	Z	-	X	x	-	z
Z	Z	Z	-	X	x	-	z
Z	Z	Z	-	X	x	-	z
Z	Z	Z	-	X	x	-	z
Z	Z	Z	-	X	x	-	z
Z	Z	Z	-	X	x	-	z
Z	Z	Z	-	X	x	-	z
Z	Z	Z	-	X	x	-	z
-	Z	Z	-	X	x	-	z
-	Z	Z	-	X	x	-	z
-	Z	Z	-	X	x	-	z
Z	Z	Z	-	X	x	-	z
-	Z	Z	-	X	x	-	z
-	Z	Z	-	X	x	-	z
-	Z	Z	-	X	x	-	z
-	Z	Z	-	X	x	-	z
-	Z	Z	-	X	x	-	z
-	Z	Z	-	X	x	-	z
-	Z	Z	-	X	x	-	z
-	Z	Z	-	X	x	-	z
-	Z	Z	-	X	x	-	z
z	Z	Z	-	X	x	-	z
z	Z	Z	-	X	x	-	z
y	Z	Z	-	X	x	-	z
x	Z	Z	-	X	x	-	z
y	Z	Z	-	X	x	-	z
x	Z	Z	-	X	x	-	z
y	Z	Z	-	X	x	-	z
x	Z	Z	-	X	x	-	z
y	Z	Z	-	X	x	-	z
-	z	Z	-	X	x	-	z
x	Z	Z	-	X	x	-	z
z	Z	Z	-	X	x	-	z
x	Z	Z	-	X	x	-	z
z	Z	Z	-	X	x	-	z
y	Z	Z	-	X	x	-	z
-	Z	Z	-	Z	-	-	z
z	Z	Z	-	X	x	-	z
x	Z	Z	-	X	x	-	z
-	Z	Z	-	X	x	-	z
-	Z	Z	-	X	x	-	z
-	Z	Z	-	X	x	-	z
-	Z	Z	-	X	x	-	z
-	Z	Z	-	X	x	-	z
-	z	Z	-	X	x	-	z
-	z	Z	-	X	x	-	z
-	z	Z	-	X	x	-	z
-	z	Z	-	X	x	-	z
-	Z	Z	-	Z	-	-	z
y	z	Z	-	X	x	-	z
z	z	Z	-	X	x	-	z
z	Z	Z	-	Z	-	-	z
y	Z	Z	-	Z	-	-	z
Z	Z	Z	-	X	x	-	z
Z	Z	Z	-	X	x	-	z
Z	Z	Z	-	X	x	-	z
Z	Z	Z	-	X	x	-	z
-	Z	Z	-	X	x	-	z
-	Z	Z	-	X	x	-	z
-	Z	Z	-	X	x	-	z
-	Z	Z	-	X	x	-	z
-	Z	Z	-	X	x	-	z
-	Z	Z	-	X	x	-	z
-	Z	Z	-	X	x	-	z
-	Z	Z	-	X	x	-	z
-	Z	Z	-	X	x	-	z
-	Z	Z	-	X	x	-	z
y	Z	Z	-	X	x	-	z
y	Z	Z	-	X	x	-	z
y	Z	Z	-	X	x	-	z
y	Z	Z	-	X	x	-	z
y	Z	Z	-	X	x	-	z
z	Z	Z	-	X	x	-	z
z	Z	Z	-	X	x	-	z
z	Z	Z	-	X	x	-	z
y	Z	Z	-	X	x	-	z
-	Z	Z	-	X	x	-	z
-	Z	Z	-	X	x	-	z
-	Z	Z	-	X	x	-	z
-	Z	Z	-	X	x	-	z
-	Z	Z	-	X	x	-	z
-	Z	Z	-	X	x	-	z
-	Z	Z	-	X	x	-	z
-	z	Z	-	X	x	-	z
-	z	Z	-	X	x	-	z
-	y	Z	-	X	x	-	z
-	z	Z	-	X	x	-	z
-	y	Z	-	X	x	-	z
-	z	Z	-	X	x	-	z
-	z	Z	-	X	x	-	z
-	Z	Z	-	Z	-	-	z
y	z	Z	-	X	x	-	z
x	y	Z	-	X	x	-	z
x	Z	Z	-	Z	-	-	z
x	Z	Z	-	Z	-	-	z
z	Z	Z	-	Z	-	-	z
Z	Z	Z	-	X	x	-	z
Z	Z	Z	-	X	x	-	z
Z	Z	Z	-	X	x	-	z
Z	Z	Z	-	X	x	-	z
Z	Z	Z	-	X	x	-	z
Z	Z	Z	-	X	x	-	z
Z	Z	Z	-	X	x	-	z
-	Z	Z	-	X	x	-	z
-	Z	Z	-	X	x	-	z
-	Z	Z	-	X	x	-	z
-	Z	Z	-	X	x	-	z
-	Z	Z	-	X	x	-	z
-	Z	Z	-	X	x	-	z
Z	Z	Z	-	X	x	-	z
-	Z	Z	-	X	x	-	z
-	Z	Z	-	X	x	-	z
-	Z	Z	-	X	x	-	z
-	Z	Z	-	X	x	-	z
-	Z	Z	-	X	x	-	z
z	Z	Z	-	X	x	-	z
z	Z	Z	-	X	x	-	z
x	Z	Z	-	X	x	-	z
y	Z	Z	-	X	x	-	z
y	Z	Z	-	X	x	-	z
x	Z	Z	-	X	x	-	z
z	Z	Z	-	X	x	-	z
x	Z	Z	-	X	x	-	z
z	Z	Z	-	X	x	-	z
z	Z	Z	-	X	x	-	z
y	Z	Z	-	X	x	-	z
-	Z	Z	-	X	x	-	z
-	Z	Z	-	X	x	-	z
-	Z	Z	-	X	x	-	z
-	Z	Z	-	X	x	-	z
-	Z	Z	-	X	x	-	z
-	Z	Z	-	X	x	-	z
-	z	Z	-	X	x	-	z
-	z	Z	-	X	x	-	z
-	Z	Z	-	Z	-	-	z
-	y	Z	-	X	x	-	z
-	y	Z	-	X	x	-	z
-	y	Z	-	X	x	-	z
-	y	Z	-	X	x	-	z
-	z	Z	-	X	x	-	z
x	y	Z	-	X	x	-	z
z	z	Z	-	X	x	-	z
y	Z	Z	-	Z	-	-	z
z	Z	Z	-	Z	-	-	z
Z	Z	Z	-	X	x	-	z
Z	Z	Z	-	X	x	-	z
-	Z	Z	-	X	x	-	z
-	Z	Z	-	X	x	-	z
-	Z	Z	-	X	x	-	z
-	Z	Z	-	X	x	-	z
-	Z	Z	-	X	x	-	z
-	Z	Z	-	X	x	-	z
-	Z	Z	-	X	x	-	z
-	Z	Z	-	X	x	-	z
-	Z	Z	-	X	x	-	z
-	Z	Z	-	X	x	-	z
-	Z	Z	-	X	x	-	z
-	Z	Z	-	X	x	-	z
-	Z	Z	-	X	x	-	z
-	Z	Z	-	X	x	-	z
-	Z	Z	-	X	x	-	z
-	Z	Z	-	X	x	-	z
-	Z	Z	-	X	x	-	z
-	Z	Z	-	X	x	-	z
-	Z	Z	-	X	x	-	z
z	Z	Z	-	X	x	-	z
x	Z	Z	-	X	x	-	z
z	Z	Z	-	X	x	-	z
z	Z	Z	-	X	x	-	z
y	Z	Z	-	X	x	-	z
y	Z	Z	-	X	x	-	z
y	Z	Z	-	X	x	-	z
-	Z	Z	-	X	x	-	z
-	Z	Z	-	X	x	-	z
-	Z	Z	-	X	x	-	z
-	Z	Z	-	X	x	-	z
-	Z	Z	-	X	x	-	z
-	Z	Z	-	X	x	-	z
-	Z	Z	-	X	x	-	z
-	z	Z	-	X	x	-	z
-	y	Z	-	X	x	-	z
z	z	Z	-	X	x	-	z
-	z	Z	-	X	x	-	z
-	y	Z	-	X	x	-	z
-	z	Z	-	X	x	-	z
-	z	Z	-	X	x	-	z
-	z	Z	-	X	x	-	z
-	Z	Z	-	Z	-	-	z
-	Z	Z	-	Z	-	-	z
-	Z	Z	-	Z	-	-	z
-	Z	Z	-	Z	-	-	z
-	Z	Z	-	Z	-	-	z
-	Z	Z	-	Z	-	-	z
-	Z	Z	-	Z	-	-	z
y	z	Z	-	X	x	-	z
y	z	Z	-	X	x	-	z
y	z	Z	-	X	x	-	z
y	z	Z	-	X	x	-	z
x	y	Z	-	X	x	-	z
z	z	Z	-	X	x	-	z
z	Z	Z	-	Z	-	-	z
z	Z	Z	-	Z	-	-	z
z	Z	Z	-	Z	-	-	z
y	Z	Z	-	Z	-	-	z
Z	Z	Z	-	X	x	-	z
Z	Z	Z	-	X	x	-	z
Z	Z	Z	-	X	x	-	z
-	Z	Z	-	X	x	-	z
-	Z	Z	-	X	x	-	z
-	Z	Z	-	X	x	-	z
-	Z	Z	-	X	x	-	z
-	Z	Z	-	X	x	-	z
-	Z	Z	-	X	x	-	z
z	Z	Z	-	X	x	-	z
x	Z	Z	-	X	x	-	z
z	Z	Z	-	X	x	-	z
y	Z	Z	-	X	x	-	z
y	Z	Z	-	X	x	-	z
y	Z	Z	-	X	x	-	z
z	Z	Z	-	X	x	-	z
x	Z	Z	-	X	x	-	z
z	Z	Z	-	X	x	-	z
z	Z	Z	-	X	x	-	z
z	Z	Z	-	X	x	-	z
y	Z	Z	-	X	x	-	z
x	Z	Z	-	X	x	-	z
-	Z	Z	-	X	x	-	z
-	Z	Z	-	X	x	-	z
-	Z	Z	-	X	x	-	z
-	Z	Z	-	X	x	-	z
-	Z	Z	-	X	x	-	z
-	Z	Z	-	X	x	-	z
-	z	Z	-	X	x	-	z
-	z	Z	-	X	x	-	z
-	z	Z	-	X	x	-	z
-	z	Z	-	X	x	-	z
-	z	Z	-	X	x	-	z
-	y	Z	-	X	x	-	z
-	z	Z	-	X	x	-	z
-	Z	Z	-	Z	-	-	z
-	Z	Z	-	Z	-	-	z
-	Z	Z	-	Z	-	-	z
z	z	Z	-	X	x	-	z
x	y	Z	-	X	x	-	z
y	z	Z	-	X	x	-	z
z	Z	Z	-	Z	-	-	z
z	Z	Z	-	Z	-	-	z
y	Z	Z	-	Z	-	-	z
Z	Z	Z	-	X	x	-	z
Z	Z	Z	-	X	x	-	z
Z	Z	Z	-	X	x	-	z
Z	Z	Z	-	X	x	-	z
-	Z	Z	-	X	x	-	z
-	Z	Z	-	X	x	-	z
-	Z	Z	-	X	x	-	z
y	Z	Z	-	X	x	-	z
-	Z	Z	-	X	x	-	z
-	Z	Z	-	X	x	-	z
-	Z	Z	-	X	x	-	z
-	Z	Z	-	X	x	-	z
-	Z	Z	-	X	x	-	z
-	y	Z	-	X	x	-	z
-	Z	Z	-	X	x	-	z
-	Z	Z	-	X	x	-	z
-	Z	Z	-	X	x	-	z
-	Z	Z	-	X	x	-	z
-	Z	Z	-	X	x	-	z
-	Z	Z	-	X	x	-	z
-	Z	Z	-	X	x	-	z
z	Z	Z	-	X	x	-	z
y	Z	Z	-	X	x	-	z
y	Z	Z	-	X	x	-	z
z	Z	Z	-	X	x	-	z
z	Z	Z	-	X	x	-	z
y	Z	Z	-	X	x	-	z
x	Z	Z	-	X	x	-	z
y	Z	Z	-	X	x	-	z
y	Z	Z	-	X	x	-	z
x	Z	Z	-	X	x	-	z
z	Z	Z	-	X	x	-	z
z	Z	Z	-	X	x	-	z
-	z	Z	-	X	x	-	z
-	z	Z	-	X	x	-	z
z	Z	Z	-	X	x	-	z
z	Z	Z	-	X	x	-	z
z	Z	Z	-	X	x	-	z
y	Z	Z	-	X	x	-	z
z	Z	Z	-	X	x	-	z
z	Z	Z	-	X	x	-	z
-	Z	Z	-	X	x	-	z
-	Z	Z	-	X	x	-	z
-	Z	Z	-	X	x	-	z
-	Z	Z	-	X	x	-	z
-	Z	Z	-	X	x	-	z
-	Z	Z	-	X	x	-	z
-	Z	Z	-	X	x	-	z
-	Z	Z	-	X	x	-	z
-	Z	Z	-	X	x	-	z
-	Z	Z	-	X	x	-	z
-	Z	Z	-	X	x	-	z
-	Z	Z	-	X	x	-	z
-	Z	Z	-	X	x	-	z
-	y	Z	-	X	x	-	z
-	z	Z	-	X	x	-	z
-	z	Z	-	X	x	-	z
-	y	Z	-	X	x	-	z
-	y	Z	-	X	x	-	z
-	z	Z	-	X	x	-	z
-	y	Z	-	X	x	-	z
-	z	Z	-	X	x	-	z
-	Z	Z	-	Z	-	-	z
-	Z	Z	-	Z	-	-	z
-	Z	Z	-	Z	-	-	z
-	Z	Z	-	Z	-	-	z
-	Z	Z	-	Z	-	-	z
z	z	Z	-	X	x	-	z
x	y	Z	-	X	x	-	z
z	z	Z	-	X	x	-	z
z	z	Z	-	X	x	-	z
y	Z	Z	-	Z	-	-	z
z	Z	Z	-	Z	-	-	z
z	Z	Z	-	Z	-	-	z
x	Z	Z	-	Z	-	-	z
x	Z	Z	-	Z	-	-	z
Z	Z	Z	-	X	x	-	z
Z	Z	Z	-	X	x	-	z
Z	Z	Z	-	X	x	-	z
Z	Z	Z	-	X	x	-	z
-	Z	Z	-	X	x	-	z
-	Z	Z	-	X	x	-	z
-	Z	Z	-	X	x	-	z
-	Z	Z	-	X	x	-	z
-	Z	Z	-	X	x	-	z
-	Z	Z	-	X	x	-	z
Z	Z	Z	-	X	x	-	z
y	Z	Z	-	X	x	-	z
z	Z	Z	-	X	x	-	z
-	Z	Z	-	Z	-	-	z
z	Z	Z	-	X	x	-	z
x	Z	Z	-	X	x	-	z
z	Z	Z	-	X	x	-	z
z	Z	Z	-	X	x	-	z
-	Z	Z	-	X	x	-	z
-	Z	Z	-	X	x	-	z
-	Z	Z	-	X	x	-	z
-	Z	Z	-	X	x	-	z
-	z	Z	-	X	x	-	z
-	z	Z	-	X	x	-	z
-	z	Z	-	X	x	-	z
-	y	Z	-	X	x	-	z
-	y	Z	-	X	x	-	z
-	z	Z	-	X	x	-	z
-	z	Z	-	X	x	-	z
-	y	Z	-	X	x	-	z
-	z	Z	-	X	x	-	z
-	Z	Z	-	Z	-	-	z
-	Z	Z	-	Z	-	-	z
y	z	Z	-	X	x	-	z
x	Z	Z	-	Z	-	-	z
z	Z	Z	-	Z	-	-	z
Z	Z	Z	-	X	x	-	z
Z	Z	Z	-	X	x	-	z
Z	Z	Z	-	X	x	-	z
Z	Z	Z	-	X	x	-	z
-	Z	Z	-	X	x	-	z
-	Z	Z	-	X	x	-	z
-	Z	Z	-	X	x	-	z
-	Z	Z	-	X	x	-	z
-	Z	Z	-	X	x	-	z
-	Z	Z	-	X	x	-	z
z	Z	Z	-	X	x	-	z
z	Z	Z	-	X	x	-	z
y	Z	Z	-	X	x	-	z
y	Z	Z	-	X	x	-	z
x	Z	Z	-	X	x	-	z
x	Z	Z	-	X	x	-	z
y	Z	Z	-	X	x	-	z
-	Z	Z	-	X	x	-	z
-	Z	Z	-	X	x	-	z
-	Z	Z	-	X	x	-	z
-	z	Z	-	X	x	-	z
-	y	Z	-	X	x	-	z
-	z	Z	-	X	x	-	z
-	z	Z	-	X	x	-	z
-	z	Z	-	X	x	-	z
-	Z	Z	-	Z	-	-	z
-	Z	Z	-	Z	-	-	z
-	Z	Z	-	Z	-	-	z
-	Z	Z	-	Z	-	-	z
z	z	Z	-	X	x	-	z
y	z	Z	-	X	x	-	z
y	z	Z	-	X	x	-	z
z	z	Z	-	X	x	-	z
z	Z	Z	-	Z	-	-	z
x	Z	Z	-	Z	-	-	z
Z	Z	Z	-	X	x	-	z
Z	Z	Z	-	X	x	-	z
Z	Z	Z	-	X	x	-	z
Z	Z	Z	-	X	x	-	z
Z	Z	Z	-	X	x	-	z
Z	Z	Z	-	X	x	-	z
-	Z	Z	-	X	x	-	z
-	Z	Z	-	X	x	-	z
-	Z	Z	-	X	x	-	z
-	Z	Z	-	X	x	-	z
-	Z	Z	-	X	x	-	z
-	Z	Z	-	X	x	-	z
-	Z	Z	-	X	x	-	z
-	Z	Z	-	X	x	-	z
-	Z	Z	-	X	x	-	z
-	Z	Z	-	X	x	-	z
-	Z	Z	-	X	x	-	z
-	Z	Z	-	X	x	-	z
-	Z	Z	-	X	x	-	z
-	Z	Z	-	X	x	-	z
-	Z	Z	-	X	x	-	z
-	Z	Z	-	X	x	-	z
-	Z	Z	-	X	x	-	z
-	Z	Z	-	X	x	-	z
-	Z	Z	-	X	x	-	z
-	y	Z	-	X	x	-	z
-	Z	Z	-	X	x	-	z
-	Z	Z	-	X	x	-	z
z	Z	Z	-	X	x	-	z
z	Z	Z	-	X	x	-	z
y	Z	Z	-	X	x	-	z
y	Z	Z	-	X	x	-	z
x	Z	Z	-	X	x	-	z
Z	Z	Z	-	X	x	-	z
y	Z	Z	-	X	x	-	z
x	Z	Z	-	X	x	-	z
z	Z	Z	-	X	x	-	z
z	Z	Z	-	X	x	-	z
y	Z	Z	-	X	x	-	z
y	Z	Z	-	Z	-	-	z
z	Z	Z	-	X	x	-	z
y	z	Z	-	X	x	-	z
y	Z	Z	-	X	x	-	z
z	Z	Z	-	X	x	-	z
y	Z	Z	-	X	x	-	z
y	Z	Z	-	X	x	-	z
x	Z	Z	-	X	x	-	z
y	Z	Z	-	X	x	-	z
x	Z	Z	-	X	x	-	z
y	Z	Z	-	X	x	-	z
z	Z	Z	-	X	x	-	z
x	Z	Z	-	X	x	-	z
-	Z	Z	-	X	x	-	z
-	Z	Z	-	X	x	-	z
-	Z	Z	-	X	x	-	z
-	Z	Z	-	X	x	-	z
-	Z	Z	-	X	x	-	z
-	Z	Z	-	X	x	-	z
-	Z	Z	-	X	x	-	z
-	Z	Z	-	X	x	-	z
-	Z	Z	-	X	x	-	z
-	Z	Z	-	X	x	-	z
-	Z	Z	-	X	x	-	z
-	Z	Z	-	X	x	-	z
-	Z	Z	-	X	x	-	z
-	z	Z	-	X	x	-	z
-	z	Z	-	X	x	-	z
-	y	Z	-	X	x	-	z
-	y	Z	-	X	x	-	z
-	y	Z	-	X	x	-	z
-	y	Z	-	X	x	-	z
-	z	Z	-	X	x	-	z
-	y	Z	-	X	x	-	z
-	Z	Z	-	Z	-	-	z
x	y	Z	-	X	x	-	z
y	z	Z	-	X	x	-	z
x	y	Z	-	X	x	-	z
y	Z	Z	-	Z	-	-	z
y	z	Z	-	X	x	-	z
x	y	Z	-	X	x	-	z
z	z	Z	-	X	x	-	z
z	Z	Z	-	Z	-	-	z
x	Z	Z	-	Z	-	-	z
y	Z	Z	-	Z	-	-	z
z	Z	Z	-	Z	-	-	z
y	Z	Z	-	Z	-	-	z
y	Z	Z	-	Z	-	-	z
y	Z	Z	-	Z	-	-	z
Z	Z	Z	-	X	x	-	z
Z	Z	Z	-	X	x	-	z
Z	Z	Z	-	X	x	-	z
Z	Z	Z	-	X	x	-	z
Z	Z	Z	-	X	x	-	z
Z	Z	Z	-	X	x	-	z
Z	Z	Z	-	X	x	-	z
Z	Z	Z	-	X	x	-	z
Z	Z	Z	-	X	x	-	z
Z	Z	Z	-	X	x	-	z
Z	Z	Z	-	X	x	-	z
-	Z	Z	-	X	x	-	z
z	Z	Z	-	X	x	-	z
-	Z	Z	-	X	x	-	z
-	Z	Z	-	X	x	-	z
-	Z	Z	-	X	x	-	z
-	Z	Z	-	X	x	-	z
-	Z	Z	-	X	x	-	z
-	Z	Z	-	X	x	-	z
-	Z	Z	-	X	x	-	z
-	Z	Z	-	X	x	-	z
-	Z	Z	-	X	x	-	z
-	Z	Z	-	X	x	-	z
-	Z	Z	-	X	x	-	z
-	Z	Z	-	X	x	-	z
-	Z	Z	-	X	x	-	z
-	Z	Z	-	X	x	-	z
-	Z	Z	-	X	x	-	z
-	Z	Z	-	Z	-	-	z
-	Z	Z	-	X	x	-	z
-	Z	Z	-	X	x	-	z
-	Z	Z	-	X	x	-	z
x	Z	Z	-	X	x	-	z
y	Z	Z	-	X	x	-	z
x	Z	Z	-	X	x	-	z
y	Z	Z	-	X	x	-	z
z	Z	Z	-	X	x	-	z
y	Z	Z	-	X	x	-	z
y	Z	Z	-	X	x	-	z
x	Z	Z	-	X	x	-	z
x	Z	Z	-	X	x	-	z
x	Z	Z	-	X	x	-	z
y	Z	Z	-	X	x	-	z
x	Z	Z	-	X	x	-	z
-	Z	Z	-	X	x	-	z
-	Z	Z	-	X	x	-	z
-	Z	Z	-	X	x	-	z
-	Z	Z	-	X	x	-	z
-	y	Z	-	X	x	-	z
-	z	Z	-	X	x	-	z
-	z	Z	-	X	x	-	z
-	y	Z	-	X	x	-	z
-	y	Z	-	X	x	-	z
-	y	Z	-	X	x	-	z
-	z	Z	-	X	x	-	z
-	z	Z	-	X	x	-	z
-	z	Z	-	X	x	-	z
-	z	Z	-	X	x	-	z
-	Z	Z	-	Z	-	-	z
-	Z	Z	-	Z	-	-	z
-	Z	Z	-	Z	-	-	z
-	Z	Z	-	Z	-	-	z
-	Z	Z	-	Z	-	-	z
-	Z	Z	-	Z	-	-	z
y	z	Z	-	X	x	-	z
z	z	Z	-	X	x	-	z
y	z	Z	-	X	x	-	z
z	z	Z	-	X	x	-	z
x	y	Z	-	X	x	-	z
z	z	Z	-	X	x	-	z
z	z	Z	-	X	x	-	z
z	z	Z	-	X	x	-	z
y	z	Z	-	X	x	-	z
y	Z	Z	-	Z	-	-	z
z	Z	Z	-	Z	-	-	z
z	Z	Z	-	Z	-	-	z
Z	Z	Z	-	X	x	-	z
Z	Z	Z	-	X	x	-	z
Z	Z	Z	-	X	x	-	z
Z	Z	Z	-	X	x	-	z
Z	Z	Z	-	X	x	-	z
Z	Z	Z	-	X	x	-	z
Z	Z	Z	-	X	x	-	z
-	Z	Z	-	X	x	-	z
-	Z	Z	-	X	x	-	z
x	y	Z	-	X	x	-	z
-	Z	Z	-	X	x	-	z
-	Z	Z	-	X	x	-	z
-	Z	Z	-	X	x	-	z
-	Z	Z	-	X	x	-	z
-	Z	Z	-	X	x	-	z
-	Z	Z	-	X	x	-	z
-	Z	Z	-	X	x	-	z
-	Z	Z	-	X	x	-	z
-	Z	Z	-	X	x	-	z
-	Z	Z	-	X	x	-	z
-	Z	Z	-	X	x	-	z
-	Z	Z	-	X	x	-	z
-	Z	Z	-	X	x	-	z
-	Z	Z	-	X	x	-	z
-	Z	Z	-	X	x	-	z
-	Z	Z	-	X	x	-	z
-	Z	Z	-	X	x	-	z
-	Z	Z	-	X	x	-	z
-	Z	Z	-	X	x	-	z
-	Z	Z	-	X	x	-	z
-	Z	Z	-	X	x	-	z
-	Z	Z	-	X	x	-	z
-	Z	Z	-	X	x	-	z
-	Z	Z	-	X	x	-	z
z	Z	Z	-	Z	-	-	z
-	Z	Z	-	X	x	-	z
z	Z	Z	-	X	x	-	z
y	Z	Z	-	X	x	-	z
z	Z	Z	-	X	x	-	z
z	Z	Z	-	X	x	-	z
x	Z	Z	-	X	x	-	z
y	Z	Z	-	X	x	-	z
y	Z	Z	-	X	x	-	z
x	Z	Z	-	X	x	-	z
x	Z	Z	-	X	x	-	z
y	Z	Z	-	X	x	-	z
x	Z	Z	-	X	x	-	z
z	Z	Z	-	X	x	-	z
y	Z	Z	-	X	x	-	z
z	Z	Z	-	X	x	-	z
y	Z	Z	-	X	x	-	z
y	Z	Z	-	X	x	-	z
z	Z	Z	-	X	x	-	z
z	Z	Z	-	X	x	-	z
z	Z	Z	-	X	x	-	z
z	Z	Z	-	X	x	-	z
z	Z	Z	-	X	x	-	z
y	Z	Z	-	Z	-	-	z
z	Z	Z	-	X	x	-	z
x	Z	Z	-	X	x	-	z
y	Z	Z	-	X	x	-	z
z	Z	Z	-	X	x	-	z
y	Z	Z	-	X	x	-	z
x	Z	Z	-	X	x	-	z
y	Z	Z	-	X	x	-	z
z	Z	Z	-	X	x	-	z
y	Z	Z	-	X	x	-	z
-	Z	Z	-	X	x	-	z
-	Z	Z	-	X	x	-	z
-	Z	Z	-	X	x	-	z
-	Z	Z	-	X	x	-	z
-	Z	Z	-	X	x	-	z
-	Z	Z	-	X	x	-	z
-	Z	Z	-	X	x	-	z
-	Z	Z	-	X	x	-	z
-	Z	Z	-	X	x	-	z
-	Z	Z	-	X	x	-	z
-	Z	Z	-	X	x	-	z
-	y	Z	-	X	x	-	z
-	y	Z	-	X	x	-	z
-	y	Z	-	X	x	-	z
-	z	Z	-	X	x	-	z
-	y	Z	-	X	x	-	z
-	y	Z	-	X	x	-	z
-	z	Z	-	X	x	-	z
-	z	Z	-	X	x	-	z
-	y	Z	-	X	x	-	z
-	y	Z	-	X	x	-	z
-	y	Z	-	X	x	-	z
-	z	Z	-	X	x	-	z
-	z	Z	-	X	x	-	z
-	z	Z	-	X	x	-	z
-	Z	Z	-	Z	-	-	z
-	Z	Z	-	Z	-	-	z
y	z	Z	-	X	x	-	z
x	y	Z	-	X	x	-	z
y	z	Z	-	X	x	-	z
x	y	Z	-	X	x	-	z
z	z	Z	-	X	x	-	z
z	z	Z	-	X	x	-	z
x	y	Z	-	X	x	-	z
z	Z	Z	-	Z	-	-	z
Z	Z	Z	-	X	x	-	z
y	Z	Z	-	Z	-	-	z
y	Z	Z	-	Z	-	-	z
x	Z	Z	-	Z	-	-	z
z	Z	Z	-	Z	-	-	z
z	Z	Z	-	Z	-	-	z
y	Z	Z	-	Z	-	-	z
x	Z	Z	-	Z	-	-	z
Z	Z	Z	-	X	x	-	z
Z	Z	Z	-	X	x	-	z
Z	Z	Z	-	X	x	-	z
Z	Z	Z	-	X	x	-	z
Z	Z	Z	-	X	x	-	z
Z	Z	Z	-	X	x	-	z
Z	Z	Z	-	X	x	-	z
Z	Z	Z	-	X	x	-	z
Z	Z	Z	-	X	x	-	z
Z	Z	Z	-	X	x	-	z
-	Z	Z	-	X	x	-	z
-	Z	Z	-	X	x	-	z
-	Z	Z	-	X	x	-	z
-	Z	Z	-	X	x	-	z
-	Z	Z	-	X	x	-	z
-	Z	Z	-	X	x	-	z
-	Z	Z	-	X	x	-	z
-	Z	Z	-	X	x	-	z
-	Z	Z	-	X	x	-	z
-	Z	Z	-	X	x	-	z
-	Z	Z	-	X	x	-	z
-	Z	Z	-	X	x	-	z
-	Z	Z	-	X	x	-	z
-	Z	Z	-	X	x	-	z
-	Z	Z	-	X	x	-	z
-	Z	Z	-	X	x	-	z
-	Z	Z	-	X	x	-	z
-	Z	Z	-	X	x	-	z
-	Z	Z	-	X	x	-	z
-	Z	Z	-	X	x	-	z
-	Z	Z	-	X	x	-	z
x	Z	Z	-	X	x	-	z
z	Z	Z	-	X	x	-	z
x	Z	Z	-	X	x	-	z
z	Z	Z	-	X	x	-	z
z	Z	Z	-	X	x	-	z
z	Z	Z	-	X	x	-	z
z	Z	Z	-	X	x	-	z
z	Z	Z	-	X	x	-	z
x	Z	Z	-	X	x	-	z
y	Z	Z	-	X	x	-	z
z	Z	Z	-	X	x	-	z
z	Z	Z	-	X	x	-	z
z	Z	Z	-	X	x	-	z
y	Z	Z	-	X	x	-	z
z	Z	Z	-	X	x	-	z
z	Z	Z	-	X	x	-	z
z	Z	Z	-	X	x	-	z
z	Z	Z	-	X	x	-	z
y	Z	Z	-	X	x	-	z
z	Z	Z	-	X	x	-	z
x	Z	Z	-	X	x	-	z
z	Z	Z	-	X	x	-	z
z	Z	Z	-	X	x	-	z
z	Z	Z	-	X	x	-	z
y	Z	Z	-	X	x	-	z
z	Z	Z	-	X	x	-	z
z	Z	Z	-	X	x	-	z
z	Z	Z	-	X	x	-	z
z	Z	Z	-	X	x	-	z
z	Z	Z	-	X	x	-	z
z	Z	Z	-	X	x	-	z
z	Z	Z	-	X	x	-	z
z	Z	Z	-	X	x	-	z
y	Z	Z	-	X	x	-	z
y	Z	Z	-	X	x	-	z
z	Z	Z	-	X	x	-	z
x	Z	Z	-	X	x	-	z
-	Z	Z	-	X	x	-	z
-	Z	Z	-	X	x	-	z
-	Z	Z	-	X	x	-	z
-	Z	Z	-	X	x	-	z
-	Z	Z	-	X	x	-	z
-	Z	Z	-	X	x	-	z
-	Z	Z	-	X	x	-	z
-	Z	Z	-	X	x	-	z
-	Z	Z	-	X	x	-	z
-	Z	Z	-	X	x	-	z
-	Z	Z	-	X	x	-	z
-	Z	Z	-	X	x	-	z
-	y	Z	-	X	x	-	z
-	z	Z	-	X	x	-	z
-	y	Z	-	X	x	-	z
-	z	Z	-	X	x	-	z
-	z	Z	-	X	x	-	z
-	y	Z	-	X	x	-	z
-	y	Z	-	X	x	-	z
-	Z	Z	-	Z	-	-	z
-	Z	Z	-	Z	-	-	z
-	Z	Z	-	Z	-	-	z
x	y	Z	-	X	x	-	z
y	z	Z	-	X	x	-	z
y	z	Z	-	X	x	-	z
y	z	Z	-	X	x	-	z
z	z	Z	-	X	x	-	z
z	z	Z	-	X	x	-	z
x	y	Z	-	X	x	-	z
y	z	Z	-	X	x	-	z
z	Z	Z	-	Z	-	-	z
y	Z	Z	-	Z	-	-	z
x	Z	Z	-	Z	-	-	z
z	Z	Z	-	Z	-	-	z
y	Z	Z	-	Z	-	-	z
y	Z	Z	-	Z	-	-	z
z	Z	Z	-	Z	-	-	z
Z	Z	Z	-	X	x	-	z
Z	Z	Z	-	X	x	-	z
Z	Z	Z	-	X	x	-	z
Z	Z	Z	-	X	x	-	z
-	Z	Z	-	X	x	-	z
-	Z	Z	-	X	x	-	z
-	Z	Z	-	X	x	-	z
-	Z	Z	-	X	x	-	z
-	Z	Z	-	X	x	-	z
-	Z	Z	-	X	x	-	z
-	Z	Z	-	X	x	-	z
-	Z	Z	-	X	x	-	z
-	Z	Z	-	X	x	-	z
-	Z	Z	-	X	x	-	z
z	Z	Z	-	X	x	-	z
x	Z	Z	-	X	x	-	z
y	Z	Z	-	X	x	-	z
z	Z	Z	-	X	x	-	z
z	Z	Z	-	X	x	-	z
x	Z	Z	-	X	x	-	z
z	Z	Z	-	X	x	-	z
z	Z	Z	-	X	x	-	z
x	Z	Z	-	X	x	-	z
y	Z	Z	-	X	x	-	z
z	Z	Z	-	X	x	-	z
z	Z	Z	-	X	x	-	z
z	Z	Z	-	X	x	-	z
y	Z	Z	-	X	x	-	z
z	Z	Z	-	X	x	-	z
z	Z	Z	-	X	x	-	z
x	Z	Z	-	X	x	-	z
-	Z	Z	-	X	x	-	z
-	Z	Z	-	X	x	-	z
-	Z	Z	-	X	x	-	z
-	Z	Z	-	X	x	-	z
-	Z	Z	-	X	x	-	z
-	Z	Z	-	X	x	-	z
-	y	Z	-	X	x	-	z
-	y	Z	-	X	x	-	z
-	z	Z	-	X	x	-	z
-	z	Z	-	X	x	-	z
-	z	Z	-	X	x	-	z
-	Z	Z	-	Z	-	-	z
-	Z	Z	-	Z	-	-	z
y	z	Z	-	X	x	-	z
x	y	Z	-	X	x	-	z
x	y	Z	-	X	x	-	z
z	z	Z	-	X	x	-	z
z	z	Z	-	X	x	-	z
z	z	Z	-	X	x	-	z
z	z	Z	-	X	x	-	z
y	z	Z	-	X	x	-	z
y	z	Z	-	X	x	-	z
y	Z	Z	-	Z	-	-	z
z	Z	Z	-	Z	-	-	z
z	Z	Z	-	Z	-	-	z
y	Z	Z	-	Z	-	-	z
x	Z	Z	-	Z	-	-	z
z	Z	Z	-	Z	-	-	z
z	Z	Z	-	Z	-	-	z
Z	Z	Z	-	X	x	-	z
Z	Z	Z	-	X	x	-	z
Z	Z	Z	-	X	x	-	z
Z	Z	Z	-	X	x	-	z
Z	Z	Z	-	X	x	-	z
Z	Z	Z	-	X	x	-	z
-	Z	Z	-	X	x	-	z
-	Z	Z	-	X	x	-	z
-	Z	Z	-	X	x	-	z
-	Z	Z	-	X	x	-	z
-	Z	Z	-	X	x	-	z
-	Z	Z	-	X	x	-	z
-	Z	Z	-	X	x	-	z
-	Z	Z	-	X	x	-	z
-	Z	Z	-	X	x	-	z
-	Z	Z	-	X	x	-	z
-	Z	Z	-	X	x	-	z
-	Z	Z	-	X	x	-	z
-	Z	Z	-	X	x	-	z
-	Z	Z	-	X	x	-	z
-	Z	Z	-	X	x	-	z
-	Z	Z	-	X	x	-	z
-	Z	Z	-	X	x	-	z
-	Z	Z	-	X	x	-	z
-	Z	Z	-	X	x	-	z
-	Z	Z	-	X	x	-	z
-	Z	Z	-	X	x	-	z
Z	Z	Z	-	X	x	-	z
-	Z	Z	-	X	x	-	z
-	Z	Z	-	X	x	-	z
-	Z	Z	-	X	x	-	z
-	Z	Z	-	X	x	-	z
-	Z	Z	-	X	x	-	z
z	Z	Z	-	X	x	-	z
y	Z	Z	-	X	x	-	z
z	Z	Z	-	X	x	-	z
y	Z	Z	-	X	x	-	z
x	Z	Z	-	X	x	-	z
y	Z	Z	-	X	x	-	z
z	Z	Z	-	X	x	-	z
-	Z	Z	-	X	x	-	z
x	Z	Z	-	X	x	-	z
z	Z	Z	-	X	x	-	z
y	Z	Z	-	X	x	-	z
z	Z	Z	-	X	x	-	z
z	Z	Z	-	X	x	-	z
x	Z	Z	-	X	x	-	z
x	Z	Z	-	X	x	-	z
x	Z	Z	-	X	x	-	z
x	Z	Z	-	X	x	-	z
x	Z	Z	-	X	x	-	z
y	Z	Z	-	X	x	-	z
x	Z	Z	-	X	x	-	z
y	Z	Z	-	X	x	-	z
y	Z	Z	-	X	x	-	z
z	Z	Z	-	X	x	-	z
y	Z	Z	-	X	x	-	z
-	Z	Z	-	X	x	-	z
x	Z	Z	-	X	x	-	z
z	Z	Z	-	X	x	-	z
z	Z	Z	-	X	x	-	z
z	Z	Z	-	X	x	-	z
z	Z	Z	-	X	x	-	z
y	Z	Z	-	X	x	-	z
-	Z	Z	-	X	x	-	z
-	Z	Z	-	X	x	-	z
-	Z	Z	-	X	x	-	z
-	Z	Z	-	X	x	-	z
-	Z	Z	-	X	x	-	z
-	Z	Z	-	X	x	-	z
-	Z	Z	-	X	x	-	z
-	Z	Z	-	X	x	-	z
-	Z	Z	-	X	x	-	z
-	Z	Z	-	X	x	-	z
-	Z	Z	-	X	x	-	z
-	Z	Z	-	X	x	-	z
-	Z	Z	-	X	x	-	z
-	y	Z	-	X	x	-	z
-	y	Z	-	X	x	-	z
-	z	Z	-	X	x	-	z
-	z	Z	-	X	x	-	z
-	y	Z	-	X	x	-	z
-	z	Z	-	X	x	-	z
-	z	Z	-	X	x	-	z
-	y	Z	-	X	x	-	z
-	z	Z	-	X	x	-	z
-	Z	Z	-	Z	-	-	z
-	Z	Z	-	Z	-	-	z
-	Z	Z	-	Z	-	-	z
z	z	Z	-	X	x	-	z
z	z	Z	-	X	x	-	z
z	z	Z	-	X	x	-	z
y	z	Z	-	X	x	-	z
x	y	Z	-	X	x	-	z
z	z	Z	-	X	x	-	z
x	Z	Z	-	Z	-	-	z
y	Z	Z	-	Z	-	-	z
y	Z	Z	-	Z	-	-	z
y	Z	Z	-	Z	-	-	z
z	Z	Z	-	Z	-	-	z
x	Z	Z	-	Z	-	-	z
x	Z	Z	-	Z	-	-	z
y	Z	Z	-	Z	-	-	z
y	Z	Z	-	Z	-	-	z
Z	Z	Z	-	X	x	-	z
Z	Z	Z	-	X	x	-	z
Z	Z	Z	-	X	x	-	z
Z	Z	Z	-	X	x	-	z
Z	Z	Z	-	X	x	-	z
Z	Z	Z	-	X	x	-	z
Z	Z	Z	-	X	x	-	z
Z	Z	Z	-	X	x	-	z
Z	Z	Z	-	X	x	-	z
Z	Z	Z	-	X	x	-	z
Z	Z	Z	-	X	x	-	z
Z	Z	Z	-	X	x	-	z
Z	Z	Z	-	X	x	-	z
Z	Z	Z	-	X	x	-	z
-	Z	Z	-	X	x	-	z
-	Z	Z	-	X	x	-	z
-	Z	Z	-	X	x	-	z
-	Z	Z	-	X	x	-	z
-	Z	Z	-	X	x	-	z
-	Z	Z	-	X	x	-	z
-	Z	Z	-	X	x	-	z
-	Z	Z	-	X	x	-	z
-	Z	Z	-	X	x	-	z
-	Z	Z	-	X	x	-	z
-	Z	Z	-	X	x	-	z
-	Z	Z	-	X	x	-	z
-	Z	Z	-	X	x	-	z
y	Z	Z	-	X	x	-	z
-	Z	Z	-	X	x	-	z
-	Z	Z	-	X	x	-	z
y	Z	Z	-	X	x	-	z
z	Z	Z	-	X	x	-	z
z	Z	Z	-	X	x	-	z
z	Z	Z	-	X	x	-	z
z	Z	Z	-	X	x	-	z
y	Z	Z	-	X	x	-	z
y	Z	Z	-	X	x	-	z
z	Z	Z	-	X	x	-	z
z	Z	Z	-	X	x	-	z
z	Z	Z	-	X	x	-	z
y	Z	Z	-	X	x	-	z
z	Z	Z	-	X	x	-	z
x	Z	Z	-	X	x	-	z
y	Z	Z	-	X	x	-	z
z	Z	Z	-	X	x	-	z
x	Z	Z	-	X	x	-	z
y	Z	Z	-	X	x	-	z
-	Z	Z	-	X	x	-	z
-	Z	Z	-	X	x	-	z
y	Z	Z	-	Z	-	-	z
-	Z	Z	-	X	x	-	z
-	Z	Z	-	X	x	-	z
-	z	Z	-	X	x	-	z
-	y	Z	-	X	x	-	z
-	y	Z	-	X	x	-	z
-	z	Z	-	X	x	-	z
-	y	Z	-	X	x	-	z
-	z	Z	-	X	x	-	z
-	z	Z	-	X	x	-	z
-	y	Z	-	X	x	-	z
-	y	Z	-	X	x	-	z
-	Z	Z	-	Z	-	-	z
-	Z	Z	-	Z	-	-	z
-	Z	Z	-	Z	-	-	z
-	Z	Z	-	Z	-	-	z
-	Z	Z	-	Z	-	-	z
-	Z	Z	-	Z	-	-	z
z	Z	Z	-	Z	-	-	z
x	y	Z	-	X	x	-	z
z	z	Z	-	X	x	-	z
z	z	Z	-	X	x	-	z
z	z	Z	-	X	x	-	z
x	y	Z	-	X	x	-	z
y	Z	Z	-	Z	-	-	z
y	Z	Z	-	Z	-	-	z
z	Z	Z	-	Z	-	-	z
x	Z	Z	-	Z	-	-	z
z	Z	Z	-	Z	-	-	z
z	Z	Z	-	Z	-	-	z
y	Z	Z	-	Z	-	-	z
z	Z	Z	-	Z	-	-	z
z	Z	Z	-	Z	-	-	z
z	Z	Z	-	Z	-	-	z
y	Z	Z	-	Z	-	-	z
z	Z	Z	-	Z	-	-	z
Z	Z	Z	-	X	x	-	z
Z	Z	Z	-	X	x	-	z
Z	Z	Z	-	X	x	-	z
Z	Z	Z	-	X	x	-	z
Z	Z	Z	-	X	x	-	z
Z	Z	Z	-	X	x	-	z
Z	Z	Z	-	X	x	-	z
Z	Z	Z	-	X	x	-	z
Z	Z	Z	-	X	x	-	z
-	Z	Z	-	X	x	-	z
-	Z	Z	-	X	x	-	z
-	Z	Z	-	X	x	-	z
-	Z	Z	-	X	x	-	z
-	Z	Z	-	X	x	-	z
-	Z	Z	-	X	x	-	z
-	Z	Z	-	X	x	-	z
-	Z	Z	-	X	x	-	z
-	Z	Z	-	X	x	-	z
-	Z	Z	-	X	x	-	z
-	Z	Z	-	X	x	-	z
-	Z	Z	-	X	x	-	z
-	Z	Z	-	X	x	-	z
-	Z	Z	-	X	x	-	z
-	Z	Z	-	X	x	-	z
-	Z	Z	-	X	x	-	z
z	Z	Z	-	X	x	-	z
z	Z	Z	-	X	x	-	z
z	Z	Z	-	X	x	-	z
z	Z	Z	-	X	x	-	z
x	Z	Z	-	X	x	-	z
y	Z	Z	-	X	x	-	z
x	Z	Z	-	X	x	-	z
y	Z	Z	-	X	x	-	z
x	Z	Z	-	X	x	-	z
z	Z	Z	-	X	x	-	z
z	Z	Z	-	X	x	-	z
y	Z	Z	-	X	x	-	z
z	Z	Z	-	X	x	-	z
z	Z	Z	-	X	x	-	z
z	Z	Z	-	X	x	-	z
x	Z	Z	-	X	x	-	z
z	z	Z	-	X	x	-	z
z	Z	Z	-	X	x	-	z
y	Z	Z	-	X	x	-	z
z	Z	Z	-	X	x	-	z
x	Z	Z	-	X	x	-	z
z	Z	Z	-	X	x	-	z
-	Z	Z	-	X	x	-	z
-	Z	Z	-	X	x	-	z
-	Z	Z	-	X	x	-	z
-	Z	Z	-	X	x	-	z
-	Z	Z	-	X	x	-	z
-	Z	Z	-	X	x	-	z
-	z	Z	-	X	x	-	z
-	z	Z	-	X	x	-	z
y	z	Z	-	X	x	-	z
-	Z	Z	-	Z	-	-	z
z	z	Z	-	X	x	-	z
x	y	Z	-	X	x	-	z
z	z	Z	-	X	x	-	z
z	z	Z	-	X	x	-	z
y	Z	Z	-	Z	-	-	z
z	Z	Z	-	Z	-	-	z
z	Z	Z	-	Z	-	-	z
z	Z	Z	-	Z	-	-	z
y	Z	Z	-	Z	-	-	z
Z	Z	Z	-	X	x	-	z
Z	Z	Z	-	X	x	-	z
Z	Z	Z	-	X	x	-	z
Z	Z	Z	-	X	x	-	z
Z	Z	Z	-	X	x	-	z
Z	Z	Z	-	X	x	-	z
Z	Z	Z	-	X	x	-	z
Z	Z	Z	-	X	x	-	z
-	Z	Z	-	X	x	-	z
-	Z	Z	-	X	x	-	z
-	Z	Z	-	X	x	-	z
-	Z	Z	-	X	x	-	z
z	Z	Z	-	X	x	-	z
z	Z	Z	-	X	x	-	z
z	Z	Z	-	X	x	-	z
y	Z	Z	-	X	x	-	z
-	z	Z	-	X	x	-	z
z	Z	Z	-	X	x	-	z
-	Z	Z	-	X	x	-	z
-	Z	Z	-	X	x	-	z
-	Z	Z	-	X	x	-	z
-	z	Z	-	X	x	-	z
-	z	Z	-	X	x	-	z
-	z	Z	-	X	x	-	z
-	Z	Z	-	Z	-	-	z
x	y	Z	-	X	x	-	z
Z	Z	Z	-	X	x	-	z
Z	Z	Z	-	X	x	-	z
Z	Z	Z	-	X	x	-	z
