0	1	2	3	4	5	6	7
							
							
							
							
	0.0	0.0		0.0			
	0.0	0.0		0.0	0.0		0.0
					0.0		0.0
	0.0	0.0		0.0	0.0		0.0
							
							
					0.0		0.0
							
	0.0	0.0		0.0			
							
							
		0.0		0.0			
							
							
							
							
0.0					0.0		0.0
							
							
0.0	0.0	0.0		0.0			
							
							
							
							
		0.0		0.0			
	0.0	0.0		0.0			
							
0.0	0.0	0.0		0.0	0.0		0.0
	0.0	0.0		1.0			
0.0					0.0		0.0
							
	0.0	0.0		0.0			
	0.0	0.0		0.0			
	0.0	0.0		0.0			
	0.0	0.0		0.0			
					0.0		0.0
	0.0	0.0		0.0			
					0.0		
					0.0		0.0
							
	0.0	0.0		0.0	0.0		0.0
	0.0				0.0		0.0
	0.0				0.0		0.0
							
							
							
	0.0	0.0		0.0			
					0.0		0.0
				0.0			
							
0.0	0.0	0.0		0.0			0.0
0.0							0.0
							
							
							
0.0							0.0
0.0	0.0	0.0		0.0	0.0		0.0
0.0	0.0	0.0		0.0	0.0		0.0
					0.0		0.0
							
0.0	0.0	0.0		0.0			
							
0.0	0.0	0.0		0.0	0.0		0.0
0.0	0.0	0.0		0.0			
0.0	0.0	0.0		0.0			
							
							
					0.0		0.0
					0.0		0.0
							
	0.0	0.0		0.0			
	52.0	0.0		0.0	0.0		0.0
					0.0		0.0
							
		0.0		0.0	0.0		0.0
							
							
					0.0		0.0
							
	0.0	0.0		0.0			
							
	0.0	0.0		0.0			
	0.0	0.0		0.0	0.0		0.0
							
	0.0	0.0		0.0			
					0.0		0.0
0.0					0.0		0.0
							
0.0	0.0	0.0		0.0	0.0		0.0
	0.0	0.0		0.0			
							
							
0.0					0.0		0.0
0.0	0.0	0.0		0.0	0.0		0.0
0.0					0.0		0.0
0.0					0.0		0.0
							
							
0.0	0.0	0.0		0.0	0.0		0.0
	0.0	0.0		0.0			
							
							
							
	0.0	0.0		0.0			
	0.0	0.0		0.0			
							
0.0	0.0	0.0		0.0	0.0		0.0
							
							
							
					0.0		0.0
					0.0		0.0
					0.0		0.0
					0.0		0.0
							
	0.0				0.0		0.0
		0.0		0.0			
		0.0		0.0			
	0.0	0.0		0.0	0.0		0.0
	0.0	0.0		0.0	0.0		0.0
		0.0		0.0			
	0.0				0.0		0.0
							
							
	0.0	0.0		0.0	0.0		0.0
	0.0				0.0		0.0
							
							
							
							
							
							
		0.0		0.0			
							
0.0	0.0				0.0		0.0
		0.0		15.0			
0.0	0.0	0.0		0.0			0.0
							
0.0							0.0
							
0.0	0.0	0.0		0.0			
0.0	0.0	0.0		0.0			
0.0	0.0	0.0		0.0			
0.0	0.0	0.0		0.0			
0.0	0.0	0.0		0.0	0.0		0.0
							
	0.0	0.0		0.0	0.0		0.0
							
							
	0.0	0.0		0.0	0.0		0.0
							
							
	0.0	0.0		0.0			
							
	0.0	0.0		0.0			
							
					0.0		0.0
					0.0		0.0
							
	0.0	0.0		0.0			
							
					0.0		0.0
							
	0.0	0.0		0.0			
							
							
					0.0		0.0
	0.0	0.0		0.0			
							
	0.0	0.0		0.0			
							
							
1.0					0.0		0.0
	0.0	0.0		0.0			
	0.0	0.0		0.0			
							0.0
							
							
0.0							
							
	0.0	0.0		0.0			
0.0					0.0		0.0
							
	0.0	0.0		0.0			
							
		0.0		0.0			
							
0.0					0.0		0.0
							
0.0					0.0		0.0
				0.0			
0.0					0.0		0.0
							
							
							
							
	0.0	0.0		0.0			
	0.0	0.0		0.0			
0.0					0.0		0.0
		0.0		0.0			
0.0	0.0	0.0		0.0	0.0		0.0
0.0					1.0		0.0
		0.0		0.0			
0.0					0.0		0.0
	0.0	0.0		0.0			
0.0	0.0	0.0		0.0	0.0		0.0
0.0					0.0		0.0
0.0					0.0		0.0
0.0					0.0		0.0
							
					0.0		0.0
	0.0	0.0		0.0			
					0.0		0.0
					0.0		0.0
	0.0	0.0		0.0			
					2.0		0.0
							
							
							
	0.0	0.0		0.0	0.0		0.0
							
							
							
					0.0		0.0
							
	0.0	0.0		0.0			
	0.0	0.0		0.0			
	0.0	0.0		0.0			
					0.0		0.0
	0.0				0.0		0.0
							
		0.0		0.0			
		0.0		0.0			
		0.0		0.0			
	0.0	0.0		0.0	0.0		0.0
		0.0		0.0			
		0.0		0.0			
	0.0				0.0		
		0.0		0.0			
		0.0		0.0			
	0.0	0.0		0.0	0.0		0.0
		0.0		0.0			
							
	0.0	0.0		0.0	0.0		0.0
					0.0		0.0
							
							
							
	0.0	0.0		0.0	0.0		0.0
	0.0				0.0		0.0
	0.0	0.0		0.0	0.0		0.0
							
							
							0.0
							0.0
		0.0		0.0			
0.0	0.0	0.0		0.0	0.0		0.0
							
0.0	0.0				0.0		0.0
							
		0.0		0.0			
							
	0.0	22.0		0.0			
							
0.0	0.0	0.0		0.0			0.0
0.0							0.0
0.0	0.0	0.0		0.0			0.0
0.0	0.0	0.0		0.0			0.0
		0.0		0.0			
							
0.0							0.0
0.0	0.0	0.0		0.0			0.0
							
					0.0		0.0
							
							
							
							
0.0	0.0	0.0		0.0			
0.0	0.0	0.0		0.0			
					70.0		0.0
0.0	0.0	0.0		0.0	0.0		0.0
0.0	0.0	0.0		0.0	105.0		0.0
							
0.0	0.0						
							
0.0	0.0	0.0		0.0			
0.0	0.0	0.0		0.0			
0.0	0.0	0.0		0.0			
							
	0.0	0.0		0.0	0.0		0.0
	0.0	0.0		0.0			
0.0	0.0	0.0		0.0			
	0.0	0.0		0.0			
	0.0	0.0		0.0			
	0.0	0.0		0.0	0.0		0.0
	0.0	0.0		0.0			
							
							
							
	0.0	0.0		0.0			
							
							
	0.0	0.0		0.0			
0.0					0.0		4.0
							
0.0	0.0	0.0			0.0		0.0
							
	0.0	0.0		0.0			
							
							
							
	0.0	0.0		0.0			
							
0.0					0.0		0.0
0.0	0.0	0.0		0.0	0.0		0.0
0.0					0.0		0.0
							
					0.0		0.0
	0.0	0.0		0.0			
							
	0.0	0.0		0.0	0.0		0.0
					0.0		0.0
							
	0.0	0.0		0.0			
	0.0				0.0		0.0
		0.0		0.0			
	0.0				0.0		0.0
	0.0				0.0		0.0
							
0.0	0.0				0.0		0.0
							
	0.0	0.0		0.0			
							
0.0	0.0	0.0		0.0			
0.0	0.0	0.0		0.0			
					0.0		0.0
							
							
							
							
	0.0	0.0		0.0			
							
					0.0		0.0
					0.0		0.0
	0.0	0.0		0.0			
							
							
							
							
					0.0		0.0
0.0	0.0	0.0		0.0	1.0		0.0
					0.0		0.0
							
							
							
0.0	0.0	0.0		0.0	0.0		0.0
							
							
							
							
							
					0.0		0.0
	0.0	0.0		0.0	0.0		0.0
	0.0	0.0		0.0	0.0		0.0
	0.0				0.0		0.0
	0.0	0.0		0.0	0.0		0.0
							
							
							
							
							
							
		0.0		0.0			
							
	0.0	0.0		0.0			
							
							
					0.0		0.0
							
							
					0.0		0.0
0.0	0.0	0.0		0.0	0.0		0.0
					0.0		0.0
							
					0.0		0.0
	0.0	0.0		0.0	0.0		0.0
					0.0		0.0
							
	0.0	0.0		0.0	0.0		0.0
0.0	0.0	0.0		0.0	0.0		0.0
					0.0		0.0
	0.0	0.0		0.0			
	0.0	0.0		0.0			
							
	0.0	0.0		0.0			
							
0.0	0.0	0.0		0.0	0.0		0.0
							
	0.0	0.0		0.0			
							
	0.0	0.0		0.0			
0.0					0.0		0.0
0.0					0.0		0.0
	0.0	0.0		0.0			
0.0					0.0		0.0
0.0					0.0		0.0
							
	0.0	0.0		0.0	0.0		0.0
							
	0.0	0.0		0.0			
	0.0				0.0		0.0
					0.0		0.0
		0.0		0.0			
	0.0				0.0		0.0
							0.0
							
	0.0				0.0		0.0
							
		0.0		0.0			
		0.0		0.0			
		0.0		0.0			
							
							
							
							
							
					0.0		0.0
							
							
					0.0		0.0
							
							
							
		0.0		0.0			
							
	0.0	0.0		0.0			
	0.0	0.0		0.0			
	0.0	0.0		0.0			
	0.0	0.0		0.0	0.0		0.0
							
							
							
					0.0		0.0
							
	0.0	0.0		0.0	0.0		0.0
							
							
							
0.0	0.0	0.0		0.0	0.0		0.0
							
0.0	0.0	0.0		0.0	0.0		0.0
	0.0	0.0		0.0			
							
					0.0		0.0
							
					0.0		0.0
	0.0	0.0		0.0			
	0.0	0.0		0.0			
							
							
	0.0				0.0		0.0
0.0	0.0				0.0		0.0
	0.0	0.0		0.0	0.0		0.0
							
	0.0				0.0		0.0
		0.0		0.0			
	0.0				0.0		0.0
	0.0	0.0		0.0			
							0.0
	0.0	0.0		0.0			0.0
							
	0.0	0.0		0.0			
							
							
							
		0.0		0.0			
0.0	0.0				0.0		0.0
		0.0		0.0			
		0.0		0.0			
							
							
0.0	0.0	0.0		0.0			0.0
							
	0.0	0.0		0.0			
					0.0		0.0
							
					0.0		0.0
					0.0		0.0
							
					0.0		0.0
	0.0	0.0		0.0	0.0		0.0
					0.0		0.0
	0.0	0.0		0.0	0.0		0.0
0.0					0.0		0.0
0.0					0.0		0.0
0.0					0.0		0.0
0.0					0.0		0.0
0.0	0.0	0.0		0.0	0.0		0.0
							
							
0.0					0.0		0.0
0.0					0.0		0.0
							
							
0.0					0.0		0.0
0.0					0.0		0.0
							
							
					0.0		0.0
					0.0		0.0
	0.0	0.0		0.0	0.0		0.0
	0.0	0.0		0.0	0.0		0.0
							
		0.0		0.0			
							
	0.0	0.0		0.0	0.0		0.0
		0.0		0.0			
		0.0		0.0			
							
							0.0
							
							0.0
							
0.0	0.0	0.0		0.0	0.0		0.0
		0.0		0.0			
0.0							0.0
							
0.0							0.0
							
							
					0.0		0.0
							
	0.0	0.0		0.0	0.0		0.0
							
	0.0	0.0		0.0	0.0		0.0
0.0	0.0	0.0		0.0	0.0		0.0
				0.0	0.0		0.0
							
							
							
	0.0	0.0		0.0	0.0		0.0
							
							
							
	0.0	0.0		0.0			
					0.0		0.0
	0.0	0.0		0.0	0.0		0.0
							
							
							
0.0	0.0	0.0		0.0	0.0		0.0
				0.0			
	0.0	0.0		0.0	0.0		0.0
	0.0	0.0		0.0			
							
0.0							
0.0	0.0	0.0		0.0	0.0		0.0
	0.0	0.0		0.0			
0.0					0.0		0.0
0.0					0.0		0.0
	0.0	0.0		0.0			
							
		0.0		0.0			
0.0					0.0		0.0
							
0.0					0.0		0.0
							
							
							
	1.0	0.0		0.0			
	0.0	0.0		0.0	0.0		0.0
							
							
	0.0	0.0		0.0	0.0		0.0
	0.0	0.0		0.0			
					0.0		0.0
	0.0	0.0		0.0			
							
	0.0	0.0		0.0			
					0.0		0.0
							
							
							
							
	0.0	0.0		0.0	0.0		0.0
		0.0		0.0			
							
		0.0		0.0			
							
							
							
							0.0
							
							
	0.0	0.0		0.0			
0.0	0.0				0.0		0.0
							
							
0.0	0.0	0.0		0.0	0.0		0.0
0.0	0.0	0.0		0.0			0.0
							
							
0.0							0.0
							
							
							
							
0.0	0.0	0.0		0.0			
	0.0	0.0		0.0			
	0.0	0.0		0.0	0.0		0.0
							
	0.0	0.0		0.0			
	0.0	0.0		0.0			
							
							
							
0.0					0.0		0.0
							0.0
	0.0	0.0		0.0			
							
0.0					0.0		0.0
	0.0	0.0		0.0			
							
							
	0.0	0.0		0.0			
					0.0		0.0
		0.0		0.0			
							
	0.0				0.0		0.0
	0.0	0.0		0.0	0.0		0.0
	0.0	0.0			0.0		0.0
	0.0				0.0		0.0
							
	0.0				0.0		0.0
	0.0				0.0		0.0
							0.0
	0.0	0.0		0.0			0.0
0.0	0.0	0.0		0.0	0.0		0.0
							
							
0.0	0.0	0.0		0.0			
							
					0.0		0.0
							
							
					0.0		0.0
							
	0.0	0.0		0.0			
							
	0.0	0.0			0.0		0.0
							
							
0.0					0.0		0.0
	0.0	0.0		0.0			
	0.0	0.0		0.0			0.0
	0.0	0.0		0.0			
0.0	0.0	0.0		0.0	0.0		0.0
					0.0		0.0
	0.0	0.0		0.0	0.0		0.0
	0.0	0.0		0.0			
	0.0				0.0		0.0
		0.0		0.0			
		0.0		0.0			
							
		0.0		0.0			
							0.0
							
	0.0	0.0		0.0			0.0
							0.0
		0.0		0.0			
							
							
							
							
0.0							0.0
							
0.0	0.0	24.0		0.0			
0.0	0.0	0.0		0.0	0.0		0.0
					0.0		0.0
0.0	0.0	0.0		0.0			
							
							
							
							
					0.0		0.0
							
					0.0		0.0
							
							
	0.0	0.0		0.0			
	0.0	0.0		0.0			
	0.0	0.0		0.0	0.0		0.0
					0.0		0.0
					0.0		0.0
					0.0		0.0
							
	0.0	0.0		0.0	0.0		0.0
							
					0.0		0.0
	0.0	0.0		0.0			
	0.0				0.0		0.0
							
							
	0.0	0.0		0.0			
0.0		0.0		0.0	0.0		0.0
	0.0	0.0		0.0			
0.0					0.0		0.0
	0.0	0.0		0.0			
							
							
							
							
							
0.0					0.0		0.0
0.0	0.0	0.0		0.0			0.0
		0.0		0.0			
							
							
0.0					0.0		0.0
0.0					0.0		0.0
							
	0.0	0.0		0.0			
0.0					0.0		0.0
0.0					0.0		0.0
0.0					0.0		0.0
0.0					0.0		0.0
	0.0	0.0		0.0			
							
	0.0	0.0		0.0			
					0.0		0.0
							
							
							
							
					0.0		0.0
							
	0.0	0.0		0.0	0.0		0.0
							
	0.0	0.0		0.0			
							
							
	0.0						
							
		0.0		0.0			
	0.0	0.0		0.0	0.0		0.0
		0.0		0.0			
							
							
							
							
		0.0		0.0			
							
							
0.0	0.0	0.0		0.0	0.0		0.0
0.0	0.0				0.0		0.0
							
							
0.0							0.0
0.0							0.0
	0.0	0.0					
	0.0	0.0		0.0			
							
							
0.0	0.0	0.0		0.0	0.0		0.0
0.0	0.0	0.0		0.0			
							
0.0	0.0	0.0		0.0			
0.0	0.0	0.0		0.0			
							
					0.0		0.0
0.0	0.0	0.0		0.0			
0.0	0.0	0.0		0.0	0.0		0.0
					0.0		0.0
0.0	0.0	0.0		0.0			
					0.0		0.0
							
							
	0.0	0.0		0.0			
							
							
					0.0		0.0
							
					0.0		0.0
							
	0.0	0.0					
				0.0			
							
							
	0.0	0.0		0.0			
					0.0		0.0
					0.0		0.0
	0.0	0.0		0.0			
	0.0	0.0		0.0	0.0		0.0
	0.0	0.0		0.0	0.0		0.0
							
							
							
							
							
	0.0	0.0		0.0			
	0.0						
							
	0.0	0.0		0.0			
							
0.0	0.0	0.0		0.0	0.0		0.0
0.0					0.0		0.0
	0.0	0.0		0.0			
	0.0	0.0		0.0			
	0.0	0.0		0.0			
	0.0	0.0		0.0			
					0.0		0.0
	0.0				0.0		0.0
							
	0.0				0.0		0.0
							
	0.0				0.0		0.0
		0.0		0.0			
	0.0	0.0		0.0	0.0		0.0
							
		0.0					
		0.0		0.0			
							0.0
							
	0.0	0.0		0.0			
							
	0.0	0.0		0.0			
							0.0
							
0.0	0.0	0.0		0.0	9.0		0.0
							
0.0	0.0				0.0		0.0
							
0.0	0.0				0.0		0.0
		0.0		0.0			
0.0	0.0	0.0		0.0	0.0		0.0
							
0.0							0.0
0.0							0.0
							
0.0	0.0	0.0		0.0			
					0.0		0.0
0.0	0.0	0.0		0.0	0.0		0.0
0.0	0.0	0.0		0.0	0.0		0.0
					0.0		0.0
							
							
							
							
							
							
	0.0	0.0		0.0			
					0.0		0.0
	0.0	0.0		0.0			
							
							
					0.0		0.0
					0.0		0.0
							
							
	0.0	0.0		0.0			
	0.0	0.0		0.0	0.0		0.0
	0.0	0.0		0.0			
							
							
	0.0	0.0		0.0	0.0		0.0
							
							
					0.0		0.0
	0.0	0.0		0.0			
	0.0	0.0		0.0	0.0		0.0
	0.0	0.0		0.0			
							
					0.0		41.0
0.0							
							
	0.0	0.0		0.0			
0.0	0.0	14.0		0.0	0.0		
0.0					0.0		0.0
	0.0	0.0		0.0			
0.0	0.0	0.0		0.0	0.0		0.0
0.0					0.0		0.0
	0.0	0.0		0.0			
							
							
0.0	0.0	0.0			0.0		0.0
							
0.0	0.0	0.0		0.0	0.0		0.0
					0.0		0.0
0.0	0.0	0.0		0.0	0.0		0.0
0.0					0.0		0.0
							
	0.0	0.0		0.0			
0.0					0.0		0.0
0.0					0.0		0.0
0.0	0.0	0.0		0.0	0.0		0.0
	0.0	0.0		0.0			
0.0							0.0
							
0.0					0.0		0.0
							
0.0	0.0	0.0		0.0	0.0		0.0
	0.0	0.0		0.0			
	0.0	0.0		0.0			
	0.0	0.0		0.0			
							
							
							
							
	0.0	0.0		0.0	0.0		0.0
	0.0	0.0		0.0			
							
	0.0	0.0		0.0	0.0		0.0
	0.0	0.0		0.0	0.0		0.0
	0.0	0.0		0.0	0.0		0.0
							
	0.0	0.0		0.0	0.0		0.0
							
		0.0		0.0			
	0.0				0.0		0.0
		0.0		0.0			
	0.0				0.0		0.0
	0.0	0.0		0.0	0.0		
	0.0				0.0		0.0
	0.0				0.0		0.0
	0.0				0.0		0.0
	0.0				0.0		0.0
							
		0.0		0.0			
		0.0		0.0			
		0.0		0.0			
							
	0.0	0.0		0.0			
	0.0	0.0		0.0			
		0.0		0.0			
0.0	0.0				0.0		0.0
		0.0		0.0			
0.0	0.0				0.0		0.0
							
		0.0		0.0			
							
	0.0	0.0		0.0			
					0.0		0.0
							
							
0.0							0.0
	0.0	0.0		0.0			
0.0	0.0	0.0		0.0			0.0
0.0	0.0	0.0		0.0			0.0
0.0							0.0
0.0	0.0	0.0		0.0			
							
							0.0
					0.0		0.0
							
					0.0		0.0
0.0	0.0	0.0		0.0			
					0.0		0.0
0.0	0.0	0.0		0.0	0.0		0.0
0.0	0.0	0.0		0.0			
				0.0	0.0		0.0
					0.0		0.0
							
					0.0		0.0
	0.0	0.0		0.0			
	0.0	0.0		0.0			
	0.0	0.0		0.0	0.0		0.0
							
					0.0		0.0
	0.0	0.0		0.0			
					0.0		0.0
					0.0		0.0
							
	0.0	0.0		0.0	0.0		0.0
	0.0	0.0		0.0	0.0		0.0
							
							
							
	0.0	0.0		0.0			
							
	0.0	0.0		0.0			
							
	0.0	0.0		0.0			
0.0					0.0		0.0
							
	0.0	0.0		0.0			
0.0	0.0	0.0		0.0	0.0		0.0
0.0					0.0		0.0
0.0					0.0		0.0
0.0					0.0		0.0
	0.0	0.0		0.0			
							
							
0.0					0.0		0.0
							
	0.0	0.0		0.0			
	0.0	0.0		0.0			
	0.0	0.0		0.0			
							
							
							
0.0					0.0		0.0
0.0	0.0	0.0		0.0	0.0		0.0
0.0	0.0	0.0		0.0	0.0		0.0
							
							
							
							
							
	0.0	0.0		0.0			
	0.0	0.0		0.0			
							
							
							
0.0	0.0	0.0		0.0	0.0		0.0
							
0.0	0.0	0.0		0.0	0.0		0.0
							
					0.0		0.0
							
							
					0.0		0.0
							
							
	0.0	0.0		0.0			
							
	0.0	0.0		0.0			
							
							
							
	0.0	0.0		0.0	0.0		0.0
		0.0		0.0			
							
							
	0.0				0.0		0.0
	0.0	0.0		0.0	0.0		0.0
	0.0	0.0		0.0	0.0		0.0
							0.0
							
							0.0
0.0	0.0	0.0		0.0	0.0		0.0
0.0	0.0	0.0		0.0	0.0		0.0
0.0	0.0				0.0		0.0
							
							
							
							
		0.0		0.0			
							
	0.0	0.0		0.0			
	0.0	0.0		0.0			
0.0	0.0	0.0		0.0			0.0
	0.0	0.0		0.0			
0.0	0.0	0.0		0.0			0.0
	0.0	0.0		0.0			
							
					0.0		0.0
0.0	0.0	0.0		0.0	0.0		0.0
							
							
					0.0		0.0
	0.0	0.0		0.0			
	0.0	0.0		0.0			
					0.0		0.0
					0.0		0.0
							
							
							
	0.0	0.0		0.0			
							
0.0					0.0		0.0
							
	0.0	0.0		0.0			
0.0					0.0		0.0
							
							
							
							
	0.0	0.0		0.0			
							
0.0					0.0		0.0
0.0					0.0		0.0
							
							
0.0					0.0		0.0
0.0					0.0		0.0
					0.0		0.0
							
							
	0.0	0.0		0.0			
	0.0	0.0		0.0			
							
							
							
	0.0	0.0		0.0	0.0		0.0
							
	11.0	13.0		13.0	0.0		0.0
							
							0.0
							
0.0	0.0	0.0		0.0	0.0		0.0
0.0	0.0				0.0		0.0
							
							
							
0.0	0.0	0.0		0.0	0.0		0.0
							
0.0	0.0				0.0		0.0
0.0							0.0
	0.0	0.0		0.0			0.0
0.0	0.0	0.0		0.0			0.0
							
	0.0	0.0		0.0			
							
0.0	0.0	0.0		0.0			0.0
0.0	0.0	0.0		0.0	0.0		0.0
					0.0		0.0
							
							
					0.0		0.0
					0.0		0.0
	0.0	0.0		0.0			
							
	0.0				0.0		0.0
							
							
	0.0	0.0		0.0			
							
					0.0		0.0
							
					0.0		0.0
					0.0		0.0
							
	0.0	0.0		0.0	0.0		0.0
	0.0	0.0		0.0			
	0.0	0.0		0.0	0.0		0.0
					0.0		0.0
	0.0	0.0		0.0			
					0.0		0.0
							
	0.0	0.0		0.0	0.0		0.0
					0.0		0.0
							
					0.0		0.0
	0.0	0.0		0.0	0.0		0.0
							
	0.0	0.0		0.0	0.0		0.0
	0.0	0.0		0.0	0.0		0.0
							
0.0	0.0	0.0		0.0	0.0		0.0
	0.0	0.0		0.0			
							
							
0.0					0.0		0.0
0.0					0.0		0.0
	0.0	0.0		0.0	0.0		
0.0					0.0		0.0
0.0					0.0		0.0
0.0	0.0	0.0		0.0			
							
0.0	0.0	0.0		0.0			
0.0					0.0		0.0
0.0	0.0				0.0		0.0
	0.0	0.0		0.0			
	0.0	0.0		0.0			
0.0					0.0		0.0
0.0	0.0	0.0		0.0	0.0		0.0
	0.0	0.0		0.0			
	0.0	0.0		0.0			
0.0					0.0		0.0
0.0					0.0		0.0
							
							
	0.0	0.0		0.0			
	0.0	0.0		0.0			
0.0					0.0		0.0
0.0					0.0		0.0
0.0	0.0	0.0		0.0	0.0		0.0
0.0	0.0	0.0		0.0	0.0		0.0
	0.0	0.0		0.0			
							
					0.0		0.0
	0.0				0.0		0.0
					0.0		
							
					0.0		0.0
	0.0	0.0		0.0			
	0.0	0.0		0.0			
							
					0.0		0.0
					0.0		0.0
	0.0	0.0		0.0	0.0		0.0
							
	0.0				0.0		0.0
	0.0	0.0		0.0	0.0		0.0
		0.0					
	0.0				0.0		0.0
		0.0		0.0			
		0.0		0.0			
							
							
							
	0.0	0.0					0.0
	0.0						0.0
							
							
							
							
							
0.0	0.0	0.0		0.0	0.0		11.0
							
							
0.0							
	0.0	0.0		0.0			
							
							
							
							
							
0.0	0.0	0.0		0.0	0.0		0.0
					0.0		
				0.0			
					0.0		0.0
							
							
				0.0			
							
							
					0.0		0.0
							
							
							
0.0	0.0	0.0		0.0			
							
	0.0	0.0		0.0			
	0.0	0.0		0.0			
							
	0.0	0.0		0.0			
							
							
	0.0	0.0		0.0			
							
	0.0	0.0		0.0			
							
	0.0	0.0		0.0			
							
							
					0.0		0.0
							
0.0					0.0		0.0
							
							
							
					0.0		0.0
	0.0	0.0		0.0			
	0.0	0.0		0.0			
							
							
							
							
	0.0	0.0		0.0			
							
							
							
	0.0	0.0		0.0			
							
							
	0.0	0.0		0.0			
							
							
	0.0	0.0		0.0	0.0		0.0
							
		0.0		0.0			
	0.0				0.0		0.0
		0.0		0.0			
							
	0.0				0.0		0.0
	0.0	0.0		0.0	0.0		0.0
		0.0		0.0			
							
							0.0
	0.0	0.0		0.0			0.0
	0.0	0.0					
	0.0	0.0		0.0			
							
							0.0
	0.0	0.0		0.0			
							
0.0	0.0				0.0		0.0
							
							
							
							
0.0							0.0
	0.0	0.0		0.0			
0.0							0.0
	0.0	0.0		0.0			
0.0							0.0
0.0							0.0
0.0		0.0		0.0			0.0
							
	0.0	0.0		0.0			
							0.0
							
							
					0.0		0.0
0.0	0.0	0.0		0.0			
							
0.0	0.0	0.0		0.0			
					0.0		0.0
							
							
							
					0.0		0.0
	0.0	0.0					
	0.0	0.0		0.0			
					0.0		0.0
	0.0	0.0		0.0			
					0.0		0.0
							
	0.0	0.0		0.0			
					0.0		0.0
							
	0.0	0.0		0.0			
	0.0	0.0		0.0			
	0.0	0.0		0.0			
					0.0		0.0
	0.0	0.0		0.0			
							
0.0					0.0		0.0
							
							
0.0	0.0	0.0		0.0	0.0		0.0
	0.0	0.0		0.0			
	0.0	0.0		0.0			
0.0					0.0		
0.0	0.0	0.0		0.0	0.0		0.0
0.0					0.0		0.0
							
	0.0	0.0		0.0			
	0.0	0.0		0.0			
	0.0	0.0		0.0			
							
							
	0.0	0.0		0.0			
0.0	0.0				0.0		0.0
	0.0	1.0		0.0			
0.0					0.0		0.0
0.0	0.0	0.0		0.0	0.0		0.0
	0.0	0.0		0.0			
							
							0.0
					0.0		0.0
	0.0	0.0		0.0	0.0		0.0
							
							
							
							
							
0.0	0.0				0.0		0.0
							0.0
0.0	0.0	0.0		0.0	0.0		0.0
							
0.0	0.0	0.0		0.0	0.0		0.0
							
	0.0	0.0		0.0			
							
0.0							0.0
							
	0.0	0.0		0.0			
							
							
0.0	0.0	0.0		0.0			
							
					0.0		0.0
					0.0		0.0
							
							
					0.0		0.0
				0.0			
							
	0.0	0.0		0.0			
	0.0	0.0		0.0			
							
0.0	0.0	0.0		0.0	0.0		0.0
							
							
							
							
					0.0		0.0
							
	0.0				0.0		0.0
	0.0	0.0		0.0	0.0		0.0
	0.0				0.0		0.0
							0.0
				0.0			
0.0	0.0	0.0		0.0			
							
0.0	0.0	0.0		0.0			
