0	1	2	3	4	5	6	7	8	9	10
6.0				5.0	0.0					6.0
0.0	0.0			0.0	0.0					0.0
					9.0					
				0.0	4.0					0.0
				0.0	9.0	0.0				0.0
5.0			0.0	5.0	0.0				0.0	
				0.0	0.0					0.0
8.0	8.0				4.0					
				5.0					7.0	
					0.0			4.0	4.0	
	3.0			8.0	0.0					
5.0	9.0			10.0	6.0				5.0	
				3.0	0.0					5.0
			0.0	0.0	4.0				5.0	
4.0				0.0	4.0					
	0.0			0.0	3.0			3.0	3.0	
0.0	0.0		0.0	0.0	0.0				0.0	0.0
	9.0			5.0	8.0					8.0
6.0	6.0			6.0	9.0					
				0.0	5.0					
					4.0					
	9.0			6.0	8.0					8.0
				0.0						0.0
0.0	5.0		0.0	5.0	0.0				4.0	
					4.0				4.0	
5.0	0.0				5.0				5.0	5.0
				6.0						
0.0				0.0						
0.0				0.0	0.0					4.0
					4.0					5.0
				5.0	0.0		5.0			
	0.0			0.0	0.0					
	7.0			4.0	8.0					
	0.0		0.0	4.0	0.0					
0.0				4.0	0.0					4.0
		4.0		4.0	0.0					0.0
2.0	2.0			2.0	4.0		4.0			
	5.0	0.0		5.0	0.0				0.0	5.0
4.0	7.0		7.0	4.0	7.0				5.0	
	5.0			7.0						
				0.0						6.0
0.0				8.0	8.0				0.0	
3.0				3.0					0.0	0.0
				4.0	0.0	4.0				
					6.0				7.0	
5.0	5.0		8.0	5.0	8.0				5.0	7.0
	0.0			5.0	5.0				5.0	
				0.0	0.0					0.0
				4.0	7.0			4.0		5.0
				6.0	0.0				0.0	6.0
0.0				0.0	0.0				0.0	6.0
				4.0	3.0					
				6.0	5.0					6.0
6.0	7.0			6.0	7.0			7.0	4.0	7.0
					6.0				7.0	7.0
				3.0	0.0					0.0
0.0	0.0			0.0	0.0					0.0
					4.0					
	8.0				8.0					10.0
	0.0			0.0	0.0	0.0			0.0	
					5.0					
4.0				4.0	0.0					
4.0				0.0	4.0				0.0	0.0
	6.0			6.0	6.0				5.0	
				6.0	6.0					
	0.0			0.0	2.0				0.0	3.0
				0.0	0.0				0.0	
4.0				4.0	4.0				4.0	0.0
0.0				0.0	8.0					
				0.0	5.0					
	4.0		0.0	4.0	0.0					4.0
	6.0		6.0	6.0	3.0				3.0	6.0
	0.0			0.0	4.0			0.0		0.0
0.0	0.0			0.0	0.0	0.0				
0.0		0.0		0.0	0.0				0.0	
	4.0			0.0	6.0				4.0	
4.0					5.0					
	9.0			8.0						
0.0				0.0	0.0					
	5.0			0.0	4.0					
				0.0	0.0					
10.0				10.0	8.0		8.0		10.0	
				7.0	8.0					5.0
				5.0						4.0
5.0	5.0		5.0	5.0	6.0					
				6.0	7.0				7.0	
	6.0		6.0	0.0	6.0				0.0	
				4.0						4.0
	7.0			3.0	7.0					0.0
	4.0			4.0	7.0					3.0
				0.0	6.0					0.0
	5.0	4.0		4.0	9.0				6.0	
6.0	4.0			7.0	6.0					
5.0	5.0			4.0	3.0			4.0	3.0	4.0
				4.0					4.0	
	0.0			4.0	0.0					
				0.0	7.0					
				0.0	5.0					
	0.0			0.0	0.0			0.0	0.0	0.0
5.0				8.0	5.0	8.0			7.0	
	0.0			3.0	3.0					3.0
6.0				6.0	0.0					0.0
8.0				0.0	0.0				0.0	5.0
				6.0	0.0	5.0				
	5.0			4.0	4.0					4.0
					9.0					
0.0				0.0						
			8.0	4.0	8.0					8.0
8.0			8.0	8.0	5.0					4.0
				0.0	10.0			0.0		
0.0				5.0	0.0			0.0		0.0
6.0				4.0	6.0	0.0			7.0	7.0
0.0		4.0		4.0	0.0				0.0	5.0
9.0				7.0						4.0
	0.0			0.0	0.0					0.0
	13.0				6.0				7.0	
	5.0			5.0	5.0					
7.0	7.0			6.0	7.0				6.0	6.0
6.0	5.0			5.0	4.0		0.0		6.0	0.0
					9.0				6.0	5.0
9.0	6.0			8.0	6.0		8.0			
5.0				0.0	5.0		0.0		8.0	0.0
				0.0	5.0		0.0			0.0
					5.0					8.0
0.0				4.0	9.0	4.0				
4.0			4.0	4.0	6.0				6.0	5.0
	0.0			5.0	5.0				4.0	5.0
16.0				10.0						16.0
6.0	0.0			0.0	4.0					
					7.0					9.0
				9.0	7.0					7.0
				8.0	8.0					8.0
				8.0	8.0					9.0
	3.0			0.0	0.0					
	5.0				5.0					
				4.0	7.0					7.0
	5.0			5.0	6.0					5.0
0.0	0.0			0.0	0.0		0.0		0.0	
				4.0	8.0					7.0
				5.0	5.0					5.0
7.0	7.0				7.0					
7.0				7.0						
11.0					9.0				6.0	
				9.0	0.0	9.0				7.0
					0.0					
	4.0		4.0	0.0	4.0				0.0	
				4.0	0.0					5.0
0.0	0.0			0.0	0.0				7.0	
4.0	5.0		5.0	5.0	5.0					
	4.0			5.0	4.0					
				3.0	3.0					3.0
	0.0			8.0	0.0					
			5.0	0.0	4.0				3.0	
7.0	6.0			0.0	6.0					
				6.0	3.0			0.0	0.0	
	9.0		9.0	4.0	9.0					6.0
0.0					4.0				0.0	
7.0	0.0				6.0				0.0	0.0
	5.0			1.0	5.0					1.0
	5.0		3.0	5.0	3.0				4.0	
	7.0			0.0	6.0					2.0
7.0	7.0			4.0	7.0		4.0		7.0	4.0
	6.0			6.0	6.0	6.0				6.0
				0.0	0.0					
6.0					6.0					
0.0	0.0			0.0	0.0				0.0	
				0.0						
0.0				0.0	8.0	8.0			8.0	
	4.0		5.0	4.0	6.0					
				2.0	0.0					
				0.0	0.0			0.0		
0.0	5.0			0.0	5.0			5.0		4.0
	0.0			0.0	0.0			0.0		0.0
6.0				8.0	4.0			4.0	9.0	4.0
				6.0	4.0					
5.0				5.0	5.0				5.0	
			0.0	0.0	0.0				0.0	0.0
				0.0	3.0				3.0	0.0
0.0	8.0	0.0		0.0	8.0					9.0
				4.0	7.0					
0.0				6.0	0.0			0.0	5.0	
4.0				4.0	4.0				5.0	
	0.0		6.0	7.0	0.0					
	6.0			6.0	6.0				7.0	5.0
				6.0	4.0					
				9.0	4.0					9.0
5.0				4.0	3.0				2.0	
	7.0			7.0	8.0		8.0		5.0	
				0.0	7.0					6.0
				9.0	9.0					9.0
				5.0	4.0					
8.0	7.0			8.0	7.0		6.0			
	4.0			4.0	0.0		0.0		0.0	
6.0				0.0	6.0				7.0	0.0
				6.0	11.0					
