0	1	2	3	4	5	6	7	8	9	10
0.0	0.0	0.0		0.0	0.0		0.0		0.0	0.0
	0.0	0.0		0.0	0.0		0.0			
1.0	0.0	0.0		0.0	0.0		0.0	0.0	0.0	0.0
		0.0		0.0	0.0		0.0		0.0	0.0
0.0	0.0	0.0		0.0	0.0		0.0		0.0	0.0
	0.0	0.0		0.0	0.0		0.0		1.0	
	0.0	0.0		0.0	0.0		0.0			
0.0	0.0	0.0		1.0	0.0		0.0	0.0		0.0
0.0	0.0	0.0		0.0	0.0		0.0		0.0	
	0.0	0.0		0.0	0.0		0.0		0.0	0.0
	0.0	0.0			0.0		0.0			0.0
	0.0	0.0		1.0	0.0		0.0		0.0	0.0
0.0	0.0	0.0		0.0	0.0		0.0		0.0	0.0
0.0	0.0	0.0			0.0		0.0		0.0	0.0
0.0		0.0		0.0	0.0		0.0		0.0	0.0
0.0	0.0	0.0		0.0	0.0		0.0		0.0	
0.0		0.0		0.0	0.0		2.0			
	0.0	0.0		0.0	0.0		0.0	0.0	0.0	0.0
0.0		0.0		0.0	0.0		0.0		1.0	0.0
0.0		0.0		0.0	0.0		0.0		0.0	
0.0	1.0	0.0		0.0	0.0		0.0	0.0	1.0	0.0
	0.0	0.0		0.0	0.0		1.0		0.0	0.0
	0.0	4.0		0.0	0.0		0.0		0.0	0.0
0.0	0.0	0.0		5.0	0.0		0.0			
0.0	0.0	0.0		0.0	0.0		0.0		0.0	0.0
0.0	0.0	0.0		0.0	0.0		0.0		0.0	0.0
	0.0	2.0		0.0	0.0		0.0		0.0	
0.0		0.0			3.0		0.0		0.0	
0.0		1.0			1.0		0.0		0.0	
0.0	0.0	0.0		2.0			0.0		0.0	0.0
	1.0	0.0		0.0	0.0		0.0		0.0	0.0
0.0		0.0		0.0			1.0		0.0	
0.0	0.0	0.0		0.0	0.0		0.0		0.0	0.0
0.0	0.0	0.0		0.0	0.0		0.0		0.0	0.0
0.0	0.0	2.0		0.0	0.0		0.0		0.0	2.0
0.0		0.0		0.0	0.0		0.0		0.0	
	0.0	0.0		0.0	0.0		0.0	0.0	0.0	
		0.0		0.0			0.0		0.0	
0.0	0.0	0.0		0.0	0.0		2.0	0.0	1.0	0.0
0.0	0.0			1.0	0.0		0.0		0.0	0.0
	0.0	0.0		0.0	0.0		0.0	0.0	0.0	0.0
		0.0			0.0		0.0		0.0	0.0
		0.0			0.0		0.0		0.0	0.0
0.0		0.0		0.0			0.0		0.0	0.0
	0.0	0.0		0.0	0.0		0.0		0.0	0.0
0.0		0.0		0.0	0.0		0.0		0.0	0.0
0.0		0.0		0.0	0.0		0.0	0.0	0.0	
		0.0		0.0	0.0		0.0		2.0	0.0
		0.0		0.0	0.0		0.0			0.0
0.0	0.0	0.0		0.0	0.0		0.0	0.0	0.0	0.0
0.0	0.0	0.0		0.0	0.0		0.0	0.0	0.0	0.0
	0.0	0.0		0.0	0.0		0.0		0.0	0.0
0.0		0.0		0.0	0.0		0.0		0.0	0.0
0.0		0.0		1.0			0.0		0.0	0.0
	0.0	0.0			0.0		0.0			0.0
		0.0		0.0	0.0		0.0		0.0	0.0
0.0	0.0	0.0		0.0	0.0		0.0		0.0	
0.0	0.0	0.0		0.0	0.0		0.0		0.0	
0.0	0.0	0.0		0.0	0.0		0.0		0.0	0.0
		0.0		0.0	0.0		0.0		0.0	
0.0		0.0		0.0	0.0		0.0		1.0	0.0
0.0		2.0		10.0	3.0		0.0		0.0	
0.0	0.0	0.0		0.0	0.0		0.0		0.0	0.0
0.0		2.0			0.0		1.0		0.0	0.0
0.0	0.0	0.0			0.0		0.0			0.0
0.0	0.0	0.0		0.0	0.0		0.0		0.0	0.0
0.0	0.0	0.0		0.0	0.0		0.0		0.0	0.0
	0.0	0.0		36.0	41.0		0.0	0.0		0.0
		0.0		0.0	0.0		0.0		0.0	
0.0	0.0	0.0		0.0	0.0		0.0	0.0	0.0	0.0
0.0	0.0	0.0		0.0	0.0		0.0		0.0	0.0
	1.0	0.0			1.0		0.0		0.0	0.0
	0.0	0.0		0.0	0.0		0.0		0.0	0.0
	0.0	0.0		0.0	0.0		0.0			
		0.0		0.0	0.0		0.0		0.0	0.0
	0.0	0.0		0.0	0.0		0.0	0.0	0.0	0.0
		0.0			0.0		0.0			0.0
0.0	0.0	0.0		0.0	0.0		0.0			0.0
0.0		1.0			0.0		0.0			0.0
	0.0	0.0		0.0	0.0		0.0		0.0	0.0
0.0		0.0		0.0	0.0		0.0		0.0	0.0
0.0	0.0	0.0		0.0	0.0		1.0		0.0	0.0
0.0	0.0	0.0		0.0	0.0		0.0		0.0	0.0
		0.0		0.0	0.0		0.0		0.0	
0.0	0.0	0.0		0.0	0.0		0.0			
	0.0	0.0		0.0	0.0		0.0		0.0	
0.0	0.0	0.0		0.0	0.0		0.0		0.0	
0.0		0.0		0.0	0.0		0.0		0.0	0.0
	0.0	0.0		0.0			0.0		0.0	
0.0	0.0	0.0			0.0		0.0		0.0	0.0
	0.0	0.0			0.0		0.0		0.0	0.0
0.0	0.0	0.0			1.0		0.0		1.0	0.0
0.0	0.0	0.0		0.0	0.0		0.0		0.0	0.0
	0.0	0.0		0.0	0.0		0.0		0.0	0.0
		0.0		1.0	30.0		0.0	0.0	0.0	0.0
	0.0	0.0			0.0		0.0		0.0	
0.0		0.0		33.0	24.0		0.0		0.0	0.0
13.0	5.0	0.0		0.0	0.0		0.0		1.0	0.0
0.0	0.0	1.0		22.0	20.0		0.0			0.0
		0.0		0.0			0.0		0.0	0.0
0.0	0.0	0.0			0.0		0.0		0.0	
	0.0	0.0			0.0		0.0		0.0	
	0.0	1.0			0.0		0.0		0.0	32.0
0.0	0.0	1.0		0.0	0.0		0.0	0.0	0.0	0.0
0.0	0.0	1.0		0.0	0.0		0.0		0.0	
0.0	0.0	0.0		0.0			0.0		0.0	0.0
0.0	0.0	0.0		0.0	0.0		0.0		0.0	
0.0		0.0		0.0	0.0		0.0		0.0	0.0
2.0		0.0		0.0	0.0		0.0		0.0	0.0
0.0		0.0		0.0	0.0		0.0		2.0	
0.0	0.0	0.0			0.0		0.0		0.0	
	0.0	0.0		0.0	0.0		0.0		0.0	
0.0	0.0	0.0		0.0	0.0		0.0		0.0	0.0
0.0		0.0		1.0	0.0		0.0		0.0	0.0
0.0	0.0	0.0		0.0	0.0		0.0			0.0
	0.0	0.0		0.0	0.0		0.0		0.0	
0.0	0.0	0.0		0.0	0.0		0.0		0.0	
0.0	0.0	1.0		0.0	0.0		0.0	0.0	0.0	0.0
0.0		0.0			0.0		0.0			0.0
		0.0		0.0	0.0		0.0	0.0	0.0	0.0
	0.0	0.0		0.0	0.0		0.0		0.0	0.0
0.0		0.0		0.0	0.0		0.0		0.0	0.0
	0.0	0.0		0.0	0.0		0.0		0.0	0.0
0.0	0.0	0.0		0.0	0.0		0.0		0.0	0.0
		0.0		0.0	0.0		0.0		0.0	
0.0		0.0		0.0	0.0		0.0		0.0	0.0
	0.0	0.0		0.0	0.0		0.0		0.0	1.0
0.0	0.0	0.0		0.0	0.0		0.0		0.0	0.0
0.0	0.0	0.0		0.0	0.0		0.0			0.0
0.0		0.0		0.0	0.0		0.0		0.0	0.0
		0.0			1.0		0.0		0.0	0.0
0.0	0.0	0.0		12.0	16.0		0.0			
0.0	1.0	0.0		0.0	0.0		0.0	0.0		0.0
0.0	0.0	0.0		16.0	18.0		0.0		0.0	
	0.0	0.0		0.0	0.0		0.0		0.0	0.0
0.0		0.0		0.0	0.0		0.0		0.0	
0.0	0.0	0.0			0.0		0.0			0.0
	0.0	0.0			0.0		0.0		0.0	0.0
	0.0	0.0			0.0		0.0		0.0	
		0.0		0.0	0.0		1.0		0.0	2.0
0.0	0.0	0.0		0.0	0.0		0.0	0.0	0.0	0.0
0.0	0.0	0.0		0.0	0.0		0.0		3.0	0.0
0.0		0.0		0.0	0.0		0.0		0.0	0.0
3.0	0.0	0.0		0.0	0.0		0.0		0.0	0.0
0.0		1.0		0.0	0.0		0.0		0.0	0.0
0.0	0.0	0.0		0.0	0.0		0.0		0.0	0.0
		0.0		0.0	0.0		0.0			0.0
0.0		0.0		0.0	0.0		0.0		0.0	0.0
0.0	0.0	0.0		0.0	0.0		0.0	0.0	0.0	0.0
	0.0	0.0			0.0		0.0		0.0	0.0
0.0		0.0		0.0	0.0		0.0		0.0	
	0.0	1.0		0.0	0.0		1.0		0.0	0.0
0.0		0.0			0.0		0.0		0.0	0.0
0.0	0.0	0.0			0.0		0.0		1.0	0.0
0.0		0.0		0.0	0.0		1.0		0.0	0.0
0.0	0.0	0.0		0.0	0.0		0.0		0.0	
0.0		0.0		19.0	24.0		0.0			0.0
	0.0	0.0		0.0			0.0			0.0
0.0	1.0	0.0		0.0	0.0		0.0		0.0	0.0
	0.0	0.0			0.0		0.0		0.0	0.0
		0.0		0.0	1.0		0.0		0.0	0.0
0.0		0.0		3.0	0.0		1.0		0.0	
0.0	0.0	0.0		0.0			0.0		0.0	
0.0		4.0					0.0		0.0	0.0
0.0		0.0		0.0	0.0		0.0		0.0	0.0
0.0	0.0	0.0			0.0		0.0		0.0	0.0
0.0	0.0	0.0			0.0		0.0		0.0	0.0
0.0		0.0			0.0		0.0		0.0	
0.0		0.0			0.0		0.0		0.0	0.0
	0.0	0.0		0.0	0.0		0.0		0.0	0.0
0.0		0.0		0.0	0.0		0.0		0.0	2.0
0.0	0.0	0.0		0.0	0.0		0.0		0.0	0.0
0.0	0.0	0.0		0.0	0.0		0.0	0.0		0.0
0.0	0.0	0.0			0.0		0.0		0.0	
0.0	0.0	0.0		0.0			0.0		0.0	
1.0	0.0	0.0		27.0	24.0		0.0		1.0	
1.0		0.0		31.0	30.0		0.0		0.0	
1.0		0.0		29.0	28.0		0.0		0.0	
0.0	0.0	0.0		25.0	16.0		0.0		27.0	29.0
	0.0	0.0		0.0	0.0		0.0		0.0	
0.0	0.0	0.0		0.0	0.0		0.0	1.0	1.0	
0.0		0.0			0.0		1.0			
	0.0	0.0		0.0	1.0		0.0		0.0	0.0
	0.0	0.0			0.0		0.0		0.0	0.0
		0.0		2.0	0.0		0.0		0.0	0.0
0.0		0.0		0.0			0.0		1.0	2.0
0.0	0.0	3.0		0.0	0.0		0.0		0.0	0.0
0.0	0.0	0.0			0.0		0.0			0.0
		0.0		0.0	0.0		0.0		0.0	
0.0	0.0	0.0		0.0	0.0		0.0		0.0	0.0
0.0	1.0	0.0		0.0	0.0		1.0		0.0	1.0
		0.0		0.0	0.0		0.0			0.0
0.0		2.0		0.0	0.0		0.0		0.0	0.0
1.0	0.0	0.0		0.0	0.0		0.0		0.0	0.0
0.0		0.0		0.0	0.0		0.0		0.0	
0.0	2.0	0.0		0.0	0.0		0.0			0.0
0.0	0.0	0.0		0.0	0.0		0.0			0.0
		0.0		0.0	0.0		0.0		0.0	
0.0	0.0	0.0			0.0		0.0			0.0
0.0	0.0	0.0		0.0	0.0		0.0			0.0
0.0	0.0	0.0		0.0	0.0		0.0		0.0	0.0
	0.0	0.0		0.0	0.0		0.0	0.0	0.0	0.0
0.0	0.0	2.0		13.0	11.0		1.0		0.0	
0.0	0.0	0.0		0.0	0.0		0.0		0.0	0.0
0.0	0.0	0.0		0.0	0.0		0.0	1.0		0.0
0.0	0.0	0.0		0.0	0.0		0.0		0.0	0.0
	0.0	1.0		0.0	0.0		0.0		0.0	0.0
0.0	0.0	0.0		0.0	0.0		0.0		0.0	
0.0	0.0	0.0		0.0	0.0		0.0		0.0	
0.0	1.0	1.0		0.0	0.0		0.0		0.0	
	0.0	0.0		0.0	0.0		0.0		0.0	0.0
0.0		0.0		0.0	0.0		0.0		0.0	0.0
		0.0		0.0	0.0		0.0		0.0	0.0
0.0	0.0	0.0		0.0	0.0		0.0		0.0	
0.0		0.0		11.0	6.0		0.0		0.0	0.0
		0.0		0.0	0.0		0.0		0.0	
0.0		0.0		0.0	0.0		0.0		0.0	0.0
	0.0	0.0		0.0	0.0		0.0		0.0	0.0
0.0		0.0		0.0	0.0		0.0		0.0	0.0
		0.0		0.0	0.0		0.0			
0.0	0.0	0.0		0.0	0.0		0.0		0.0	0.0
0.0	0.0	1.0		0.0	0.0		0.0		0.0	
0.0		1.0		0.0	0.0		1.0	0.0		0.0
	0.0	0.0			0.0		0.0		0.0	0.0
0.0	0.0	0.0		0.0	0.0		0.0			0.0
0.0	0.0	1.0		0.0	0.0		0.0		1.0	0.0
0.0	0.0			0.0	0.0		0.0		0.0	0.0
0.0	0.0	0.0		0.0	0.0		2.0		0.0	0.0
0.0	0.0	0.0		0.0	0.0		0.0		0.0	0.0
0.0	0.0	0.0		0.0	0.0		0.0		0.0	0.0
	0.0	0.0		0.0	0.0		0.0		0.0	0.0
0.0		0.0		0.0			0.0		0.0	0.0
0.0	0.0	0.0		0.0	0.0		0.0		0.0	
0.0	0.0	0.0		0.0	0.0		0.0		0.0	0.0
0.0		0.0		0.0	0.0		0.0		0.0	0.0
0.0		0.0		0.0	1.0		0.0		0.0	0.0
1.0	0.0	0.0		0.0	0.0		0.0		0.0	0.0
0.0		0.0		0.0	0.0		0.0		0.0	
	0.0	0.0		0.0	0.0		0.0	0.0	0.0	0.0
	0.0	0.0			0.0		0.0		0.0	0.0
		0.0		0.0	0.0		0.0			
0.0	0.0	1.0		0.0	0.0		0.0		0.0	
0.0		1.0		0.0	0.0		1.0	0.0		0.0
0.0		0.0		0.0	0.0		0.0		0.0	
0.0	0.0	0.0		0.0	0.0		0.0		0.0	0.0
0.0	0.0	0.0		0.0	0.0		0.0		0.0	
0.0		0.0		0.0	0.0		0.0		0.0	
	0.0	0.0		0.0	0.0		1.0		0.0	0.0
		0.0			0.0		0.0		0.0	0.0
0.0	0.0	0.0		0.0	0.0		0.0		0.0	
0.0		0.0		0.0	0.0		0.0		0.0	0.0
	0.0	0.0		0.0	0.0		0.0		0.0	
0.0	0.0	0.0		0.0	1.0		0.0	1.0	0.0	
0.0	0.0	0.0		0.0	0.0		0.0		0.0	0.0
0.0	0.0	0.0		0.0	0.0		0.0		0.0	0.0
0.0	0.0	0.0		0.0	1.0		1.0			0.0
0.0		0.0		0.0	0.0		0.0		0.0	
0.0	0.0	0.0		0.0	0.0		0.0		0.0	0.0
	0.0	0.0		0.0	0.0		0.0			0.0
0.0	0.0	0.0		0.0	0.0		0.0		0.0	
	0.0	0.0		0.0	0.0		0.0		0.0	0.0
0.0		0.0		0.0			0.0		1.0	0.0
0.0		0.0		0.0	0.0		0.0	0.0	0.0	
0.0	0.0	0.0		1.0	0.0		0.0		0.0	
0.0		0.0		0.0			0.0		1.0	0.0
0.0		0.0		0.0	0.0		0.0		0.0	1.0
	0.0	0.0		1.0	0.0		0.0		0.0	0.0
0.0	0.0	0.0		0.0	0.0		0.0	0.0	0.0	0.0
		0.0		0.0	0.0		0.0	0.0	0.0	0.0
		0.0		0.0	0.0		0.0		0.0	0.0
		0.0		0.0	0.0		0.0		0.0	0.0
0.0	0.0	0.0		0.0	0.0		0.0		0.0	0.0
0.0	0.0	0.0		0.0	0.0		0.0		0.0	0.0
0.0		0.0			0.0		0.0		0.0	0.0
0.0		0.0			0.0		0.0		0.0	0.0
	0.0	0.0		1.0	0.0		1.0			
	0.0	0.0		0.0	1.0		0.0		0.0	0.0
0.0	0.0	0.0		0.0			0.0		1.0	0.0
0.0	0.0	2.0		0.0	0.0		0.0			1.0
0.0		1.0			0.0		0.0		0.0	0.0
0.0	0.0	0.0		4.0	2.0		0.0	0.0	0.0	
0.0		0.0		0.0	0.0		0.0		0.0	
0.0		0.0			0.0		2.0			0.0
0.0	0.0	0.0		0.0	0.0		0.0		0.0	0.0
		0.0		0.0	0.0		0.0		0.0	0.0
0.0	0.0	0.0		0.0	0.0		0.0		0.0	0.0
6.0	0.0	0.0		4.0	1.0		0.0	0.0	0.0	5.0
		0.0		0.0	0.0		0.0		0.0	0.0
0.0		0.0		0.0	0.0		0.0			0.0
0.0		0.0		0.0	0.0		0.0		0.0	0.0
0.0	0.0	0.0		0.0	0.0		0.0		0.0	1.0
2.0		0.0		0.0	0.0		7.0		0.0	0.0
0.0	0.0	0.0		0.0	0.0		0.0			0.0
		0.0			0.0		0.0		0.0	0.0
0.0	0.0	0.0		0.0	0.0		0.0		0.0	0.0
0.0	0.0	0.0		0.0	0.0		0.0		0.0	0.0
0.0		0.0		0.0	0.0		0.0		0.0	
		0.0			0.0		0.0		0.0	0.0
0.0	0.0	0.0		0.0	0.0		0.0	0.0	0.0	
		0.0		0.0	0.0		0.0		0.0	
0.0	0.0	0.0			0.0		0.0		0.0	
0.0		0.0		0.0	0.0		0.0		0.0	0.0
0.0	0.0			0.0	0.0		0.0		0.0	0.0
0.0	0.0	0.0		0.0	0.0		0.0		0.0	
0.0	0.0	0.0		0.0	0.0		0.0		0.0	0.0
0.0	0.0	0.0		0.0	0.0		0.0		0.0	
0.0	0.0	0.0			0.0		0.0		0.0	
0.0		0.0		0.0	0.0		0.0		0.0	
0.0	0.0	0.0		0.0	0.0		1.0		0.0	0.0
0.0	0.0	0.0		0.0	0.0		0.0	0.0	0.0	0.0
0.0	0.0	0.0		4.0	3.0		0.0			0.0
1.0	0.0	0.0			0.0		0.0		0.0	
	0.0	0.0		0.0	0.0		0.0		0.0	
0.0	0.0	0.0		0.0	0.0		0.0		0.0	0.0
	0.0	0.0		0.0	0.0		0.0			0.0
0.0		0.0			0.0		0.0		0.0	
0.0	0.0	0.0		0.0	0.0		0.0		0.0	0.0
0.0	0.0	0.0		0.0	0.0		0.0	0.0	0.0	1.0
	0.0	0.0		0.0	0.0		0.0	0.0	0.0	0.0
0.0	0.0	0.0		0.0	0.0		0.0		0.0	0.0
0.0	0.0	0.0		0.0	0.0		0.0		0.0	0.0
0.0	0.0	0.0		0.0	0.0		0.0		0.0	0.0
		0.0			0.0		0.0		0.0	0.0
0.0		0.0		0.0	0.0		0.0		0.0	0.0
0.0		2.0		0.0	0.0		0.0		0.0	
0.0	0.0	0.0		0.0	0.0		0.0		0.0	0.0
	0.0	0.0		0.0	0.0		0.0		0.0	0.0
	0.0	0.0		0.0	0.0		0.0			0.0
0.0		0.0			0.0		0.0		0.0	
0.0	0.0	0.0		0.0			0.0			0.0
2.0		0.0		0.0	0.0		0.0		0.0	0.0
0.0	0.0	0.0		0.0	0.0		0.0		0.0	
0.0		0.0		0.0	0.0		0.0		0.0	0.0
0.0	0.0	3.0		0.0	0.0		0.0		0.0	0.0
0.0		0.0		0.0	0.0		0.0		0.0	0.0
0.0		0.0			0.0		0.0		0.0	0.0
0.0	0.0	0.0		0.0	0.0		0.0	0.0	0.0	0.0
	0.0	0.0		0.0	0.0		0.0		0.0	
0.0	0.0	0.0		0.0	0.0		0.0			0.0
0.0	0.0	0.0		0.0	0.0		0.0			0.0
0.0		0.0		0.0	0.0		0.0		0.0	0.0
0.0	0.0	3.0		0.0	0.0		0.0		0.0	0.0
0.0		0.0		0.0	0.0		0.0		2.0	0.0
	0.0	0.0		0.0	0.0		0.0		0.0	
0.0	0.0	0.0		0.0	0.0		1.0		0.0	0.0
0.0		0.0		0.0	0.0		0.0			0.0
	0.0	0.0		0.0	0.0		0.0			0.0
0.0		0.0			0.0		0.0		0.0	0.0
0.0		0.0		0.0	0.0		0.0		0.0	0.0
	0.0	0.0		0.0	17.0		0.0			0.0
0.0		0.0		0.0	0.0		0.0		0.0	0.0
0.0	0.0	0.0		0.0	0.0		0.0	0.0	0.0	
	0.0	0.0		0.0	0.0		0.0		0.0	0.0
0.0	0.0	0.0		0.0	0.0		0.0			0.0
		0.0		0.0	0.0		0.0		1.0	2.0
0.0	0.0	0.0			0.0		1.0		0.0	0.0
0.0	0.0	0.0		34.0	11.0		0.0		0.0	
0.0	0.0	0.0		0.0	0.0		0.0		0.0	0.0
0.0		0.0		0.0	0.0		0.0		0.0	0.0
0.0		0.0		0.0	0.0		1.0		0.0	0.0
0.0	0.0	0.0		0.0			0.0		0.0	0.0
0.0	0.0	0.0		0.0	0.0		0.0		0.0	0.0
0.0		0.0		0.0	0.0		0.0	0.0	0.0	
0.0	0.0	0.0			0.0		0.0		0.0	0.0
		0.0		0.0	0.0		0.0	0.0	0.0	0.0
0.0		0.0		0.0			0.0		1.0	0.0
0.0	0.0	0.0		13.0	15.0		0.0		0.0	
0.0	0.0	0.0		0.0	0.0		0.0		1.0	0.0
0.0	0.0	0.0		0.0	0.0		0.0		0.0	
0.0	0.0	0.0			0.0		0.0		0.0	
0.0	0.0	0.0		2.0			1.0		0.0	
		0.0		0.0	0.0		0.0		0.0	0.0
0.0		0.0		0.0	0.0		0.0		0.0	0.0
0.0		0.0		0.0	0.0		0.0		0.0	0.0
0.0		0.0		0.0	3.0		0.0		0.0	
0.0		0.0		0.0	0.0		0.0		0.0	0.0
0.0	0.0	0.0		0.0	0.0		0.0	0.0	0.0	0.0
0.0	0.0			0.0	0.0		0.0			0.0
0.0		0.0		0.0	0.0		0.0		0.0	
0.0		0.0		0.0	0.0		0.0			0.0
0.0	0.0	0.0		0.0	0.0		0.0		0.0	0.0
0.0	0.0	0.0		0.0	5.0		1.0		0.0	0.0
0.0		0.0		0.0	0.0		0.0		0.0	
0.0	0.0	0.0		0.0	0.0		0.0		0.0	
0.0	1.0	0.0		0.0	0.0		0.0		0.0	
0.0	0.0	0.0		0.0	0.0		0.0		0.0	0.0
0.0	0.0	0.0		0.0	0.0		0.0		0.0	0.0
0.0	0.0	0.0		1.0	0.0		0.0			
0.0		0.0		0.0	0.0		0.0		0.0	0.0
0.0		0.0		0.0	0.0		0.0		0.0	0.0
	0.0	0.0			0.0		0.0		0.0	
0.0	0.0	2.0		12.0	15.0		0.0		0.0	
0.0	0.0	0.0		0.0	0.0		0.0		0.0	
0.0		0.0		0.0	0.0		0.0	0.0	0.0	
0.0	0.0	0.0		0.0	0.0		0.0		0.0	
0.0		0.0		0.0			0.0		0.0	1.0
0.0	0.0	0.0		0.0	0.0		0.0		0.0	0.0
0.0		0.0		0.0	0.0		0.0		0.0	0.0
0.0	0.0	1.0		0.0	0.0		0.0		0.0	0.0
0.0		0.0		0.0	0.0		0.0			
	0.0	0.0		0.0	1.0		1.0		0.0	0.0
0.0	0.0	0.0		0.0	0.0		0.0	0.0	0.0	
	0.0	2.0		0.0	0.0		0.0		0.0	1.0
0.0		0.0			0.0		0.0		0.0	0.0
0.0		0.0		0.0	0.0		0.0		0.0	0.0
0.0	0.0	2.0			0.0		0.0	0.0	0.0	0.0
0.0	0.0	0.0		17.0	11.0		0.0		0.0	0.0
0.0	0.0	0.0		0.0	0.0		0.0		0.0	0.0
0.0	0.0	0.0		0.0	0.0		1.0		0.0	0.0
0.0	0.0	0.0		0.0	0.0		0.0		0.0	
1.0		0.0		0.0	0.0		0.0		0.0	0.0
0.0	0.0	0.0		0.0	0.0		0.0		0.0	0.0
0.0	0.0	0.0		0.0	1.0		1.0		0.0	0.0
0.0		0.0			0.0		0.0		0.0	
0.0		0.0		0.0	0.0		0.0		0.0	0.0
0.0		0.0		1.0	1.0		0.0		0.0	0.0
		0.0		0.0	0.0		0.0		0.0	0.0
0.0	0.0	0.0		1.0	0.0		0.0		1.0	0.0
		0.0		0.0	0.0		0.0		0.0	0.0
	0.0	0.0		0.0	0.0		0.0			
0.0	0.0	0.0		0.0	0.0		0.0			0.0
	0.0	0.0		0.0	0.0		5.0			0.0
0.0		0.0		0.0	0.0		0.0			0.0
0.0		0.0		0.0	0.0		0.0		1.0	0.0
0.0		2.0		0.0	0.0		0.0		0.0	0.0
0.0	0.0	0.0		0.0	0.0		1.0	0.0	0.0	
0.0	0.0	0.0		0.0	0.0		0.0		0.0	0.0
	0.0	1.0		0.0			0.0		0.0	0.0
		0.0			0.0		0.0		0.0	0.0
		0.0		1.0	0.0		0.0		0.0	0.0
0.0	0.0	0.0		0.0	0.0		0.0		0.0	0.0
2.0	1.0	0.0			0.0		0.0		0.0	
	0.0	0.0			0.0		0.0		0.0	
0.0		0.0		0.0	0.0		0.0		0.0	0.0
0.0	0.0	1.0			0.0		1.0		0.0	0.0
0.0	0.0	0.0			0.0		0.0		0.0	0.0
0.0		0.0		0.0	0.0		0.0		0.0	0.0
0.0		0.0		0.0	0.0		0.0		0.0	0.0
0.0		0.0			0.0		0.0		0.0	0.0
0.0		1.0		0.0	0.0		0.0			0.0
0.0	0.0	1.0			0.0		1.0		0.0	0.0
0.0	0.0	0.0			0.0		0.0		2.0	0.0
0.0	0.0	0.0		0.0	0.0		0.0		0.0	0.0
	0.0	0.0			0.0		0.0		0.0	0.0
0.0	0.0	0.0		0.0	0.0		0.0			0.0
0.0	0.0	0.0		0.0	0.0		0.0		0.0	0.0
	0.0	0.0		0.0	0.0		0.0		0.0	
0.0	0.0	0.0			0.0		0.0		0.0	0.0
0.0	0.0	0.0		27.0	12.0		0.0		0.0	0.0
0.0	0.0	0.0		0.0			0.0		0.0	0.0
0.0	0.0	0.0		0.0	1.0		0.0		0.0	
0.0		0.0		0.0	0.0		0.0			0.0
0.0	0.0	0.0		0.0	0.0		0.0		0.0	
2.0		0.0			0.0		0.0		0.0	
0.0	0.0	0.0		0.0	1.0		0.0			0.0
0.0		0.0		0.0	0.0		0.0		0.0	0.0
0.0		0.0		0.0	0.0		0.0		0.0	0.0
0.0		0.0		0.0	0.0		0.0			0.0
0.0	0.0	0.0		0.0	0.0		0.0	0.0		0.0
0.0		5.0		0.0	0.0		0.0		0.0	0.0
0.0	0.0	0.0		0.0	0.0		0.0	0.0	0.0	0.0
0.0	0.0	0.0		0.0	0.0		0.0		0.0	
	0.0	0.0		0.0	0.0		0.0		0.0	0.0
0.0		0.0		0.0	0.0		0.0		0.0	0.0
	0.0	0.0		0.0	0.0		0.0		0.0	0.0
0.0	0.0	0.0		0.0	0.0		0.0		0.0	
0.0		0.0		0.0	0.0		0.0		0.0	
0.0	0.0	0.0		0.0	0.0		0.0		0.0	0.0
0.0		0.0		0.0	0.0		0.0		0.0	0.0
0.0		0.0		0.0	0.0		0.0		0.0	0.0
0.0		0.0		1.0	0.0		0.0		0.0	0.0
0.0	0.0	0.0		0.0	0.0		0.0		0.0	0.0
0.0	0.0	0.0		0.0	0.0		1.0		0.0	0.0
	0.0	0.0			0.0		0.0			0.0
0.0	0.0	0.0		0.0	0.0		0.0		0.0	0.0
	0.0	0.0		0.0	0.0		0.0		0.0	
0.0	0.0	0.0		0.0	0.0		0.0			
0.0	0.0	0.0		0.0	0.0		0.0			
		0.0			0.0		0.0		0.0	
		0.0			0.0		0.0			0.0
0.0		1.0		0.0	0.0		0.0			0.0
0.0		0.0		0.0	0.0		0.0		0.0	0.0
0.0	0.0	0.0		0.0	0.0		0.0		0.0	0.0
0.0	0.0	0.0		0.0	0.0		0.0		0.0	0.0
0.0	0.0	0.0		0.0	0.0		0.0		0.0	0.0
0.0	0.0	0.0			0.0		0.0			0.0
0.0	0.0	0.0		0.0	0.0		0.0		0.0	0.0
0.0		0.0		0.0	0.0		1.0		0.0	0.0
0.0		0.0		0.0	0.0		0.0		0.0	0.0
	0.0	0.0		0.0	0.0		0.0			
0.0		0.0			0.0		0.0		0.0	0.0
0.0		0.0			0.0		0.0		0.0	0.0
0.0	0.0	0.0		3.0	1.0		1.0		0.0	0.0
0.0		0.0		0.0	0.0		0.0		0.0	0.0
0.0	0.0	0.0		0.0	0.0		0.0		0.0	0.0
	0.0	0.0		0.0	0.0		0.0		0.0	0.0
0.0	0.0	0.0		0.0	0.0		0.0		0.0	0.0
0.0	0.0	0.0		0.0	0.0		0.0		2.0	1.0
	2.0	0.0		0.0	0.0		0.0		0.0	0.0
0.0		0.0		0.0			0.0		0.0	0.0
0.0	0.0	0.0		0.0	0.0		0.0			0.0
0.0	0.0	0.0		0.0	0.0		0.0	0.0	0.0	0.0
0.0	0.0	0.0		0.0	0.0		0.0	0.0	0.0	0.0
0.0	0.0	0.0		0.0	0.0		0.0			0.0
	2.0	0.0		0.0	0.0		0.0		0.0	0.0
0.0		0.0		0.0	0.0		0.0		0.0	0.0
	0.0	1.0		0.0	0.0		0.0		1.0	0.0
0.0	0.0	0.0		0.0	0.0		0.0			0.0
0.0		0.0			0.0		0.0		0.0	0.0
0.0	0.0	14.0		0.0	3.0		0.0		0.0	
0.0	1.0	0.0		4.0	0.0		0.0		0.0	0.0
0.0		0.0		0.0	0.0		0.0		0.0	0.0
0.0		0.0		1.0			0.0		0.0	0.0
0.0	0.0	0.0		0.0	0.0		0.0		0.0	0.0
0.0		0.0			0.0		0.0		0.0	0.0
0.0		0.0		0.0	0.0		0.0		0.0	
0.0	0.0	0.0		0.0	0.0		2.0	0.0	0.0	
		0.0		0.0	0.0		0.0	0.0	0.0	0.0
0.0		0.0		0.0	0.0		0.0		0.0	0.0
0.0	0.0	6.0		0.0	0.0		0.0	0.0		0.0
0.0	0.0	0.0		0.0	0.0		0.0		0.0	0.0
0.0	0.0	0.0		0.0	0.0		0.0		0.0	0.0
0.0		1.0			0.0		0.0		0.0	0.0
0.0	0.0	0.0		0.0	0.0		0.0		0.0	0.0
		0.0		0.0	0.0		0.0		0.0	0.0
0.0	0.0	0.0		0.0	0.0		0.0		0.0	0.0
0.0	0.0	0.0			0.0		0.0		0.0	0.0
		0.0		0.0	0.0		0.0		0.0	0.0
0.0		0.0		0.0	0.0		0.0		0.0	0.0
0.0		0.0			0.0		0.0		0.0	0.0
0.0	0.0	2.0		0.0	0.0		0.0	2.0	0.0	0.0
	0.0	0.0		0.0	0.0		0.0			0.0
	0.0	0.0		0.0	0.0		0.0		0.0	0.0
0.0	0.0	0.0		0.0	0.0		0.0		0.0	
0.0		0.0		0.0	0.0		0.0	0.0		0.0
		0.0		0.0	0.0		0.0		0.0	0.0
0.0	0.0	0.0		0.0	0.0		0.0		0.0	0.0
0.0	0.0	0.0		0.0	0.0		0.0			0.0
0.0	0.0	0.0		0.0	0.0		0.0		1.0	0.0
		0.0		0.0	0.0		0.0		0.0	0.0
0.0	0.0	0.0		0.0	0.0		0.0	0.0		0.0
0.0	0.0	0.0		0.0	0.0		0.0		0.0	0.0
0.0	0.0	0.0		0.0	0.0		0.0			0.0
	0.0	0.0			0.0		0.0		0.0	0.0
0.0	0.0	0.0		0.0	0.0		0.0		0.0	0.0
0.0		0.0		0.0	0.0		0.0		0.0	0.0
0.0		0.0		0.0	0.0		0.0	0.0	1.0	0.0
0.0	0.0	0.0		0.0	0.0		0.0		0.0	0.0
0.0	0.0	0.0		1.0	0.0		0.0		1.0	
0.0		0.0		0.0	0.0		0.0			0.0
0.0		0.0		0.0	0.0		0.0		0.0	0.0
	0.0	0.0		0.0	0.0		0.0		0.0	0.0
		0.0		0.0	0.0		0.0		0.0	0.0
0.0	0.0	0.0		1.0	0.0		0.0		1.0	
0.0		0.0		0.0	0.0		0.0		0.0	0.0
0.0	1.0	0.0		11.0	10.0		0.0	0.0	0.0	0.0
0.0		0.0		0.0	0.0		0.0		0.0	
0.0	0.0	0.0			0.0		0.0		0.0	0.0
0.0		0.0		0.0	0.0		0.0		0.0	0.0
0.0	0.0	0.0		0.0	0.0		0.0		0.0	0.0
0.0	0.0	0.0		0.0	0.0		0.0			0.0
0.0		0.0		0.0	0.0		0.0			0.0
	0.0	0.0		0.0	0.0		0.0		0.0	0.0
0.0	0.0	0.0		0.0	0.0		0.0	0.0	0.0	
0.0		0.0		0.0	0.0		0.0		0.0	0.0
0.0		0.0			0.0		0.0			0.0
		0.0		0.0	0.0		0.0		0.0	0.0
	0.0	0.0		0.0	0.0		0.0		0.0	0.0
0.0		0.0		0.0	0.0		0.0		0.0	0.0
2.0	0.0	0.0		0.0	0.0		0.0	0.0	0.0	0.0
0.0	0.0	0.0		0.0	0.0		0.0		0.0	0.0
0.0		0.0		0.0	0.0		0.0		0.0	1.0
	0.0	0.0		0.0	0.0		0.0		0.0	0.0
0.0	0.0	0.0		0.0	0.0		0.0		0.0	1.0
		0.0		0.0	0.0		0.0		0.0	0.0
0.0	0.0	0.0		0.0	0.0		0.0		0.0	0.0
	0.0	0.0		0.0	0.0		0.0		0.0	
	0.0	0.0		0.0	0.0		0.0		0.0	0.0
0.0		0.0		0.0	0.0		0.0		0.0	
0.0		0.0		0.0	0.0		0.0			0.0
		0.0		0.0	0.0		0.0		0.0	0.0
0.0		0.0		0.0	0.0		0.0		0.0	3.0
0.0		0.0		0.0	0.0		0.0		0.0	0.0
1.0	0.0	0.0		0.0	0.0		0.0		0.0	0.0
0.0	0.0	0.0		0.0	0.0		0.0	0.0	0.0	0.0
0.0		0.0		0.0	0.0		0.0		0.0	0.0
0.0	0.0	0.0		15.0	8.0		0.0		0.0	0.0
0.0	0.0	0.0		0.0	0.0		0.0		0.0	0.0
		0.0		0.0			0.0			0.0
0.0	1.0	1.0		0.0			0.0		0.0	6.0
	0.0	0.0		0.0	1.0		0.0		0.0	0.0
0.0	1.0	0.0		0.0	0.0		0.0		0.0	0.0
0.0	0.0	0.0		0.0	9.0		0.0	0.0	0.0	0.0
	0.0	0.0		0.0	0.0		0.0	0.0	0.0	
0.0		0.0			3.0		0.0		0.0	
0.0	0.0	0.0		14.0	11.0		0.0		1.0	0.0
0.0		0.0		0.0	0.0		0.0		0.0	3.0
0.0	0.0	0.0		0.0	0.0		0.0		0.0	0.0
0.0	0.0	0.0		0.0	9.0		0.0	0.0	0.0	0.0
0.0		0.0			2.0		0.0		0.0	0.0
0.0	0.0	0.0		19.0	21.0		0.0		0.0	
0.0	0.0	0.0		0.0	0.0		0.0		0.0	0.0
0.0	0.0	0.0		0.0	0.0		0.0		0.0	0.0
0.0		0.0		0.0	0.0		0.0		0.0	1.0
0.0	0.0	0.0			0.0		0.0		0.0	
		0.0			0.0		0.0		0.0	0.0
0.0	0.0	1.0		0.0	0.0		0.0	0.0	0.0	0.0
0.0	0.0	0.0		0.0	0.0		0.0		0.0	0.0
		2.0		0.0	0.0		0.0		0.0	0.0
0.0		0.0		0.0	0.0		0.0		0.0	0.0
0.0	0.0	0.0		0.0	0.0		0.0		0.0	0.0
0.0	0.0	0.0		1.0	1.0		0.0		0.0	
0.0	0.0	0.0		0.0	0.0		0.0		0.0	0.0
0.0	0.0	0.0		0.0	0.0		0.0		0.0	
0.0	0.0	0.0		0.0	1.0		0.0		0.0	0.0
0.0		0.0		0.0	0.0		0.0		0.0	1.0
0.0	0.0	0.0		0.0	0.0		0.0		0.0	
0.0	0.0	0.0		0.0	0.0		0.0		0.0	0.0
0.0		0.0			2.0		0.0		0.0	0.0
0.0		0.0		0.0	0.0		0.0		0.0	
	0.0	0.0		0.0	0.0		0.0		0.0	
0.0	0.0	0.0		0.0	0.0		0.0			0.0
0.0	0.0	0.0		0.0	0.0		0.0		0.0	0.0
		0.0			0.0		0.0		0.0	
	0.0	0.0		0.0	0.0		0.0		0.0	
0.0		0.0			0.0		0.0		0.0	0.0
0.0		0.0		0.0	0.0		0.0		0.0	
	0.0	0.0		0.0	0.0		0.0		0.0	
0.0	0.0	0.0		0.0	0.0		0.0		0.0	
1.0	0.0	0.0		0.0	0.0		1.0		0.0	
0.0		0.0		0.0	0.0		0.0		0.0	0.0
		0.0		0.0	0.0		0.0		0.0	0.0
0.0	0.0	7.0		0.0	0.0		0.0		0.0	0.0
	0.0	0.0		0.0	0.0		0.0		0.0	
0.0	0.0	0.0		0.0	0.0		0.0			
	0.0	0.0		0.0	0.0		0.0	0.0	0.0	0.0
0.0	0.0	0.0		0.0	0.0		0.0	0.0	0.0	
0.0		0.0		0.0			0.0		0.0	0.0
	0.0	0.0		0.0	0.0		0.0		0.0	
		0.0		0.0	0.0		0.0	0.0	0.0	0.0
0.0		0.0		0.0	0.0		0.0		0.0	0.0
		0.0			1.0		0.0		0.0	
	1.0	0.0		0.0	0.0		0.0		0.0	0.0
		0.0		0.0	0.0		0.0		0.0	
0.0	0.0	0.0		0.0	0.0		0.0		0.0	0.0
		0.0		0.0	0.0		0.0		0.0	0.0
0.0		0.0			0.0		0.0		0.0	0.0
0.0		0.0			0.0		0.0		0.0	0.0
	0.0	0.0		0.0	0.0		0.0		0.0	0.0
0.0	0.0	0.0		15.0	2.0		0.0		0.0	0.0
0.0		0.0		0.0	0.0		0.0		0.0	0.0
0.0		2.0		4.0	0.0		0.0			2.0
0.0		0.0		0.0			0.0		0.0	0.0
0.0	0.0	0.0		0.0	0.0		3.0		0.0	0.0
		0.0		0.0	0.0		0.0		0.0	
0.0	0.0	0.0		0.0	0.0		0.0	0.0		0.0
0.0	0.0	0.0		0.0	1.0		0.0		0.0	0.0
0.0	0.0	0.0		0.0	0.0		0.0		0.0	
		0.0			0.0		0.0		0.0	
0.0	0.0	0.0		0.0	0.0		0.0		0.0	0.0
0.0	0.0	0.0		0.0	0.0		2.0	0.0	0.0	0.0
1.0	0.0	0.0		0.0	0.0		0.0			1.0
0.0	0.0	0.0		0.0	0.0		0.0			0.0
1.0	0.0	0.0		0.0	0.0		0.0		0.0	
0.0	0.0	0.0		0.0			0.0			0.0
0.0	0.0	0.0		0.0	0.0		0.0			0.0
	0.0	0.0		0.0	1.0		0.0		0.0	
0.0		0.0		0.0	0.0		0.0		0.0	0.0
	0.0	0.0		11.0	3.0		0.0			0.0
0.0		0.0		0.0	0.0		0.0			0.0
0.0		0.0		0.0	0.0		0.0		0.0	0.0
	0.0	0.0		2.0	0.0		0.0		0.0	0.0
0.0	0.0	0.0		0.0	0.0		0.0			0.0
0.0	0.0	0.0		0.0	0.0		0.0			0.0
	0.0	0.0		0.0	1.0		0.0		0.0	
0.0		0.0		1.0	0.0		1.0		0.0	0.0
0.0		1.0		1.0	0.0		0.0		0.0	0.0
0.0	2.0	0.0			0.0		0.0		0.0	0.0
0.0		0.0		0.0			0.0		0.0	0.0
	0.0	0.0		0.0	0.0		1.0	1.0		0.0
0.0		0.0		0.0	0.0		0.0		0.0	
	0.0	0.0		8.0	13.0		0.0	0.0		0.0
0.0		0.0			0.0		0.0		0.0	
	0.0	0.0			0.0		0.0		0.0	1.0
0.0	0.0	0.0		0.0	0.0		0.0		0.0	
	0.0	0.0		0.0	0.0		0.0	0.0	0.0	0.0
0.0		0.0		0.0			0.0		0.0	0.0
0.0		0.0		24.0	0.0		0.0		0.0	0.0
	0.0	0.0		0.0	0.0		0.0		0.0	0.0
	0.0	3.0		0.0	0.0		0.0		0.0	
	0.0	0.0		0.0	0.0		0.0		0.0	
	0.0	0.0			0.0		0.0			0.0
	0.0	1.0			0.0		0.0			0.0
0.0		0.0		0.0	0.0		0.0		0.0	0.0
0.0	0.0	0.0		0.0	0.0		0.0		0.0	0.0
0.0	0.0	0.0		0.0	0.0		0.0		0.0	0.0
0.0	0.0	0.0		0.0			0.0		0.0	0.0
0.0	0.0	0.0		0.0	0.0		0.0		0.0	0.0
	0.0	1.0		0.0	0.0		0.0		0.0	0.0
0.0	0.0	0.0		0.0	0.0		0.0		0.0	0.0
0.0	0.0	0.0		0.0	0.0		0.0		0.0	0.0
	0.0	0.0		0.0	0.0		0.0		0.0	
	0.0	0.0		10.0	8.0		0.0		0.0	9.0
	0.0	0.0		27.0	18.0		0.0		0.0	
		0.0		0.0	0.0		0.0		0.0	
0.0		0.0		0.0	0.0		0.0		0.0	0.0
0.0		0.0		0.0	0.0		0.0		0.0	0.0
0.0	0.0	0.0		0.0			0.0		0.0	0.0
	0.0	0.0		0.0	0.0		0.0	0.0		0.0
0.0	0.0	0.0		0.0			0.0		0.0	0.0
1.0		0.0			0.0		0.0		0.0	0.0
0.0		0.0		0.0	0.0		0.0		0.0	0.0
0.0		0.0		0.0	0.0		0.0		0.0	0.0
		0.0			2.0		0.0		0.0	0.0
0.0	1.0	0.0		0.0	0.0		0.0		0.0	0.0
0.0	0.0	0.0		0.0	0.0		0.0		0.0	0.0
0.0	0.0			0.0	0.0		0.0		0.0	
0.0	0.0	0.0		0.0	0.0		0.0		0.0	
0.0		0.0		0.0	1.0		0.0			0.0
0.0	0.0	0.0		0.0	0.0		0.0		0.0	0.0
0.0	0.0	0.0		0.0	0.0		0.0		0.0	0.0
0.0	0.0	0.0		0.0	0.0		0.0		0.0	0.0
0.0	0.0	0.0		0.0	0.0		0.0		0.0	
0.0	0.0	0.0		0.0	0.0		0.0		0.0	
		0.0		0.0	0.0		0.0		0.0	
	0.0	0.0		0.0	0.0		0.0		0.0	0.0
0.0	0.0	0.0		0.0	0.0		0.0		0.0	0.0
0.0	0.0			0.0	0.0		0.0		0.0	
0.0	0.0	0.0		0.0	0.0		0.0		0.0	0.0
0.0	0.0	0.0		0.0	0.0		0.0			0.0
0.0	0.0	0.0		0.0	0.0		0.0		0.0	0.0
0.0		0.0		0.0	0.0		0.0		0.0	
	0.0	0.0		0.0	18.0		0.0		0.0	0.0
0.0		0.0		12.0	4.0		0.0		0.0	
0.0	0.0	0.0		0.0	0.0		0.0		0.0	0.0
	0.0	0.0		0.0			0.0		0.0	0.0
0.0		0.0		0.0	0.0		0.0		0.0	1.0
0.0		0.0		0.0	0.0		0.0		1.0	1.0
		0.0		0.0	0.0		0.0		0.0	0.0
0.0		0.0		5.0	3.0		0.0	0.0		1.0
0.0		0.0		0.0	0.0		0.0		0.0	0.0
0.0		0.0		0.0	0.0		0.0			0.0
0.0	0.0	0.0		0.0	0.0		0.0		0.0	0.0
0.0	0.0	0.0		0.0	0.0		0.0		0.0	
0.0		0.0			0.0		0.0		0.0	0.0
	0.0	0.0		0.0	0.0		0.0			0.0
0.0		0.0			0.0		0.0		0.0	
		0.0		0.0	0.0		0.0		0.0	0.0
0.0		0.0		0.0	0.0		0.0			
	0.0	0.0		0.0	0.0		0.0		0.0	0.0
0.0		0.0		0.0	0.0		0.0			0.0
0.0	0.0	0.0		0.0	0.0		0.0		0.0	0.0
		0.0		0.0	0.0		0.0		0.0	0.0
0.0		0.0		0.0	0.0		0.0		0.0	
		0.0		0.0	0.0		0.0		0.0	0.0
	0.0	0.0		0.0	1.0		0.0		1.0	5.0
		0.0		0.0	0.0		0.0		0.0	0.0
0.0	0.0	0.0			0.0		0.0		0.0	0.0
		0.0		0.0	0.0		0.0	0.0	0.0	0.0
0.0		0.0		0.0	0.0		0.0			0.0
0.0	0.0	0.0		9.0	8.0		0.0		0.0	
0.0	0.0	0.0		0.0	0.0		0.0			
0.0		0.0			0.0		0.0		0.0	0.0
	0.0	0.0			0.0		0.0		0.0	
0.0	0.0	0.0		14.0	3.0		0.0		0.0	
0.0		0.0		0.0	0.0		0.0		0.0	
0.0	0.0	0.0		0.0	0.0		0.0			0.0
0.0	0.0	0.0		0.0	0.0		0.0		0.0	
		0.0		0.0	0.0		0.0			0.0
0.0		0.0		0.0	0.0		0.0			0.0
	0.0	0.0		0.0	0.0		0.0		0.0	0.0
	0.0	2.0		0.0	0.0		0.0	0.0	0.0	0.0
0.0		0.0		0.0			0.0		0.0	
0.0		0.0			0.0		0.0		0.0	0.0
0.0	0.0	0.0		0.0	0.0		0.0		0.0	0.0
0.0		0.0		0.0	0.0		0.0		0.0	0.0
