0	1	2	3	4	5	6	7	8	9	10
y	Z	Z	-	X	x	-	z	-	X	x
-	Z	Z	-	X	x	-	z	-	-	-
Z	Z	Z	-	X	x	-	z	z	Z	Y
Z	Z	Z	-	X	x	-	z	z	X	x
-	-	Z	-	X	x	-	z	-	X	x
z	Z	Z	-	X	x	-	z	-	X	x
-	Z	Z	-	X	x	-	z	-	Z	-
-	Z	Z	-	X	x	-	z	-	-	-
z	z	Z	-	X	x	-	z	z	-	Z
x	Z	Z	-	Z	Y	-	y	-	Z	-
-	Z	Z	-	X	x	-	z	-	X	x
-	-	Z	-	X	x	-	z	-	Z	Z
-	y	Z	-	-	z	-	z	-	-	Z
-	Z	Z	-	X	x	-	z	-	Z	Y
z	Z	Y	-	y	z	-	z	-	Z	Z
Z	Z	Z	-	-	z	-	z	-	Z	Z
x	-	Z	-	X	x	-	z	-	Z	Y
Z	Z	Z	-	X	x	-	z	-	Y	-
Z	-	Z	-	X	x	-	z	-	-	-
-	y	Z	-	X	x	-	z	z	Z	Y
Z	-	Z	-	X	x	-	z	-	Y	X
x	-	Z	-	X	x	-	z	-	Z	-
X	x	Z	-	X	x	-	z	z	Z	Z
-	Z	Z	-	X	x	-	z	-	Z	Z
z	Z	Z	-	X	x	-	z	-	-	z
-	z	Z	-	X	x	-	z	-	Z	Z
z	Z	Z	-	X	x	-	z	-	-	-
Z	Z	Z	-	X	x	-	z	-	Z	Z
y	z	Y	-	y	z	-	z	-	X	x
-	Z	Z	-	X	x	-	z	-	Z	-
x	-	Z	-	-	z	-	z	-	Y	-
z	-	Z	-	-	z	-	z	-	Z	-
-	z	Y	-	y	z	-	z	-	Z	Z
z	z	Z	-	Z	-	-	z	-	Z	Z
-	y	Z	-	X	x	-	z	-	Y	X
Z	-	Z	-	Z	-	-	z	-	Z	-
z	z	Z	-	X	x	-	z	-	Z	Z
X	x	Z	-	X	x	-	z	-	Z	Z
z	Z	Z	-	X	x	-	z	-	Y	X
Z	-	Z	-	X	x	-	z	-	Y	-
-	Z	Z	-	X	x	-	z	z	Z	-
-	-	Z	-	Z	-	-	z	-	Z	-
Z	Z	Z	-	X	x	-	z	z	Y	X
Z	Z	-	-	X	x	-	z	-	Z	Y
-	Z	Z	-	X	x	-	z	z	Z	Y
-	-	Z	-	-	z	-	z	-	Y	X
-	-	Z	-	-	z	-	z	-	Z	Y
-	-	Z	-	-	z	-	z	-	Z	Z
z	-	Z	-	Z	-	-	z	-	Z	Z
-	Z	Z	-	X	x	-	z	-	Z	Z
x	-	Z	-	X	x	-	z	-	X	x
Z	-	Z	-	X	x	-	z	z	Y	-
-	-	Z	-	X	x	-	z	-	Z	Z
-	-	Z	-	X	x	-	z	-	-	Y
z	Z	Z	-	X	x	-	z	z	Z	Z
z	Z	Z	-	X	x	-	z	z	Z	Z
-	y	Z	-	X	x	-	z	-	X	x
z	-	Z	-	X	x	-	z	-	Z	Y
x	-	Z	-	Z	-	-	z	-	Y	X
-	y	Z	-	-	z	-	z	-	-	Z
-	-	Z	-	X	x	-	z	-	X	x
Z	Z	Z	-	X	x	-	z	-	Y	-
z	Z	Z	-	X	x	-	z	-	Z	-
x	y	Z	-	X	x	-	z	-	X	x
-	-	Z	-	Z	Y	-	y	-	Z	-
y	-	Y	-	y	z	-	z	-	X	x
z	-	Z	-	X	x	-	z	-	Z	-
z	Z	Z	-	X	x	-	z	-	X	x
z	-	Z	-	-	z	-	z	-	X	x
y	Z	Z	-	-	z	-	z	-	-	z
x	Z	Z	-	X	x	-	z	-	Y	X
x	Z	Z	-	X	x	-	z	-	Y	X
-	Z	Z	-	X	x	-	z	z	-	Y
-	-	Z	-	X	x	-	z	-	Z	-
Z	Z	Z	-	X	x	-	z	z	Z	Z
x	Z	Z	-	X	x	-	z	-	Z	Y
Z	Z	Z	-	Z	-	-	z	-	Z	Z
-	y	Z	-	-	z	-	z	-	Z	Z
-	z	Z	-	X	x	-	z	-	Z	Z
-	Z	Z	-	X	x	-	z	-	-	-
-	-	Z	-	X	x	-	z	-	Z	Z
-	z	Z	-	X	x	-	z	z	Z	Z
-	-	Z	-	-	z	-	z	-	-	Z
y	Z	Z	-	X	x	-	z	-	-	Z
x	-	Z	-	-	z	-	z	-	-	Y
-	y	Z	-	X	x	-	z	-	Y	X
x	-	Z	-	X	x	-	z	-	Z	Z
z	z	Z	-	X	x	-	z	-	Z	Z
Z	Z	Z	-	X	x	-	z	-	X	x
-	-	Z	-	Z	Y	-	y	-	Z	-
z	Z	Z	-	X	x	-	z	-	-	-
-	z	Z	-	X	x	-	z	-	Z	-
Z	Z	Z	-	Z	Y	-	y	-	Y	-
Z	-	Y	-	y	z	-	z	-	X	x
-	z	Z	-	Z	-	-	z	-	Z	-
Z	Z	Z	-	-	z	-	z	-	Z	Z
-	Z	Z	-	-	z	-	z	-	X	x
X	x	Z	-	-	z	-	z	-	X	x
y	Z	Z	-	X	x	-	z	-	X	x
x	-	Z	-	X	x	-	z	-	Y	X
-	z	Z	-	X	x	-	z	-	Z	Y
-	-	Z	-	X	x	-	z	z	Z	Z
-	Z	Z	-	-	z	-	z	-	Z	-
x	Z	Z	-	X	x	-	z	-	X	x
Z	Z	Z	-	X	x	-	z	z	Z	Z
Z	-	Z	-	X	x	-	z	-	Z	Z
X	x	Z	-	Z	Y	-	y	-	Z	Y
z	z	Z	-	X	x	-	z	-	-	Z
-	-	Z	-	Z	-	-	z	-	Z	Z
Z	Z	Z	-	-	z	-	z	-	Y	-
-	Z	Z	-	-	z	-	z	-	Y	-
-	y	Z	-	-	z	-	z	-	Y	X
z	z	Z	-	-	z	-	z	-	Y	-
Z	Z	Z	-	X	x	-	z	z	Z	Y
Z	Z	Z	-	X	x	-	z	-	Z	-
y	Z	Z	-	Z	-	-	z	-	Y	X
Z	Z	Z	-	Z	Y	-	y	-	Y	-
z	-	Y	-	y	z	-	z	-	Z	Y
x	-	Z	-	Z	Y	-	y	-	Z	Z
z	-	Z	-	X	x	-	z	-	Y	-
z	Z	Z	-	-	z	-	z	-	Z	-
-	Z	Z	-	X	x	-	z	-	Z	-
Z	Z	Z	-	X	x	-	z	-	Z	Z
z	-	Y	-	y	z	-	z	-	X	x
z	-	Z	-	X	x	-	z	-	Z	-
y	Z	Z	-	X	x	-	z	-	-	X
x	y	Z	-	X	x	-	z	-	Z	Y
-	z	Z	-	X	x	-	z	z	Z	Y
-	z	Z	-	X	x	-	z	-	Z	-
y	Z	Z	-	X	x	-	z	-	Z	-
Z	Z	Z	-	X	x	-	z	z	Y	X
Z	-	Z	-	-	z	-	z	-	-	z
-	-	Z	-	X	x	-	z	z	Y	X
-	z	Z	-	X	x	-	z	-	Y	X
Z	-	Y	-	y	z	-	z	-	Y	X
-	z	Z	-	X	x	-	z	-	Y	X
Z	-	Z	-	X	x	-	z	z	Z	Z
Z	Z	Z	-	X	x	-	z	-	Y	X
-	-	Z	-	X	x	-	z	-	Y	-
y	-	Z	-	X	x	-	z	-	X	x
-	z	Z	-	X	x	-	z	-	Z	Y
z	Z	Z	-	X	x	-	z	-	Z	Y
Z	-	Z	-	X	x	-	z	-	X	x
-	-	Z	-	-	z	-	z	-	Y	X
y	Z	Z	-	X	x	-	z	-	-	-
z	z	Z	-	X	x	-	z	z	-	Z
z	z	Z	-	X	x	-	z	-	Y	-
Z	Z	Z	-	-	z	-	z	-	Z	-
-	Z	Z	-	X	x	-	z	-	Z	Z
Z	-	Z	-	X	x	-	z	-	Z	-
Z	Z	Z	-	-	z	-	z	-	-	z
-	-	Z	-	X	x	-	z	-	-	-
-	Z	Z	-	-	z	-	z	-	Z	Y
-	Z	Z	-	-	z	-	z	-	Z	-
-	-	Z	-	X	x	-	z	-	Y	X
y	Z	Z	-	X	x	-	z	z	Z	Z
x	Z	Z	-	X	x	-	z	-	Z	Z
z	-	Z	-	X	x	-	z	-	Z	Z
z	Z	Y	-	y	z	-	z	-	Z	Z
x	-	Y	-	y	z	-	z	-	X	x
x	Z	Z	-	X	x	-	z	-	Y	X
-	-	Z	-	X	x	-	z	-	-	Z
y	-	Z	-	X	x	-	z	-	Y	X
Z	Z	Z	-	X	x	-	z	z	X	x
-	Z	Z	-	-	z	-	z	-	X	x
-	-	Z	-	Z	-	-	z	-	-	Y
Z	-	Z	-	X	x	-	z	-	Z	-
-	Z	Z	-	Z	Y	-	y	-	Z	Z
y	-	Z	-	-	z	-	z	-	Z	Z
z	z	Z	-	-	z	-	z	-	Z	Z
Z	-	Z	-	X	x	-	z	-	X	x
x	Z	Z	-	X	x	-	z	-	Z	-
Z	-	Z	-	X	x	-	z	-	-	Z
-	Z	Z	-	Z	-	-	z	-	-	Y
z	Z	Z	-	X	x	-	z	-	X	x
-	Z	Z	-	-	z	-	z	-	Z	Z
-	-	Z	-	X	x	-	z	-	Z	Y
z	-	Z	-	X	x	-	z	-	Z	-
z	z	Z	-	Z	-	-	z	-	Y	-
y	-	Z	-	-	-	-	z	-	Y	X
Z	-	Z	-	X	x	-	z	-	Z	Z
Z	Z	Z	-	-	z	-	z	-	Y	X
z	Z	Z	-	-	z	-	z	-	Z	Z
x	-	Z	-	-	z	-	z	-	Y	-
z	-	Z	-	-	z	-	z	-	Z	Y
z	-	Z	-	Z	Y	-	y	-	Z	Z
Z	Z	Z	-	Z	Y	-	y	-	Z	Z
Z	Z	Z	-	X	x	-	z	z	-	Z
Z	Z	Z	-	-	z	-	z	-	Y	-
z	z	Z	-	Z	-	-	z	-	Y	-
z	Z	Z	-	X	x	-	z	-	Y	-
y	-	Z	-	X	x	-	z	-	Z	-
y	-	Z	-	X	x	-	z	-	Z	-
y	Z	Z	-	X	x	-	z	-	X	x
-	z	Z	-	X	x	-	z	z	Z	Y
-	Z	Z	-	X	x	-	z	-	Y	-
Z	Z	Z	-	X	x	-	z	z	Z	-
z	-	Z	-	-	z	-	z	-	-	-
-	Z	Z	-	X	x	-	z	-	X	x
-	Z	Z	-	-	z	-	z	-	Z	Z
-	-	Z	-	X	x	-	z	-	X	x
Z	-	Z	-	Z	-	-	z	-	Z	Z
x	Z	Z	-	X	x	-	z	-	Y	X
x	Z	Z	-	-	z	-	z	-	-	z
-	-	Z	-	X	x	-	z	-	Y	-
Z	Z	Z	-	X	x	-	z	-	Z	Y
Z	Z	Z	-	X	x	-	z	-	Y	X
-	-	Z	-	Z	Y	-	y	-	-	Z
y	-	Z	-	X	x	-	z	-	Y	X
z	z	Y	-	y	z	-	z	-	Z	Y
x	-	Z	-	X	x	-	z	-	Y	-
y	z	Z	-	X	x	-	z	-	-	z
x	Z	Z	-	X	x	-	z	-	-	z
-	-	Y	-	y	z	-	z	-	Z	-
x	y	Z	-	-	z	-	z	-	-	Y
Z	Z	Z	-	X	x	-	z	-	-	Z
y	Z	Z	-	X	x	-	z	-	Z	Y
-	Z	Z	-	X	x	-	z	z	Z	Z
Z	Z	Z	-	X	x	-	z	-	Z	-
x	Z	Z	-	X	x	-	z	-	Z	Z
z	z	Z	-	X	x	-	z	z	-	X
x	y	Z	-	X	x	-	z	-	Z	Y
Z	Z	Z	-	X	x	-	z	-	-	Y
-	Z	Z	-	X	x	-	z	-	Z	Z
X	x	Z	-	X	x	-	z	-	Z	-
z	Z	Z	-	Z	Y	-	y	-	Y	-
z	Z	Z	-	X	x	-	z	-	Z	-
-	Z	Z	-	X	x	-	z	-	X	x
Z	-	Z	-	X	x	-	z	-	X	x
-	-	Z	-	X	x	-	z	-	Y	X
z	Z	Z	-	X	x	-	z	-	Y	-
y	-	Z	-	X	x	-	z	-	Z	Y
-	-	Z	-	X	x	-	z	-	Y	-
Z	-	Z	-	X	x	-	z	-	Z	Y
-	Z	Z	-	X	x	-	z	-	Z	Z
Z	-	Z	-	X	x	-	z	-	X	x
-	-	Z	-	X	x	-	z	-	-	-
Z	Z	Z	-	X	x	-	z	-	Z	Y
z	Z	Z	-	X	x	-	z	-	Y	-
Z	-	Z	-	X	x	-	z	z	-	Y
-	Z	Z	-	-	z	-	z	-	Z	Z
z	Z	Z	-	X	x	-	z	-	-	z
y	Z	Z	-	X	x	-	z	-	Z	Y
z	Z	-	-	X	x	-	z	-	Z	Z
y	Z	Z	-	X	x	-	z	-	Z	Z
Z	Z	Z	-	X	x	-	z	-	Z	Y
y	Z	Z	-	X	x	-	z	-	X	x
x	y	Z	-	X	x	-	z	-	Z	Z
-	Z	Y	-	y	z	-	z	-	Z	Z
z	-	Z	-	Z	-	-	z	-	Z	Y
z	Z	Y	-	y	z	-	z	-	Y	-
X	x	Z	-	X	x	-	z	-	X	x
Z	-	Z	-	X	x	-	z	-	Z	Y
z	-	Y	-	y	z	-	z	-	Z	Z
Z	-	Z	-	-	z	-	z	-	Y	-
x	Z	Z	-	X	x	-	z	-	Z	Y
-	Z	Z	-	X	x	-	z	z	Z	Z
Z	-	Z	-	X	x	-	z	-	Z	-
-	Z	Z	-	X	x	-	z	z	Z	Y
-	Z	Z	-	-	z	-	z	-	Z	Z
-	-	Z	-	X	x	-	z	-	-	-
y	-	Z	-	X	x	-	z	-	X	x
z	Z	Z	-	X	x	-	z	-	Y	-
Z	-	Z	-	X	x	-	z	z	-	Y
z	-	Y	-	y	z	-	z	-	Z	-
x	y	Z	-	X	x	-	z	-	Z	Z
y	Z	Z	-	X	x	-	z	z	Z	-
x	Z	Z	-	X	x	-	z	-	Z	-
Z	-	Z	-	X	x	-	z	-	Z	-
-	-	Z	-	-	z	-	z	-	Z	Z
Z	Z	Z	-	X	x	-	z	-	Y	-
x	-	Z	-	X	x	-	z	-	X	x
-	Z	Z	-	X	x	-	z	-	Y	-
Z	Z	Z	-	X	x	-	z	z	Z	-
y	Z	Z	-	X	x	-	z	-	Y	X
Z	Z	Z	-	X	x	-	z	-	Y	X
Z	Z	Z	-	X	x	-	z	-	-	z
z	-	Y	-	y	z	-	z	-	Y	-
Z	Z	Z	-	X	x	-	z	-	Z	Z
-	Z	Z	-	X	x	-	z	-	-	z
y	Z	Z	-	Z	Y	-	y	-	Z	-
-	Z	Z	-	X	x	-	z	-	Z	Z
X	x	Z	-	X	x	-	z	-	Y	X
Z	-	Z	-	Z	-	-	z	-	Z	Z
Z	-	Z	-	X	x	-	z	z	Y	-
y	z	Z	-	X	x	-	z	-	Y	-
Z	-	Z	-	Z	-	-	z	-	Z	Z
Z	Z	Z	-	X	x	-	z	-	-	Z
z	-	Z	-	X	x	-	z	-	Y	X
-	Z	Z	-	X	x	-	z	-	Z	Z
Z	Z	Z	-	X	x	-	z	z	X	x
-	-	Z	-	X	x	-	z	z	Z	Z
-	-	Z	-	X	x	-	z	-	Z	Z
-	-	Z	-	X	x	-	z	-	Z	Z
z	z	Z	-	X	x	-	z	-	X	x
z	z	Z	-	X	x	-	z	-	X	x
z	-	Z	-	-	z	-	z	-	Z	Y
z	-	Z	-	-	z	-	z	-	Z	Y
-	z	Z	-	X	x	-	z	-	-	-
-	y	Z	-	X	x	-	z	-	Y	X
Z	Z	Z	-	Z	-	-	z	-	Y	X
z	Z	Z	-	X	x	-	z	-	-	Z
x	-	Z	-	-	z	-	z	-	X	x
z	z	Z	-	X	x	-	z	z	Y	-
X	x	Z	-	X	x	-	z	-	Y	X
z	-	Y	-	y	z	-	z	-	Y	-
y	Z	Z	-	X	x	-	z	-	X	x
-	-	Z	-	X	x	-	z	-	Z	Z
Z	Z	Z	-	X	x	-	z	-	Z	Z
x	Z	Z	-	X	x	-	z	z	Y	X
-	-	Y	-	y	z	-	z	-	X	x
x	-	Z	-	Z	Y	-	y	-	-	Z
z	-	Z	-	X	x	-	z	-	Z	Z
Z	Z	Z	-	X	x	-	z	-	Z	Z
x	-	Z	-	X	x	-	z	-	Y	X
Z	Z	Z	-	X	x	-	z	-	-	Z
-	-	Z	-	-	z	-	z	-	X	x
z	Z	Y	-	y	z	-	z	-	Z	Y
z	Z	Z	-	X	x	-	z	-	Z	Z
Z	Z	Z	-	X	x	-	z	-	Z	Z
y	-	Y	-	y	z	-	z	-	Z	-
-	-	Z	-	-	z	-	z	-	Z	Y
z	z	Z	-	X	x	-	z	z	Z	-
-	-	Z	-	X	x	-	z	-	Z	-
Z	Z	Z	-	-	z	-	z	-	Y	-
z	-	Y	-	y	z	-	z	-	Z	Z
Z	Z	-	-	X	x	-	z	-	Z	Z
y	Z	Z	-	X	x	-	z	-	Z	-
Z	Z	Z	-	Z	Y	-	y	-	Z	Z
y	z	Z	-	X	x	-	z	-	Z	-
z	Z	Z	-	-	z	-	z	-	Y	-
z	-	Z	-	X	x	-	z	-	Y	-
Z	Z	Z	-	X	x	-	z	-	Z	Y
z	Z	Z	-	X	x	-	z	z	Z	Z
z	Z	Z	-	X	x	-	z	-	-	z
y	z	Z	-	-	z	-	z	-	Z	-
-	z	Z	-	X	x	-	z	-	Z	-
-	Z	Z	-	X	x	-	z	-	Y	-
Z	Z	Z	-	X	x	-	z	-	Z	Z
-	-	Z	-	-	z	-	z	-	Z	Z
-	Z	Z	-	X	x	-	z	-	-	z
z	-	Z	-	-	z	-	z	-	Z	-
-	-	Z	-	-	z	-	z	-	Y	-
Z	Z	Z	-	X	x	-	z	-	Y	X
Z	Z	Z	-	X	x	-	z	z	X	x
-	Z	Z	-	X	x	-	z	z	Z	Z
Z	Z	Z	-	X	x	-	z	-	X	x
Z	Z	Z	-	X	x	-	z	-	Z	Z
Z	Z	Y	-	y	z	-	z	-	Z	Z
-	-	Z	-	-	z	-	z	-	Z	Z
Z	-	Z	-	X	x	-	z	-	Z	Z
y	-	Z	-	X	x	-	z	-	Z	-
X	x	Z	-	X	x	-	z	-	Z	Y
-	Z	Z	-	Z	Y	-	y	-	Z	Y
-	Z	Z	-	X	x	-	z	-	-	z
z	-	Z	-	-	z	-	z	-	Z	-
Z	Z	Z	-	Z	-	-	z	-	-	Y
y	-	Z	-	X	x	-	z	-	Z	Y
Z	Z	Z	-	X	x	-	z	-	Z	-
x	-	Z	-	X	x	-	z	-	Z	-
z	-	Y	-	y	z	-	z	-	X	x
z	-	Y	-	y	z	-	z	-	Z	Z
x	-	Z	-	-	z	-	z	-	X	x
Z	Z	Z	-	X	x	-	z	z	Z	Z
-	y	Z	-	X	x	-	z	-	Y	-
Z	Z	Z	-	X	x	-	z	-	-	Y
z	z	Z	-	X	x	-	z	-	-	z
x	-	Z	-	X	x	-	z	-	X	x
Z	Z	Z	-	X	x	-	z	-	Y	X
z	Z	Z	-	X	x	-	z	-	Y	-
x	-	Z	-	X	x	-	z	-	Z	Z
-	Z	Z	-	X	x	-	z	-	Z	-
X	x	Z	-	X	x	-	z	-	X	x
z	-	Z	-	X	x	-	z	-	-	X
-	Z	Z	-	X	x	-	z	-	-	Y
Z	-	Z	-	X	x	-	z	-	-	X
z	Z	Z	-	X	x	-	z	-	Z	Y
Z	-	Z	-	-	z	-	z	-	Z	Z
y	-	Z	-	X	x	-	z	-	X	x
-	Z	Z	-	X	x	-	z	-	-	Z
Z	-	Z	-	Z	Y	-	y	-	Z	Z
Z	Z	Z	-	X	x	-	z	z	Y	-
-	z	Z	-	X	x	-	z	-	Z	Y
Z	Z	Z	-	X	x	-	z	-	-	X
-	-	Y	-	y	z	-	z	-	Z	Z
z	Z	Z	-	-	z	-	z	-	Z	Z
Z	Z	Z	-	X	x	-	z	-	Y	-
Z	Z	Z	-	Z	Y	-	y	-	Z	Z
Z	-	Z	-	X	x	-	z	-	Z	Z
Z	-	Z	-	X	x	-	z	-	Z	Y
Z	Z	Z	-	Z	-	-	z	-	X	x
z	Z	Z	-	X	x	-	z	-	Z	Z
Z	-	Z	-	X	x	-	z	z	Z	-
Z	Z	Z	-	-	z	-	z	-	Z	Y
-	-	Z	-	X	x	-	z	z	Y	X
z	-	Z	-	Z	-	-	z	-	Z	Z
y	Z	Z	-	X	x	-	z	-	Z	-
X	x	Z	-	X	x	-	z	-	Y	X
Z	Z	Z	-	X	x	-	z	-	Z	-
z	Z	Z	-	-	z	-	z	-	Z	-
y	Z	Z	-	Z	-	-	z	-	Z	-
-	-	Z	-	X	x	-	z	-	Y	X
x	-	Z	-	X	x	-	z	-	Z	Y
x	-	Z	-	X	x	-	z	-	Y	X
Z	-	Z	-	X	x	-	z	-	Z	-
Z	-	Z	-	X	x	-	z	-	Z	-
y	Z	Z	-	X	x	-	z	z	Z	Z
y	Z	-	-	X	x	-	z	-	-	X
Z	-	Y	-	y	z	-	z	-	Y	-
Z	-	Y	-	y	z	-	z	-	-	Z
x	Z	Z	-	Z	Y	-	y	-	Z	Y
Z	Z	Z	-	X	x	-	z	z	Y	-
x	Z	Z	-	X	x	-	z	-	Z	Y
Z	-	Z	-	X	x	-	z	-	Z	-
z	z	Z	-	X	x	-	z	-	Z	-
x	y	Y	-	y	z	-	z	-	Y	-
X	x	Z	-	X	x	-	z	-	X	x
X	x	Z	-	X	x	-	z	-	X	x
y	Z	Z	-	X	x	-	z	-	-	-
Z	-	Z	-	X	x	-	z	-	Y	X
x	-	Z	-	X	x	-	z	-	Z	Z
Z	Z	Z	-	X	x	-	z	z	Z	Z
-	y	Z	-	-	z	-	z	-	Y	-
z	Z	Z	-	X	x	-	z	-	Y	-
-	y	Y	-	y	z	-	z	-	Z	Z
Z	Z	Z	-	X	x	-	z	-	Z	-
Z	-	Z	-	X	x	-	z	z	Z	-
z	z	Y	-	y	z	-	z	-	Z	-
z	-	Z	-	Z	-	-	z	-	Y	X
y	Z	Z	-	X	x	-	z	-	Z	Z
z	-	Z	-	X	x	-	z	-	Y	X
z	z	Z	-	X	x	-	z	-	X	x
Z	-	Z	-	-	z	-	z	-	Y	-
x	-	Z	-	X	x	-	z	-	-	-
-	z	Z	-	X	x	-	z	-	Y	X
Z	Z	Z	-	X	x	-	z	-	Z	Z
Z	Z	Z	-	X	x	-	z	z	Y	-
z	-	Z	-	-	Y	-	y	-	Z	Z
z	-	Z	-	X	x	-	z	-	Y	-
Z	-	Z	-	X	x	-	z	-	Z	Y
z	Z	Z	-	-	z	-	z	z	Z	Z
Z	Z	Z	-	X	x	-	z	-	Z	Z
x	Z	Z	-	X	x	-	z	-	X	x
Z	Z	Z	-	X	x	-	z	-	Y	X
X	x	Z	-	X	x	-	z	-	Z	-
Z	-	Z	-	X	x	-	z	-	X	x
Z	Z	Z	-	X	x	-	z	-	X	x
Z	Z	Z	-	X	x	-	z	-	Z	Z
x	-	Z	-	-	z	-	z	-	Z	-
y	-	Z	-	Z	Y	-	y	-	Z	Y
x	-	Z	-	X	x	-	z	-	Y	X
-	-	Z	-	X	x	-	z	-	Z	Z
Z	-	Z	-	-	z	-	z	-	Z	-
Z	Z	Z	-	X	x	-	z	-	Z	Z
-	-	Z	-	X	x	-	z	-	Y	X
Z	-	Z	-	-	z	-	z	-	Z	Z
-	Z	Z	-	X	x	-	z	-	-	-
Z	Z	Z	-	X	x	-	z	-	-	Y
-	Z	Z	-	X	x	-	z	-	-	Z
Z	-	Z	-	X	x	-	z	-	-	Z
Z	-	Z	-	X	x	-	z	-	Z	Z
Z	-	Z	-	X	x	-	z	-	X	x
Z	Z	Z	-	X	x	-	z	z	Z	-
y	z	Z	-	X	x	-	z	-	X	x
-	y	Z	-	Z	-	-	z	-	Z	Z
-	-	Z	-	-	z	-	z	-	Z	Y
-	-	Z	-	X	x	-	z	-	Z	Z
z	Z	Z	-	X	x	-	z	-	Z	Z
X	x	Z	-	-	z	-	z	-	Z	-
-	Z	Z	-	X	x	-	z	-	Z	Z
-	z	Z	-	-	z	-	z	-	Y	-
Z	-	Z	-	X	x	-	z	-	Z	Z
x	Z	Z	-	-	z	-	z	-	X	x
X	x	Z	-	-	z	-	z	-	Z	Y
y	-	Z	-	X	x	-	z	-	Y	X
x	-	Z	-	X	x	-	z	-	Z	Z
z	-	Z	-	-	z	-	z	-	Y	X
Z	-	Z	-	X	x	-	z	-	-	X
x	Z	Z	-	-	z	-	z	-	X	x
Z	Z	Z	-	-	z	-	z	-	Z	Y
y	Z	Z	-	X	x	-	z	-	Z	Z
-	Z	Z	-	-	z	-	z	-	X	x
X	x	Z	-	X	x	-	z	-	-	z
Z	Z	Z	-	X	x	-	z	-	Z	Y
-	y	Z	-	X	x	-	z	-	Z	-
Z	Z	Z	-	-	z	-	z	-	Z	Z
z	z	Z	-	X	x	-	z	-	Z	Z
z	z	Z	-	Z	-	-	z	-	Z	Z
x	Z	Y	-	y	z	-	z	-	Y	-
z	Z	Z	-	X	x	-	z	-	Z	-
z	-	Z	-	-	z	-	z	-	Z	-
x	Z	Z	-	X	x	-	z	-	-	Y
x	-	Z	-	X	x	-	z	-	X	x
y	-	Z	-	X	x	-	z	-	Y	X
Z	-	Z	-	X	x	-	z	-	-	Z
Z	Z	Z	-	X	x	-	z	z	-	Y
Z	-	Z	-	X	x	-	z	-	Z	Y
x	Z	Z	-	X	x	-	z	z	Y	X
y	Z	Z	-	X	x	-	z	-	Y	-
-	Z	Z	-	X	x	-	z	-	Z	Z
z	-	Y	-	y	z	-	z	-	Z	Y
-	z	Z	-	X	x	-	z	-	Z	Y
y	Z	Z	-	X	x	-	z	-	Z	-
Z	-	Y	-	y	z	-	z	-	Y	-
Z	-	Z	-	X	x	-	z	-	Z	-
x	y	Z	-	Z	Y	-	y	-	Z	Z
y	-	Z	-	X	x	-	z	-	Y	X
y	-	Z	-	X	x	-	z	-	Z	Z
x	-	Z	-	X	x	-	z	-	Z	Z
X	x	Z	-	X	x	-	z	-	Z	Z
z	Z	Z	-	X	x	-	z	-	X	x
-	Z	Z	-	-	z	-	z	-	-	z
y	z	Z	-	X	x	-	z	-	X	x
-	Z	Z	-	X	x	-	z	-	Y	-
z	Z	Z	-	X	x	-	z	-	-	-
z	Z	Z	-	X	x	-	z	-	-	-
-	-	Z	-	-	z	-	z	-	Z	-
-	-	Z	-	-	z	-	z	-	-	Y
x	-	Z	-	X	x	-	z	-	-	Z
x	-	Z	-	X	x	-	z	-	Z	Z
Z	Z	Y	-	y	z	-	z	-	Z	Z
Z	Z	Y	-	y	z	-	z	-	Z	Y
Z	Z	Z	-	X	x	-	z	-	X	x
Z	Z	Z	-	X	x	-	z	-	X	x
y	Z	Z	-	-	z	-	z	-	-	z
z	Z	Z	-	X	x	-	z	-	Z	Y
Z	-	Z	-	X	x	-	z	-	Z	Y
X	x	Z	-	X	x	-	z	z	Y	X
Z	-	Z	-	X	x	-	z	-	Z	Z
-	y	Z	-	X	x	-	z	-	-	-
Z	-	Z	-	-	z	-	z	-	X	x
Z	-	Z	-	-	z	-	z	-	X	x
Z	Z	Z	-	X	x	-	z	-	Z	Y
Z	-	Z	-	X	x	-	z	-	-	z
z	-	Z	-	X	x	-	z	-	Z	Z
z	Z	Z	-	X	x	-	z	-	Z	Z
-	Z	Z	-	X	x	-	z	-	Z	Z
y	Z	Z	-	X	x	-	z	-	Z	Y
Z	Z	Z	-	X	x	-	z	-	Z	Z
-	Z	Z	-	X	x	-	z	-	Z	Z
x	-	Z	-	Z	-	-	z	-	Z	Y
x	y	Z	-	X	x	-	z	-	-	z
Z	Z	Z	-	X	x	-	z	z	Z	Y
Z	Z	Z	-	X	x	-	z	z	Y	X
Z	Z	Z	-	X	x	-	z	-	-	Z
-	Z	Z	-	X	x	-	z	-	Z	Z
z	-	Z	-	X	x	-	z	-	X	x
-	Z	Z	-	X	x	-	z	-	Z	Y
z	Z	Y	-	y	z	-	z	-	-	Y
z	-	Z	-	-	z	-	z	-	Y	X
Z	Z	Z	-	X	x	-	z	-	Z	-
z	z	Z	-	X	x	-	z	-	Z	Z
x	-	Z	-	X	x	-	z	-	X	x
y	-	Z	-	Z	-	-	z	-	Z	Y
z	Z	Z	-	X	x	-	z	-	Z	Z
z	-	Z	-	-	z	-	z	-	Z	Z
x	-	Z	-	X	x	-	z	-	Z	-
y	Z	Z	-	X	x	-	z	z	Y	-
-	-	Z	-	X	x	-	z	z	Y	X
x	-	Z	-	Z	Y	-	y	-	Z	Y
y	z	Z	-	X	x	-	z	z	-	Z
z	Z	Z	-	X	x	-	z	-	Z	Z
y	z	Z	-	X	x	-	z	-	Y	X
Z	-	Z	-	-	z	-	z	-	Z	Z
X	x	Z	-	X	x	-	z	-	X	x
-	-	Z	-	X	x	-	z	-	X	x
x	y	Z	-	X	x	-	z	-	Z	Z
z	Z	Z	-	-	z	-	z	-	X	x
-	-	Z	-	X	x	-	z	-	X	x
z	z	Z	-	X	x	-	z	-	Z	Z
y	-	Z	-	X	x	-	z	-	Z	Z
z	-	Z	-	-	z	-	z	-	X	x
Z	Z	Z	-	X	x	-	z	z	Y	X
-	Z	Z	-	Z	Y	-	y	-	-	Y
y	Z	Z	-	X	x	-	z	-	Z	-
Z	-	Z	-	X	x	-	z	z	-	Y
-	-	Z	-	X	x	-	z	-	Z	Y
Z	Z	Z	-	X	x	-	z	-	Y	X
Z	Z	Z	-	X	x	-	z	-	-	X
x	Z	Z	-	X	x	-	z	-	Y	X
-	-	Z	-	X	x	-	z	-	Z	Y
Z	Z	Z	-	X	x	-	z	z	-	Y
y	Z	Z	-	X	x	-	z	-	X	x
z	Z	Z	-	X	x	-	z	-	-	z
-	Z	Z	-	-	z	-	z	-	Z	Y
Z	Z	Y	-	y	z	-	z	-	Y	X
Z	-	Z	-	X	x	-	z	-	Z	Y
Z	-	Z	-	X	x	-	z	z	Y	X
y	Z	Z	-	X	x	-	z	-	Y	X
Z	Z	Z	-	X	x	-	z	-	Z	-
z	-	Z	-	X	x	-	z	-	-	Y
x	-	Z	-	X	x	-	z	-	Z	Y
-	Z	Z	-	X	x	-	z	-	X	x
Z	Z	Z	-	X	x	-	z	-	Z	-
Z	-	Z	-	X	x	-	z	-	Z	Y
z	Z	Z	-	X	x	-	z	z	Z	Z
z	-	Z	-	X	x	-	z	-	Y	-
y	Z	Z	-	-	z	-	z	-	Y	X
y	-	Z	-	X	x	-	z	-	Z	Y
Z	Z	Z	-	X	x	-	z	-	X	x
x	Z	Z	-	X	x	-	z	-	-	Z
z	-	Z	-	X	x	-	z	-	-	Y
-	z	Z	-	X	x	-	z	-	X	x
z	-	Z	-	-	z	-	z	-	-	Z
Z	Z	Z	-	X	x	-	z	z	Y	-
y	Z	Z	-	-	z	-	z	-	Y	X
x	-	Z	-	X	x	-	z	-	Z	Y
y	-	Z	-	-	z	-	z	-	-	z
-	-	Z	-	X	x	-	z	-	Y	X
-	Z	Z	-	X	x	-	z	-	X	x
z	-	Z	-	X	x	-	z	-	Y	X
X	x	Z	-	X	x	-	z	z	Z	Z
Z	Z	Z	-	X	x	-	z	-	Z	Y
z	-	Z	-	X	x	-	z	-	Z	Z
-	Z	Z	-	X	x	-	z	-	Z	Z
X	x	Z	-	X	x	-	z	-	Z	Z
-	-	Y	-	y	z	-	z	-	Y	X
z	Z	Z	-	X	x	-	z	-	X	x
-	z	Z	-	X	x	-	z	-	Z	-
-	Z	Y	-	y	z	-	z	-	Z	Z
z	-	Z	-	X	x	-	z	-	Z	-
x	-	Z	-	X	x	-	z	-	-	Z
-	-	Z	-	X	x	-	z	-	Y	X
y	-	Y	-	y	z	-	z	-	Y	X
z	-	Z	-	X	x	-	z	-	Z	Y
x	y	Z	-	X	x	-	z	-	Y	X
Z	Z	Z	-	X	x	-	z	z	Z	Z
x	-	Z	-	X	x	-	z	-	Z	Z
Z	Z	Z	-	X	x	-	z	-	Y	X
-	-	Z	-	Z	-	-	z	-	-	Z
y	Z	Z	-	Z	-	-	z	-	Y	X
-	Z	Z	-	X	x	-	z	-	Z	Z
Z	Z	Z	-	X	x	-	z	-	X	x
Z	Z	Z	-	X	x	-	z	z	Z	Y
-	Z	Z	-	X	x	-	z	z	Z	-
z	-	Z	-	-	z	-	z	-	Z	-
y	Z	Z	-	X	x	-	z	-	Z	Y
y	-	Y	-	y	z	-	z	-	Y	X
z	z	Z	-	X	x	-	z	-	Z	Z
y	Z	Z	-	X	x	-	z	-	X	x
Z	Z	Z	-	X	x	-	z	z	Z	Y
x	-	Z	-	-	z	-	z	-	Z	Z
z	Z	Z	-	X	x	-	z	-	Z	-
Z	Z	Z	-	X	x	-	z	-	Z	Y
-	Z	Z	-	X	x	-	z	-	-	z
Z	Z	Z	-	X	x	-	z	-	Z	Z
y	-	Y	-	y	z	-	z	-	Z	Z
z	z	Z	-	-	z	-	z	-	Y	-
-	-	Z	-	-	z	-	z	-	X	x
Z	Z	Z	-	X	x	-	z	z	Y	X
Z	Z	Z	-	X	x	-	z	-	Z	Z
-	-	Z	-	X	x	-	z	-	X	x
Z	-	Y	-	y	z	-	z	-	Z	Y
X	x	Z	-	X	x	-	z	-	Y	X
x	Z	Y	-	y	z	-	z	-	Z	-
X	x	Z	-	X	x	-	z	-	Y	X
Z	Z	Z	-	X	x	-	z	-	Z	Z
Z	Z	Z	-	X	x	-	z	-	Z	-
x	y	Z	-	X	x	-	z	-	Z	Y
y	-	Y	-	y	z	-	z	-	Z	Z
Z	Z	Z	-	X	x	-	z	-	Z	-
Z	Z	Z	-	X	x	-	z	-	Z	-
y	Z	Z	-	X	x	-	z	-	X	x
x	Z	Z	-	X	x	-	z	-	X	x
x	-	Z	-	-	z	-	z	-	Z	Z
y	-	Z	-	X	x	-	z	-	Z	-
-	z	Z	-	X	x	-	z	-	Z	-
Z	Z	Z	-	X	x	-	z	-	-	z
z	Z	Z	-	X	x	-	z	-	Z	Z
-	-	Z	-	-	z	-	z	-	Y	-
-	Z	Z	-	X	x	-	z	-	Z	-
z	-	Z	-	-	Y	-	y	-	Z	Z
y	-	Z	-	X	x	-	z	-	Z	-
-	z	Z	-	X	x	-	z	-	Z	-
X	x	Z	-	X	x	-	z	-	Z	-
-	Z	Z	-	-	z	-	z	-	Y	-
Z	Z	Z	-	X	x	-	z	-	Y	-
x	-	Z	-	X	x	-	z	-	Y	X
-	-	Z	-	X	x	-	z	-	X	x
y	Z	Z	-	X	x	-	z	-	Z	Z
-	Z	Z	-	X	x	-	z	-	Z	-
Z	Z	Z	-	X	x	-	z	-	-	-
-	Z	Z	-	X	x	-	z	z	Z	Y
x	y	Z	-	X	x	-	z	z	Z	-
Z	-	Z	-	Z	-	-	z	-	Z	Z
Z	Z	Z	-	Z	Y	-	y	-	Z	Z
-	Z	Z	-	X	x	-	z	-	Y	-
-	-	Z	-	X	x	-	z	z	Y	X
Z	-	Z	-	X	x	-	z	-	Z	Y
-	-	Z	-	-	z	-	z	-	Z	-
-	Z	Z	-	X	x	-	z	-	Z	Z
-	-	Z	-	X	x	-	z	-	Z	-
X	x	Z	-	X	x	-	z	-	Y	X
-	-	Z	-	X	x	-	z	-	Y	X
z	-	Z	-	-	z	-	z	-	Y	X
z	-	Z	-	-	z	-	z	-	Z	Y
-	z	Z	-	X	x	-	z	-	Z	Z
Z	Z	Z	-	X	x	-	z	-	Z	Z
y	-	Z	-	X	x	-	z	-	Z	Y
y	-	Z	-	X	x	-	z	-	-	Y
y	-	Z	-	Z	-	-	z	-	Z	Y
x	Z	Z	-	Z	Y	-	y	-	Z	Z
-	-	Z	-	X	x	-	z	-	Z	-
Z	-	Z	-	-	z	-	z	-	Z	-
Z	Z	Z	-	X	x	-	z	z	-	X
Z	Z	Z	-	X	x	-	z	-	Z	Y
z	Z	Z	-	X	x	-	z	-	Y	-
-	-	Z	-	-	z	-	z	-	Z	-
-	-	Z	-	-	z	-	z	-	Z	-
z	Z	Z	-	X	x	-	z	-	Z	Y
Z	Z	Z	-	X	x	-	z	z	Z	Z
y	z	Z	-	X	x	-	z	-	-	z
z	Z	Z	-	X	x	-	z	-	-	Y
x	Z	Z	-	Z	Y	-	y	-	Y	-
y	Z	Z	-	Z	-	-	z	-	-	Y
Z	Z	Z	-	Z	Y	-	y	-	-	X
-	z	Z	-	X	x	-	z	-	Z	-
z	-	Y	-	y	z	-	z	-	Z	Y
-	Z	Z	-	X	x	-	z	-	-	Z
x	-	Z	-	X	x	-	z	-	-	Z
Z	Z	Z	-	X	x	-	z	-	Z	Y
y	-	Z	-	X	x	-	z	-	Z	Z
-	Z	Z	-	X	x	-	z	-	Z	Z
Z	Z	Z	-	X	x	-	z	-	-	Z
Z	Z	Z	-	X	x	-	z	-	-	Z
-	z	Z	-	X	x	-	z	-	Z	-
x	-	Z	-	X	x	-	z	-	X	x
z	-	Z	-	X	x	-	z	-	X	x
Z	Z	Z	-	-	z	-	z	-	Z	Z
Z	-	Z	-	Z	-	-	z	-	Z	Z
-	Z	Z	-	X	x	-	z	z	-	Y
y	-	Z	-	X	x	-	z	-	-	X
Z	-	Y	-	y	z	-	z	-	Y	-
-	Z	Z	-	X	x	-	z	z	-	Z
Z	-	Z	-	-	z	-	z	-	Z	-
-	Z	Z	-	-	z	-	z	-	Y	X
y	Z	Z	-	X	x	-	z	-	Z	-
-	Z	Z	-	X	x	-	z	z	Z	Y
Z	-	Z	-	Z	-	-	z	-	Z	Z
z	-	Z	-	X	x	-	z	-	Z	Y
-	Z	Z	-	X	x	-	z	-	Z	Y
-	z	Z	-	X	x	-	z	-	Z	-
-	z	Z	-	X	x	-	z	-	Z	-
-	y	Z	-	-	z	-	z	-	-	Z
-	y	Z	-	-	z	-	z	-	-	Z
z	Z	Z	-	-	z	-	z	-	Z	Z
x	-	Z	-	X	x	-	z	-	Z	Z
z	Z	Z	-	X	x	-	z	-	Z	Z
z	Z	Z	-	Z	Y	-	y	-	X	x
Z	Z	Z	-	Z	-	-	z	-	Y	X
z	Z	Z	-	X	x	-	z	-	Z	Z
-	Z	Z	-	X	x	-	z	-	X	x
z	Z	Z	-	X	x	-	z	-	Z	Z
Z	Z	Z	-	X	x	-	z	-	Z	Z
x	Z	Z	-	X	x	-	z	-	Z	Y
-	Z	Z	-	X	x	-	z	-	Z	-
-	Z	Z	-	X	x	-	z	-	Y	X
y	z	Z	-	X	x	-	z	-	Y	-
-	Z	Z	-	X	x	-	z	-	Z	-
-	-	Z	-	X	x	-	z	-	Z	-
x	-	Z	-	Z	Y	-	y	-	Z	Z
z	Z	Z	-	Z	-	-	z	-	Z	Z
-	Z	Z	-	X	x	-	z	z	-	X
Z	Z	Z	-	Z	-	-	z	-	Y	X
z	-	Z	-	-	z	-	z	-	Z	Z
z	-	Z	-	Z	Y	-	y	-	Y	X
x	-	Z	-	X	x	-	z	-	Z	Z
z	-	Z	-	X	x	-	z	-	Z	Z
-	-	Z	-	-	z	-	z	-	Z	Z
y	Z	Z	-	X	x	-	z	-	Z	Z
X	x	Z	-	X	x	-	z	-	X	x
y	Z	-	-	X	x	-	z	-	Y	-
y	Z	Y	-	y	z	-	z	-	Y	-
x	-	Z	-	X	x	-	z	-	-	Z
y	Z	Z	-	X	x	-	z	-	Z	Z
Z	Z	Z	-	X	x	-	z	-	Z	Y
Z	-	Z	-	Z	-	-	z	-	Z	Z
Z	Z	Z	-	X	x	-	z	-	X	x
Z	Z	Z	-	X	x	-	z	-	Z	-
Z	Z	Z	-	X	x	-	z	-	Z	-
-	-	Z	-	X	x	-	z	-	Z	-
-	z	Z	-	X	x	-	z	-	Y	X
X	x	Z	-	X	x	-	z	-	X	x
y	Z	-	-	X	x	-	z	-	Y	-
Z	Z	Z	-	Z	Y	-	y	-	Y	X
z	Z	Z	-	X	x	-	z	-	-	z
X	x	Z	-	X	x	-	z	-	Z	Z
y	-	Z	-	X	x	-	z	-	Y	-
-	Z	Z	-	X	x	-	z	-	Z	Y
y	-	Z	-	X	x	-	z	-	Y	-
z	Z	Z	-	X	x	-	z	-	Z	Y
-	Z	Z	-	Z	-	-	z	-	Z	Z
Z	-	Z	-	X	x	-	z	-	Z	Z
x	-	Z	-	X	x	-	z	-	Z	Z
-	-	Z	-	X	x	-	z	-	Z	Y
Z	-	Z	-	X	x	-	z	z	-	Y
Z	-	Z	-	X	x	-	z	-	Y	X
Z	-	Z	-	X	x	-	z	-	-	X
Z	Z	Z	-	X	x	-	z	-	Y	X
Z	Z	Z	-	X	x	-	z	-	Y	-
z	-	Z	-	-	z	-	z	-	Z	Y
-	z	Z	-	X	x	-	z	-	-	z
Z	-	Z	-	-	z	-	z	-	Y	-
-	-	Z	-	X	x	-	z	-	Z	Y
Z	-	Z	-	X	x	-	z	-	-	-
-	Z	Z	-	Z	Y	-	y	-	Y	X
x	-	Z	-	X	x	-	z	-	-	Z
x	Z	Z	-	X	x	-	z	-	-	Y
Z	Z	Z	-	X	x	-	z	-	Z	Z
-	-	Z	-	X	x	-	z	-	Z	Z
Z	-	Z	-	X	x	-	z	-	Z	-
-	-	Z	-	X	x	-	z	-	Z	Z
-	Z	Z	-	X	x	-	z	-	X	x
-	-	Z	-	X	x	-	z	-	Z	Z
Z	Z	Z	-	-	z	-	z	-	Z	Z
-	-	Z	-	X	x	-	z	z	Z	Z
x	-	Z	-	Z	Y	-	y	-	-	Z
Z	Z	Z	-	X	x	-	z	-	Z	-
z	z	Z	-	X	x	-	z	-	-	-
x	-	Z	-	-	z	-	z	-	Z	Z
-	Z	Z	-	-	z	-	z	-	Y	-
Z	Z	Z	-	X	x	-	z	-	Z	-
y	Z	Z	-	X	x	-	z	-	Z	Z
z	Z	Z	-	X	x	-	z	-	Z	-
-	-	Z	-	X	x	-	z	-	-	Y
Z	-	Z	-	X	x	-	z	-	-	Y
-	Z	Z	-	X	x	-	z	-	X	x
-	Z	Z	-	X	x	-	z	z	Z	Z
Z	-	Z	-	Z	-	-	z	-	Z	-
Z	-	Z	-	-	z	-	z	-	Z	Y
Z	Z	Z	-	Z	Y	-	y	-	Z	Z
Z	-	Z	-	X	x	-	z	-	Y	X
