0	1	2	3	4	5	6	7	8	9	10
G	C	C	A	C	G	T	G	A	C	G
A	C	C	A	C	G	T	G	A	T	T
C	C	C	A	C	G	T	G	G	C	C
C	C	C	A	C	G	T	G	G	C	G
A	T	C	A	C	G	T	G	A	C	G
G	C	C	A	C	G	T	G	A	C	G
A	C	C	A	C	G	T	G	A	C	T
T	C	C	A	C	G	T	G	A	T	A
G	G	C	A	C	G	T	G	G	T	C
G	C	C	A	C	C	T	G	A	C	T
A	C	C	A	C	G	T	G	A	C	G
A	A	C	A	C	G	T	G	A	C	C
A	G	C	A	T	G	T	G	A	T	C
T	C	C	A	C	G	T	G	A	C	C
G	C	C	A	G	G	T	G	A	C	C
C	C	C	A	T	G	T	G	A	C	C
G	T	C	A	C	G	T	G	A	C	C
C	C	C	A	C	G	T	G	T	C	T
C	A	C	A	C	G	T	G	A	T	T
A	G	C	A	C	G	T	G	G	C	C
C	T	C	A	C	G	T	G	A	C	C
G	T	C	A	C	G	T	G	A	C	T
C	G	C	A	C	G	T	G	G	C	C
T	C	C	A	C	G	T	G	A	C	C
G	C	C	A	C	G	T	G	A	T	G
A	G	C	A	C	G	T	G	A	C	C
G	C	C	A	C	G	T	G	A	T	T
C	C	C	A	C	G	T	G	A	C	C
G	G	C	A	G	G	T	G	A	C	G
T	C	C	A	C	G	T	G	A	C	T
G	T	C	A	A	G	T	G	A	C	T
G	T	C	A	T	G	T	G	A	C	T
A	G	C	A	G	G	T	G	A	C	C
G	G	C	A	C	A	T	G	A	C	C
A	G	C	A	C	G	T	G	A	C	C
C	T	C	A	C	A	T	G	A	C	T
G	G	C	A	C	G	T	G	A	C	C
C	G	C	T	C	G	T	G	A	C	C
G	C	C	A	C	G	T	G	A	C	C
C	T	C	A	C	G	T	G	A	C	T
A	C	C	A	C	G	T	G	G	C	T
A	T	C	A	C	A	T	G	A	C	T
C	C	C	A	C	G	T	G	G	C	C
C	C	A	A	C	G	T	G	A	C	C
A	C	C	A	C	G	T	G	G	C	C
A	T	C	A	T	G	T	G	A	C	C
A	T	C	A	T	G	T	G	A	C	C
T	T	C	A	A	G	T	G	A	C	C
G	T	C	A	C	A	T	G	A	C	C
A	C	C	A	C	G	T	G	T	C	C
G	T	C	A	C	G	T	G	A	C	G
C	T	C	A	C	G	T	G	G	C	T
A	A	C	A	C	G	T	G	A	C	C
T	T	C	A	C	G	T	G	A	T	C
G	C	C	A	C	G	T	G	G	C	C
G	C	C	A	C	G	T	G	G	C	C
T	G	C	A	C	G	T	G	A	C	G
G	T	C	A	C	G	T	G	A	C	C
G	T	C	A	C	A	T	G	A	C	C
A	G	C	A	T	G	T	G	A	T	C
A	T	C	A	C	G	T	G	A	C	G
C	C	C	A	C	G	T	G	A	C	T
G	C	C	A	C	G	T	G	A	C	T
G	G	C	A	C	G	T	G	A	C	G
A	T	C	A	C	C	T	G	A	C	T
G	T	C	A	G	G	T	G	A	C	G
G	A	C	A	C	G	T	G	A	C	T
G	C	C	A	C	G	T	G	A	C	G
G	T	C	A	T	G	T	G	A	C	G
G	C	C	A	T	G	T	G	A	T	G
G	C	C	A	C	G	T	G	A	C	C
G	C	C	A	C	G	T	G	A	C	C
A	C	C	A	C	G	T	G	G	T	C
A	A	C	A	C	G	T	G	A	C	T
C	C	C	A	C	G	T	G	G	C	C
G	C	C	A	C	G	T	G	A	C	C
C	C	C	A	C	A	T	G	A	C	C
T	G	C	A	T	G	T	G	A	C	C
T	G	C	A	C	G	T	G	A	C	C
T	C	C	A	C	G	T	G	A	T	A
A	T	C	A	C	G	T	G	A	C	C
A	G	C	A	C	G	T	G	G	C	C
A	T	C	A	T	G	T	G	A	T	C
G	C	C	A	C	G	T	G	T	T	C
G	T	C	A	T	G	T	G	A	T	C
A	G	C	A	C	G	T	G	A	C	C
G	T	C	A	C	G	T	G	A	C	C
G	G	C	A	C	G	T	G	A	C	C
C	C	C	A	C	G	T	G	A	C	G
A	T	C	A	C	C	T	G	A	C	T
G	C	C	A	C	G	T	G	A	T	A
A	G	C	A	C	G	T	G	A	C	T
C	C	C	A	C	C	T	G	A	C	T
C	T	C	A	G	G	T	G	A	C	G
A	G	C	A	C	A	T	G	A	C	T
C	C	C	A	T	G	T	G	A	C	C
A	C	C	A	T	G	T	G	A	C	G
C	G	C	A	T	G	T	G	A	C	G
G	C	C	A	C	G	T	G	A	C	G
G	T	C	A	C	G	T	G	A	C	C
A	G	C	A	C	G	T	G	A	C	C
T	T	C	A	C	G	T	G	G	C	C
A	C	C	A	T	G	T	G	A	C	A
G	C	C	T	C	G	T	G	A	C	G
C	C	C	A	C	G	T	G	G	C	C
C	T	C	A	C	G	T	G	A	C	C
C	G	C	A	C	C	T	G	A	C	C
G	G	C	A	C	G	T	G	T	T	C
A	T	C	A	C	A	T	G	A	C	C
C	C	C	A	T	G	T	G	A	C	A
A	C	C	A	T	G	T	G	A	C	A
A	G	C	A	T	G	T	G	A	C	C
G	G	C	A	T	G	T	G	A	C	A
C	C	C	A	C	G	T	G	G	C	C
C	C	C	A	C	G	T	G	A	C	T
G	C	C	A	C	A	T	G	A	C	C
C	C	C	A	C	C	T	G	A	C	T
G	T	C	A	G	G	T	G	A	C	C
G	T	C	A	C	C	T	G	A	C	C
G	A	C	A	C	G	T	G	A	C	A
G	C	C	A	T	G	T	G	A	C	T
A	C	C	A	C	G	T	G	A	C	A
C	C	C	A	C	G	T	G	A	C	C
G	T	C	A	G	G	T	G	A	C	G
G	T	C	A	C	G	T	G	A	C	T
G	C	C	A	C	G	T	G	T	T	C
G	G	C	A	C	G	T	G	A	C	C
A	G	C	A	C	G	T	G	G	C	C
T	G	C	A	C	G	T	G	A	C	T
G	C	C	A	C	G	T	G	A	C	T
C	C	C	A	C	G	T	G	G	C	C
C	T	C	A	T	G	T	G	A	T	G
A	A	C	A	C	G	T	G	G	C	C
T	G	C	A	C	G	T	G	A	C	C
C	T	C	A	G	G	T	G	A	C	C
T	G	C	A	C	G	T	G	A	C	C
C	T	C	A	C	G	T	G	G	C	C
C	C	C	A	C	G	T	G	A	C	C
A	A	C	A	C	G	T	G	A	C	A
G	T	C	A	C	G	T	G	A	C	G
A	G	C	A	C	G	T	G	A	C	C
G	C	C	A	C	G	T	G	A	C	C
C	T	C	A	C	G	T	G	A	C	G
A	A	C	A	T	G	T	G	A	C	C
G	C	C	A	C	G	T	G	A	T	T
G	G	C	A	C	G	T	G	G	T	C
G	G	C	A	C	G	T	G	A	C	T
C	C	C	A	T	G	T	G	A	C	T
A	C	C	A	C	G	T	G	A	C	C
C	T	C	A	C	G	T	G	A	C	T
C	C	C	A	T	G	T	G	A	T	G
T	T	C	A	C	G	T	G	A	T	T
A	C	C	A	T	G	T	G	A	C	C
T	C	C	A	T	G	T	G	A	C	T
T	T	C	A	C	G	T	G	A	C	C
G	C	C	A	C	G	T	G	G	C	C
G	C	C	A	C	G	T	G	A	C	C
G	T	C	A	C	G	T	G	A	C	C
G	C	C	A	G	G	T	G	A	C	C
G	T	C	A	G	G	T	G	A	C	G
G	C	C	A	C	G	T	G	A	C	C
T	T	C	A	C	G	T	G	A	T	C
G	T	C	A	C	G	T	G	A	C	C
C	C	C	A	C	G	T	G	G	C	G
T	C	C	A	T	G	T	G	A	C	G
A	T	C	A	C	A	T	G	A	T	C
C	T	C	A	C	G	T	G	A	C	T
T	C	C	A	C	C	T	G	A	C	C
G	A	C	A	T	G	T	G	A	C	C
G	G	C	A	T	G	T	G	A	C	C
C	T	C	A	C	G	T	G	A	C	G
G	C	C	T	C	G	T	G	A	C	T
C	A	C	A	C	G	T	G	A	T	C
A	C	C	A	C	A	T	G	A	T	C
G	C	C	T	C	G	T	G	A	C	G
T	C	C	A	T	G	T	G	A	C	C
T	T	C	A	C	G	T	G	A	C	C
G	T	C	A	C	G	T	G	A	C	T
G	G	C	A	C	A	T	G	A	C	T
G	T	C	A	T	A	T	G	A	C	C
C	T	C	A	C	G	T	G	A	C	C
C	C	C	A	T	G	T	G	A	C	C
G	C	C	A	T	G	T	G	A	C	C
G	T	C	A	T	G	T	G	A	C	T
G	A	C	A	T	G	T	G	A	C	C
G	T	C	A	C	C	T	G	A	C	C
C	C	C	A	C	C	T	G	A	C	C
C	C	C	A	C	G	T	G	G	T	C
C	C	C	A	T	G	T	G	A	C	A
G	G	C	A	C	A	T	G	A	C	T
G	C	C	A	C	G	T	G	T	C	A
G	A	C	A	C	G	T	G	A	C	T
G	A	C	A	C	G	T	G	A	C	A
G	C	C	A	C	G	T	G	A	C	G
A	G	C	A	C	G	T	G	G	C	C
A	C	C	A	C	G	T	G	T	C	T
C	C	C	A	C	G	T	G	G	C	T
G	T	C	A	T	G	T	G	A	T	T
T	C	C	A	C	G	T	G	A	C	G
A	C	C	A	T	G	T	G	A	C	C
A	T	C	A	C	G	T	G	A	C	G
C	T	C	A	C	A	T	G	A	C	C
G	C	C	A	C	G	T	G	T	C	C
G	C	C	A	T	G	T	G	A	T	G
T	T	C	A	C	G	T	G	A	C	T
C	C	C	A	C	G	T	G	A	C	C
C	C	C	A	C	G	T	G	A	C	C
A	T	C	A	C	C	T	G	A	T	C
G	T	C	A	C	G	T	G	A	C	C
G	G	C	A	G	G	T	G	A	C	C
G	A	C	A	C	G	T	G	A	C	A
G	G	C	A	C	G	T	G	A	T	G
G	C	C	A	C	G	T	G	A	T	G
A	T	C	A	G	G	T	G	A	C	A
G	G	C	A	T	G	T	G	A	T	C
C	C	C	T	C	G	T	G	A	T	C
G	C	C	A	C	G	T	G	A	C	C
A	C	C	A	C	G	T	G	G	C	C
C	C	C	A	C	G	T	G	A	C	T
G	C	C	A	C	G	T	G	A	C	C
G	G	C	A	C	G	T	G	G	T	C
G	G	C	A	C	G	T	G	A	C	C
C	C	C	A	C	G	T	G	A	T	C
T	C	C	A	C	G	T	G	A	C	C
C	G	C	A	C	G	T	G	A	C	T
G	C	C	A	C	C	T	G	A	C	A
G	C	C	A	C	G	T	G	A	C	T
A	C	C	A	C	G	T	G	A	C	G
C	T	C	A	C	G	T	G	A	C	G
A	T	C	A	C	G	T	G	A	C	C
G	C	C	A	C	G	T	G	T	C	T
G	T	C	T	C	G	T	G	A	C	C
T	T	C	A	C	G	T	G	A	C	T
C	T	C	A	C	G	T	G	A	C	C
A	C	C	A	C	G	T	G	T	C	C
C	A	C	A	C	G	T	G	A	C	G
A	A	C	A	C	G	T	G	A	T	T
C	C	C	A	C	G	T	G	A	C	C
G	C	C	A	C	G	T	G	A	C	T
C	T	C	A	C	G	T	G	G	T	C
T	C	C	A	T	G	T	G	A	C	C
G	C	C	A	C	G	T	G	A	T	G
G	C	C	A	C	G	T	G	A	C	C
G	C	A	A	C	G	T	G	A	C	C
G	C	C	A	C	G	T	G	A	C	C
C	C	C	A	C	G	T	G	A	C	C
G	C	C	A	C	G	T	G	A	C	G
G	G	C	T	C	G	T	G	A	C	C
A	C	C	A	G	G	T	G	A	C	C
G	A	C	A	C	A	T	G	A	C	C
G	C	C	A	G	G	T	G	A	C	A
C	G	C	A	C	G	T	G	A	C	G
C	T	C	A	C	G	T	G	A	C	C
G	T	C	A	G	G	T	G	A	C	C
C	A	C	A	T	G	T	G	A	C	T
G	C	C	A	C	G	T	G	A	C	C
A	C	C	A	C	G	T	G	G	C	C
C	A	C	A	C	G	T	G	A	C	T
T	C	C	A	C	G	T	G	G	C	C
T	C	C	A	T	G	T	G	A	C	C
A	A	C	A	C	G	T	G	A	T	T
G	T	C	A	C	G	T	G	A	C	G
G	C	C	A	C	G	T	G	A	C	T
C	T	C	A	C	G	T	G	G	T	C
G	T	C	A	G	G	T	G	A	C	T
G	G	C	T	C	G	T	G	A	C	C
G	C	C	A	C	G	T	G	G	C	T
G	C	C	A	C	G	T	G	A	C	T
C	T	C	A	C	G	T	G	A	C	T
A	T	C	A	T	G	T	G	A	C	C
C	C	C	A	C	G	T	G	A	C	A
G	A	C	A	C	G	T	G	A	C	G
A	C	C	T	C	G	T	G	A	C	T
C	C	C	A	C	G	T	G	G	C	T
G	C	C	A	C	G	T	G	A	C	C
C	C	C	A	C	G	T	G	A	C	C
C	C	C	A	C	G	T	G	A	T	G
G	T	C	A	G	G	T	G	A	C	A
C	C	C	A	C	G	T	G	A	C	C
A	C	C	A	C	G	T	G	A	T	G
G	C	C	A	C	C	T	G	A	C	T
T	C	C	A	C	G	T	G	A	C	C
C	G	C	A	C	G	T	G	T	C	C
C	T	C	A	C	A	T	G	A	C	C
C	T	C	A	C	G	T	G	G	C	T
G	G	C	A	C	G	T	G	A	C	T
C	T	C	A	C	A	T	G	A	C	C
C	C	C	A	C	G	T	G	A	T	C
G	T	C	A	C	G	T	G	A	C	C
A	C	C	A	C	G	T	G	A	C	C
C	C	C	A	C	G	T	G	G	C	G
A	A	C	A	C	G	T	G	G	C	C
A	A	C	A	C	G	T	G	A	C	C
A	A	C	A	C	G	T	G	A	C	C
G	G	C	A	C	G	T	G	A	C	G
G	G	C	A	C	G	T	G	A	C	G
G	T	C	A	T	G	T	G	A	C	C
G	T	C	A	T	G	T	G	A	C	C
A	G	C	A	C	G	T	G	A	T	T
A	G	C	A	C	G	T	G	A	C	C
C	C	C	A	C	A	T	G	A	C	C
G	C	C	A	C	G	T	G	T	T	C
G	T	C	A	T	G	T	G	A	C	G
G	G	C	A	C	G	T	G	G	C	T
C	G	C	A	C	G	T	G	T	C	C
G	T	C	A	G	G	T	G	A	C	A
G	C	C	A	C	G	T	G	A	C	G
A	A	C	A	C	G	T	G	A	C	C
C	C	C	A	C	G	T	G	A	C	C
G	C	C	A	C	G	T	G	G	C	C
A	T	C	A	G	G	T	G	A	C	G
G	T	C	A	C	C	T	G	A	T	C
G	A	C	A	C	G	T	G	A	C	C
C	C	C	A	C	G	T	G	A	C	C
G	T	C	T	C	G	T	G	A	C	C
C	C	C	A	C	G	T	G	A	T	C
A	T	C	A	T	G	T	G	A	C	G
G	C	C	A	G	G	T	G	A	C	C
G	C	C	A	C	G	T	G	A	C	C
C	C	C	A	C	G	T	G	A	C	C
G	T	C	A	G	G	T	G	A	C	T
T	T	C	A	T	G	T	G	A	C	C
G	G	C	A	C	G	T	G	G	C	T
A	T	C	A	C	G	T	G	A	C	T
C	C	C	A	T	G	T	G	A	C	T
G	A	C	A	G	G	T	G	A	C	C
C	C	A	A	C	G	T	G	A	C	C
G	C	C	T	C	G	T	G	A	C	T
C	C	C	A	C	C	T	G	A	C	C
G	G	C	A	C	G	T	G	A	C	T
G	C	C	A	T	G	T	G	A	C	T
G	T	C	A	C	G	T	G	A	C	T
C	C	C	T	C	G	T	G	A	C	C
G	C	C	A	C	G	T	G	G	C	C
G	C	C	A	C	G	T	G	A	T	G
G	G	C	A	T	G	T	G	A	C	T
T	G	C	A	C	G	T	G	A	C	T
A	C	C	A	C	G	T	G	A	C	A
C	C	C	A	C	G	T	G	A	C	C
A	T	C	A	T	G	T	G	A	C	C
T	C	C	A	C	G	T	G	A	T	G
G	T	C	A	T	G	T	G	A	C	A
A	T	C	A	T	G	T	G	A	C	T
C	C	C	A	C	G	T	G	A	C	C
C	C	C	A	C	G	T	G	G	C	G
A	C	C	A	C	G	T	G	G	C	C
C	C	C	A	C	G	T	G	A	C	G
C	C	C	A	C	G	T	G	A	C	C
C	C	C	A	G	G	T	G	A	C	C
A	T	C	A	T	G	T	G	A	C	C
C	T	C	A	C	G	T	G	A	C	C
G	T	C	A	C	G	T	G	A	C	T
C	G	C	A	C	G	T	G	A	C	C
A	C	C	A	C	C	T	G	A	C	C
T	C	C	A	C	G	T	G	A	T	G
G	T	C	A	T	G	T	G	A	C	A
C	C	C	A	C	A	T	G	A	T	C
G	T	C	A	C	G	T	G	A	C	C
C	C	C	A	C	G	T	G	A	C	T
G	T	C	A	C	G	T	G	A	C	T
G	T	C	A	G	G	T	G	A	C	G
G	T	C	A	G	G	T	G	A	C	C
G	T	C	A	T	G	T	G	A	C	G
C	C	C	A	C	G	T	G	G	C	C
A	G	C	A	C	G	T	G	A	C	T
C	C	C	A	C	G	T	G	A	T	C
G	G	C	A	C	G	T	G	A	T	G
G	T	C	A	C	G	T	G	A	C	G
C	C	C	A	C	G	T	G	A	C	C
G	C	C	A	C	G	T	G	A	C	A
G	T	C	A	C	G	T	G	A	C	C
A	C	C	A	C	G	T	G	T	C	T
C	G	C	A	C	G	T	G	A	C	G
G	T	C	A	C	G	T	G	A	T	C
A	C	C	A	C	G	T	G	A	T	C
C	T	C	A	C	G	T	G	A	T	C
G	C	C	A	C	G	T	G	A	C	C
C	T	C	A	A	G	T	G	A	C	C
G	T	C	T	C	G	T	G	A	C	G
A	C	C	A	C	G	T	G	A	T	C
C	T	C	A	C	C	T	G	A	C	C
C	C	C	A	C	G	T	G	G	C	T
A	G	C	A	C	G	T	G	A	C	C
C	C	C	A	C	G	T	G	A	T	C
T	T	C	A	G	G	T	G	A	C	C
G	C	C	A	T	G	T	G	A	C	C
C	C	C	A	C	G	T	G	A	C	T
C	C	C	A	C	C	T	G	A	C	C
C	T	C	A	C	G	T	G	A	C	C
C	T	C	A	C	G	T	G	A	C	C
C	C	C	A	C	A	T	G	A	C	G
G	C	C	A	C	G	T	G	A	C	C
C	T	C	A	C	G	T	G	G	C	T
C	C	C	A	T	G	T	G	A	C	C
A	A	C	A	C	G	T	G	G	C	C
G	T	C	A	C	A	T	G	A	C	C
G	C	C	A	C	G	T	G	A	C	A
C	G	C	A	C	G	T	G	A	C	C
C	C	C	A	C	G	T	G	A	C	T
G	C	C	A	T	G	T	G	A	C	T
G	C	C	A	C	A	T	G	A	C	A
A	T	C	A	C	G	T	G	A	C	C
G	T	C	A	C	G	T	G	A	C	C
G	T	C	A	C	G	T	G	T	C	C
C	T	C	A	C	G	T	G	A	C	T
C	T	C	A	C	G	T	G	A	C	T
G	C	C	A	C	G	T	G	G	C	C
G	C	A	A	C	G	T	G	A	T	C
C	T	C	A	G	G	T	G	A	C	T
C	T	C	A	G	G	T	G	A	T	C
G	C	C	A	C	C	T	G	A	C	C
C	C	C	A	C	G	T	G	G	C	T
G	C	C	A	C	G	T	G	A	C	C
C	T	C	A	C	G	T	G	A	C	T
G	G	C	A	C	G	T	G	A	C	T
G	G	C	A	G	G	T	G	A	C	T
C	G	C	A	C	G	T	G	A	C	G
C	G	C	A	C	G	T	G	A	C	G
G	C	C	A	C	G	T	G	A	T	T
C	A	C	A	C	G	T	G	A	C	C
G	T	C	A	C	G	T	G	A	C	C
C	C	C	A	C	G	T	G	G	C	C
A	G	C	A	T	G	T	G	A	C	A
G	C	C	A	C	G	T	G	A	C	T
A	G	C	A	G	G	T	G	A	C	C
C	C	C	A	C	G	T	G	A	C	T
C	T	C	A	C	G	T	G	G	C	T
G	G	C	A	G	G	T	G	A	C	T
G	T	C	A	C	A	T	G	A	C	C
G	C	C	A	C	G	T	G	A	C	C
G	A	C	A	C	G	T	G	A	C	C
G	G	C	A	C	G	T	G	A	C	G
C	T	C	A	T	G	T	G	A	C	A
G	A	C	A	C	G	T	G	A	T	T
A	G	C	A	C	G	T	G	A	C	C
C	C	C	A	C	G	T	G	T	C	C
C	C	C	A	C	G	T	G	G	C	T
G	T	C	A	T	C	T	G	A	C	C
G	A	C	A	C	G	T	G	A	C	T
C	T	C	A	C	G	T	G	A	C	C
G	C	C	A	T	G	T	G	G	C	C
C	C	C	A	C	G	T	G	A	C	C
G	C	C	T	C	G	T	G	A	C	G
C	C	C	A	C	G	T	G	A	C	C
C	G	C	A	C	G	T	G	A	C	T
C	A	C	A	C	G	T	G	A	C	G
C	C	C	A	C	G	T	G	T	C	G
C	C	C	A	C	G	T	G	A	C	C
G	T	C	A	T	G	T	G	A	C	A
G	T	C	A	C	C	T	G	A	C	C
G	T	C	A	C	G	T	G	A	C	C
A	A	C	A	C	G	T	G	A	C	C
C	T	C	A	T	G	T	G	A	C	T
C	C	C	A	C	G	T	G	A	C	C
A	T	C	A	C	G	T	G	A	C	C
C	T	C	A	T	G	T	G	A	C	C
A	C	C	A	C	G	T	G	A	T	T
C	C	C	A	C	G	T	G	T	T	C
A	C	C	A	C	G	T	G	A	T	C
C	T	C	A	C	G	T	G	T	T	C
C	T	C	A	C	G	T	G	T	C	C
C	T	C	A	C	G	T	G	A	C	G
C	C	C	A	C	G	T	G	G	C	T
G	G	C	A	C	G	T	G	A	C	G
A	G	C	A	C	A	T	G	A	C	C
T	T	C	A	T	G	T	G	A	C	C
A	T	C	A	C	G	T	G	T	C	C
G	C	C	T	C	G	T	G	A	C	C
C	G	C	A	T	G	T	G	A	C	A
A	C	C	A	C	G	T	G	A	C	C
A	G	C	A	T	G	T	G	A	C	A
C	T	C	A	C	G	T	G	A	C	C
G	C	C	A	A	G	T	G	A	C	G
C	G	C	A	T	G	T	G	A	C	C
G	T	C	A	C	G	T	G	A	C	C
G	T	C	A	C	G	T	G	A	C	C
G	T	C	A	T	G	T	G	A	C	C
C	T	C	A	C	G	T	G	A	T	C
G	C	C	A	A	G	T	G	A	C	G
C	C	C	A	T	G	T	G	A	C	C
G	C	C	A	C	G	T	G	A	C	C
A	C	C	A	T	G	T	G	A	C	G
C	G	C	A	C	G	T	G	A	T	G
C	C	C	A	C	G	T	G	A	C	C
A	G	C	A	C	G	T	G	A	C	T
C	C	C	A	T	G	T	G	T	C	C
G	G	C	A	C	G	T	G	A	C	C
G	G	C	A	C	A	T	G	A	C	C
G	C	C	A	G	G	T	G	A	C	T
G	C	C	A	C	G	T	G	A	C	A
G	A	C	A	T	G	T	G	A	C	T
G	C	C	A	C	G	T	G	T	T	C
G	T	C	A	C	G	T	G	A	C	G
G	T	C	A	C	G	T	G	A	C	C
C	T	C	A	C	G	T	G	T	T	C
C	C	C	A	C	G	T	G	G	T	C
C	T	C	A	C	G	T	G	A	C	C
G	C	C	A	C	G	T	G	G	C	C
G	C	C	A	C	G	T	G	A	C	T
A	C	C	A	C	G	T	G	A	C	C
G	A	C	A	G	G	T	G	A	C	C
T	G	C	A	C	G	T	G	A	C	C
G	C	C	A	C	G	T	G	A	C	T
C	T	C	A	G	G	T	G	A	C	A
C	T	C	A	C	G	T	G	T	C	T
G	G	C	A	C	C	T	G	A	C	C
G	T	C	A	C	G	T	G	A	C	C
G	T	C	A	C	G	T	G	A	C	C
G	T	C	A	C	G	T	G	T	C	C
C	G	C	A	C	G	T	G	A	C	C
G	C	C	A	C	G	T	G	A	C	G
A	C	C	A	T	G	T	G	A	T	G
G	G	C	A	C	G	T	G	A	C	G
A	C	C	A	C	G	T	G	T	C	T
G	C	C	A	C	G	T	G	A	T	A
G	C	C	A	C	G	T	G	A	T	A
A	A	C	A	T	G	T	G	A	C	T
A	T	C	A	T	G	T	G	A	T	C
G	T	C	A	C	G	T	G	A	T	C
G	T	C	A	C	G	T	G	A	C	C
C	C	C	A	G	G	T	G	A	C	C
C	C	C	A	G	G	T	G	A	C	C
C	C	C	A	C	G	T	G	A	C	G
C	C	C	A	C	G	T	G	A	C	G
G	C	C	A	T	G	T	G	A	T	G
G	C	C	A	C	G	T	G	A	C	C
C	T	C	A	C	G	T	G	A	C	C
C	G	C	A	C	G	T	G	G	C	C
C	T	C	A	C	G	T	G	A	C	C
A	G	C	A	C	G	T	G	A	T	T
C	T	C	A	T	G	T	G	A	C	G
C	T	C	A	T	G	T	G	A	C	G
C	C	C	A	C	G	T	G	A	C	C
C	T	C	A	C	G	T	G	A	T	G
G	A	C	A	C	G	T	G	A	C	C
G	C	C	A	C	G	T	G	A	C	C
T	C	C	A	C	G	T	G	A	C	C
G	C	C	A	C	G	T	G	A	C	C
C	C	C	T	C	G	T	G	A	C	C
A	C	C	A	C	G	T	G	A	C	C
G	A	C	A	C	A	T	G	A	C	C
G	G	C	A	C	G	T	G	A	T	G
C	C	C	A	C	G	T	G	G	C	C
C	C	C	A	C	G	T	G	G	C	C
C	C	C	A	C	G	T	G	T	T	C
A	C	C	A	C	G	T	G	A	C	C
G	T	C	A	C	G	T	G	A	C	G
T	C	C	A	C	G	T	G	T	C	C
G	C	C	A	G	G	T	G	A	T	C
G	T	C	T	T	G	T	G	A	C	C
C	C	C	A	C	G	T	G	A	C	T
G	G	C	A	C	G	T	G	A	C	C
G	T	C	A	C	G	T	G	A	C	G
G	T	C	A	C	A	T	G	A	C	C
G	C	C	A	C	G	T	G	A	C	C
G	T	C	A	A	G	T	G	A	C	C
G	T	C	A	C	G	T	G	A	C	T
G	C	C	A	C	G	T	G	G	C	T
T	T	C	A	C	G	T	G	G	C	C
G	T	C	A	C	C	T	G	A	C	C
G	G	C	A	C	G	T	G	G	T	C
G	C	C	A	C	G	T	G	A	C	C
G	G	C	A	C	G	T	G	A	C	C
C	T	C	A	T	G	T	G	A	C	C
C	G	C	A	C	G	T	G	A	C	G
A	A	C	A	C	G	T	G	A	C	G
G	G	C	A	C	G	T	G	A	C	C
G	C	C	A	T	G	T	G	A	C	G
A	A	C	A	C	G	T	G	A	C	G
G	G	C	A	C	G	T	G	A	C	C
G	A	C	A	C	G	T	G	T	C	C
G	T	C	A	T	G	T	G	A	C	G
C	C	C	A	C	G	T	G	G	C	C
A	C	C	A	C	C	T	G	A	T	C
G	C	C	T	C	G	T	G	A	C	T
C	T	C	A	C	G	T	G	G	T	C
T	T	C	A	C	G	T	G	A	C	C
C	C	C	A	C	G	T	G	A	C	C
C	C	C	A	C	G	T	G	A	T	C
G	C	C	A	C	G	T	G	A	C	C
T	T	C	A	C	G	T	G	A	C	C
C	C	C	A	C	G	T	G	G	T	C
G	C	C	A	C	G	T	G	A	C	G
G	C	C	A	C	G	T	G	A	T	G
A	C	C	A	T	G	T	G	A	C	C
C	C	C	A	G	G	T	G	A	C	C
C	T	C	A	C	G	T	G	A	C	C
C	T	C	A	C	G	T	G	G	C	C
G	C	C	A	C	G	T	G	A	C	C
C	C	C	A	C	G	T	G	A	C	T
G	T	C	A	C	G	T	G	A	T	C
G	T	C	A	C	G	T	G	A	C	C
A	C	C	A	C	G	T	G	A	C	G
C	C	C	A	C	G	T	G	A	C	T
C	T	C	A	C	G	T	G	A	C	C
G	C	C	A	C	G	T	G	G	C	C
G	T	C	A	C	G	T	G	A	C	A
G	C	C	A	T	G	T	G	A	C	C
G	T	C	A	C	G	T	G	A	C	C
C	C	C	A	C	G	T	G	A	C	G
G	C	C	A	C	G	T	G	A	T	C
G	T	C	A	C	G	T	G	A	T	C
A	G	C	A	C	G	T	G	A	C	G
G	T	C	A	T	G	T	G	A	T	C
C	C	C	A	C	G	T	G	G	C	T
G	C	C	A	A	G	T	G	A	C	C
G	T	C	A	C	G	T	G	A	C	C
G	T	C	A	T	G	T	G	A	T	G
T	T	C	A	C	G	T	G	A	C	C
A	C	C	A	C	G	T	G	A	C	G
G	T	C	A	C	G	T	G	A	C	C
C	G	C	A	C	G	T	G	G	C	C
C	C	C	A	C	G	T	G	A	C	C
G	T	C	T	C	G	T	G	A	C	C
T	C	C	A	C	G	T	G	T	C	C
C	G	C	A	C	G	T	G	A	C	C
T	T	C	A	G	G	T	G	A	C	C
G	C	C	A	C	G	T	G	A	C	G
A	G	C	A	C	G	T	G	A	C	T
A	C	C	A	G	G	T	G	A	C	C
G	T	C	A	C	G	T	G	A	C	T
G	T	C	A	C	G	T	G	A	T	C
A	T	C	A	C	G	T	G	A	C	C
G	T	C	A	G	G	T	G	A	C	C
G	T	C	A	C	G	T	G	A	C	C
G	G	C	A	C	G	T	G	A	C	C
C	C	C	A	C	G	T	G	G	C	C
G	T	C	A	C	G	T	G	A	C	C
C	C	C	A	C	G	T	G	A	C	C
A	T	C	A	C	A	T	G	A	T	C
G	C	C	A	C	A	T	G	A	C	C
A	C	C	A	C	G	T	G	A	C	C
C	C	C	A	C	G	T	G	A	C	G
C	C	C	A	C	G	T	G	G	C	C
A	C	C	A	C	G	T	G	G	C	T
G	T	C	A	T	G	T	G	A	C	A
G	C	C	A	C	G	T	G	A	C	C
G	T	C	A	G	G	T	G	A	C	C
G	G	C	A	C	G	T	G	A	C	C
G	C	C	A	C	G	T	G	A	C	G
C	C	C	A	C	G	T	G	G	C	C
G	T	C	A	T	G	T	G	A	C	C
G	C	C	A	C	G	T	G	A	C	T
C	C	C	A	C	G	T	G	A	C	C
A	C	C	A	C	G	T	G	A	T	G
C	C	C	A	C	G	T	G	A	C	C
G	T	C	A	G	G	T	G	A	C	C
G	G	C	A	T	G	T	G	A	C	T
A	A	C	A	T	G	T	G	A	C	G
C	C	C	A	C	G	T	G	G	C	C
C	C	C	A	C	G	T	G	A	C	C
A	T	C	A	C	G	T	G	A	C	G
C	T	C	A	G	G	T	G	A	C	C
C	G	C	A	C	G	T	G	A	C	C
G	C	C	A	G	G	T	G	A	C	T
C	G	C	A	C	G	T	G	A	C	C
C	C	C	A	C	G	T	G	A	C	C
C	C	C	A	C	G	T	G	A	C	T
G	G	C	A	C	G	T	G	A	C	C
G	T	C	A	G	G	T	G	A	C	C
C	C	C	A	C	G	T	G	A	C	T
C	C	C	A	C	G	T	G	A	C	T
G	C	C	A	C	G	T	G	A	C	G
G	C	C	A	C	G	T	G	A	C	G
G	T	C	A	T	G	T	G	A	C	C
G	A	C	A	C	G	T	G	A	C	T
A	G	C	A	C	G	T	G	A	C	A
C	C	C	A	C	G	T	G	A	T	G
G	C	C	A	C	G	T	G	A	C	C
A	T	C	A	T	G	T	G	A	C	A
T	C	C	A	C	G	T	G	A	C	T
G	T	C	A	T	C	T	G	A	C	C
G	A	C	A	C	G	T	G	A	C	T
A	G	C	A	C	G	T	G	A	C	A
C	G	C	A	C	G	T	G	A	C	T
A	C	C	A	T	G	T	G	A	C	A
C	C	C	A	C	G	T	G	A	C	T
G	A	C	A	C	G	T	G	A	C	C
T	T	C	A	C	G	T	G	A	C	G
G	C	C	A	C	G	T	G	A	C	C
T	C	C	A	C	G	T	G	A	C	T
C	C	C	A	C	G	T	G	A	T	A
A	C	C	A	C	G	T	G	G	C	C
G	G	C	A	C	G	T	G	G	C	T
C	T	C	A	C	A	T	G	A	C	C
C	C	C	A	C	C	T	G	A	C	C
A	C	C	T	C	G	T	G	A	C	T
T	T	C	A	C	G	T	G	G	C	C
C	T	C	A	C	G	T	G	A	C	C
T	T	C	A	T	G	T	G	A	C	T
T	C	C	A	C	G	T	G	T	C	C
A	A	C	A	C	G	T	G	A	C	A
C	G	C	A	C	G	T	G	A	C	C
A	T	C	A	C	G	T	G	A	C	C
G	A	C	A	T	G	T	G	A	C	C
G	T	C	A	T	G	T	G	A	C	C
A	G	C	A	C	G	T	G	A	C	C
C	C	C	A	C	G	T	G	A	C	C
G	T	C	A	C	G	T	G	A	C	C
G	T	C	T	C	G	T	G	A	T	C
G	T	C	A	C	A	T	G	A	C	C
G	C	C	A	C	C	T	G	A	C	C
A	T	C	A	C	G	T	G	A	C	T
C	T	C	A	T	G	T	G	A	C	A
C	C	C	A	C	G	T	G	G	T	C
C	C	C	A	C	G	T	G	A	C	C
G	C	C	T	C	G	T	G	A	C	T
A	T	C	A	T	G	T	G	A	C	A
A	T	C	A	T	G	T	G	A	C	A
G	C	C	A	C	G	T	G	T	C	C
C	C	C	A	C	G	T	G	G	C	C
G	G	C	A	C	G	T	G	A	T	G
G	C	C	A	C	G	T	G	T	T	C
G	C	C	A	C	C	T	G	A	C	T
G	C	C	A	C	A	T	G	A	T	C
C	C	C	A	C	C	T	G	A	T	C
A	G	C	A	C	G	T	G	A	C	T
G	A	C	A	G	G	T	G	A	C	C
T	C	C	A	C	G	T	G	A	T	C
G	T	C	A	C	G	T	G	A	T	C
C	C	C	A	C	G	T	G	T	C	C
G	T	C	A	C	G	T	G	A	C	C
T	C	C	A	C	G	T	G	A	C	C
C	C	C	A	C	G	T	G	A	T	C
C	C	C	A	C	G	T	G	A	T	C
A	G	C	A	C	G	T	G	A	C	T
G	T	C	T	C	G	T	G	A	C	G
G	T	C	A	C	G	T	G	A	C	G
C	C	C	A	T	G	T	G	T	C	C
C	T	C	A	C	A	T	G	A	C	C
A	C	C	A	C	G	T	G	G	T	C
G	T	C	A	C	G	T	G	A	T	C
C	T	C	A	G	G	T	G	A	C	A
A	C	C	A	C	G	T	G	G	T	C
C	T	C	A	A	G	T	G	A	C	T
A	C	C	A	T	G	T	G	A	C	C
G	C	C	A	C	G	T	G	A	C	A
A	C	C	A	C	G	T	G	G	C	C
C	T	C	A	C	A	T	G	A	C	C
G	T	C	A	C	G	T	G	A	C	C
A	C	C	A	C	G	T	G	A	C	C
T	G	C	A	C	G	T	G	A	C	A
T	G	C	A	C	G	T	G	A	C	A
A	G	C	A	T	G	T	G	A	T	C
A	G	C	A	T	G	T	G	A	T	C
G	C	C	T	T	G	T	G	A	C	C
G	T	C	A	C	G	T	G	A	C	C
G	C	C	T	C	G	T	G	A	C	C
G	C	C	A	C	C	T	G	A	C	G
C	C	C	A	C	A	T	G	A	C	C
G	C	C	A	C	G	T	G	A	C	C
A	C	C	A	C	G	T	G	A	C	G
G	C	C	A	C	G	T	G	A	C	C
C	C	C	A	C	G	T	G	A	C	C
G	C	C	A	C	G	T	G	A	C	C
A	C	C	A	C	G	T	G	A	C	T
T	C	C	A	C	G	T	G	A	C	C
G	G	C	A	C	G	T	G	A	C	A
T	C	C	A	C	G	T	G	A	C	T
T	T	C	A	C	G	T	G	A	C	T
G	T	C	A	C	C	T	G	A	C	C
G	C	C	A	C	A	T	G	A	C	C
A	C	C	A	C	G	T	G	G	T	C
C	C	C	A	C	A	T	G	A	C	C
G	T	C	A	T	G	T	G	A	C	C
G	T	C	A	C	C	T	G	A	C	C
G	T	C	A	C	G	T	G	A	C	C
G	A	C	A	C	G	T	G	T	C	C
A	T	C	A	T	G	T	G	A	C	C
G	C	C	A	C	G	T	G	A	C	C
C	G	C	A	C	G	T	G	A	C	G
G	C	A	A	C	G	T	G	A	C	T
G	C	C	A	G	G	T	G	A	C	T
G	T	C	A	C	G	T	G	A	T	C
G	C	C	A	C	G	T	G	A	C	C
C	C	C	A	C	G	T	G	A	C	C
C	A	C	A	C	A	T	G	A	C	C
C	C	C	A	C	G	T	G	A	C	G
C	C	C	T	C	G	T	G	A	C	T
C	C	C	A	C	G	T	G	A	C	T
T	T	C	A	C	G	T	G	A	C	A
T	G	C	A	C	G	T	G	A	C	C
C	G	C	A	C	G	T	G	A	C	G
G	C	A	A	C	G	T	G	A	C	T
C	C	C	A	C	C	T	G	A	C	C
G	C	C	A	C	G	T	G	A	T	G
C	G	C	A	C	G	T	G	T	C	C
G	T	C	A	C	G	T	G	A	C	A
A	C	C	A	C	G	T	G	A	C	C
G	A	C	A	C	G	T	G	A	C	T
G	C	C	A	C	G	T	G	A	C	C
A	C	C	A	C	A	T	G	A	C	C
C	T	C	A	C	G	T	G	A	C	C
G	T	C	A	C	G	T	G	A	C	C
T	T	C	A	C	G	T	G	A	C	C
C	T	C	A	C	G	T	G	G	T	C
C	T	C	A	C	G	T	G	A	C	C
C	A	C	A	C	G	T	G	A	T	C
C	C	C	A	C	G	T	G	A	C	C
C	C	C	A	C	G	T	G	A	C	T
G	T	C	A	T	G	T	G	A	C	C
A	G	C	A	C	G	T	G	A	T	G
C	T	C	A	T	G	T	G	A	C	A
A	A	C	A	C	G	T	G	A	C	C
C	A	C	A	C	G	T	G	A	T	T
A	C	C	A	C	C	T	G	A	C	C
G	T	C	A	C	G	T	G	A	T	C
G	C	C	A	C	G	T	G	T	T	C
C	C	C	A	C	G	T	G	A	C	C
A	A	C	A	C	G	T	G	A	C	C
C	T	C	A	C	G	T	G	A	C	T
A	A	C	A	C	G	T	G	A	C	C
A	C	C	A	C	G	T	G	A	C	G
A	T	C	A	C	G	T	G	A	C	C
C	C	C	A	T	G	T	G	A	C	C
T	T	C	A	C	G	T	G	G	C	C
G	T	C	A	C	C	T	G	A	T	C
C	C	C	A	C	G	T	G	A	C	A
G	G	C	A	C	G	T	G	A	T	T
G	T	C	A	T	G	T	G	A	C	C
A	C	C	A	T	G	T	G	A	C	A
C	C	C	A	C	G	T	G	A	C	A
G	C	C	A	C	G	T	G	A	C	C
G	C	C	A	C	G	T	G	A	C	T
T	T	C	A	C	G	T	G	A	T	C
C	T	C	A	C	G	T	G	A	T	C
T	C	C	A	C	G	T	G	A	C	G
T	C	C	A	C	G	T	G	G	C	C
C	T	C	A	C	A	T	G	A	C	T
C	T	C	A	T	G	T	G	A	C	C
C	C	C	A	C	C	T	G	A	C	C
C	A	C	A	C	G	T	G	A	C	C
